Key,Name,Concepts,YoutubeCode,Download,Locale
maze_intro,Maze Intro,,bQilo5ecSX4,https://videos.code.org/new/2a-HoC-intro.mp4,en-US
artist_intro,Artist Intro,,ws8rmHcqXeM,https://videos.code.org/new/5-artist-intro.mp4,en-US
farmer_intro,Farmer Intro,,G6N67RXQ9fk,https://videos.code.org/new/9-farmer-intro.mp4,en-US
loop_times,Repeat times block,loop_times,mgooqyWMTxk,https://videos.code.org/new/2b-HoC-zuck-repeat-loop.mp4,en-US
loop_until,Repeat until block,loop_until,G2hdlhDYICw,https://videos.code.org/new/2c-HoC-Bosh-Repeat-Until.mp4,en-US
if,If block,if,m2Ux2PnJe6E,https://videos.code.org/new/2d-HoC-Bill+Gates-IF-STATEMENTS.mp4,en-US
if_else,If/else block,if_else,JtL7w6ja5iI,https://videos.code.org/new/2e-HoC-saloni-ifelse.mp4,en-US
if_else_scrat,If/else block,if_else_scrat,QM8fAy47kHc,https://videos.code.org/new/saloni-ifelse-scrat.mp4,en-US
function,Functions,function,Esp1kkKFpg0,https://videos.code.org/levelbuilder/stage_13-farmer2-functions-mp4.mp4,en-US
loop_while,While block,loop_while,F8H-41bpJ6E,https://videos.code.org/new/13_farmer2-while-block.mp4,en-US
loop_for,Counter block,loop_for,gxc9RCMvky0,https://videos.code.org/new/11-artist3-counter-loops.mp4,en-US
parameters,Functions with parameters,parameters,w6T7nynqRpw,https://videos.code.org/new/15-artist4-function-w-parameters.mp4,en-US
hoc_wrapup,HoC wrapup,,98Wft30gUQE,https://videos.code.org/new/2f-HoC-wrap-up-final.mp4,en-US
flappy_intro,Flappy Intro,,VQ4lo6Huylc,https://videos.code.org/new/Flappy-bird-tutorial.mp4,en-US
Unplug1,,,HsXaVV6fFDY,https://videos.code.org/new/1-whatisCS-unpluggedactivity.mp4,en-US
Unplug2,,,injJWiSA0pw,https://videos.code.org/new/3-computational-thinking-activity.mp4,en-US
Unplug3,,,4e3fi_ls8CA,https://videos.code.org/new/4-graphpaperprog-activity.mp4,en-US
Unplug4,,,gW_aPXjgBTc,https://videos.code.org/new/6-Algorithms-activity.mp4,en-US
Unplug5,,,NAViNTHS3LU,https://videos.code.org/new/8-functions-activity.mp4,en-US
Unplug6,,,yr6g0AWE7yw,https://videos.code.org/new/10-conditionals-activity.mp4,en-US
Unplug7,,,hx0tBso08aA,https://videos.code.org/new/12-songwriting-activity.mp4,en-US
Unplug8,,,FGpzpYD9ZVs,https://videos.code.org/new/14-abstraction-activity.mp4,en-US
Unplug9,,,FFpvtooUrzg,https://videos.code.org/new/16-relay-programming-activity.mp4,en-US
Unplug10,,,Zs26JgnWbTE,https://videos.code.org/new/18-internet-activity.mp4,en-US
Unplug11,,,Rbi7keldjZY,https://videos.code.org/new/20-wrapup-activity.mp4,en-US
C1_happy_maps_unplugged,,,hrnhiKAQ1_k,https://videos.code.org/2014/C1-happy-maps-unplugged.mp4,en-US
C1_moveitmoveit_unplugged,,,VGi2bnRFqzM,https://videos.code.org/2014/C1-moveitmoveit-unplugged.mp4,en-US
C1_bigevent_unplugged,,,XoApWo-IrI4,https://s3.amazonaws.com/videos.code.org/csf/the-big-event.mp4,en-US
C1_getting_loopy,,,JoKTqHCni0M,https://videos.code.org/2014/C1-getting-loopy.mp4,en-US
C1_pair_programming,,,vgkahOzFH2Q,https://videos.code.org/2014/C1-pair-programming.mp4,en-US
C1_maze_intro_sequencing,,,7gvqTj4V9o0,https://videos.code.org/2014/C1-maze-intro-sequencing.mp4,en-US
C1_maze_debugging,,,OgaACt4owHc,https://videos.code.org/2014/C1-maze-debugging.mp4,en-US
C1_bee_level_intro,,,Zy-3MzjbgKg,https://videos.code.org/2014/C1-bee-level-intro.mp4,en-US
C1_artist_intro,,,wU9tJc-GigA,https://videos.code.org/2014/C1-artist-intro.mp4,en-US
C1_spelling_bee_intro,,,Zw9dujVZoNE,https://videos.code.org/2014/C1-spelling-bee-intro.mp4,en-US
C1_zuck_repeat_loop,,,Xnv8qkbAYTw,https://videos.code.org/2014/C1-zuck-repeat-loop.mp4,en-US
C1_bee_loops,,,sMcUY5sywQM,https://videos.code.org/2014/C1-bee-loops.mp4,en-US
C1_maze_loops,,,tObb9pgtHNA,https://videos.code.org/2014/C1-maze-loops.mp4,en-US
C1_playlab_storytelling,,,UiqxwSJgrsg,https://videos.code.org/2014/C1-playlab-storytelling.mp4,en-US
C1_planting_seed,,,FHsuEh1kJ18,https://videos.code.org/2014/C1-planting-seed.mp4,en-US
C1_building_foundation,,,eZqKqI8AvnA,https://videos.code.org/2014/C1-building-foundation.mp4,en-US
C1_going_places_safely,,,vUO7t92k4Xg,https://videos.code.org/2014/C1-going-places-safely.mp4,en-US
C2_maze_intro,,,h7NtxHTrqgU,https://videos.code.org/2014/C2-maze-intro.mp4,en-US
C2_artist_intro,,,MUavAHn-QUg,https://videos.code.org/2014/C2-artist-intro.mp4,en-US
C2_zuck_repeat_loop,,,mgooqyWMTxk,https://videos.code.org/2015/course2/2b-HoC-zuck-repeat-loop-hd.mp4,en-US
C2_bee_conditionals,,,g8BQLKnrj2U,https://videos.code.org/2014/C2-bee-conditionals.mp4,en-US
C2_playlab_createstory,,,GVl6cLxMmTs,https://videos.code.org/2014/C2-playlab-createstory.mp4,en-US
C2_artist_loops,,,SRsuaRlsdl4,https://videos.code.org/2014/C2-artist-loops.mp4,en-US
C2_bee_loops,,,4W9TAxGJyyU,https://videos.code.org/2014/C2-bee-loops.mp4,en-US
C2_bee_debugging,,,g9lQgtcHGRg,https://videos.code.org/2014/C2-bee-debugging.mp4,en-US
C2_artist_debugging,,,ILgKunIAdqM,https://videos.code.org/2014/C2-artist-debugging.mp4,en-US
C2_graph_paper,,,Y_paSrH2ffw,https://videos.code.org/2014/C2-graph-paper.mp4,en-US
C2_conditionals_with_cards,,,UymN4lTL50s,https://videos.code.org/2014/C2-conditionals-with-cards.mp4,en-US
C2_binary_bracelets,,,3S2YfoO4_CM,https://videos.code.org/2014/C2-binary-bracelets.mp4,en-US
C2_paper_airplanes,,,AWqo8Gxtrjs,https://videos.code.org/2014/C2-paper-airplanes.mp4,en-US
C2_relay_programming,,,l5MKkXbzOsk,https://videos.code.org/2014/C2-relay-programming.mp4,en-US
C2_digital_footprint,,,rgbZAWnOWOo,https://videos.code.org/2014/C2-digital-footprint.mp4,en-US
C2_digital_footprint_v2,,,4P_gj3oRn8s,https://videos.code.org/2014/C2-digital-footprint-v2.mp4,en-US
C3_playlab_create_game,,,GVl6cLxMmTs,https://videos.code.org/2014/C3-playlab-create-game.mp4,en-US
C3_bounce,,,sWFLt8DSx08,https://videos.code.org/2014/C3-bounce.mp4,en-US
C3_bee_debugging,,,g9lQgtcHGRg,https://videos.code.org/2014/C3-bee-debugging.mp4,en-US
C3_bee_nested_loops,,,PuO6y8f1HGg,https://videos.code.org/2014/C3-bee-nested-loops.mp4,en-US
C3_farmer_while,,,F8H-41bpJ6E,https://videos.code.org/2014/C3-farmer-while.mp4,en-US
C3_artist_nested_loops,,,zRwifFUFJC8,https://videos.code.org/2015/course4/C4-artist-nested-loops-2015_720.mp4,en-US
C3_maze_conditionals,,,m2Ux2PnJe6E,https://videos.code.org/2014/C3-maze-conditionals.mp4,en-US
C3_bee_conditionals,,,g8BQLKnrj2U,https://videos.code.org/2014/C3-bee-conditionals.mp4,en-US
C3_bee_functions,,,xjrDRrxWvoc,https://videos.code.org/2014/C3-bee-functions.mp4,en-US
C3_artist_functions,,,6pLMiODz-DY,https://videos.code.org/2014/C3-artist-functions.mp4,en-US
C3_artist_intro,,,MUavAHn-QUg,https://videos.code.org/2014/C3-artist-intro.mp4,en-US
C3_maze_level_4,,,7ZFb9BrjHt8,https://videos.code.org/2014/C3-maze-level-4.mp4,en-US
C3_computational_thinking,,,TlAaklrolA0,https://videos.code.org/2014/C3-computational-thinking.mp4,en-US
C3_dice_race,,,wQpgBCKivAs,https://videos.code.org/2014/C3-dice-race.mp4,en-US
C3_internet,,,mFOUbqYv1Sc,https://videos.code.org/2014/C3-internet.mp4,en-US
C3_crowdsourcing,,,IqZMnfxqEfY,https://videos.code.org/2014/C3-crowdsourcing.mp4,en-US
C3_functional_suncatchers,,,d1MdyeXy0v0,https://videos.code.org/2014/C3-functional-suncatchers.mp4,en-US
C3_songwriting_with_parameters,,,5iDCKkI6y2Y,https://videos.code.org/2014/C3-songwriting-with-parameters.mp4,en-US
C4_intro,,,h7NtxHTrqgU,https://videos.code.org/2014/C4-intro.mp4,en-US
C4_bee_conditional,,,rY-orPefe8I,https://videos.code.org/2014/C4-bee-conditional.mp4,en-US
C4_conditionals,,,8BaTjib4UEM,https://videos.code.org/2014/C4-conditionals.mp4,en-US
C4_variables_artist,,,_MkLbhIuvAM,https://videos.code.org/2015/course4/c4-var-Artist-olga%2BTanya-2015-720.mp4,en-US
C4_variables_playlab,,,xPlGz7WPYH4,https://videos.code.org/2015/course4/C4-variables-playlab.mp4,en-US
C4_for_loops,,,MAukAy9m9Sg,https://videos.code.org/2014/C4-for-loops.mp4,en-US
C4_for_loops_bee,,,MZqrhK9av3M,https://videos.code.org/2014/C4-for-loops-w-bee.mp4,en-US
C4_for_loops_no_bee,,,AIlCLjjm8M0,https://videos.code.org/levelbuilder/course-4_-intro-to-for-loops-mp4.mp4,en-US
C4_math_artist,,,BGeT8IyKd2M,https://videos.code.org/2014/C4-math-artist.mp4,en-US
C4_function_edit,,,EoUnJB_BVLc,https://videos.code.org/2014/C4-function-edit.mp4,en-US
C4_function_create,,,28Huilta-20,https://videos.code.org/2014/C4-function-create.mp4,en-US
C4_function_parameters,,,e9qjXKaeDHg,https://videos.code.org/2014/C4-function-parameters.mp4,en-US
C4_unplugged_algorithms,,,xZlKyTwQZv8,https://videos.code.org/2014/C4-unplugged-algorithms.mp4,en-US
C4_unplugged_madlibs,,,TctGRrUdkcc,https://videos.code.org/2014/C4-unplugged-madlibs.mp4,en-US
C4_unplugged_variables,,,DI7DprN4FtE,https://videos.code.org/levelbuilder/c4-variables-in-envelopes-jie-2015_720-mp4.mp4,en-US
C4_unplugged_forloops,,,mX857v5B4gE,https://videos.code.org/2014/C4-unplugged-forloops.mp4,en-US
C4_unplugged_parameters,,,28ujn3adHBA,https://videos.code.org/2014/C4-unplugged-parameters.mp4,en-US
C4_unplugged_binary,,,dzHlZV53VfY,https://videos.code.org/2014/C4-unplugged-binary.mp4,en-US
C4_loops_zombie,,,7ZFb9BrjHt8,https://videos.code.org/2014/C4-loops-zombie.mp4,en-US
CSF_a_b_artist_loops,,,lh8uOEK4-qM,https://videos.code.org/csf/a-b-artist-loops.mp4,en-US
CSF_artist_angles,,,sPKXZBL_Yvs,https://videos.code.org/csf/artist-angles.mp4,en-US
CSF_collector_k1_blocks,,,oBiYuD1dDDI,https://videos.code.org/csf/collector-arrow-blocks.mp4,en-US
CSF_collector_repeat_loops,,,CDBVQAWB2tM,https://videos.code.org/csf/collector-repeat-loops.mp4,en-US
CSF_collector_text_blocks,,,_hUFPk3qA78,https://videos.code.org/levelbuilder/the-collector-course-c-f-mp4.mp4,en-US
CSF_create_functions,,,hEsqGN7yNbw,https://videos.code.org/csf/create-functions.mp4,en-US
CSF_debugging_k1_blocks,,,AtbqIF4gOb8,https://videos.code.org/csf/debugging-k1-blocks.mp4,en-US
CSF_debugging_text_blocks,,,RUZTRNakV9c,https://videos.code.org/csf/debugging-text-blocks.mp4,en-US
CSF_EF_cs_matters,,,_IiPLtP-jm8,https://videos.code.org/csf/cs_matters.mp4,en-US
CSF_maze_intro_k1_blocks,,,4N0R16Y97l0,https://videos.code.org/csf/maze-intro-k1-blocks.mp4,en-US
CSF_maze_intro_text_blocks,,,uBZpd6zGVFI,https://videos.code.org/csf/maze-intro.mp4,en-US
CSF_my_robotic_friends,,,xaW3PAzHxCU,https://videos.code.org/csf/my-robotic-friends-activity.mp4,en-US
CSF_stevie_big_project,,,cybBscJ3G8c,https://videos.code.org/csf/stevie.mp4,en-US
CSF_unspotted_bugs,,,S8qub6aPysM,https://videos.code.org/csf/unspotted-bugs.mp4,en-US
CSF_zuck_loops_short,,,hYvcoRkAkOU,https://videos.code.org/csf/zuck-repeat-loops.mp4,en-US
CSF_Power_of_Words,,,8rOnMl26dR8,https://videos.code.org/csf/Power_of_Words_2017.mp4,en-US
CSF_Super_Digital_Citizen,,,S7A2n1c3UiA,https://videos.code.org/csf/Super_Digital_Citizen_2017.mp4,en-US
frozen_intro,Artist Intro frozen_intro,,H1-paxNG4kw,https://videos.code.org/2014/Frozen-intro.mp4,en-US
frozen_loops,Repeat times block,frozen_loops,d7e48cYq7uc,https://videos.code.org/2014/Frozen-loops.mp4,en-US
frozen_functions,Functions,frozen_functions,gm3GPfUq0Wg,https://videos.code.org/2014/Frozen-functions.mp4,en-US
playlab_intro,,,c-Qz1mc3A-I,https://videos.code.org/2014/playlab-intro.mp4,en-US
playlab_events,,,rBE7MTMMspA,https://videos.code.org/2014/playlab-events.mp4,en-US
playlab_repeat_forever,,,37OflfzlNeE,https://videos.code.org/2014/playlab-repeat-forever.mp4,en-US
tutorial_puzzle_challenge,,,_l68chtl1co,https://videos.code.org/2014/tutorial-puzzle-challenge.mp4,en-US
infinity_playlab_intro,,,vQGOfhsb76o,https://videos.code.org/2015/infinityplaylab/infinity-playlab-intro.mp4,en-US
infinity_playlab_events,,,HcljJx_0Elw,https://videos.code.org/2015/infinityplaylab/infinity-playlab-events.mp4,en-US
infinity_playlab_repeat_forever,,,Ldj1-kEa9nA,https://videos.code.org/2015/infinityplaylab/infinity-playlab-repeat-forever.mp4,en-US
csd_concept_how_computers_work,,,OAx_6-wdslM,https://videos.code.org/cs-discoveries/concept/01_HowComputersWork_sm.mp4,en-US
csd_concept_computer,,,mCq8-xTH7jA,https://videos.code.org/cs-discoveries/concept/02_WhatMakesAComputer_sm.mp4,en-US
csd_concept_binary_data,,,USCBCmwMCDA,https://videos.code.org/cs-discoveries/concept/03_BinaryData_sm.mp4,en-US
csd_concept_circuits_logic,,,ZoqMiFKspAA,https://videos.code.org/cs-discoveries/concept/04_CircuitsLogic_sm.mp4,en-US
csd_concept_memory_cpu_input_output,,,DKGZlaPlVLY,https://videos.code.org/cs-discoveries/concept/05_CPUMemoryIO_sm.mp4,en-US
csd_concept_hardware_software,,,xnyFYiK2rSY,https://videos.code.org/cs-discoveries/concept/06_HardwareSoftware_sm.mp4,en-US
csd_concept_search,,,LVV_93mBfSU,https://videos.code.org/cs-discoveries/concept/how_search_works.mp4,en-US
csd_external_amazon_data,,,S4RL6prqtGQ,https://videos.code.org/cs-discoveries/concept/amazon_data.mp4,en-US
csd_external_netflix_data,,,hqFHAnkSP2U,https://videos.code.org/cs-discoveries/concept/netflix_data.mp4,en-US
csd_external_waze_data,,,Uu-uTo_ma9c,https://videos.code.org/cs-discoveries/concept/waze_data.mp4,en-US
csd_gamelab_animation_tab,,,BrkREtPb0J4,https://videos.code.org/levelbuilder/sprite-animations-mp4.mp4,en-US
csd_gamelab_conditionals_1,,,D5fSbCKobko,https://videos.code.org/cs-discoveries/gamelab/gamelab_conditionals_1.mp4,en-US
csd_gamelab_conditionals_2,,,V_0ru3RBq08,https://videos.code.org/cs-discoveries/gamelab/gamelab_conditionals_2.mp4,en-US
csd_gamelab_draw_1,,,PXn9gKiKKFo,https://videos.code.org/levelbuilder/gamelab_introtodrawing-mp4.mp4,en-US
csd_gamelab_draw_2,,,QLabeWhw_O0,https://videos.code.org/levelbuilder/gamelab_addingcolors-mp4.mp4,en-US
csd_gamelab_drawloop,,,G6QJeuHhqCM,https://videos.code.org/levelbuilder/gamelab_draw-loop-mp4.mp4,en-US
csd_gamelab_sprites_1,,,96iGNtAp9J4,https://videos.code.org/levelbuilder/introduction-to-sprites-mp4.mp4,en-US
csd_gamelab_sprites_2,,,G666sFzAg5g,https://videos.code.org/levelbuilder/gamelab_animatingwithsprites-mp4.mp4,en-US
csd_gamelab_variables_1,,,UG7Q1Sr0_F0,https://videos.code.org/cs-discoveries/gamelab/gamelab_variables_1.mp4,en-US
csd_gamelab_variables_2,,,luR8Al5CjEw,https://videos.code.org/cs-discoveries/gamelab/gamelab_variables_2.mp4,en-US
csd_gamelab_velocity,,,zcP94yMYqrI,https://videos.code.org/levelbuilder/gamelab_velocity-mp4.mp4,en-US
csd_weblab_intro_1,,,itx0RYOnoBs,https://videos.code.org/levelbuilder/weblab_introtoweblab-mp4.mp4,en-US
csd_weblab_intro_2,,,Hjl6gbg9kmk,https://videos.code.org/levelbuilder/weblab_introtohtml-mp4.mp4,en-US
csd_weblab_intro_3,,,2qcIlRtdpgE,https://videos.code.org/levelbuilder/weblab_publishingyourwebsite-mp4.mp4,en-US
csd_weblab_css_1,,,EP9QMdoXvXE,https://videos.code.org/levelbuilder/weblab_introtocss-mp4.mp4,en-US
csd_weblab_css_2,,,VgBVKlpLqsE,https://videos.code.org/levelbuilder/weblab_usingastylesheet-mp4.mp4,en-US
csp_applab_objects,,,ZunUF_WGMb4,https://videos.code.org/2015/csp/applab/intro-to-objects.mp4,en-US
csp_applab_databases_1,,,d8ByCh-BouQ,https://videos.code.org/2015/csp/applab/databases_intro_1_create.mp4,en-US
csp_applab_databases_2,,,RZlHfbtO2C4,https://videos.code.org/2015/csp/applab/databases_intro_2_dataviewer.mp4,en-US
csp_applab_processing_lists,,,RQ6GJt9f2vg,https://videos.code.org/2015/csp/applab/processing_lists.mp4,en-US
csp_applab_lists_1,,,n1exiRH00x0,https://videos.code.org/2015/csp/applab/lists_intro_1.mp4,en-US
csp_applab_lists_2,,,TL0Y_GI4NZg,https://videos.code.org/2015/csp/applab/lists_intro_2.mp4,en-US
csp_applab_lists_3,,,rWSsVSMGXXY,https://videos.code.org/2015/csp/applab/lists_intro_3.mp4,en-US
csp_applab_lists_4,,,H__zi1BiXJM,https://videos.code.org/2015/csp/applab/lists_intro_4.mp4,en-US
csp_applab_conditionals_1,,,y3rCKJNOwpA,https://videos.code.org/2015/csp/applab/conditionals_1.mp4,en-US
csp_applab_conditionals_2,,,UDi7xgIIW8E,https://videos.code.org/2015/csp/applab/conditionals_2.mp4,en-US
csp_applab_conditionals_2A,,,0oG3Wck2fRU,https://videos.code.org/2015/csp/applab/conditionals_2A.mp4,en-US
csp_applab_conditionals_2B,,,ZIL_3YRD14s,https://videos.code.org/2015/csp/applab/conditionals_2B.mp4,en-US
csp_applab_conditionals_2C,,,aFssCTE5hs8,https://videos.code.org/2015/csp/applab/conditionals_2C.mp4,en-US
csp_applab_conditionals_3,,,kyFdniI-ZZs,https://videos.code.org/2015/csp/applab/conditionals_3.mp4,en-US
csp_applab_design,,,-EoTeD4mSNU,https://videos.code.org/2015/csp/applab/design.mp4,en-US
csp_applab_variables_1,,,G41G_PEWFjE,https://videos.code.org/2015/csp/applab/variables_1.mp4,en-US
csp_applab_variables_2,,,ijjVDBPwA1o,https://videos.code.org/2015/csp/applab/variables_2.mp4,en-US
csp_applab_functions,,,yPWQfa4CHbw,https://videos.code.org/2015/csp/applab/functions.mp4,en-US
csp_applab_functions_parameters,,,k7Ji1E97-V0,https://videos.code.org/2015/csp/applab/functions_parameters.mp4,en-US
csp_applab_loops,,,G8hfAk4PfOM,https://videos.code.org/2015/csp/applab/loops.mp4,en-US
csp_applab_turtle,,,i2KHYUhtOlM,https://videos.code.org/2015/csp/applab/turtle.mp4,en-US
csp_concept_bigdata_medicine,,,bMrDHtGHFR4,https://videos.code.org/2015/csp/concept_bigdata_medicine.mp4,en-US
csp_concept_cybercrime,,,AuYNXgO_f3Y,https://videos.code.org/2015/csp/concept_cybercrime.mp4,en-US
csp_concept_encryption,,,ZghMPWGXexs,https://videos.code.org/2015/csp/concept_encryption.mp4,en-US
csp_concept_http_html,,,kBXQZMmiA4s,https://videos.code.org/2015/csp/concept_http_html.mp4,en-US
csp_concept_what_is_internet,,,Dxcc6ycZ73M,https://videos.code.org/2015/csp/what_is_the_internet.mp4,en-US
csp_concept_internet_ip_dns,,,5o8CwafCxnU,https://videos.code.org/2015/csp/concept_internet_ip_dns.mp4,en-US
csp_concept_internet_packets_reliability,,,AYdF7b3nMto,https://videos.code.org/2015/csp/concept_internet_packets_reliability.mp4,en-US
csp_concept_internet_wires_cables_wifi,,,ZhEf7e4kopM,https://videos.code.org/2015/csp/concept_internet_wires_cables_wifi.mp4,en-US
csp_concept_rgb,,,15aqFQQVBWU,https://videos.code.org/2015/csp/concept_rgb.mp4,en-US
csp_cs_is_changing_everything,,,QvyTEx1wyOY,https://videos.code.org/2015/csp/cs_is_changing_everything.mp4,en-US
csp_pixelation_color_1,,,763E3_Z6Hng,https://videos.code.org/2015/csp/pixelation_color_1.mp4,en-US
csp_pixelation_color_2,,,xK9z51Tin4E,https://videos.code.org/2015/csp/pixelation_color_2.mp4,en-US
csp_pixelation_color_3,,,Xhqz3ffGm74,https://videos.code.org/2015/csp/pixelation_color_3.mp4,en-US
csp_pixelation_bw,,,rJOa5Q5a1WM,https://videos.code.org/2015/csp/pixelation_bw.mp4,en-US
csp_U1L14_tipstricks,,,yWrmxQSnmPc,https://videos.code.org/2015/csp/U1L14_tipstricks.mp4,en-US
csp_textcompression,,,g0IDJjdBKw4,https://videos.code.org/2015/csp/textcompression.mp4,en-US
csp_textcompression_new,,,LCGkcn1f-ms,https://videos.code.org/2015/csp/textcompression_blacc.mp4,en-US
csp_internetsimulator_1,,,Kn6Fd5uwZno,https://videos.code.org/2015/csp/internetsimulator_1.mp4,en-US
csp_internetsimulator_2,,,cIk2R0QuXkI,https://videos.code.org/2015/csp/internetsimulator_2.mp4,en-US
csp_internetsimulator_3,,,x_YTEBRnR1U,https://videos.code.org/2015/csp/internetsimulator_3.mp4,en-US
alg_1_intro,,,SlLr2rj4eBo,https://videos.code.org/2015/algebra/alg-1-intro.mp4,en-US
alg_2_eval_block,,,UU58FyCUin4,https://videos.code.org/2015/algebra/alg-2-eval-block.mp4,en-US
alg_3_pemdas,,,ycgedpCoIr4,https://videos.code.org/2015/algebra/alg-3-pemdas.mp4,en-US
alg_4_data_types,,,GD5ZrNcGeD0,https://videos.code.org/2015/algebra/alg-4-data-types.mp4,en-US
alg_5_contracts,,,X8L259cdfns,https://videos.code.org/2015/algebra/alg-5-contracts.mp4,en-US
alg_6_variables,,,oyxs4zKEdvU,https://videos.code.org/2015/algebra/alg-6-variables.mp4,en-US
alg_7_function,,,wBh7dOcw02M,https://videos.code.org/2015/algebra/alg-7-function.mp4,en-US
alg_8_design_recipe,,,0iybPiGep4w,https://videos.code.org/2015/algebra/alg-8-design-recipe.mp4,en-US
alg_9_booleans,,,jIAaneZSSkY,https://videos.code.org/2015/algebra/alg-9-booleans.mp4,en-US
alg_10_conditionals,,,zloUEeHfvlI,https://videos.code.org/2015/algebra/alg-10-conditionals.mp4,en-US
alg_11_coordinate_plane,,,VlJq9mAXx1c,https://videos.code.org/2015/algebra/alg-11-coordinate-plane.mp4,en-US
alg_12_biggame_variables,,,gfzRVChNDcI,https://videos.code.org/2015/algebra/alg-12-biggame-variables.mp4,en-US
alg_13_biggame_animation,,,fCLLlwcluy4,https://videos.code.org/2015/algebra/alg-13-biggame-animation.mp4,en-US
alg_14_biggame_booleans,,,ksxOA3V9npA,https://videos.code.org/2015/algebra/alg-14-biggame-booleans.mp4,en-US
alg_15_biggame_update_player,,,Ll_uL6Lj2QI,https://videos.code.org/2015/algebra/alg-15-biggame-update-player.mp4,en-US
alg_16_biggame_collision_detection,,,DLoJmKZg9gM,https://videos.code.org/2015/algebra/alg-16-biggame-collision-detection.mp4,en-US
alg_17_sambat_compound_booleans,,,rvM4dCPqz6U,https://videos.code.org/2015/algebra/alg-17-sambat-compound-booleans.mp4,en-US
starwars_intro,,,vNjiHkQQl6A,https://videos.code.org/2015/starwars/starwars_intro.mp4,en-US
starwars_typing,,,gtf47Ahz5E0,https://videos.code.org/2015/starwars/starwars_typing.mp4,en-US
starwars_events,,,olgJSxyeUwQ,https://videos.code.org/2015/starwars/starwars_events.mp4,en-US
starwars_congrats,,,htDHOInxcLI,https://videos.code.org/2015/starwars/starwars_congrats.mp4,en-US
starwars_blocks_intro,,,v7jSy_yE9U0,https://videos.code.org/2015/starwars/starwars_blocks_intro.mp4,en-US
starwars_blocks_events,,,O_O1wslVa7c,https://videos.code.org/2015/starwars/starwars_blocks_events.mp4,en-US
starwars_blocks_congrats,,,SdUx9wHhWL8,https://videos.code.org/2015/starwars/starwars_blocks_congrats.mp4,en-US
mc_intro,,,55jADN4Y7Pg,https://videos.code.org/2015/mc/mc_intro.mp4,en-US
mc_repeat,,,_X3FPKyVV1g,https://videos.code.org/2015/mc/mc_repeat.mp4,en-US
mc_if_statements,,,WXIbLnIX5Rw,https://videos.code.org/2015/mc/mc_if_statements.mp4,en-US
mc_congrats_share,,,RGQUVwcwKns,https://videos.code.org/2015/mc/mc_share.mp4,en-US
mc_congrats_no_share,,,u2jV-9RCAYo,https://videos.code.org/2015/mc/mc_no_share.mp4,en-US
gumball_intro,,,0QQVL8oKEaA,https://videos.code.org/gumball/gumball-intro.mp4,en-US
gumball_events,,,6_H84scLz5g,https://videos.code.org/gumball/gumball-events.mp4,en-US
gumball_repeat,,,Dm8AL84e11w,https://videos.code.org/gumball/gumball-repeat.mp4,en-US
iceage_intro,,,ap_5Ft3KocU,https://videos.code.org/iceage/iceage-intro.mp4,en-US
iceage_events,,,7o6ABVPc2Wg,https://videos.code.org/iceage/iceage-events.mp4,en-US
iceage_repeat,,,TMyUA9Julzg,https://videos.code.org/iceage/iceage-repeat.mp4,en-US
mc_2016_intro,,,Fzwa6Pm03Zk,https://videos.code.org/minecraft/2016-introduction.mp4,en-US
mc_2016_loops,,,sLYfDCl9JWA,https://videos.code.org/minecraft/2016-loops.mp4,en-US
mc_2016_events,,,4eL3v0-FMkA,https://videos.code.org/minecraft/2016-events.mp4,en-US
mc_2016_spawn,,,2N02R1LUyKI,https://videos.code.org/minecraft/2016-spawning.mp4,en-US
mc_2016_congrats,,,xn2dCH1uAVI,https://videos.code.org/minecraft/2016-congratulations.mp4,en-US
applab_hoc_welcome,,,JbSYmid22ag,https://videos.code.org/applab-hoc/applab-hoc-welcome.mp4,en-US
applab_hoc_setproperty,,,w5Bj6VsvbuQ,https://videos.code.org/applab-hoc/applab-hoc-setproperty.mp4,en-US
applab_hoc_onevent,,,T9encAJTgVc,https://videos.code.org/applab-hoc/applab-hoc-onevent.mp4,en-US
applab_hoc_designmode,,,HayqnBNJbW8,https://videos.code.org/applab-hoc/applab-hoc-designmode.mp4,en-US
applab_hoc_share,,,-PWUnmlSgJE,https://videos.code.org/applab-hoc/applab-hoc-share.mp4,en-US
mc_2017_agent_intro,,,vD0cVvXEKdo,https://videos.code.org/minecraft/2017-welcome.mp4,en-US
mc_2017_repeat,,,uDouqRBBwYM,https://videos.code.org/minecraft/2017-loops.mp4,en-US
mc_2017_functions,,,iBmzp4a_2N4,https://videos.code.org/minecraft/2017-functions.mp4,en-US
mc_2017_puzzle_1,,,XCvAHEdZpr4,https://videos.code.org/minecraft/2017-puzzle-1.mp4,en-US
mc_2017_puzzle_3,,,LK33dS7Xuds,https://videos.code.org/minecraft/2017-puzzle-3.mp4,en-US
mc_2017_puzzle_8,,,c8IgZTYu-uY,https://videos.code.org/minecraft/2017-puzzle-8.mp4,en-US
mc_2017_puzzle_12,,,VWkAo6qd42c,https://videos.code.org/minecraft/2017-puzzle-12.mp4,en-US
mc_2017_congratulations,,,asOQzfBC0Yk,https://videos.code.org/minecraft/2017-congratulations.mp4,en-US
hint_videos_d_11_3_first,,,w3DttZHhS6s,https://videos.code.org/hint-videos/D.11.3_first.mp4,en-US
hint_videos_d_11_3_last,,,ks2FGuuu-MY,https://videos.code.org/hint-videos/D.11.3_last.mp4,en-US
hint_videos_d_11_4_first,,,Lubm2FG7900,https://videos.code.org/hint-videos/D.11.4_first.mp4,en-US
hint_videos_d_11_4_last,,,sbAzANjfhb4,https://videos.code.org/hint-videos/D.11.4_last.mp4,en-US
hint_videos_d_11_5_first,,,F1z_5Ra5YmM,https://videos.code.org/hint-videos/D.11.5_first.mp4,en-US
hint_videos_d_11_5_last,,,cDso5QXnLb4,https://videos.code.org/hint-videos/D.11.5_last.mp4,en-US
hint_videos_d_11_6_first,,,K5kwBKftJjQ,https://videos.code.org/hint-videos/D.11.6_first.mp4,en-US
hint_videos_d_11_6_last,,,_DV13l7lmYA,https://videos.code.org/hint-videos/D.11.6_last.mp4,en-US
hint_videos_d_11_7_first,,,XMXPb-BAPD4,https://videos.code.org/hint-videos/D.11.7_first.mp4,en-US
hint_videos_d_11_7_last,,,9sK_GXTvwu0,https://videos.code.org/hint-videos/D.11.7_last.mp4,en-US
hint_videos_d_11_9_first,,,VixN_06pF0g,https://videos.code.org/hint-videos/D.11.9_first.mp4,en-US
hint_videos_d_11_9_last,,,nW-pNmqMIM0,https://videos.code.org/hint-videos/D.11.9_last.mp4,en-US
hint_videos_d_11_11_first,,,VQIS_K4QfFY,https://videos.code.org/hint-videos/D.11.11_first.mp4,en-US
hint_videos_d_11_11_last,,,PXuGg4Plz0w,https://videos.code.org/hint-videos/D.11.11_last.mp4,en-US
applab_intro_welcome,,,wAuYr1IntQs,https://videos.code.org/applab-hoc/applab-intro-gettingstarted.mp4,en-US
applab_intro_events,,,fypSGGZZfzM,https://videos.code.org/applab-hoc/applab-intro-events.mp4,en-US
applab_intro_sounds,,,SGQayvro64w,https://videos.code.org/applab-hoc/applab-intro_imagesandsounds.mp4,en-US
applab_intro_designmode,,,ILtK0xEsoPs,https://videos.code.org/applab-hoc/applab-intro-designmode.mp4,en-US
applab_intro_share,,,EWWXjOI8MNE,https://videos.code.org/applab-hoc/applab-intro-share.mp4,en-US
csd_applab_arrays,,,seBDTeZmb-k,https://videos.code.org/cs-discoveries/applab/applab_arrays.mp4,en-US
CSF_skinOverview_Harvester,,,Ns8GMU6Y_C8,https://videos.code.org/csf/harvester.mp4,en-US
CSF_bb8_skinOverview_C-F,,,SJgje3OuTJY,https://s3.amazonaws.com/videos.code.org/csf/BB-8_2-5.mp4,en-US
CSF_bb8_skinOverview_K-1,,,G8ZOXOOYcCQ,https://s3.amazonaws.com/videos.code.org/csf/BB-8_K-1.mp4,en-US
CSF_bb8_loops_C-F,,,sDg32zIlHrM,https://s3.amazonaws.com/videos.code.org/csf/BB-8_repeat.mp4,en-US
CSF_harvester_skinOverview_K-1,,,k74wMtOEUWo,https://s3.amazonaws.com/videos.code.org/csf/Harvester_K1.mp4,en-US
CSF_harvester_loops_K1,,,reYUq-IhVD8,https://s3.amazonaws.com/videos.code.org/csf/HarvesterLoops_K1.mp4,en-US
CSF_scrat_loops_K1,,,9xQmtTzuCEk,https://s3.amazonaws.com/videos.code.org/csf/ScratRepeat_K1.mp4,en-US
CSF_scrat_loops_CF,,,ZGHtw3gjNB0,https://s3.amazonaws.com/videos.code.org/csf/Scrat_Repeat_2-5.mp4,en-US
CSF_if_allskins,,,KpMTXwlU270,https://videos.code.org/levelbuilder/conditionals_1_sm-mp4.mp4,en-US
CSF_ifelse_allskins,,,sO4UYCbTxxo,https://videos.code.org/levelbuilder/conditionals_12_sm-mp4.mp4,en-US
CSF_ifelseifelse_allskins,,,ZgB0Wp-fShk,https://videos.code.org/levelbuilder/conditionals_123_sm-mp4.mp4,en-US
CSF_loops_AB,,,DgL1-axtxmU,https://videos.code.org/levelbuilder/loops_ab_sm-mp4.mp4,en-US
csd_gamelab_booleans,,,_j9nvYKaOVE,https://videos.code.org/levelbuilder/csd_booleans_sm-mp4.mp4,en-US
csd_gamelab_conditional_statements,,,TuLIK7DcPWs,https://videos.code.org/levelbuilder/csd_conditionals_sm-mp4.mp4,en-US
csd_gamelab_if_else,,,6m6FFUJsOzo,https://videos.code.org/levelbuilder/csd_ifelse_sm-mp4.mp4,en-US
CSF_SpriteLabIntro_CDEF,,,l0B0gDuHHC8,https://videos.code.org/levelbuilder/introducingspritelab_sm-mp4.mp4,en-US
CSF_Spritelab_MakeSprite_CDEF,,,nHq7_-Kpgc8,https://videos.code.org/levelbuilder/howtomakeasprite_sm-mp4.mp4,en-US
CDEF_Video_SpritesInAction,,,vsjoWjyQLRU,https://videos.code.org/levelbuilder/spritesinaction_sm-mp4.mp4,en-US
CSF_SpriteLab_SpritesInAction_CDEF,,,vsjoWjyQLRU,https://videos.code.org/levelbuilder/spritesinaction_sm-mp4.mp4,en-US
CSF_StarWars_ProjectIntro,,,hS1xTfIbanA,https://videos.code.org/levelbuilder/events_r2d2_sm-mp4.mp4,en-US
mc_2018_intro,,,92sMXSm4dIg,https://videos.code.org/levelbuilder/mc_2018_intro-mp4.mp4,en-US
MC_2018_loops,,,_97FJL9Ljdc,https://videos.code.org/levelbuilder/mc_2018_loops-mp4.mp4,en-US
mc_2018_conditionals,,,j8TWTqBNV7g,https://videos.code.org/levelbuilder/mc_2018_conditionals-mp4.mp4,en-US
mc_2018_closing,,,JZjUGd8Dk_Y,https://videos.code.org/levelbuilder/mc_2018_closing-mp4.mp4,en-US
hoc_dance_warmup,,,bVHSrWuROrk,https://videos.code.org/levelbuilder/danceparty_01warmup_sm-mp4.mp4,en-US
hoc_dance_events,,,COxnCoiHafc,https://videos.code.org/levelbuilder/danceparty_02events_sm-mp4.mp4,en-US
hoc_dance_properties,,,Dq3HovyOmvg,https://videos.code.org/levelbuilder/danceparty_03properties_sm-mp4.mp4,en-US
hoc_dance_congrats,,,pIxdBhJb8lc,https://videos.code.org/levelbuilder/danceparty_04partyon_sm-mp4.mp4,en-US
c_and_c_great_to_create,,,Ltiz1B_oa-E,https://videos.code.org/levelbuilder/c_and_c_great_to_create-mp4.mp4,en-US
c_and_c_digital_sharing,,,o_oDsBeBxko,https://videos.code.org/levelbuilder/c_and_c_digital_sharing-mp4-mp4.mp4,en-US
teaching_csf_how_it_works,,,yd0TQzYbnTI,https://videos.code.org/levelbuilder/02howthecourseworks_small-mp4.mp4,en-US
elem_pd_2,,,KHXvOO8cVDE,https://videos.code.org/levelbuilder/elementaryschoolcs-pd-mp4.mp4,en-US
what_is_cs,,,KHXvOO8cVDE,https://videos.code.org/levelbuilder/elementaryschoolcs-pd-mp4.mp4,en-US
repeat_block,,,ZGHtw3gjNB0,https://videos.code.org/levelbuilder/usingtherepeatblock-cf-mp4.mp4,en-US
lesson_planning,,,WBA-jP4HtR8,https://videos.code.org/levelbuilder/04lessonplanning_small-mp4.mp4,en-US
opd_closing,,,xoXoYGBdKDU,https://videos.code.org/levelbuilder/08closing_small-mp4.mp4,en-US
why_unplugged_lessons,,,-7lcnNcONHY,https://videos.code.org/levelbuilder/unplugged-whyshouldteachunpluggedactivities-mp4.mp4,en-US
writing_first_program,,,4N0R16Y97l0,https://videos.code.org/levelbuilder/mazeintro-programmingwithblocks-mp4.mp4,en-US
conditionals_with_cards,,,2m2Rn9VxHfU,https://videos.code.org/levelbuilder/unplugged-lessoninaction-conditionalswithcards-mp4.mp4,en-US
songwriting_with_functions,,,QuIMLel1mmw,https://videos.code.org/levelbuilder/unplugged-lessoninaction-songwritingwithfunctions-mp4.mp4,en-US
what_is_an_event,,,HcljJx_0Elw,https://videos.code.org/levelbuilder/disneyinfinityplay-lab-events-mp4.mp4,en-US
teaching_cs_pair_programming,,,sxToW3ixrwo,https://videos.code.org/levelbuilder/06pairprogramming_small-mp4.mp4,en-US
teaching_problem_solving,,,XN0G6bSbQ2M,https://videos.code.org/levelbuilder/05teachingproblemsolving_small-mp4.mp4,en-US
CSF_unspotted_bugs,,,s-9_9Eqx_L4,https://videos.code.org/levelbuilder/leccion-1-unspotted-bugs_es-mp4.mp4,es-MX
CSF_stevie_big_project,,,IZlfO25nMyE,https://videos.code.org/levelbuilder/leccion-2stevie_es-mp4.mp4,es-MX
C1_maze_debugging,,,qtEiwvphOMU,https://videos.code.org/levelbuilder/curos-b-leccion-7-maze-debugging_es-mp4.mp4,es-MX
CSF_my_robotic_friends,,,YSzTR8NB02Y,https://videos.code.org/levelbuilder/curso-b-leccion-6my-robotic-friends-activity_es-mp4.mp4,es-MX
C1_building_foundation,,,WPsywWCtl1w,https://videos.code.org/levelbuilder/curso-c-leccion-1-building-foundation_es-mp4.mp4,es-MX
C2_graph_paper,,,GjeZdcYBpeE,https://videos.code.org/levelbuilder/curso-d-leccion-1-graph-paper_es-mp4.mp4,es-MX
C1_planting_seed,,,vXP1LyM3R8M,https://videos.code.org/levelbuilder/leccion-3-c1-planting-seed_es-mp4.mp4,es-MX
C1_happy_maps_unplugged,,,3pJTQ97vOrM,https://videos.code.org/levelbuilder/leccion-5-happy-maps-unplugged_es-mp4.mp4,es-MX
C2_paper_airplanes,,,5oZcZIWbHdM,https://videos.code.org/levelbuilder/curso-c-leccion-4-paper-airplanes_es-mp4.mp4,es-MX
C2_artist_intro,,,2xIF_pyLPFo,https://videos.code.org/levelbuilder/curso-c-leccion-6-artist-intro_es-mp4.mp4,es-MX
CSF_artist_angles,,,80C7pm5BBwo,https://videos.code.org/levelbuilder/curso-d-leccion-2_es-angulos-mp4.mp4,es-MX
CSF_collector_repeat_loops,,,q_xwH3jY0p4,https://videos.code.org/levelbuilder/leccion-9_es-mp4.mp4,es-MX
C1_getting_loopy,,,1mdJgEZWVs4,https://videos.code.org/levelbuilder/curso-c-leccion-7-getting-loopy_es-mp4.mp4,es-MX
flappy_intro,,,IAXZv7kJBW0,https://videos.code.org/levelbuilder/curso-c-leccion-12-code-your-own-flappy-game-mp4.mp4,es-MX
CSF_Power_of_Words,,,a6_Zsj2jzLw,https://videos.code.org/levelbuilder/curso-c-leccion-14-power_of_words_2017_es-mp4.mp4,es-MX
C2_binary_bracelets,,,9l7puO1noOs,https://videos.code.org/levelbuilder/curso-c-leccion-15-binary-bracelets_es-mp4.mp4,es-MX
C3_bee_nested_loops,,,Xf1q9rjfPYM,https://videos.code.org/levelbuilder/curso-d-leccion-4-bee-nested-loops_es-mp4.mp4,es-MX
csd_applab_designmode,,,tAtvWkYBUoU,https://videos.code.org/levelbuilder/applab-01-design-mode-sm-mp4.mp4,en-US
CSF_collector_k1_blocks,,,6XKypOY7_FM,https://videos.code.org/levelbuilder/curos-a-leccion-9-1_es-mp4.mp4,es-MX
C1_artist_intro,,,6XPs2lFLSuI,https://videos.code.org/levelbuilder/curos-a-leccion-10_1artist-intro_es-mp4.mp4,es-MX
C1_pair_programming,,,fpOpnQ60Mso,https://videos.code.org/levelbuilder/curso-a-leccion-4-pair-programming_es-mp4.mp4,es-MX
CSF_maze_intro_k1_blocks,,,hc7XfGmyTAM,https://videos.code.org/levelbuilder/curso-a-leccion-6_1_es-mp4.mp4,es-MX
CSF_debugging_k1_blocks,,,cuPg9snIcXw,https://videos.code.org/levelbuilder/curso-a-leccion-6_2_es-mp4.mp4,es-MX
C1_going_places_safely,,,4lJsn6Ddl0A,https://videos.code.org/levelbuilder/curso-a-leccion-7-going-places-safely_es-mp4.mp4,es-MX
C1_bigevent_unplugged,,,3boLkw_sh-g,https://videos.code.org/levelbuilder/01-unplugged_thebigevent-espanol-mp4.mp4,es-MX
C1_playlab_storytelling,,,QPi4lgZOtf8,https://videos.code.org/levelbuilder/curso-a-leccion-12_es-mp4.mp4,es-MX
C3_artist_nested_loops,,,pHShmfnGCu8,https://videos.code.org/levelbuilder/curso-d-leccion-5-artist-nested-loops-2015_720_es-mp4.mp4,es-MX
C2_relay_programming,,,9lSICU55ung,https://videos.code.org/levelbuilder/curso-d-leccion-7-relay-programming_es-mp4.mp4,es-MX
C2_conditionals_with_cards,,,c0KVJ-pOJe8,https://videos.code.org/levelbuilder/05-unplugged-conditionals-with-cards-introduction-espanol-mp4.mp4,es-MX
C4_bee_conditional,,,yn3m3qu8Gzo,https://videos.code.org/levelbuilder/curso-d-leccion-11_1bee-conditional_es-mp4.mp4,es-MX
C4_conditionals,,,AXrOHgGkzOI,https://videos.code.org/levelbuilder/curso-d-leccion-11_2-conditionals_es-mp4.mp4,es-MX
C4_unplugged_binary,,,cmBzyyt3c3c,https://videos.code.org/levelbuilder/curso-d-leccion-16-unplugged-binary_es-mp4.mp4,es-MX
CSF_Super_Digital_Citizen,,,isXB67ieryM,https://videos.code.org/levelbuilder/curso-de-leccion-14super_digital_citizen_2017_es-mp4.mp4,es-MX
csd_pair_programming,,,q7d_JtyCq1A,https://videos.code.org/levelbuilder/pairprogramming-mp4.mp4,en-US
csd_gamelab_functions,,,3ZfqwCuDZaQ,https://videos.code.org/levelbuilder/callingfunctions-mp4.mp4,en-US
csd_applab_parameters,,,5UMKeMPCa7E,https://videos.code.org/levelbuilder/functionswithparameters-mp4.mp4,en-US
csd_applab_loops,,,WqmyVZnMWHY,https://videos.code.org/levelbuilder/csdloops-mp4.mp4,en-US
CSF_a_b_artist_loops,,,LghTv4pc5SY,https://videos.code.org/levelbuilder/curso-a-leccion-10-bloque-repetir-con-el-artista-mp4.mp4,es-MX
CSF_collector_text_blocks,,,r_SBjwP01tQ,https://videos.code.org/levelbuilder/curso-c-leccion-5-la-recolectora-mp4.mp4,es-MX
CSF_maze_intro_text_blocks,,,VSPL5Sfsf84,https://videos.code.org/levelbuilder/curso-c-leccion-2-blockly-mp4.mp4,es-MX
CSF_debugging_text_blocks,,,1J6wGMqbUBk,https://videos.code.org/levelbuilder/curso-c-leccion-3-debugging-mp4.mp4,es-MX
loop_while,,,zrG6q0lXoEA,https://videos.code.org/levelbuilder/curso-d-leccion-9_farmer2-while-block_es-mp4.mp4,es-MX
loop_until,,,fb1qtj9iCqM,https://videos.code.org/levelbuilder/curso-d-leccion-12-hoc-bosh-repeat-until_es-mp4.mp4,es-MX
if_else,,,ilvj0HyW9wQ,https://videos.code.org/levelbuilder/curso-d-leccion-12-saloni-ifelse_es-mp4.mp4,es-MX
loop_times,,,Jdhkf9R25Qk,https://videos.code.org/levelbuilder/curso-d-leccion-2-zuckernberg_es-mp4.mp4,es-MX
C2_zuck_repeat_loop,,,Jdhkf9R25Qk,https://videos.code.org/levelbuilder/curso-d-leccion-2-zuckernberg_es-mp4.mp4,es-MX
csd_problem_solving_process,,,z7RaFPT3DTE,https://videos.code.org/levelbuilder/problemsolvingprocess-mp4.mp4,en-US
CSF_Going_Places_Safely,,,oPHOsCnjMU4,https://videos.code.org/levelbuilder/my-online-neighborhood-mp4.mp4,en-US
CSF_SpriteLab_Intro_v2,,,yd-9xZ275dM,https://videos.code.org/levelbuilder/01-IntroducingSpriteLab_sm.mp4,en-US
CSF_Spritelab_MakeSprite_v2,,,wbTJpx3driA,https://videos.code.org/levelbuilder/02-HowToMakeASprite_sm.mp4,en-US
CSF_SpriteLab_SpritesInAction_v2,,,VUmZ2IsFAGo,https://videos.code.org/levelbuilder/03-SpritesInAction_sm.mp4,en-US
csd_debugging,,,auv10y-dN4s,https://videos.code.org/levelbuilder/debugging_sm-mp4.mp4,en-US
csd_applab_designmode_short,,,zedN05TE0GI,https://videos.code.org/levelbuilder/csd-designmode-sm-mp4.mp4,en-US
csp-pd-welcome,,,mRVPGIGj7Mk,https://videos.code.org/levelbuilder/csp-p1-welcome-mp4-mp4.mp4,en-US
CSF-Teaching-Problem-Solving,,,XN0G6bSbQ2M,https://videos.code.org/levelbuilder/05teachingproblemsolving_small-mp4-mp4.mp4,en-US
u5-traversals-get-list-explanation,,,s91xqyew2Nk,https://videos.code.org/levelbuilder/u5-traversals-get-list-explanation-pilot-loom-video-data-block-mp4.mp4,en-US
u7-libraries-explanation,,,aCsGi0b9S8s,https://videos.code.org/levelbuilder/u7-libraries-explanation-app-app-lab-mp4.mp4,en-US
how-to-k5-workshops,,,rNIM1fzJ8u0,https://videos.code.org/levelbuilder/how-to-k5-workshops-mp4.mp4,en-US
why-should-teach-unplugged-activities,,,-7lcnNcONHY,https://videos.code.org/levelbuilder/unplugged-whyshouldteachunpluggedactivities-mp4-mp4.mp4,en-US
cs-principles-intro-to-objects,,,ZunUF_WGMb4,https://videos.code.org/levelbuilder/cs-principles-intro-to-objects-mp4.mp4,en-US
oceans_machine_learning,,,KHbwOetbmbs,https://videos.code.org/levelbuilder/01-ai-machinelearning-sm-mp4-mp4.mp4,en-US
oceans_training_data,,,x2mRoFNm22g,https://videos.code.org/levelbuilder/02-ai-trainingdata-sm-mp4.mp4,en-US
oceans_societal_implications,,,ng4c1g3COfs,https://videos.code.org/levelbuilder/03-ai-impactonsociety-sm-mp4.mp4,en-US
hoc_dance_congrats_2019,,,b-MXzZNhD0w,https://videos.code.org/levelbuilder/5-danceparty-partyon-mp4-mp4.mp4,en-US
hoc_dance_warmup_2019,,,tY09z2y8-xQ,https://videos.code.org/levelbuilder/1-danceparty-warmup-mp4-mp4.mp4,en-US
hoc_dance_events_2019,,,vieZIRAzclI,https://videos.code.org/levelbuilder/2-danceparty-events-mp4-mp4.mp4,en-US
hoc_dance_measures_2019,,,0kygot_r3gc,https://videos.code.org/levelbuilder/3-danceparty-measures-mp4-mp4.mp4,en-US
hoc_dance_properties_2019,,,VtXSKMtHAA8,https://videos.code.org/levelbuilder/4-danceparty-properties-mp4-mp4.mp4,en-US
csd_what_computers_do,,,92TaQRBwPSs,https://videos.code.org/levelbuilder/csdwhat-docomputersdo-mp4.mp4,en-US
csf_my_online_neighborhood_2020,,,vNpkUyEOa_8,https://videos.code.org/levelbuilder/my_online_neighborhood_update-mp4.mp4,en-US
csf_follow_the_digital_trail,,,7bRZdUtmH8k,https://videos.code.org/levelbuilder/follow_the_digital_trail_update2019-mp4.mp4,en-US
csf_private_and_personal_information,,,MjPpG2e71Ec,https://videos.code.org/levelbuilder/digcit2_personalprivateinfo_site_fixed-mp4.mp4,en-US
csd_what_computers_are,,,rRSD128KWIM,https://videos.code.org/levelbuilder/whatisacomputer-mp4.mp4,en-US
codebreak_e01,,,IiHveVqxvcw,https://videos.code.org/levelbuilder/codebreake1-mp4.mp4,en-US
codebreak_e02,,,guNM-3CXgnQ,https://videos.code.org/levelbuilder/episode-2-mp4.mp4,en-US
codebreak_e03,,,_RrmereHcTQ,https://videos.code.org/levelbuilder/ashtonmia-mp4.mp4,en-US
codebreak_e04,,,kL-3o5EiLsM,https://videos.code.org/levelbuilder/code-break-4-0-digital-information-with-alice-keeler-and-mike-krieger-mp4.mp4,en-US
codebreak_e05,,,fv5g9xw_jek,https://videos.code.org/levelbuilder/code-break-5-0-simulations-and-data-with-bill-gates-fv5g9xw_jek-mp4.mp4,en-US
csd_how_teamwork_works,,,qkw4pDV5Lec,https://videos.code.org/levelbuilder/teamwork_sm-mp4.mp4,en-US
csd_teamwork_and_disagreement,,,6GgrUeVT-xs,https://videos.code.org/levelbuilder/disagreements_sm-mp4.mp4,en-US
codebreak_e06,,,7jcnJR6aZfs,https://videos.code.org/levelbuilder/episode-6-w_-kmk-vint-cerf-mp4.mp4,en-US
codebreak_e07,,,oKwvRwmvXsE,https://videos.code.org/levelbuilder/episode-7_-sal-khan-flo-vaughn-mp4.mp4,en-US
codebreak_e08,,,bQElba6x6yI,https://videos.code.org/levelbuilder/code-break-episode-8-mp4.mp4,en-US
codebreak_e09,,,-bcO-X9thds,https://videos.code.org/levelbuilder/episode-9-w_-macklemore-scott-forstall-mp4.mp4,en-US
codebreak_e10,,,MLH2bKpXkm8,https://videos.code.org/levelbuilder/episode-10-0-w_-kat-graham-and-kate-park-mp4.mp4,en-US
codebreak_e11,,,LPnRS3F0VWw,https://videos.code.org/levelbuilder/code-break-11-0-abstracions-mp4.mp4,en-US
codebreak_e12,,,4-JZYqk2K6w,https://videos.code.org/levelbuilder/code-break-12-0-mp4.mp4,en-US
CSF_debugging_text_blocks,,,HDakoxxbR_k,https://videos.code.org/levelbuilder/7_debugging-with-the-step-button-course-c-f-_fr-mp4.mp4,fr-FR
CSF_collector_text_blocks,,,LhIBgHIvF-Q,https://videos.code.org/levelbuilder/3-5-la-collectionneuse-intro-mp4.mp4,fr-FR
C2_artist_intro,,,D44X-sSvLJk,https://videos.code.org/levelbuilder/1_artist-intro-with-jr-hildebrand-fr-mp4.mp4,fr-FR
CSF_bb8_skinOverview_C-F,,,nOwvCr9bPlo,https://videos.code.org/levelbuilder/9_programming-with-rey-and-bb-8-courses-c-f-_fr-mp4.mp4,fr-FR
CSF_bb8_loops_C-F,,,QE2dhbdynWQ,https://videos.code.org/levelbuilder/10_repeat-blocks-with-bb-8_fr-mp4.mp4,fr-FR
C3_bee_nested_loops,,,Xu_fdnwReuQ,https://videos.code.org/levelbuilder/8-l-abeille-les-boucles-imbriqu-s-mp4.mp4,fr-FR
mc_intro,,,aPkE1hHI7Tw,https://videos.code.org/levelbuilder/3_looking-ahead-with-minecraft-hour-of-code-intro_fr-mp4.mp4,fr-FR
mc_repeat,,,rwx9xRGWArM,https://videos.code.org/levelbuilder/4_looking-ahead-with-minecraft-2-repeat-loops_fr-mp4.mp4,fr-FR
mc_if_statements,,,_cWyFcSVTJA,https://videos.code.org/levelbuilder/5_looking-ahead-with-minecraft-3-if-statements_v1_fr-mp4.mp4,fr-FR
mc_congrats_no_share,,,JGaACXzqcpU,https://videos.code.org/levelbuilder/6_looking-ahead-with-minecraft-4-hour-of-code-build-your-own_fr-mp4.mp4,fr-FR
CSF_if_allskins,,,fNRhnpdfo_8,https://videos.code.org/levelbuilder/9-conditionnel-intro-courte-mp4.mp4,fr-FR
CSF_ifelse_allskins,,,ED65QHZ8e9c,https://videos.code.org/levelbuilder/10-conditionnel-longue-mp4.mp4,fr-FR
mc_2018_intro,,,GggYf27ypLM,https://videos.code.org/levelbuilder/9_minecraft-voyage-aquatic-introduction_fr-mp4.mp4,fr-FR
MC_2018_loops,,,sa-nKDhs4pk,https://videos.code.org/levelbuilder/10_minecraft-voyage-aquatic-repeat-until_fr-mp4.mp4,fr-FR
mc_2018_conditionals,,,od-6NHVcF9Y,https://videos.code.org/levelbuilder/11_minecraft-voyage-aquatic-conditionals_fr-mp4.mp4,fr-FR
loop_until,,,FNfA-p6jn-k,https://videos.code.org/levelbuilder/12_hour-of-code-chris-bosh-teaches-repeat-until-statements_v1_fr-mp4.mp4,fr-FR
CSF_skinOverview_Harvester,,,CSnWamgu8yI,https://videos.code.org/levelbuilder/2-l-agricultrice-intro-longue-mp4.mp4,fr-FR
mc_2017_agent_intro,,,A3ZVHWfp1J4,https://videos.code.org/levelbuilder/13_functions-in-minecraft-hero-s-journey_fr-mp4.mp4,fr-FR
mc_2017_repeat,,,CNDYPPnQYJA,https://videos.code.org/levelbuilder/14_functions-in-minecraft-2-repeat-loops_fr-mp4.mp4,fr-FR
mc_2017_functions,,,gD937nI1xI4,https://videos.code.org/levelbuilder/15_functions-in-minecraft-3-functions_fr-mp4.mp4,fr-FR
CSF_create_functions,,,ZlQZPm2PwBs,https://videos.code.org/levelbuilder/12_how-to-create-a-simple-function_fr-mp4.mp4,fr-FR
C4_variables_artist,,,jdRrQTGnxMI,https://videos.code.org/levelbuilder/16_course-4-artist-variables_fr-mp4.mp4,fr-FR
C4_for_loops_bee,,,U1CUsiqa7Us,https://videos.code.org/levelbuilder/11-les-boucles-et-les-blocs-repeter-longue-mp4.mp4,fr-FR
C4_for_loops_no_bee,,,2l-0J6E1KCE,https://videos.code.org/levelbuilder/12-les-boucles-et-les-blocs-r-p-ter-intro-courte-mp4.mp4,fr-FR
CSF_SpriteLab_Intro_v2,,,1VcUbMacYfA,https://videos.code.org/levelbuilder/13_introducing_sprite_lab_fr-mp4.mp4,fr-FR
CSF_Spritelab_MakeSprite_v2,,,1cI1aOJYPF4,https://videos.code.org/levelbuilder/14_how_to_make_a_sprite_fr-mp4.mp4,fr-FR
CSF_SpriteLab_SpritesInAction_v2,,,J6WigkzOVDs,https://videos.code.org/levelbuilder/15_sprites_in_action_fr-mp4.mp4,fr-FR
hoc_dance_events_2019,,,FlujagISgZo,https://videos.code.org/levelbuilder/dance-party-events_fr-mp4.mp4,fr-FR
hoc_dance_measures_2019,,,t-Ghux8elaQ,https://videos.code.org/levelbuilder/dance-party-measures_fr-mp4.mp4,fr-FR
hoc_dance_warmup_2019,,,TlnCsZ_ac3E,https://videos.code.org/levelbuilder/dance-party-warm-up_fr-mp4.mp4,fr-FR
hoc_dance_congrats_2019,,,IUp5tf-aoLA,https://videos.code.org/levelbuilder/dance-party-party-on-_fr-mp4.mp4,fr-FR
hoc_dance_properties_2019,,,Z41qWndQJw8,https://videos.code.org/levelbuilder/dance-party-properties_fr-mp4.mp4,fr-FR
CSF_maze_intro_text_blocks,,,quZcRp4AxCU,https://videos.code.org/levelbuilder/6_maze-intro-programming-with-blocks-course-c-f-_fr-mp4.mp4,fr-FR
csf21pilot_events,,,_RxDeRPwJ-g,https://videos.code.org/levelbuilder/video-1-sprites-in-action_v2_small_20mb-mp4-mp4.mp4,en-US
csf21pilot_prompts,,,3TQ6ybjSm6c,https://videos.code.org/levelbuilder/video-2-sprite-lab-text-and-prompts_v2_small_20mb-mp4-mp4.mp4,en-US
outbreak_mike,,,M7o2eYDZjr4,https://videos.code.org/levelbuilder/yt1s-com-codebytes-episode-3-with-mike-outbreak-simulator_360p-mp4.mp4,en-US
poembot-pilot-prompts,,,pLHohSQ8Ks4,https://videos.code.org/levelbuilder/google-chrome-code-org-levelbuilder-poem-bot_prompt-2_video-mp4.mp4,en-US
poembot-pilot-text,,,hWVvDgcH9Pc,https://videos.code.org/levelbuilder/storing-text-mp4.mp4,en-US
poembot-pilot-haiku,,,AVjvi-K4VLg,https://videos.code.org/levelbuilder/no-name-mp4.mp4,en-US
csd_ml_intro_to_ai_lab,,,1X-DgBsq9d8,https://videos.code.org/levelbuilder/1-intro-to-csp-2-mp4.mp4,en-US
csd_ml_import_model,,,aQXOauieMbk,https://videos.code.org/levelbuilder/import-model-bumpers-mp4.mp4,en-US
csf_lots_of_sprites,,,5yWt5o0zwAM,https://videos.code.org/levelbuilder/video-3-sprite-lab-lots-of-sprites-v2_small_20mb-mp4-mp4.mp4,en-US
playlab_2021,,,nVsZyQIZyPc,https://videos.code.org/levelbuilder/introduction-to-play-lab-mp4.mp4,en-US
playlab_2021_reader,,,FVL6Yo7fOIU,https://videos.code.org/levelbuilder/playlab_intro_reader_sm-mp4.mp4,en-US
csp_defining_calling_functions,,,NBwlNBE9Fl0,https://videos.code.org/levelbuilder/csp_definingandcallingfunctions_sm-mp4.mp4,en-US
csp_tutorial_datatab,,,PNe3MSreQAA,https://videos.code.org/levelbuilder/csp_datatabinapplab_sm-1-mp4.mp4,en-US
csp_tutorial_libraries,,,OJv3HeTP7fY,https://videos.code.org/levelbuilder/csp_librariesinapplab_sm-1-mp4.mp4,en-US
PL-Video-21,,,mqmt2Zk7CFU,https://videos.code.org/levelbuilder/address-to-professional-development-workshops-mp4.mp4,en-US
csp_tutorial_datavis1,,,OjUEFHo3Yw0,https://videos.code.org/levelbuilder/csp_datavisualizerp1_sm-mp4.mp4,en-US
csp_tutorial_datavis2,,,4vaWVvrnsFk,https://videos.code.org/levelbuilder/csp_datavisualizerp2_sm-mp4.mp4,en-US
csd_ml_intro_ai_lab_july2021,,,bGJ05vdI3xA,https://videos.code.org/levelbuilder/introduction-to-ai-lab-v3-mp4-mp4.mp4,en-US
csd_ml_training_testing_ai_lan,,,HcCtdaiMWPQ,https://videos.code.org/levelbuilder/training-testing-ai-lab-mp4-mp4.mp4,en-US
csd_ml_model_cards_july2021,,,tz_ptkv0NxA,https://videos.code.org/levelbuilder/model-cards-in-ai-lab-mp4-mp4.mp4,en-US
csd_ml_numerical_ai_lab,,,a4JH1D_D7s4,https://videos.code.org/levelbuilder/numerical-data-in-ai-lab-mp4-mp4.mp4,en-US
Gettting_Started_Progress,,,c0pGfCpd6MI,https://videos.code.org/levelbuilder/gettingstarted-progressfeedback_sm-mp4.mp4,en-US
Gettting_Started_ClassSection,,,4Wugxc80fNU,https://videos.code.org/levelbuilder/gettingstarted-creatingclasssection_sm-mp4.mp4,en-US
Gettting_Started_StudentExperience,,,wzz3jJZoj20,https://videos.code.org/levelbuilder/gettingstarted-studentexperience_sm-mp4.mp4,en-US
Getting_Started_BasicFeatures,,,lYZq1HVTAIY,https://videos.code.org/levelbuilder/gettingstarted-basicfeatures_sm-mp4.mp4,en-US
PL_overview_CSD,,,g4qfsH8bc8s,https://videos.code.org/levelbuilder/csd_promo_v12_students-mp4.mp4,en-US
PL_CSD_TeacherTips_Advise,,,tG4YJjz1upI,https://videos.code.org/levelbuilder/05_advice_sm-mp4.mp4,en-US
PL_CSD_TeacherTips_IntroToCSD,,,urbzIHYga5s,https://videos.code.org/levelbuilder/00_csd_sm-mp4.mp4,en-US
PL_CSD_TeacherTips_ProblemSolvingProcess,,,fGKQVNvl05M,https://videos.code.org/levelbuilder/04_problemsolving_sm-mp4.mp4,en-US
PL_CSD_TeacherTips_PairProgramming,,,L3XJjVG8Fnw,https://videos.code.org/levelbuilder/02_pairprogramming_sm-mp4.mp4,en-US
PL_CSD_TeacherTips_Debugging,,,j95sJWAAhWQ,https://videos.code.org/levelbuilder/03_debugging_sm-mp4.mp4,en-US
PL_CSD_TeacherTips_LeadLearner,,,THB3N1NKy4c,https://videos.code.org/levelbuilder/01_leadlearner_sm-mp4.mp4,en-US
poembot-playtest-intro,,,2T1HCczBM74,https://videos.code.org/levelbuilder/intro-to-poem-bot-mp4.mp4,en-US
poembot-playtest-sprites,,,eaJrblBIbZQ,https://videos.code.org/levelbuilder/poembot-playtest-sprites-mp4.mp4,en-US
poembot-playtest-events,,,DchpLbe39Fs,https://videos.code.org/levelbuilder/poembot-playtest-events-mp4.mp4,en-US
hello_world_intro,,,blePeROA7fA,https://videos.code.org/levelbuilder/hw-01-intro-sm-mp4.mp4,en-US
hello_world_events,,,--o_UfUnS84,https://videos.code.org/levelbuilder/hw-02-events-sm-mp4.mp4,en-US
hello_world_congrats,,,9RwiltjUy_0,https://videos.code.org/levelbuilder/hw-03-congrats-sm-mp4.mp4,en-US
csp_global_vs_local,,,Vlj1_X474to,https://videos.code.org/levelbuilder/clicker-app-lab-mp4.mp4,en-US
rough_poemart_intro,,,LpYvU0iwU3I,https://videos.code.org/levelbuilder/01-intro-v1-mp4.mp4,en-US
rough_poemart_events,,,4BTgtn7qvso,https://videos.code.org/levelbuilder/02-events-v1-mp4.mp4,en-US
rough_poemart_imagery,,,O9BPFmfSVUs,https://videos.code.org/levelbuilder/03-imagery-v1-mp4.mp4,en-US
rough_poemart_congrats,,,cves58ScSqQ,https://videos.code.org/levelbuilder/04-congratulations-v1-mp4.mp4,en-US
poetry_module_variables,,,dZR6piUb1CE,https://videos.code.org/levelbuilder/variables-mp4.mp4,en-US
poetry_module_textandvariables,,,lFblDe_ybPk,https://videos.code.org/levelbuilder/text-and-variables-mp4.mp4,en-US
poetry_module_planningapp,,,FnO8MqJgH4k,https://videos.code.org/levelbuilder/planning-your-poem-generator-app-mp4.mp4,en-US
poetry_module_multichoiceprompts,,,T_JP-FypyfY,https://videos.code.org/levelbuilder/multiple-choice-prompts-mp4.mp4,en-US
poetry_module_conditionals,,,PXTc4gglFng,https://videos.code.org/levelbuilder/conditionals-mp4.mp4,en-US
poemart_intro,,,uvwUWTTjIXo,https://videos.code.org/levelbuilder/poemart-01-intro-mp4.mp4,en-US
poemart_events,,,XGwYYUEb6jQ,https://videos.code.org/levelbuilder/poemart-02-eventsmp4-mp4.mp4,en-US
poemart_imagery,,,doy1aIuV-5U,https://videos.code.org/levelbuilder/poemart-03-imagery-mp4.mp4,en-US
poemart_celebration,,,Q-76vz8i8mo,https://videos.code.org/levelbuilder/poemart-04-congrats-mp4.mp4,en-US
csd_u6_variables_part2,,,GiHbeLq1ZkM,https://videos.code.org/levelbuilder/variables_shortened-mp4-mp4.mp4,en-US
csd_ml_ethics_ai,,,tJQSyzBUAew,https://videos.code.org/levelbuilder/ethics-ai-equal-access-and-algorithmic-bias-mp4.mp4,en-US
outbreak_intro,,,ZHA2_dOktVY,https://videos.code.org/levelbuilder/01_outbreak_introduction_sm-mp4.mp4,en-US
outbreak_events,,,GkSwanG0VN4,https://videos.code.org/levelbuilder/02_outbreak_events_sm-mp4-mp4.mp4,en-US
outbreak_scientist,,,ERzkvMlg7nI,https://videos.code.org/levelbuilder/03_outbreak_scientist_sm-mp4.mp4,en-US
outbreak_outro,,,duAR5e1zFec,https://videos.code.org/levelbuilder/04_outbreak_outro_sm-mp4.mp4,en-US
PL_overview_CSP,,,jQm0z894CG0,https://videos.code.org/levelbuilder/what-is-computer-science-principles-mp4.mp4,en-US
PL_CSP_EIPMOverview,,,OTvi0XRTIjA,https://videos.code.org/levelbuilder/guide-to-eipm-lessons-mp4.mp4,en-US
tesstest,,,1X-DgBsq9d8,https://videos.code.org/levelbuilder/1-intro-to-csp-mp4.mp4,en-US
CSF_harvester_skinOverview_K-1,,,Qt--KrCXsO4,https://videos.code.org/levelbuilder/01-harvester_video1-mp4.mp4,sk-SK
CSF_skinOverview_Harvester,,,Z-W8oB057k0,https://videos.code.org/levelbuilder/01-harvester_video2-mp4.mp4,sk-SK
CSF_collector_k1_blocks,,,5Pa3hyWwNl0,https://videos.code.org/levelbuilder/02-the-collector_video1-mp4.mp4,sk-SK
CSF_collector_text_blocks,,,ULC7ky-htDw,https://videos.code.org/levelbuilder/02-the-collector_video2-mp4.mp4,sk-SK
C1_artist_intro,,,YczYDRVMXYQ,https://videos.code.org/levelbuilder/03-the-artist-mp4.mp4,sk-SK
C2_artist_loops,,,0zI0uKDw1KE,https://videos.code.org/levelbuilder/04-loops-with-artist-mp4.mp4,sk-SK
CSF_scrat_loops_K1,,,U1sGvDD6jqU,https://videos.code.org/levelbuilder/05-repeat-blocks-with-artist-mp4.mp4,sk-SK
CSF_scrat_loops_CF,,,579bWsEtmd8,https://videos.code.org/levelbuilder/06-repeat-blocks-with-artist-express-mp4.mp4,sk-SK
C3_bee_nested_loops,,,v7RMyOrZNTY,https://videos.code.org/levelbuilder/07-nested-loops-with-bee-mp4.mp4,sk-SK
CSF_if_allskins,,,PwrFentoHng,https://videos.code.org/levelbuilder/08-09-conditions_video1-mp4.mp4,sk-SK
CSF_ifelse_allskins,,,Sm7g-mXs-Bo,https://videos.code.org/levelbuilder/08-09-conditions_video2-mp4.mp4,sk-SK
C4_for_loops_no_bee,,,owQ8qDLRiRk,https://videos.code.org/levelbuilder/10-11-for-loops-and-repeats-blocks_video1-mp4.mp4,sk-SK
C4_for_loops_bee,,,IfFgJwqLRgk,https://videos.code.org/levelbuilder/10-11-for-loops-and-repeats-blocks_video2-mp4.mp4,sk-SK
C4_conditionals,,,vWhGmjHRY5A,https://videos.code.org/levelbuilder/12-if-else-with-bee-mp4.mp4,sk-SK
CSF_harvester_skinOverview_K-1,,,UVVXw2KyL40,https://videos.code.org/levelbuilder/1-fr-csf_harvester_skinoverview_k-1-mp4.mp4,fr-FR
CSF_collector_k1_blocks,,,wBoMMyEoP8E,https://videos.code.org/levelbuilder/3-fr-csf_collector_k1_blocks-mp4.mp4,fr-FR
C1_artist_intro,,,NbC0RplkdRc,https://videos.code.org/levelbuilder/4-fr-c1_artist_intro-mp4.mp4,fr-FR
C2_artist_loops,,,UbSIORHbGDY,https://videos.code.org/levelbuilder/5-fr-c2_artist_loops-mp4.mp4,fr-FR
CSF_scrat_loops_K1,,,ddN7U3B4nKY,https://videos.code.org/levelbuilder/6-fr-csf_a_b_artist_loops-mp4.mp4,fr-FR
CSF_scrat_loops_CF,,,xTTfV0Exgkc,https://videos.code.org/levelbuilder/7-fr-repeat_block-mp4.mp4,fr-FR
C4_conditionals,,,JbV55od1AR0,https://videos.code.org/levelbuilder/13-fr-c4_conditionals-mp4.mp4,fr-FR
CSF_harvester_skinOverview_K-1,,,FdFYKWwb3ck,https://videos.code.org/levelbuilder/01_helene-durst-the-harvester-pre-reader-mp4.mp4,de-DE
CSF_skinOverview_Harvester,,,zuDHBKRMqdE,https://videos.code.org/levelbuilder/01_daniil-sorokin-the-harvester-express-mp4.mp4,de-DE
CSF_collector_k1_blocks,,,onVPRff2Ydo,https://videos.code.org/levelbuilder/02_somaia-amin-the-collector-pre-reader-mp4.mp4,de-DE
CSF_collector_text_blocks,,,WO8tlEPIpew,https://videos.code.org/levelbuilder/02_somaia-amin-the-collector-express-mp4.mp4,de-DE
C1_artist_intro,,,YDiP0cgMGwM,https://videos.code.org/levelbuilder/03_roman-wiche-the-artist-mp4.mp4,de-DE
C2_artist_loops,,,wuTZw1g19YE,https://videos.code.org/levelbuilder/04_somaia-amin-loops-with-the-artist-mp4.mp4,de-DE
CSF_scrat_loops_K1,,,jl4EGF3Fv1M,https://videos.code.org/levelbuilder/05_benjamin-barzen-repeat-blocks-with-the-artist-a-b-mp4.mp4,de-DE
CSF_scrat_loops_CF,,,9xtKgbHWtjo,https://videos.code.org/levelbuilder/06_mario-keller-repeat-blocks-with-the-artist-c-f-mp4.mp4,de-DE
C3_bee_nested_loops,,,Ub2-kZ4WJes,https://videos.code.org/levelbuilder/07_kristina-richert-nested-loops-with-the-bee-mp4.mp4,de-DE
CSF_if_allskins,,,raTaMb1kCq8,https://videos.code.org/levelbuilder/08_robert-himmelmann-amara-transcript-for-if-and-if-else-statements-mp4.mp4,de-DE
CSF_ifelse_allskins,,,Ktvh8AhRDOQ,https://videos.code.org/levelbuilder/09_robert-himmelmann-amara-transcript-for-if-and-if-else-statements-mp4.mp4,de-DE
C4_for_loops_no_bee,,,hSD35j18rT0,https://videos.code.org/levelbuilder/11_cedric-friedrichs-for-loops-and-repeat-blocks-mp4.mp4,de-DE
C4_for_loops_bee,,,bZqyQjiFh7g,https://videos.code.org/levelbuilder/10_cedric-friedrichs-for-loops-and-repeat-blocks-mp4.mp4,de-DE
C4_conditionals,,,3v3zb-WJvz4,https://videos.code.org/levelbuilder/12_joaquin-gonzales-if-else-mp4.mp4,de-DE
CSF_a_b_artist_loops,,,U1sGvDD6jqU,https://videos.code.org/levelbuilder/05-repeat-blocks-with-artist-mp4.mp4,sk-SK
CSF_a_b_artist_loops,,,ddN7U3B4nKY,https://videos.code.org/levelbuilder/6-fr-csf_a_b_artist_loops-mp4.mp4,fr-FR
CSF_a_b_artist_loops,,,jl4EGF3Fv1M,https://videos.code.org/levelbuilder/05_benjamin-barzen-repeat-blocks-with-the-artist-a-b-mp4.mp4,de-DE
CSA-PL-debugging-temp,,,46wWJ1lpRlA,https://videos.code.org/levelbuilder/debugging-practice-video-slides-google-slides-15-march-2022-mp4.mp4,en-US
csd_app_lab_design_mode,,,jiX1dST2PCw,https://videos.code.org/levelbuilder/csd-app-lab-design-mode-mp4.mp4,en-US
csd_app_lab_events,,,npa2r4t6y2A,https://videos.code.org/levelbuilder/csd-app-lab-events-mp4.mp4,en-US
PL_CSD_Unit4_AppTesting,,,ny5UbRpG6PE,https://videos.code.org/levelbuilder/u4l14-video-what-s-for-lunch-mp4.mp4,en-US
csd_u6_circuit_playground,,,3wy9EXKhbtU,https://videos.code.org/levelbuilder/csd-physical-computing-circuit-playground-mp4-mp4.mp4,en-US
csd_u6_input_output,,,N-zykCnEmck,https://videos.code.org/levelbuilder/csd-physical-computing-input-output-mp4.mp4,en-US
CSA-PL-for-loops,,,EF3laugNVCI,https://videos.code.org/levelbuilder/u3l3-traversing-arrays-mr-mp4.mp4,en-US
CSA-PL-variables,,,VHwlxlqrquM,https://videos.code.org/levelbuilder/u2l2-1-creating-vars-mr-mp4.mp4,en-US
PL_CS_Journeys_Overview,,,6ru7acLa6Ak,https://videos.code.org/levelbuilder/cs-journeys-explore-the-wide-world-of-computer-science-mp4.mp4,en-US
CSA-PL-intro-to-java-lab,,,q_OhJ0q4EW4,https://videos.code.org/levelbuilder/java-lab-basics-mp4.mp4,en-US
CSA-PL-first-program,,,74dPhLAXGSM,https://videos.code.org/levelbuilder/writing-our-first-program-mp4.mp4,en-US
CSD_u6_variables_part1,,,WsXNpY3SXe8,https://videos.code.org/levelbuilder/csd-u6-variables-mp4.mp4,en-US
csd_u6_if_statements,,,O4L1HSZ5VnA,https://videos.code.org/levelbuilder/csd-u6-if-statements-mp4.mp4,en-US
csc-poem-art-intro,,,lTL7DHFHB_E,https://videos.code.org/levelbuilder/poem-art-intro-video-mp4.mp4,en-US
csc-poem-art-outro,,,wM8duCeGShU,https://videos.code.org/levelbuilder/poem-art-outro-video-mp4.mp4,en-US
csd_u6_call_define_functions,,,TUdtGzQge3M,https://videos.code.org/levelbuilder/csd_calling-defining-functions-v1-mp4.mp4,en-US
csp_applab_parameters,,,M17C4rBwstE,https://videos.code.org/levelbuilder/csp_functionswithparameters-v1-mp4.mp4,en-US
starquilts_intro_artist,,,PzxGq9d_uCc,https://videos.code.org/levelbuilder/intro-to-artist-star-quilts-mp4.mp4,en-US
CSA-PL-intro-to-arrays,,,MgRMA_qZxZ4,https://videos.code.org/levelbuilder/u3l1a-1d-arrays-mr-mp4.mp4,en-US
CSA-PL-1d-arrays-new-values,,,AGp_5hB6dBE,https://videos.code.org/levelbuilder/u3l1b-entering-values-1d-arrays-mr-mp4-mp4.mp4,en-US
CSA-PL-conditionals,,,2rQmLwYVYpw,https://videos.code.org/levelbuilder/u1l5-conditionalstate-mr-mp4.mp4,en-US
CSA-PL-two-way-selection,,,EjypsirssII,https://videos.code.org/levelbuilder/u1l10-two-way-selection-and-not-mr-mp4.mp4,en-US
CSA-PL-Printing-in-Java,,,XjswJsUj2wQ,https://videos.code.org/levelbuilder/u1l11-printing-in-java-mr-mp4.mp4,en-US
CSA-PL-multi-selection-statements,,,sGYm7fojjXA,https://videos.code.org/levelbuilder/u4l8-multi-selection-statements-mr-mp4.mp4,en-US
PL_CSP_TeacherTips_Advice,,,phW1zdgWDsU,https://videos.code.org/levelbuilder/teacher-tips-advice-to-new-cs-teachers-mp4.mp4,en-US
PL_CSP_TeacherTips_IntroToCSP,,,1X-DgBsq9d8,https://videos.code.org/levelbuilder/teacher-tips-intro-to-cs-principles-mp4.mp4,en-US
PL_CSP_TeacherTips_Debugging,,,iMRP607TQik,https://videos.code.org/levelbuilder/teacher-tips-help-with-debugging-mp4.mp4,en-US
PL_CSP_TeacherTips_LeadLearner,,,6FoozfJ2WDk,https://videos.code.org/levelbuilder/teacher-tips-how-to-be-a-lead-learner-mp4.mp4,en-US
PL_CSP_TeacherTips_APExam,,,cqi9RTW8qB4,https://videos.code.org/levelbuilder/teacher-tips-preparing-for-the-ap-exam-mp4.mp4,en-US
PL_CSP_TeacherTips_EIPM,,,jWf2IKQNnMc,https://videos.code.org/levelbuilder/teacher-tips-the-eipm-process-mp4.mp4,en-US
PL_CSD_CircuitPlayground_Overview,,,EdW5dDFm8t0,https://videos.code.org/levelbuilder/physical-computing-unit-overview-mp4.mp4,en-US
CSA-PL-debugging-22,,,a55-dgWYW_Q,https://videos.code.org/levelbuilder/final_6297d8e9a37b02007f05a01a_899185-mp4.mp4,en-US
CSD_Unit6_InteractiveArtExemplar,,,d3vEVVe0AZY,https://videos.code.org/levelbuilder/interactive-art-project-exemplar-mp4.mp4,en-US
CS_Changing_Everything,,,QvyTEx1wyOY,https://videos.code.org/levelbuilder/computer-science-is-changing-everything-mp4.mp4,en-US
csa-alias-video,,,9GLT7oQnW4I,https://videos.code.org/levelbuilder/u4l6a-aliasing-mr-mp4.mp4,en-US
csa-equals-video,,,F1WhwH4abX4,https://videos.code.org/levelbuilder/u4l6b-the-equals-method-mr-1-mp4.mp4,en-US
csa-user-stories,,,jN26YGTFOa4,https://videos.code.org/levelbuilder/u7l3-ses-user-stories-mr-mp4.mp4,en-US
csa-pl-vpl-m1-unit-3,,,XXSJg_1yHT8,https://videos.code.org/levelbuilder/final_62c4af72770421009972e742_42369-mp4.mp4,en-US
csa-pl-intro-to-equality,,,5-vRYKAX1WI,https://videos.code.org/levelbuilder/final_62c7561c253e7d007a336de7_412832-mp4.mp4,en-US
csa-pl-intro-to-equals-method,,,6xhK9vceRrk,https://videos.code.org/levelbuilder/final_62cdbfd2db1be8009bc76392_434440-mp4.mp4,en-US
csa-pl-equals-book,,,7LlkD9R_2QI,https://videos.code.org/levelbuilder/final_62d2c3d8ba3b9f00a0455c9d_405308-mp4.mp4,en-US
csa-multi-select-pl,,,sGYm7fojjXA,https://videos.code.org/levelbuilder/u4l8-multi-selection-statements-mr-mp4.mp4,en-US
csc_timecapsule_intro,,,9zkGt7EkbOs,https://videos.code.org/levelbuilder/jerome-time-capsule-sm-v2-mp4.mp4,en-US
PL_Equity_in_CS_Education,,,PmW6K6ufTpY,https://videos.code.org/levelbuilder/equity-in-computer-science-education-mp4.mp4,en-US
csc_fm_pilot,,,urv97SeHyJI,https://videos.code.org/levelbuilder/nikesha_cs-connections-v1-mp4.mp4,en-US
csc_fm_pilot_v2,,,UmU8oeel8OE,https://videos.code.org/levelbuilder/nikesha_cs-connections-v5-mp4.mp4,en-US
csc-sprite-lab-pixel-editor,,,ygZMsj8bYtE,https://videos.code.org/levelbuilder/drawasprite-mp4.mp4,en-US
csa-pl-intro-to-strings,,,hplPrmT840Y,https://videos.code.org/levelbuilder/final_636bc91dce6a5a03064cef10_929566-mp4.mp4,en-US
csa-pl-compareTo,,,tSGbZICn4Hw,https://videos.code.org/levelbuilder/final_636be7c2be0139006ffc4cf2_18247-mp4.mp4,en-US
csc-event-short-intro,,,Q-1qmLjmYNo,https://videos.code.org/levelbuilder/events_short-mp4-mp4.mp4,en-US
PL_CSD_CircuitPlayground_Overview_AppsWithDevices,,,9_Z1hvx22us,https://videos.code.org/levelbuilder/creating-apps-with-devices-mp4.mp4,en-US
csa-day-in-pm-pl,,,hZEp1XIniek,https://videos.code.org/levelbuilder/project-manager-daily-responsibilities-google-project-management-certificate-mp4.mp4,en-US
csa-pl-intro-to-pm,,,Jk-JwtScIlw,https://videos.code.org/levelbuilder/what-is-project-management-mp4.mp4,en-US
PL_CSD_CircuitPlayground_Setup,,,Gt-DCJhJ904,https://videos.code.org/levelbuilder/connecting-circuit-playground-with-code-org-mp4.mp4,en-US
csa_object_oriented_programming,,,Wok4Xw_5cyY,https://videos.code.org/levelbuilder/csa_object-oriented-programming-mp4.mp4,en-US
csa_creating_objects,,,C5Ks_u87Ltg,https://videos.code.org/levelbuilder/csa_creating-objects-mp4.mp4,en-US
csa_calling_methods,,,CPE_lYGCw3A,https://videos.code.org/levelbuilder/csa_calling-methods-mp4.mp4,en-US
csa_while_loops,,,qnz0LVpUr88,https://videos.code.org/levelbuilder/csa_while-loops-mp4.mp4,en-US
csa_inheritance,,,vvDIkfaCy88,https://videos.code.org/levelbuilder/csa_-inheritance-mp4.mp4,en-US
csa_writing_a_method,,,pdNf1O9BTYM,https://videos.code.org/levelbuilder/csa_writing-a-method-mp4.mp4,en-US
csa_software_engineering_code_reviews,,,dWddHWU3_YM,https://videos.code.org/levelbuilder/csa_software-engineering-code-reviews-mp4.mp4,en-US
csa_conditional_statements,,,2rQmLwYVYpw,https://videos.code.org/levelbuilder/csa_conditional-statements-mp4.mp4,en-US
csa_printing_in_java,,,XjswJsUj2wQ,https://videos.code.org/levelbuilder/csa_printing-in-java-mp4.mp4,en-US
csa_two_way_selection_and_not,,,EjypsirssII,https://videos.code.org/levelbuilder/csa_two-way-selection-and-not-mp4.mp4,en-US
csa-pl-intro-to-oop,,,Wok4Xw_5cyY,https://videos.code.org/levelbuilder/u1l3a-object-oriented-mr-mp4.mp4,en-US
csa-pl-welcome-to-Neighborhood,,,XCa735V08lQ,https://videos.code.org/levelbuilder/welcome-to-the-neighborhood-mp4.mp4,en-US
csa-pl-calling-methods,,,CPE_lYGCw3A,https://videos.code.org/levelbuilder/u1l4-calling-methods-mr-mp4.mp4,en-US
csa-pl-creating-objects,,,C5Ks_u87Ltg,https://videos.code.org/levelbuilder/u1l3c-creating-objects-mr-mp4.mp4,en-US
csa_accessor_methods,,,F5plZ3f5B3c,https://videos.code.org/levelbuilder/csa_accessor-methods-mp4.mp4,en-US
csa_constructors,,,1vXP8R2i-wg,https://videos.code.org/levelbuilder/csa_constructors-mp4.mp4,en-US
csa_creating_a_scanner_object,,,43PYFmSyupI,https://videos.code.org/levelbuilder/csa_creating-a-scanner-object-mp4.mp4,en-US
csa_creating_variables,,,VHwlxlqrquM,https://videos.code.org/levelbuilder/csa_creating-variables-mp4.mp4,en-US
csa_instance_variables_and_attributes,,,49XzLCs8wgU,https://videos.code.org/levelbuilder/csa_instance-variables-and-attributes-mp4.mp4,en-US
csa_mutator_methods,,,unh7__NcIS8,https://videos.code.org/levelbuilder/csa_mutator-methods-mp4.mp4,en-US
csa_overloaded_constructors,,,rYTRK8R9ZM8,https://videos.code.org/levelbuilder/csa_overloaded-constructors-mp4.mp4,en-US
csa_the_tostring_method,,,WF7prjPzl98,https://videos.code.org/levelbuilder/csa_the-tostring-method-mp4.mp4,en-US
csa_scanner_class_methods,,,v1xPNK2hzzg,https://videos.code.org/levelbuilder/csa_using-scanner-methods-mp4.mp4,en-US
csa_for_loops,,,EF3laugNVCI,https://videos.code.org/levelbuilder/csa_-for-loops-mp4.mp4,en-US
csa_enhanced_for_loops,,,b3Uf7anzr-k,https://videos.code.org/levelbuilder/csa_enhanced-for-loops-mp4.mp4,en-US
csa_modifying_values_in_a_1d_array,,,AGp_5hB6dBE,https://videos.code.org/levelbuilder/csa_modifying-values-in-a-1d-array-mp4.mp4,en-US
csa_nested_loops,,,xFJoqfqVEbg,https://videos.code.org/levelbuilder/csa_nested-loops-mp4.mp4,en-US
csa_one_dimensional_arrays,,,MgRMA_qZxZ4,https://videos.code.org/levelbuilder/csa_one-dimensional-1d-arrays-mp4.mp4,en-US
csa_polymorphism,,,Sx8NRbuAJNQ,https://videos.code.org/levelbuilder/csa_polymorphism-mp4.mp4,en-US
csa_casting,,,Xy1lVNguW3s,https://videos.code.org/levelbuilder/csa_casting-mp4.mp4,en-US
csa_equals_and_aliases,,,9GLT7oQnW4I,https://videos.code.org/levelbuilder/csa_equals-and-aliases-mp4.mp4,en-US
csa_multi-selection_statements,,,sGYm7fojjXA,https://videos.code.org/levelbuilder/csa_multi-selection-statements-mp4.mp4,en-US
csa_random_numbers,,,sbH9lixzL34,https://videos.code.org/levelbuilder/csa_random-numbers-mp4.mp4,en-US
csa_static_methods,,,k3QLkzascYI,https://videos.code.org/levelbuilder/csa_static-methods-mp4.mp4,en-US
csa_static_variables,,,4dffzoEfufA,https://videos.code.org/levelbuilder/csa_static-variables-mp4.mp4,en-US
csa_the_equals_method,,,60JCBG05Sac,https://videos.code.org/levelbuilder/csa_-the-equalsmethod-mp4.mp4,en-US
csa_welcome_to_the_theater,,,Qa5NtHzPmos,https://videos.code.org/levelbuilder/csa_welcome-to-the-theater-mp4.mp4,en-US
enter_your_own_poem,,,oKPgbzdpTSA,https://videos.code.org/levelbuilder/enter_your_own_poem-mp4.mp4,en-US
csa-example-solution-1,,,A7JTqJyA1oc,https://videos.code.org/levelbuilder/csa_prework_live_coding-mp4.mp4,en-US
csd_sprite_properties,,,5Op72oHFUnc,https://videos.code.org/levelbuilder/sprite-properties-mp4.mp4,en-US
csa-pl-documentation,,,qlCHc_ivrLE,https://videos.code.org/levelbuilder/screen-audio-recording-mp4.mp4,en-US
csc-starquilts-intro,,,XtbUUMbqeSY,https://videos.code.org/levelbuilder/brodie_script_star-quilts_sm-v3-mp4.mp4,en-US
csc-mapmakers-intro,,,Aut4zw_U3dg,https://videos.code.org/levelbuilder/kim_mapmakers_sm-v2-mp4.mp4,en-US
csa-pl-vocab-pm,,,qTQsdJFG4SQ,https://videos.code.org/levelbuilder/12-terms-you-should-know-_-project-management-fundamentals-mp4.mp4,en-US
csc-ecosystems-intro,,,Nrk0kDJr1ks,https://videos.code.org/levelbuilder/ali-ecosystems_sm-v2-mp4.mp4,en-US
PL_CSD_MicroBit_Intro,,,u2u7UJSRuko,https://videos.code.org/levelbuilder/introduction-to-the-bbc-microbit-mp4.mp4,en-US
csc_animal_adaptations_intro,,,LmqbEewwOGc,https://videos.code.org/levelbuilder/ali-animal-adaptations_sm-v2-mp4.mp4,en-US
csa_two_dimensional_arrays,,,QIPNA3p6FBo,https://videos.code.org/levelbuilder/csa_two-dimensional-2d-arrays-mp4.mp4,en-US
csa_working_with_2d_array_elements,,,t0ZyG6uWSLE,https://videos.code.org/levelbuilder/csa_working-with-2d-elements-mp4.mp4,en-US
csa_row_major_traversal,,,vS_yPc-2Eb8,https://videos.code.org/levelbuilder/csa_row-major-traversals-mp4.mp4,en-US
csa_column_major_traversal,,,wgYqBhDDNEc,https://videos.code.org/levelbuilder/csa_column-major-traversals-mp4.mp4,en-US
csa_enhanced_for_loops_and_2d_arrays,,,N-ePqqu_D9w,https://videos.code.org/levelbuilder/csa_using-enhanced-for-loops-and-2d-arrays-mp4.mp4,en-US
csa_images_and_pixels,,,eTcPLcODrk0,https://videos.code.org/levelbuilder/csa_images-and-pixels-mp4.mp4,en-US
csa_wrapper_classes_part_1,,,PrhYsHlqxMs,https://videos.code.org/levelbuilder/csa_wrapper-classes-part-1-mp4.mp4,en-US
csa_wrapper_classes_part_2,,,kog78g2fvqU,https://videos.code.org/levelbuilder/csa_wrapper-classes-part-2-mp4.mp4,en-US
csa_the_arraylist_class,,,Wqk9PrPIkXs,https://videos.code.org/levelbuilder/csa_the-arraylist-class-mp4.mp4,en-US
csa_working_with_arraylist_data,,,C8i8q-07OUI,https://videos.code.org/levelbuilder/csa_working-with-arraylist-data-mp4.mp4,en-US
csa_remving_data_from_an_arraylist,,,XXARwZLpAVI,https://videos.code.org/levelbuilder/csa_removing-data-from-an-arraylist-mp4.mp4,en-US
csa_private_methods,,,o9ucV54SzL8,https://videos.code.org/levelbuilder/csa_private-methods-mp4.mp4,en-US
csa_recursion,,,W-nqR8NwaMs,https://videos.code.org/levelbuilder/csa_recursion-mp4.mp4,en-US
csa_searching_algorithms,,,gRK5BUw7TCk,https://videos.code.org/levelbuilder/csa_searching-algorithms-mp4.mp4,en-US
csa_sorting_algorithms,,,b7iasi3MfLw,https://videos.code.org/levelbuilder/csa_sorting-algorithms-mp4.mp4,en-US
star_quilts_intro_to_artist,,,7WeDtIo7qyg,https://videos.code.org/levelbuilder/star_quilts_intro_to_artist-mp4.mp4,en-US
upload_sprites_backgrounds,,,CHipUGfL_0M,https://videos.code.org/levelbuilder/uploading_custom_sprites_and_backgrounds-mp4.mp4,en-US
PL_CSD_EquityBlindSpotsvid,,,BFcjfqmVah8,https://videos.code.org/levelbuilder/blind-spots_-challenge-assumptions-mp4.mp4,en-US
CSF_harvester_skinOverview_K-1,,,CZw12kHpB44,https://videos.code.org/levelbuilder/the-harvester-pre-reader-mp4.mp4,kn-IN
CSF_skinOverview_Harvester,,,Azu5Qg9F9AE,https://videos.code.org/levelbuilder/the-harvester-express-mp4.mp4,kn-IN
CSF_collector_k1_blocks,,,veaBo_1evHQ,https://videos.code.org/levelbuilder/the-collector-pre-reader-mp4.mp4,kn-IN
CSF_collector_text_blocks,,,jFFN8Ics_ZI,https://videos.code.org/levelbuilder/the-collector-express-mp4.mp4,kn-IN
C1_artist_intro,,,niy9eunP_SQ,https://videos.code.org/levelbuilder/the-artist-intro-mp4.mp4,kn-IN
C3_bee_nested_loops,,,BjxjYq2LbqA,https://videos.code.org/levelbuilder/nested-loops-with-the-bee-mp4.mp4,kn-IN
C2_artist_loops,,,CCLSpxomZVU,https://videos.code.org/levelbuilder/loops-with-the-artist-mp4.mp4,kn-IN
CSF_scrat_loops_K1,,,y9itgcrJAqo,https://videos.code.org/levelbuilder/repeat-blocks-with-the-artist-a-b-mp4.mp4,kn-IN
CSF_scrat_loops_CF,,,q_iSZGhZzzg,https://videos.code.org/levelbuilder/repeat-blocks-with-the-artist-c-f-mp4.mp4,kn-IN
CSF_if_allskins,,,R_LSzqcO2sk,https://videos.code.org/levelbuilder/if-and-if-else-statements-mp4.mp4,kn-IN
CSF_ifelse_allskins,,,gxyJ2LlvSA0,https://videos.code.org/levelbuilder/if-and-if-else-statements-long-version-mp4.mp4,kn-IN
C4_for_loops_bee,,,eNPR1T51UNo,https://videos.code.org/levelbuilder/for-loops-and-repeat-blocks-long-version-mp4.mp4,kn-IN
C4_for_loops_no_bee,,,0O7hj5LudOM,https://videos.code.org/levelbuilder/for-loops-and-repeat-blocks-mp4.mp4,kn-IN
C4_conditionals,,,b8cbCGBQEMo,https://videos.code.org/levelbuilder/conditional-statements-mp4.mp4,kn-IN
CSF_collector_repeat_loops,,,y9itgcrJAqo,https://videos.code.org/levelbuilder/repeat-blocks-with-the-artist-a-b-mp4.mp4,kn-IN
how-ai-works-llms-full,,,X-AWdfSFCHQ,https://videos.code.org/levelbuilder/howaiworks_llm_sm_cobrand-mp4.mp4,en-US
how-ai-works-creativity-full,,,X994dDnmRmY,https://videos.code.org/levelbuilder/howaiworks_creativity_sm_cobrand-mp4.mp4,en-US
how-ai-works-llms-part1,,,kWougDgtE3E,https://videos.code.org/levelbuilder/llms_first_part_cobranded_lb-mp4.mp4,en-US
how-ai-works-llms-part2,,,7Jn9UrnMWK8,https://videos.code.org/levelbuilder/llms_second_part_cobranded_lb-mp4.mp4,en-US
csc_bookcovers_intro,,,CqUNczW1oKs,https://videos.code.org/levelbuilder/sasha-storytelling-sm-v4-mp4.mp4,en-US
playlab_2021,,,PoNAOySjafk,https://videos.code.org/levelbuilder/02-play-lab-intro-pre-reader-espanol-mp4.mp4,es-MX
C1_moveitmoveit_unplugged,,,YM0WlSxfiuA,https://videos.code.org/levelbuilder/03-unplugged-move-it-move-it-espanol-mp4.mp4,es-MX
playlab_2021_reader,,,G6bfdmQ5aCw,https://videos.code.org/levelbuilder/04-introduction-to-play-lab-espanol-mp4.mp4,es-MX
CSF_SpriteLab_Intro_v2,,,uSujSYZA-Fk,https://videos.code.org/levelbuilder/06-introducing-sprite-lab-espanol-mp4.mp4,es-MX
CSF_SpriteLab_SpritesInAction_CDEF,,,M6LXrciitOA,https://videos.code.org/levelbuilder/07-sprites-in-action-espanol-mp4.mp4,es-MX
csf21pilot_prompts,,,pvjYSKhJnxw,https://videos.code.org/levelbuilder/08-sprite-lab_-text-and-prompts-espanol-mp4.mp4,es-MX
Unplug10,,,AvkT16B0Gsw,https://videos.code.org/levelbuilder/09-unplugged-internet-espanol-mp4.mp4,es-MX
csd_concept_computer,,,SDyJkRV7EBM,https://videos.code.org/levelbuilder/02_whatmakesacomputer_esp-mp4.mp4,es-MX
csd_concept_binary_data,,,XBS7GQ4DFTA,https://videos.code.org/levelbuilder/03_binarydata_esp-mp4.mp4,es-MX
oceans_machine_learning,,,d57uoV7O7zc,https://videos.code.org/levelbuilder/what-is-machine-learning-esp-dub-mp4.mp4,es-MX
oceans_societal_implications,,,fLux40Lou_c,https://videos.code.org/levelbuilder/ai-societal-impact-mp4.mp4,es-MX
oceans_training_data,,,WVxzrIw4wyU,https://videos.code.org/levelbuilder/training-data-and-bias-esp-dub-mp4.mp4,es-MX
csd_concept_how_computers_work,,,W5kZc48dLB0,https://videos.code.org/levelbuilder/01_howcomputerswork_ita-mp4.mp4,it-IT
csd_concept_computer,,,S63QWqKhWkY,https://videos.code.org/levelbuilder/02_whatmakesacomputer_ita_v2-mp4.mp4,it-IT
csd_concept_binary_data,,,fkrI3cZm8ng,https://videos.code.org/levelbuilder/03_binarydata_ita_v2-mp4.mp4,it-IT
csd_concept_circuits_logic,,,fFdHgNxdZKA,https://videos.code.org/levelbuilder/04_circuitslogic_ita_v2-mp4.mp4,it-IT
csd_concept_memory_cpu_input_output,,,4hHrR8oqiBM,https://videos.code.org/levelbuilder/05_cpumemoryio_ita_v2-mp4.mp4,it-IT
csd_concept_hardware_software,,,Ei9Djp4XLnQ,https://videos.code.org/levelbuilder/06_hardwaresoftware_ita_v2-mp4.mp4,it-IT
csd_concept_memory_cpu_input_output,,,Ew0GyNImYwY,https://videos.code.org/levelbuilder/05_cpumemoryio_esp-mp4.mp4,es-MX
csf21pilot_events,,,M6LXrciitOA,https://videos.code.org/levelbuilder/07-sprites-in-action-espanol-mp4.mp4,es-MX
llms-cobranded,,,X-AWdfSFCHQ,https://videos.code.org/levelbuilder/howaiworks_llm_sm_cobrand-mp4.mp4,en-US
generative-ai-cobranded,,,X994dDnmRmY,https://videos.code.org/levelbuilder/howaiworks_creativity_sm_cobrand-mp4.mp4,en-US
csa-overview,,,lFkFi2jGs70,https://videos.code.org/levelbuilder/studio_project_v1-mp4.mp4,en-US
what-is-creativity,,,aAS3K93_Nks,https://videos.code.org/levelbuilder/studio_project_v1-copy-mp4.mp4,en-US
poetry-programming,,,vT9imQY8Dsc,https://videos.code.org/levelbuilder/studio_project_v1-copy-2-mp4.mp4,en-US
push-yourself,,,ip051U7Rvds,https://videos.code.org/levelbuilder/studio_project_v1-copy-3-mp4.mp4,en-US
classic-maze-intro,,,bQilo5ecSX4,https://videos.code.org/levelbuilder/studio_project_v1-copy-4-mp4.mp4,en-US
code-break,,,27ln76y27IQ,https://videos.code.org/levelbuilder/code_break-mp4.mp4,en-US
blockchain-introd,,,MjibPL4tGqo,https://videos.code.org/levelbuilder/how_blockchain_works-mp4.mp4,en-US
ai-ethis,,,tJQSyzBUAew,https://videos.code.org/levelbuilder/ai_ethics-mp4.mp4,en-US
how-ai-works-lessons,,,YlwVMtNEWKA,https://videos.code.org/levelbuilder/ai-intro-to-how-ai-works-lessons-mp4.mp4,en-US
csd_what_computers_are,,,ZP1YC7xeYZ8,https://videos.code.org/levelbuilder/01_howcomputerswork_sm-mp4.mp4,uk-UA
csd_what_computers_do,,,sxjqgVgD-64,https://videos.code.org/levelbuilder/2-mp4.mp4,uk-UA
csd_concept_how_computers_work,,,anthz3b_NSQ,https://videos.code.org/levelbuilder/3-_-mp4.mp4,uk-UA
C1_bigevent_unplugged,,,SUH-sB4u-oo,https://videos.code.org/levelbuilder/4-mp4.mp4,uk-UA
playlab_2021,,,kONBNZPUf8A,https://videos.code.org/levelbuilder/5-mp4.mp4,uk-UA
C1_getting_loopy,,,BMFT4QJKijc,https://videos.code.org/levelbuilder/6-_-mp4.mp4,uk-UA
C2_artist_intro,,,3wk1cbL79yU,https://videos.code.org/levelbuilder/7-_-jr-hildebrand-mp4.mp4,uk-UA
se-cv-intro-to-lessons,,,pWZG9lXehrQ,https://videos.code.org/levelbuilder/software-engineering-and-computer-vision_-intro-to-lessons-mp4.mp4,en-US
playlab_2021_reader,,,o_WSwdHNa1I,https://videos.code.org/levelbuilder/8-mp4.mp4,uk-UA
starwars_blocks_events,,,5Hd-WWKj8ZA,https://videos.code.org/levelbuilder/9-r2d2-mp4.mp4,uk-UA
hoc_dance_warmup_2019,,,sDx95jdZ93w,https://videos.code.org/levelbuilder/10-2019_-mp4.mp4,uk-UA
hoc_dance_measures_2019,,,R6W-O9qPfjs,https://videos.code.org/levelbuilder/11-2019-mp4.mp4,uk-UA
mc_intro,,,n7nMf2Ei1T0,https://videos.code.org/levelbuilder/12-minecraft-mp4.mp4,uk-UA
mc_repeat,,,c3KP0L80H0A,https://videos.code.org/levelbuilder/13-minecraft_-_-mp4.mp4,uk-UA
mc_if_statements,,,eRBnT2uBZDc,https://videos.code.org/levelbuilder/14-minecraft_-_-mp4.mp4,uk-UA
mc_congrats_no_share,,,iGzWquwJoVc,https://videos.code.org/levelbuilder/15-minecraft-mp4.mp4,uk-UA
loop_until,,,eu5TlnFmxso,https://videos.code.org/levelbuilder/16-_-_-mp4.mp4,uk-UA
mc_2017_agent_intro,,,E47UtIRqYfk,https://videos.code.org/levelbuilder/17-minecraft-mp4.mp4,uk-UA
mc_2017_puzzle_3,,,38H5jydewpQ,https://videos.code.org/levelbuilder/18-minecraft-mp4.mp4,uk-UA
mc_2017_functions,,,qMFxDq7XeZo,https://videos.code.org/levelbuilder/19-minecraft-mp4.mp4,uk-UA
mc_2017_congratulations,,,ly5duRkVm40,https://videos.code.org/levelbuilder/20-minecraft-mp4.mp4,uk-UA
mc_2018_intro,,,AIA_00WGCtc,https://videos.code.org/levelbuilder/21-minecraft-mp4.mp4,uk-UA
MC_2018_loops,,,67W8q0N0aKE,https://videos.code.org/levelbuilder/22-minecraft-_-_-mp4.mp4,uk-UA
mc_2018_conditionals,,,5E3UhOoMRjc,https://videos.code.org/levelbuilder/23-minecraft-mp4.mp4,uk-UA
mc_2018_closing,,,41mS8OEwAf4,https://videos.code.org/levelbuilder/24-minecraft-mp4.mp4,uk-UA
C4_unplugged_forloops,,,lOOWkJMgrus,https://videos.code.org/levelbuilder/25-_-mp4.mp4,uk-UA
outbreak_intro,,,mAZUH-pb8nQ,https://videos.code.org/levelbuilder/26-_-mp4.mp4,uk-UA
oceans_training_data,,,8rObjpUTDko,https://videos.code.org/levelbuilder/28-_-mp4.mp4,uk-UA
oceans_societal_implications,,,h3_AfeqNhfk,https://videos.code.org/levelbuilder/29-_-mp4.mp4,uk-UA
C2_graph_paper,,,QsNQnPpPbkg,https://videos.code.org/levelbuilder/30-mp4.mp4,uk-UA
C2_relay_programming,,,CgPTMh60X1o,https://videos.code.org/levelbuilder/31-mp4.mp4,uk-UA
hoc_dance_events_2019,,,HOXDMVPjiBk,https://videos.code.org/levelbuilder/32-2019_-mp4.mp4,uk-UA
C1_happy_maps_unplugged,,,j4KBIe2jJaQ,https://videos.code.org/levelbuilder/33-mp4.mp4,uk-UA
CSF_maze_intro_k1_blocks,,,1ThjsyvXTi0,https://videos.code.org/levelbuilder/34-a-mp4.mp4,uk-UA
C1_pair_programming,,,NFTsuH2SveU,https://videos.code.org/levelbuilder/35-mp4.mp4,uk-UA
CSF_debugging_k1_blocks,,,n5AJg5Mvki0,https://videos.code.org/levelbuilder/36-_-mp4.mp4,uk-UA
CSF_bb8_skinOverview_K-1,,,bCSHWhiWTG8,https://videos.code.org/levelbuilder/37-8-mp4.mp4,uk-UA
CSF_scrat_loops_K1,,,ToOzchgtrCM,https://videos.code.org/levelbuilder/38-mp4.mp4,uk-UA
CSF_collector_k1_blocks,,,yngCe09P3J8,https://videos.code.org/levelbuilder/39-mp4.mp4,uk-UA
CSF_collector_repeat_loops,,,Vq6WAZJ9mF4,https://videos.code.org/levelbuilder/40-mp4.mp4,uk-UA
C1_artist_intro,,,cV77YuAcctw,https://videos.code.org/levelbuilder/41-mp4.mp4,uk-UA
CSF_a_b_artist_loops,,,c7lyki-IwgY,https://videos.code.org/levelbuilder/42-b-mp4.mp4,uk-UA
C1_moveitmoveit_unplugged,,,5en46wf67KQ,https://videos.code.org/levelbuilder/43-1-mp4.mp4,uk-UA
CSF_harvester_skinOverview_K-1,,,fwAKYVenkps,https://videos.code.org/levelbuilder/44-mp4.mp4,uk-UA
CSF_loops_AB,,,nuP6kr_NHOc,https://videos.code.org/levelbuilder/45-mp4.mp4,uk-UA
CSF_my_robotic_friends,,,-aekY3U9sg8,https://videos.code.org/levelbuilder/46-_-mp4.mp4,uk-UA
CSF_maze_intro_text_blocks,,,zK4TBzLdVDo,https://videos.code.org/levelbuilder/47-f-mp4.mp4,uk-UA
CSF_debugging_text_blocks,,,YFhNI-T7GcQ,https://videos.code.org/levelbuilder/48-mp4.mp4,uk-UA
CSF_collector_text_blocks,,,ABMHjF-H3q8,https://videos.code.org/levelbuilder/49-mp4.mp4,uk-UA
CSF_bb8_skinOverview_C-F,,,8S4DvhydzlA,https://videos.code.org/levelbuilder/50-8-2-5-mp4.mp4,uk-UA
CSF_bb8_loops_C-F,,,K7J-7Pt36Ag,https://videos.code.org/levelbuilder/51-8-mp4.mp4,uk-UA
CSF_skinOverview_Harvester,,,UUvM2FwdvqM,https://videos.code.org/levelbuilder/52-mp4.mp4,uk-UA
hoc_dance_congrats_2019,,,MzryjTYhFH0,https://videos.code.org/levelbuilder/55-2019-mp4.mp4,uk-UA
C2_artist_loops,,,MFgWj9-22XE,https://videos.code.org/levelbuilder/57-2-mp4.mp4,uk-UA
C3_bee_nested_loops,,,s7aSpwKyeWg,https://videos.code.org/levelbuilder/58-mp4.mp4,uk-UA
C3_farmer_while,,,esvz0bo2XSk,https://videos.code.org/levelbuilder/62-mp4.mp4,uk-UA
CSF_SpriteLab_Intro_v2,,,1ycJEXd8qoI,https://videos.code.org/levelbuilder/63-mp4.mp4,uk-UA
CSF_Spritelab_MakeSprite_v2,,,6bL9kyli0Vc,https://videos.code.org/levelbuilder/64-mp4.mp4,uk-UA
CSF_SpriteLab_SpritesInAction_v2,,,_PEDXUDJhyw,https://videos.code.org/levelbuilder/65-mp4.mp4,uk-UA
C3_artist_nested_loops,,,VisZXTwOeiU,https://videos.code.org/levelbuilder/66-4-mp4.mp4,uk-UA
C3_songwriting_with_parameters,,,k7bGsZDBwV0,https://videos.code.org/levelbuilder/67-mp4.mp4,uk-UA
csf21pilot_prompts,,,qPWA0BmAwGU,https://videos.code.org/levelbuilder/69-mp4.mp4,uk-UA
C4_variables_artist,,,I8dezCb5eVU,https://videos.code.org/levelbuilder/71-4-mp4.mp4,uk-UA
C4_for_loops_bee,,,HS708DPEjG0,https://videos.code.org/levelbuilder/72-4-mp4.mp4,uk-UA
PL_CSP_SummerAsync_U1ConnectionsConclusions,,,bD3_437XMMg,https://videos.code.org/levelbuilder/unit-1-connections-and-conclusions-mp4.mp4,en-US
PL_CSP_SummerAsync_U3L7Debugging,,,vsEKQqRx99I,https://videos.code.org/levelbuilder/unit-3-lesson-7-debugging-mp4.mp4,en-US
PL_CSP_SummerAsync_U3ConnectionsConclusions,,,Bx91XYFl0Sg,https://videos.code.org/levelbuilder/unit-2-connections-and-conclusions-mp4.mp4,en-US
PL_CSP_SummerAsync_U3L1Computers,,,mCq8-xTH7jA,https://videos.code.org/levelbuilder/how-computers-work_-what-makes-a-computer-a-computer_-mp4.mp4,en-US
PL_CSP_SummerAsync_Unit2Internet,,,7fzju47lxCQ,https://videos.code.org/levelbuilder/introduction-to-unit-2_-the-internet-mp4.mp4,en-US
PL_CSP_SummerAsync_U2ConnectionsConclusions,,,btZVcyTSMrM,https://videos.code.org/levelbuilder/unit-3-connections-and-conclusions-mp4.mp4,en-US
ai_dance_meetat_draft,,,GEKvouA616A,https://videos.code.org/levelbuilder/level_4_meet_ai_bot-mp4.mp4,en-US
ai_dance_editblocks_draft,,,jYlZqvN7cHg,https://videos.code.org/levelbuilder/level_6_edit_ai_bot-s_code_v2-mp4.mp4,en-US
csd_ml_how_ai_works,,,OeU5m6vRyCk,https://videos.code.org/levelbuilder/ai_-what-is-machine-learning_-mp4.mp4,en-US
hoc-dance-ai-warmup,,,m4fcHdJ-65o,https://videos.code.org/levelbuilder/01-warm-up-v3-2023-ai-update-small-v4-mp4.mp4,en-US
dance_ai_events_intro,,,8tQPhUuFFGM,https://videos.code.org/levelbuilder/hannah-events-1-small-v2-mp4.mp4,en-US
dance_ai_intro_to_ai,,,KNy5uljhCfk,https://videos.code.org/levelbuilder/level-4-ai-dance-party-small-v5-mp4.mp4,en-US
dance_ai_how_ai_works,,,_5azj0S5zc8,https://videos.code.org/levelbuilder/level-6-ai-edit-code-small-v2-mp4.mp4,en-US
dance_ai_event_at_measure,,,lEUpwewvUgg,https://videos.code.org/levelbuilder/hannah-events-2-small-v2-mp4.mp4,en-US
dance_ai_events_measure_noST,,,io-rtbqC8E8,https://videos.code.org/levelbuilder/hannah-events-2-small-v2-mp4.mp4,en-US
dance_ai_intro_to_ai_v3,,,zlCGIw4P-lY,https://videos.code.org/levelbuilder/level-4-ai-dance-party-small-v7-mp4.mp4,en-US
PL_CSD_Unit4_Chapter1Project,,,w_fjkANjIWg,https://videos.code.org/levelbuilder/video_1_v3-mp4.mp4,en-US
PL_CSD_Unit4_Chapter2Project,,,XjF-nk11XmQ,https://videos.code.org/levelbuilder/video_2_v2-mp4.mp4,en-US
CSF_skinOverview_Harvester,,,E4DJs9Fp5Kg,https://videos.code.org/levelbuilder/esp-v28-the-harvester-course-c-f-_hellen-fuenzalida-mp4.mp4,es-MX
CSF_bb8_skinOverview_K-1,,,MBvsUmlxf2g,https://videos.code.org/levelbuilder/esp-v31-programming-with-rey-and-bb-8-course-a-b-mp4.mp4,es-MX
CSF_harvester_skinOverview_K-1,,,https://youtu.be/JEbyRcqoPSY,https://videos.code.org/levelbuilder/esp-v27-la-cosechadora-a-b-mp4.mp4,es-MX
CSF_scrat_loops_K1,,,FCugTkoxJoA,https://videos.code.org/levelbuilder/esp-v15-ice-age-loops-mp4.mp4,es-MX
maker_with_microbit_PL_overview,,,B_WDRK2G6Mg,https://videos.code.org/levelbuilder/intro_microbit_pl_f-mp4.mp4,en-US
CSF_bb8_skinOverview_C-F,,,ioffexas2F4,https://videos.code.org/levelbuilder/esp-v32-programming-with-rey-and-bb-8-course-c-f-mp4.mp4,es-MX
elementary_machine_learning,,,mrJeRNOPBTU,https://videos.code.org/levelbuilder/elementary_machine_learning-mp4.mp4,en-US
hoc_dance_congrats_2019,,,7kPGUtX8_ZU,https://videos.code.org/levelbuilder/dance-party-2019-party-on-_es_v1-mp4.mp4,es-MX
CSF_Spritelab_MakeSprite_v2,,,LGLtG_PJNtk,https://videos.code.org/levelbuilder/how-to-make-a-sprite_es_v1-mp4.mp4,es-MX
hoc_dance_warmup_2019,,,AEm8vX7lNFE,https://videos.code.org/levelbuilder/hoc_danceparty2019_warmup_es_v1-mp4.mp4,es-MX
hoc_dance_properties_2019,,,dIqcaMA21Wg,https://videos.code.org/levelbuilder/dance-party-2019-properties_es_v1-mp4.mp4,es-MX
hoc_dance_measures_2019,,,U_aNd7MUo4Y,https://videos.code.org/levelbuilder/hoc_danceparty2019_measures_es_v1-mp4.mp4,es-MX
CSF_if_allskins,,,iZcEOFHqru0,https://videos.code.org/levelbuilder/conditionals-if-statements_es_v1-mp4.mp4,es-MX
CSF_ifelse_allskins,,,HhOGuxUIv-4,https://videos.code.org/levelbuilder/conditionals-if-and-if-else-statements_es_v1-mp4.mp4,es-MX
CSF_bb8_loops_C-F,,,dRJMedt8ijY,https://videos.code.org/levelbuilder/esp-v5-repeat-blocks-with-bb-8-mp4.mp4,es-MX
variables_sprite_lab_game_design,,,TeoJAoQPZaE,https://videos.code.org/levelbuilder/sprite_lab_variables-mp4.mp4,en-US
csd_weblab_flexboxforteachers1,,,H2O5NcXhBPc,https://videos.code.org/levelbuilder/using-flexbox-in-web-development-mp4.mp4,en-US
csd_weblab_flexboxforteachers2,,,pPdEXY_LfcU,https://videos.code.org/levelbuilder/flexbox-children-mp4.mp4,en-US
csd-iosp-shortened,,,sLIJNEIE0Rs,https://videos.code.org/levelbuilder/computer_iosp_video-mp4.mp4,en-US
self-paced-pl-ai-101-Machine_Learning,,,KHbwOetbmbs,https://videos.code.org/levelbuilder/what-is-machine-learning-mp4.mp4,en-US
self-paced-pl-ai-101-Training_Data,,,x2mRoFNm22g,https://videos.code.org/levelbuilder/training-data-and-bias-mp4.mp4,en-US
self-paced-pl-ai-101-Neural_Networks,,,JrXazCEACVo,https://videos.code.org/levelbuilder/how-neural-networks-work-mp4.mp4,en-US
self-paced-pl-ai-101-How_LLMs_Work,,,X-AWdfSFCHQ,https://videos.code.org/levelbuilder/how-chatbots-and-large-language-models-work-mp4.mp4,en-US
self-paced-pl-ai-101-AI_in_Education,,,SU2lcI-F4pE,https://videos.code.org/levelbuilder/ai-in-education-mp4.mp4,en-US
self-paced-pl-ai-101-Introducing_AI_Literacy,,,mEzio0elFqI,https://videos.code.org/levelbuilder/introducing-ai-literacy-mp4.mp4,en-US
self-paced-pl-ai-101-AI_Literacy_Skills,,,q4caN7OiUVQ,https://videos.code.org/levelbuilder/ai-literacy-skills-mp4.mp4,en-US
self-paced-pl-ai-101-Introducing_AI_and_Impact,,,6J6bmg1O41k,https://videos.code.org/levelbuilder/introducing-ai-and-its-impact-mp4.mp4,en-US
self-paced-pl-ai-101-Impact_of_AI,,,iWmcOZf_MbE,https://videos.code.org/levelbuilder/impact-of-ai-mp4.mp4,en-US
self-paced-pl-ai-101-Introducing_AI_for_Educators,,,FwAru98OLBo,https://videos.code.org/levelbuilder/introducing-ai-for-educators-opening-mp4.mp4,en-US
self-paced-pl-ai-101-Applications_of_AI,,,Gh0ynLM7lIo,https://videos.code.org/levelbuilder/applications-of-ai-mp4.mp4,en-US
self-paced-pl-ai-101-Introduction_to_AI,,,CmdtFD5gfXY,https://videos.code.org/levelbuilder/introduction-to-ai-mp4.mp4,en-US
self-paced-pl-ai-101-Large_Language_Models,,,FJ5WVYhfIs4,https://videos.code.org/levelbuilder/large-language-models-mp4.mp4,en-US
self-paced-pl-ai-101-Guiding_AI_Use,,,1uvvu9-JII0,https://videos.code.org/levelbuilder/guiding-ai-use-mp4.mp4,en-US
self-paced-pl-ai-101-Teaching_about_AI,,,mxkzS8wGtxs,https://videos.code.org/levelbuilder/teaching-about-ai-mp4.mp4,en-US
self-paced-pl-ai-101-Introducing_Algorithmic_Bias,,,mQOCFwhk3KQ,https://videos.code.org/levelbuilder/introducing-algorithmic-bias-mp4.mp4,en-US
self-paced-pl-ai-101-Educators_and_Algorithmic_Bias,,,Kl940auPVCo,https://videos.code.org/levelbuilder/educators-and-algorithmic-bias-mp4.mp4,en-US
self-paced-pl-ai-101-Introducing_Data_Privacy,,,jVx_xlOugVE,https://videos.code.org/levelbuilder/introducing-data-privacy-mp4.mp4,en-US
self-paced-pl-ai-101-Educators_and_Data_Privacy,,,MbsAmE7Gmtw,https://videos.code.org/levelbuilder/educators-and-data-privacy-mp4.mp4,en-US
self-paced-pl-ai-101-Educators_and_AI_Fiction,,,2JD4AgxdQCI,https://videos.code.org/levelbuilder/educators-and-misinformation-and-ai-fiction-mp4.mp4,en-US
self-paced-pl-ai-101-Ensuring_a_Responsible_Approach,,,fqj19Y8Nsw0,https://videos.code.org/levelbuilder/ensuring-a-responsible-approach-to-ai-opening-mp4.mp4,en-US
self-paced-pl-ai-101-Introducing_AI_Fiction,,,7Cxg2YkXuy4,https://videos.code.org/levelbuilder/introducing-misinformation-and-ai-fiction-mp4.mp4,en-US
csd_AI-TA_preview,,,Lj7uZx-BKhw,https://videos.code.org/levelbuilder/ai-teaching-assistant-assessing-student-projects-highlights-mp4.mp4,en-US
ai-how-computer-vision-works,,,2hXG8v8p0KM,https://videos.code.org/levelbuilder/how-computer-vision-works-mp4.mp4,en-US
variables_sprite_lab_games,,,ItGWd5hXPPg,https://videos.code.org/levelbuilder/variables_video_full_v6-mp4.mp4,en-US
music_lab_promo_long,,,GqlP5s7KTl4,https://videos.code.org/levelbuilder/music-lab-_-make-music-learn-code-mp4.mp4,en-US
PL_BasicFeatures_2024,,,hrFfvUBBWhU,https://videos.code.org/levelbuilder/code-org-video-1-teacher-dashboard-mp4.mp4,en-US
PL_StudentExperience_2024,,,cl-zQjJKYX4,https://videos.code.org/levelbuilder/code-org-video-2-student-experience-mp4.mp4,en-US
PL_ClassSection_2024,,,l0w-qjYe9dQ,https://videos.code.org/levelbuilder/code-org-video-3-creating-a-class-section-mp4.mp4,en-US
PL_ProgressFeedbackAssessment2024,,,h5PvLB5gZkg,https://videos.code.org/levelbuilder/code-org-video-4-progress-feedback-assessment-mp4.mp4,en-US
PL_LMSIntegrations_2024,,,GpaeAdq36Ls,https://videos.code.org/levelbuilder/code-org-video-5-code-org-integrations-for-learning-management-systems-mp4.mp4,en-US
