{
  "title": "Computer Vision - Post-Unit Survey for Teachers",
  "logoPosition": "right",
  "pages": [
    {
      "name": "page1",
      "elements": [
        {
          "type": "panel",
          "name": "post_module_survey_header_panel",
          "elements": [
            {
              "type": "html",
              "name": "survey_preamble_header_and_text",
              "html": "<h1>Welcome to Code.org's Computer Vision - Post-Unit Survey</h1>\n\n<p><strong>Code.org relies on surveys as a crucial tool to remain connected to teachers, and to give you the opportunity to provide feedback about your experience teaching our curriculum.</strong></p>\n<p>The purpose of this survey is to understand better who our teachers are, their motivation to teach Code.org's Computer Vision unit, and their previous experience with this content and tools.&nbsp;</p>\n<p><strong>Privacy and Confidentiality</strong></p>\n<ul>\n<li>Your individual responses here are completely <strong>confidential.</strong></li>\n<li>Your identity will&nbsp;<strong>never</strong> be revealed publicly or used to tie any responses back to you personally.</li>\n<li>We may share <strong>de-identified</strong>, aggregate data (representing all responses) publicly.</li>\n<li>Your <strong>de-identified&nbsp;</strong>responses will be used by Code.org to improve our curriculum and programs.</li>\n</ul>\n<p>This survey should take <strong>less than 5 minutes</strong> to complete.&nbsp;&nbsp;<strong>Your complete honesty and candor are appreciated.</strong></p>"
            }
          ]
        },
        {
          "type": "html",
          "name": "curriculum_perceptions",
          "html": "<h2>Your Perceptions About the Computer Vision Unit</h1>\n<p><span style='font-size: 12pt;'>Please share with us a little bit about your thoughts on Code.org's Computer Vision curriculum.</span></p>"
        },
        {
          "type": "matrix",
          "name": "student_outcomes",
          "title": "After completing this module, what percentage of students were able to:",
          "columns": [
            {
              "value": "pct0_24",
              "text": "0-24%"
            },
            {
              "value": "pct_25_49",
              "text": "25-49%"
            },
            {
              "value": "pct_50_74",
              "text": "50-74%"
            },
            {
              "value": "pct_75_89",
              "text": "75-89%"
            },
            {
              "value": "pct_90_100",
              "text": "90% or more"
            }
          ],
          "rows": [
            {
              "value": "apply_cv_solve_problems",
              "text": "Identify and apply computer vision technologies to solve practical problems"
            },
            {
              "value": "manipulate_datasets_for_training_cv_models",
              "text": "Analyze and manipulate datasets for training computer vision models"
            },
            {
              "value": "design_cv_apps_using_design_thinking",
              "text": "Develop and prototype computer vision applications using design thinking methodologies"
            },
            {
              "value": "assess_ethical_implications_cv_projects",
              "text": "Critically assess the ethical implications of computer vision projects"
            },
            {
              "value": "integrate_user_feedback",
              "text": "Integrate user feedback effectively into the development process"
            },
            {
              "value": "communicate_complex_cv_concepts",
              "text": "Communicate complex technical concepts related to computer vision in both written and oral forms"
            },
            {
              "value": "collaborate",
              "text": "Collaborate with peers in a project-based environment"
            }
          ]
        },
        {
          "type": "rating",
          "name": "module_effective",
          "title": "Was teaching with Code.org's Computer Vision unit effective for your students to learn computer vision and AI concepts?",
          "rateCount": 7,
          "rateMax": 7,
          "minRateDescription": "Not Effective At All",
          "maxRateDescription": "Very Effective"
        },
        {
          "type": "rating",
          "name": "confidence_teaching",
          "title": "How confident did you feel in your ability to teach computer vision concepts by the end of the unit?",
          "rateCount": 7,
          "rateMax": 7,
          "minRateDescription": "Not Confident At All",
          "maxRateDescription": "Very Confident"
        },
        {
          "type": "rating",
          "name": "nps_value",
          "title": "How likely are you to recommend this unit to other teachers? ",
          "rateCount": 11,
          "rateMin": 0,
          "rateMax": 10,
          "minRateDescription": "Not At All Likely",
          "maxRateDescription": "Extremely Likely"
        },
        {
          "type": "checkbox",
          "name": "additional_supports",
          "title": "Based on your experience, what improvements would you suggest for the Computer Vision unit?",
          "description": "(Please select all that apply)",
          "choices": [
            {
              "value": "detailed_lesson_plans",
              "text": "More comprehensive lesson plans or guides."
            },
            {
              "value": "additional_pd",
              "text": "Additional PD sessions."
            },
            {
              "value": "more_varied_projects",
              "text": "More varied project options."
            },
            {
              "value": "ethical_considerations",
              "text": "Increased focus on ethical considerations."
            },
            {
              "value": "resources_struggling_students",
              "text": "Enhanced support for students struggling with the content."
            },
            {
              "value": "resources_fast_learners",
              "text": "Advanced materials for fast learners."
            },
            {
              "value": "other",
              "text": "Other."
            }
          ]
        },
        {
          "type": "text",
          "name": "additional_supports_other_comment",
          "visibleIf": "{additional_supports} anyof ['other']",
          "title": "Please describe what other supports or resources would be helpful for teaching this unit?"
        },
        {
          "type": "comment",
          "name": "other_feedback_FR",
          "title": "Is there anything else you’d like to tell us about your experience teaching with Code.org's Computer Vision unit?",
          "rows": 3
        },
        {
          "type": "html",
          "name": "thank_you",
          "html": "<h3><strong>Thank You!</strong></h3>\n<p><span style='font-size: 12pt;'>Thanks from Code.org for your time, thoughts, and passion for teaching.</span>&nbsp;</p>"
        }
      ]
    }
  ],
  "published": true
}