{
  "pages": [
    {
      "name": "page0",
      "elements": [
        {
          "type": "panel",
          "name": "testing_panel",
          "visible": false,
          "title": " ",
          "elements": [
            {
              "type": "html",
              "name": "testing_warning",
              "html": "<h2 style='background-color: yellow'>Panel for variable testing (hide before shipping)</h2>"
            },
            {
              "type": "radiogroup",
              "name": "survey_variable_name",
              "defaultValueExpression": "{survey_variable}",
              "startWithNewLine": false,
              "readOnly": true,
              "visible": true,
              "choices": [
                {
                  "value": "csc",
                  "text": "Computer Science Connections"
                },
                {
                  "value": "csb",
                  "text": "Computer Science Basics"
                },
                {
                  "value": "csf_maker_mb",
                  "text": "Computer Science Foundations: Maker with micro:bit"
                }
              ]
            },
            {
              "type": "html",
              "name": "variable_testing",
              "visible": true,
              "html": "<h3>variables</h3>\n<p>Test to make sure variables are working as expected - make invisible when live</p><p><li>survey_variable_name = {survey_variable_name}</p>"
            },
            {
              "type": "html",
              "name": "testing_warning",
              "html": "<p style='background-color: yellow; text-align:center'>-- End of testing panel -- </p>"
            }
          ]
        },
        {
          "type": "html",
          "name": "intro_k5pre",
          "html": "<h1>Code.org Self-paced Online Professional Learning</h1><p><h2>Welcome to {survey_variable_name}!</h2></p>\n\n<p>Code.org relies on surveys as a crucial tool through which we remain connected to teachers, to give you the opportunity to provide feedback about our curriculum and your teaching experience, as well as to improve our programs.</p>\n<p><strong>Privacy and Confidentiality</strong></p>\n<ul><li>Your individual responses here are completely confidential.</li>\n<li>Your identity will never be revealed publicly or used to tie any responses back to you personally.</li>\n<li>We may share anonymous, aggregate data (representing all responses) publicly.</li>\n<li>Your anonymized responses will be used by Code.org for program improvement.</li></ul>\n\n<p><strong>Your honesty and candor are appreciated.</strong></p><hr><h2>Pre-Course Survey</h2>"
        },
        {
          "type": "radiogroup",
          "name": "first_time_csb",
          "title": "Is this your first self-paced professional learning experience for teaching Code.org's K-5 Computer Science curriculum?",
          "visibleIf": "{survey_variable_name}='csb'",
          "choices": [
            {
              "value": "yes",
              "text": "Yes"
            },
            {
              "value": "no",
              "text": "No"
            }
          ]
        },
        {
          "type": "radiogroup",
          "name": "main_goal",
          "visibleIf": "{survey_variable_name} anyof ['csc', 'csf_maker_mb'] or {first_time_csb}='yes'",
          "title": "My main goal for this professional learning is to:",
          "choices": [
            {
              "value": "better_understand_course_csc",
              "visibleIf": "{survey_variable_name}='csc'",
              "text": "Better understand Code.org's Computer Science Connections curriculum"
            },
            {
              "value": "better_understand_course",
              "visibleIf": "{survey_variable_name}='csb'",
              "text": "Better understand Code.org's K-5 curriculum"
            },
            {
              "value": "better_understand_course_csf_maker_mb",
              "visibleIf": "{survey_variable_name}='csf_maker_mb'",
              "text": "Better understand Code.org's Computer Science Foundations: Maker with micro:bit curriculum"
            },
            {
              "value": "learn_programming",
              "text": "Learn the basics of computer programming"
            },
            {
              "value": "learn_cs_teaching_strategies",
              "text": "Learn best strategies for teaching computer science"
            },
            {
              "value": "other",
              "text": "Other"
            }
          ]
        },
        {
          "type": "radiogroup",
          "name": "reason_for_selfpaced",
          "visibleIf": "{survey_variable_name} anyof ['csc', 'csf_maker_mb'] or {first_time_csb}='yes'",
          "title": "My main reason for choosing self-paced professional development, as opposed to facilitator-led professional development, is: ",
          "choices": [
            {
              "value": "did_not_know",
              "text": "I did not know that there was facilitator-led Code.org professional development"
            },
            {
              "value": "not_available",
              "text": "Facilitator-led Code.org professional development is not available in my region"
            },
            {
              "value": "no_time",
              "text": "I do not have time to go to a facilitator-led workshop"
            },
            {
              "value": "dont_need",
              "text": "A facilitator-led workshop feels like more than I need"
            },
            {
              "value": "not_eligible",
              "text": "I am not eligible to go to a facilitator-led workshop (e.g. I am not a teacher)"
            },
            {
              "value": "want_more_support",
              "text": "I have been to a facilitator-led workshop, but I want more support"
            },
            {
              "value": "other",
              "text": "Other"
            }
          ]
        },
        {
          "type": "radiogroup",
          "name": "plan_to_teach_modules",
          "title": "Are you planning to teach one or more modules of the {survey_variable_name} curriculum? ",
          "visibleIf": "{survey_variable_name} anyof ['csc', 'csf_maker_mb']",
          "natalia_comment": "Added to replace plan_to_teach_csc using survey variable for the module's title -- 02/28/2024",
          "choices": [
            {
              "value": "no",
              "text": "No"
            },
            {
              "value": "prob_not",
              "text": "Probably not"
            },
            {
              "value": "dont_know",
              "text": "I don't know yet"
            },
            {
              "value": "prob_yes",
              "text": "Probably yes"
            },
            {
              "value": "def_yes",
              "text": "Definitely yes"
            },
            {
              "value": "yes",
              "text": "Yes"
            }
          ]
        },
        {
          "type": "radiogroup",
          "name": "plan_to_teach_csc",
          "title": "Are you planning to teach one or more Computer Science Connections Modules? ",
          "visible": false,
          "natalia_comment": "Hidden to replace with plan_to_teach_modules that uses conditional logic using survey variable for the module's title -- 02/28/2024",
          "choices": [
            {
              "value": "no",
              "text": "No"
            },
            {
              "value": "prob_not",
              "text": "Probably not"
            },
            {
              "value": "dont_know",
              "text": "I don't know yet"
            },
            {
              "value": "prob_yes",
              "text": "Probably yes"
            },
            {
              "value": "def_yes",
              "text": "Definitely yes"
            },
            {
              "value": "yes",
              "text": "Yes"
            }
          ]
        },
        {
          "type": "radiogroup",
          "name": "plan_to_teach_csb",
          "title": "Are you planning to teach Code.org's K-5 Computer Science content? ",
          "visibleIf": "{survey_variable_name}='csb' and {first_time_csb_name}='yes'",
          "choices": [
            {
              "value": "no",
              "text": "No"
            },
            {
              "value": "prob_not",
              "text": "Probably not"
            },
            {
              "value": "dont_know",
              "text": "I don't know yet"
            },
            {
              "value": "prob_yes",
              "text": "Probably yes"
            },
            {
              "value": "def_yes",
              "text": "Definitely yes"
            },
            {
              "value": "yes",
              "text": "Yes"
            }
          ]
        }
      ]
    },
    {
      "name": "page2",
      "elements": [
        {
          "type": "rating",
          "name": "interest_learning_cs",
          "title": "How interested are you in learning computer science?",
          "visibleIf": "{first_time_csb}<>'no'",
          "rateMax": 7,
          "minRateDescription": "Very uninterested",
          "maxRateDescription": "Very interested"
        },
        {
          "type": "rating",
          "name": "interest_teaching_cs",
          "title": "How interested are you in teaching computer science?",
          "visibleIf": "{first_time_csb}<>'no'",
          "rateMax": 7,
          "minRateDescription": "Very uninterested",
          "maxRateDescription": "Very interested"
        },
        {
          "type": "rating",
          "name": "confidence_to_teach",
          "title": "How confident do you feel in your ability to teach computer science effectively right now?",
          "visibleIf": "{first_time_csb}<>'no'",
          "rateMax": 7,
          "minRateDescription": "Very unconfident",
          "maxRateDescription": "Very confident"
        },
        {
          "type": "rating",
          "name": "how_nessessary_to_learn",
          "title": "How necessary is it for students to learn computer science?",
          "visibleIf": "{first_time_csb}<>'no'",
          "rateMax": 7,
          "minRateDescription": "Very unnecessary",
          "maxRateDescription": "Very necessary"
        }
      ]
    },
    {
      "name": "page3",
      "elements": [
        {
          "type": "radiogroup",
          "name": "current_level_cs_knowledge",
          "title": "Which best describes your current level of knowledge about computer science?",
          "visibleIf": "{first_time_csb}<>'no'",
          "choices": [
            {
              "value": "none",
              "text": "I have no knowledge"
            },
            {
              "value": "few_activities",
              "text": "I have done a few activities/games online (e.g. the Hour of Code)"
            },
            {
              "value": "few_courses",
              "text": "I have taken a few courses in computer science (e.g. online classes, college courses)"
            },
            {
              "value": "attended_pd",
              "text": "I have attended facilitator-led professional development to teach computer science"
            },
            {
              "value": "cs_degree",
              "text": "I have a degree in computer science (e.g. an undergraduate or graduate degree)"
            }
          ]
        },
        {
          "type": "radiogroup",
          "name": "teacher_role",
          "title": "Which best describes you? ",
          "visibleIf": "{first_time_csb}<>'no'",
          "choices": [
            {
              "value": "classroom",
              "text": "Classroom teacher"
            },
            {
              "value": "stem_tech_techer",
              "text": "STEM / Tech teacher"
            },
            {
              "value": "other_specialist",
              "text": "Other specialist teacher"
            },
            {
              "value": "librarian",
              "text": "Librarian / school media specialist"
            },
            {
              "value": "paraprofessional",
              "text": "Paraprofessional/aide"
            },
            {
              "value": "district_coach",
              "text": "District level coach/specialist"
            },
            {
              "value": "outside_school",
              "text": "Out-of-school educator (e.g. tutor, after school teacher)"
            },
            {
              "value": "administrator",
              "text": "Administrator"
            }
          ],
          "hasOther": true
        },
        {
          "type": "radiogroup",
          "name": "gender",
          "title": "Gender (optional):",
          "visibleIf": "{first_time_csb}<>'no'",
          "choices": [
            {
              "value": "male",
              "text": "Male"
            },
            {
              "value": "female",
              "text": "Female"
            },
            {
              "value": "non_binary",
              "text": "Non-binary"
            },
            {
              "value": "not_listed",
              "text": "Preferred term not listed"
            },
            {
              "value": "prefer_no_answer",
              "text": "Prefer not to answer"
            }
          ]
        },
        {
          "type": "checkbox",
          "name": "race_eth",
          "title": "Which of the following best represents your racial or ethnic background? Please select all that apply. (optional)",
          "visibleIf": "{first_time_csb}<>'no'",
          "choices": [
            {
              "value": "white",
              "text": "White/Caucasian"
            },
            {
              "value": "hispanic",
              "text": "Hispanic or Latino/Latina"
            },
            {
              "value": "black",
              "text": "African American/Black"
            },
            {
              "value": "hawaiian_pi",
              "text": "Asian, Hawaiian, or Pacific Islander"
            },
            {
              "value": "native_am",
              "text": "Native American or American Indian"
            },
            {
              "value": "not_listed",
              "text": "Racial or ethnic background not listed"
            },
            {
              "value": "prefer_no_answer",
              "text": "Prefer not to answer"
            }
          ]
        }
      ]
    }
  ],
  "published": true
}