{
  "key": "code-break-younger",
  "display_name": "Code Break for Younger Students",
  "is_featured": false,
  "assignable": true,
  "curriculum_type": "Hour of Code",
  "marketing_initiative": null,
  "grade_levels": "K,1,2,3,4,5,6,7",
  "header": null,
  "image": "https://images.code.org/9b716df898e3e0acc0008c236cb37066-Elementary Image 2.png",
  "cs_topic": "programming",
  "school_subject": null,
  "device_compatibility": "{\"computer\":\"ideal\",\"chromebook\":\"ideal\",\"tablet\":\"not_recommended\",\"mobile\":\"incompatible\",\"no_device\":\"incompatible\"}",
  "description": "Code Break brings the classroom to you. Interactive fun, challenges, and learning for younger students of all abilities, even without a computer. ",
  "professional_learning_program": null,
  "video": "https://www.youtube-nocookie.com/embed/27ln76y27IQ/?autoplay=1&enablejsapi=1&iv_load_policy=3&modestbranding=1&rel=0&showinfo=1&v=27ln76y27IQ&wmode=transparent",
  "published_date": null,
  "self_paced_pl_course_offering_id": null,
  "self_paced_pl_course_offering_key": null
}
