{
  "key": "counting-csc",
  "display_name": "Counting Activity",
  "is_featured": false,
  "assignable": true,
  "curriculum_type": "Module",
  "marketing_initiative": "CSC",
  "grade_levels": "3,4,5",
  "header": "csc",
  "image": "https://images.code.org/050d4ebbfe7fb9a0d2a4e24486a1e9fe-Counting with Laurel.png",
  "cs_topic": "programming",
  "school_subject": "",
  "device_compatibility": "{\"computer\":\"ideal\",\"chromebook\":\"ideal\",\"tablet\":\"not_recommended\",\"mobile\":\"not_recommended\",\"no_device\":\"incompatible\"}",
  "description": "Count, add, and loop your way through a maze as you collect treasures and master coding commands. Let's guide Laurel to glittering victory!",
  "professional_learning_program": null,
  "video": null,
  "published_date": null,
  "self_paced_pl_course_offering_id": 497,
  "self_paced_pl_course_offering_key": "self-paced-pl-k5"
}
