{
  "key": "coursec",
  "display_name": "CS Fundamentals: Course C",
  "is_featured": false,
  "assignable": true,
  "curriculum_type": "Course",
  "marketing_initiative": "CSF",
  "grade_levels": "2,3",
  "header": "csf",
  "image": "https://images.code.org/c3cf934b9335645a2ee31ef84b6b7dcb-Course C.png",
  "cs_topic": "programming",
  "school_subject": null,
  "device_compatibility": "{\"computer\":\"ideal\",\"chromebook\":\"ideal\",\"tablet\":\"ideal\",\"mobile\":\"not_recommended\",\"no_device\":\"incompatible\"}",
  "description": "In this course, students create programs with sequencing, loops, and events. They also investigate problem-solving techniques and build interactive games.",
  "professional_learning_program": "https://code.org/professional-development-workshops",
  "video": "https://www.youtube-nocookie.com/embed/rNIM1fzJ8u0/?autoplay=1&enablejsapi=1&iv_load_policy=3&modestbranding=1&rel=0&showinfo=1&v=rNIM1fzJ8u0&wmode=transparent",
  "published_date": "2023-07-10 09:00:00 UTC",
  "self_paced_pl_course_offering_id": 93,
  "self_paced_pl_course_offering_key": "k5-onlinepd"
}
