{
  "key": "csa-async",
  "display_name": "Getting Started Modules CSA",
  "is_featured": false,
  "assignable": true,
  "curriculum_type": null,
  "marketing_initiative": null,
  "grade_levels": null,
  "header": null,
  "image": null,
  "cs_topic": null,
  "school_subject": null,
  "device_compatibility": null,
  "description": null,
  "professional_learning_program": null,
  "video": null,
  "published_date": null,
  "self_paced_pl_course_offering_id": null,
  "self_paced_pl_course_offering_key": null
}
