{
  "key": "csa-data-lab",
  "display_name": "AP CSA Data Lab",
  "is_featured": false,
  "assignable": true,
  "curriculum_type": "Standalone Unit",
  "marketing_initiative": "CSA",
  "grade_levels": "9,10,11,12",
  "header": "csa_labs",
  "image": "https://images.code.org/c8ce4a4d4478d17f54c5609fa9011a05-High School Image 1.png",
  "cs_topic": "data,programming",
  "school_subject": null,
  "device_compatibility": "{\"computer\":\"ideal\",\"chromebook\":\"ideal\",\"tablet\":\"incompatible\",\"mobile\":\"incompatible\",\"no_device\":\"incompatible\"}",
  "description": "Is this real life? Yes! Incorporate real-world data sets into hands-on programming assignments with this lab.",
  "professional_learning_program": null,
  "video": null,
  "published_date": "2022-08-01 09:00:00 UTC",
  "self_paced_pl_course_offering_id": null,
  "self_paced_pl_course_offering_key": null
}
