{
  "key": "csa",
  "display_name": "Computer Science A",
  "is_featured": true,
  "assignable": true,
  "curriculum_type": "Course",
  "marketing_initiative": "CSA",
  "grade_levels": "9,10,11,12",
  "header": "year_long",
  "image": "https://images.code.org/6586350ded8474b1b0b9caca45f89c17-CSA (1).png",
  "cs_topic": "art_and_design,data,games_and_animations,programming",
  "school_subject": null,
  "device_compatibility": "{\"computer\":\"ideal\",\"chromebook\":\"ideal\",\"tablet\":\"incompatible\",\"mobile\":\"incompatible\",\"no_device\":\"incompatible\"}",
  "description": "Introduce students to software engineering and design as they learn the Java programming language in this free curriculum for AP® Computer Science A (AP® CSA).",
  "professional_learning_program": "https://code.org/apply",
  "video": "https://www.youtube-nocookie.com/embed/lFkFi2jGs70/?autoplay=1&enablejsapi=1&iv_load_policy=3&modestbranding=1&rel=0&showinfo=1&v=lFkFi2jGs70&wmode=transparent",
  "published_date": "2024-07-10 05:00:00 UTC",
  "self_paced_pl_course_offering_id": null,
  "self_paced_pl_course_offering_key": null
}
