{
  "key": "csc-particles",
  "display_name": "csc-particles",
  "is_featured": false,
  "assignable": true,
  "curriculum_type": null,
  "marketing_initiative": null,
  "grade_levels": "3,4,5,6,7,8",
  "header": null,
  "image": null,
  "cs_topic": "programming",
  "school_subject": "science",
  "device_compatibility": "{\"computer\":\"ideal\",\"chromebook\":\"ideal\",\"tablet\":\"not_recommended\",\"mobile\":\"not_recommended\",\"no_device\":\"incompatible\"}",
  "description": null,
  "professional_learning_program": null,
  "video": null,
  "published_date": null,
  "self_paced_pl_course_offering_id": null,
  "self_paced_pl_course_offering_key": null
}
