{
  "key": "csc-timecapsule",
  "display_name": "Coding a Time Capsule",
  "is_featured": false,
  "assignable": true,
  "curriculum_type": "Module",
  "marketing_initiative": "CSC",
  "grade_levels": "3,4,5,6,7,8",
  "header": "csc",
  "image": "https://images.code.org/0cbf50b3af1507b01292c7f63b7b5e0f-Time Cap.png",
  "cs_topic": "art_and_design,games_and_animations,programming",
  "school_subject": "english_language_arts,history",
  "device_compatibility": "{\"computer\":\"ideal\",\"chromebook\":\"ideal\",\"tablet\":\"not_recommended\",\"mobile\":\"not_recommended\",\"no_device\":\"incompatible\"}",
  "description": "Create a digital time capsule poem to capture a moment in time to share with the future.",
  "professional_learning_program": null,
  "video": "https://www.youtube-nocookie.com/embed/9zkGt7EkbOs/?autoplay=1&enablejsapi=1&iv_load_policy=3&modestbranding=1&rel=0&showinfo=1&v=9zkGt7EkbOs&wmode=transparent",
  "published_date": "2023-07-10 09:00:00 UTC",
  "self_paced_pl_course_offering_id": 421,
  "self_paced_pl_course_offering_key": "self-paced-pl-csc"
}
