{
  "key": "csd",
  "display_name": "Computer Science Discoveries",
  "is_featured": true,
  "assignable": true,
  "curriculum_type": "Course",
  "marketing_initiative": "CSD",
  "grade_levels": "6,7,8,9,10,11,12",
  "header": "year_long",
  "image": "https://images.code.org/ba01bb385ebd439769626f9c7fe84741-CSD (3x).png",
  "cs_topic": "art_and_design,app_design,artificial_intelligence,data,games_and_animations,physical_computing,web_design,programming",
  "school_subject": null,
  "device_compatibility": "{\"computer\":\"ideal\",\"chromebook\":\"ideal\",\"tablet\":\"not_recommended\",\"mobile\":\"incompatible\",\"no_device\":\"incompatible\"}",
  "description": "An introductory course that empowers students to engage with computer science as a medium for creativity, communication, problem solving, and fun.",
  "professional_learning_program": "https://code.org/apply",
  "video": "https://www.youtube-nocookie.com/embed/g4qfsH8bc8s/?autoplay=1&enablejsapi=1&iv_load_policy=3&modestbranding=1&rel=0&showinfo=1&v=g4qfsH8bc8s&wmode=transparent",
  "published_date": "2024-07-10 05:00:00 UTC",
  "self_paced_pl_course_offering_id": 443,
  "self_paced_pl_course_offering_key": "self-paced-pl-csd"
}
