{
  "key": "csp3-virtual",
  "display_name": "Self Paced Introduction to Turtle Programming In App Lab",
  "is_featured": false,
  "assignable": true,
  "curriculum_type": "Standalone Unit",
  "marketing_initiative": "CSP",
  "grade_levels": "9,10,11,12",
  "header": "self_paced",
  "image": "https://images.code.org/0773c123ffe9bda234589984c4eb3634-Turtle Programming.png",
  "cs_topic": "programming",
  "school_subject": null,
  "device_compatibility": "{\"computer\":\"ideal\",\"chromebook\":\"ideal\",\"tablet\":\"incompatible\",\"mobile\":\"incompatible\",\"no_device\":\"incompatible\"}",
  "description": "Unlock the ability to make rich, interactive apps with JavaScript in the App Lab!",
  "professional_learning_program": null,
  "video": null,
  "published_date": "2020-03-01 11:00:00 UTC",
  "self_paced_pl_course_offering_id": null,
  "self_paced_pl_course_offering_key": null
}
