{
  "key": "dance-ai",
  "display_name": "Dance Party: AI Edition",
  "is_featured": true,
  "assignable": true,
  "curriculum_type": "Hour of Code",
  "marketing_initiative": "HOC",
  "grade_levels": "3,4,5,6,7,8",
  "header": "favorites",
  "image": "https://images.code.org/ec283654e85e5d6429a1600157b6c789-dance_ai.jpg",
  "cs_topic": "art_and_design,artificial_intelligence,games_and_animations,programming",
  "school_subject": null,
  "device_compatibility": "{\"computer\":\"ideal\",\"chromebook\":\"ideal\",\"tablet\":\"ideal\",\"mobile\":\"not_recommended\",\"no_device\":\"incompatible\"}",
  "description": "In this activity, learners of all ages get an introductory experience with coding and artificial intelligence in a safe and creative environment. ",
  "professional_learning_program": null,
  "video": "https://www.youtube-nocookie.com/embed/m4fcHdJ-65o/?autoplay=1&enablejsapi=1&iv_load_policy=3&modestbranding=1&rel=0&showinfo=1&v=m4fcHdJ-65o&wmode=transparent",
  "published_date": "2023-11-28 11:00:00 UTC",
  "self_paced_pl_course_offering_id": null,
  "self_paced_pl_course_offering_key": null
}
