{
  "key": "elem-game-design",
  "display_name": "elem-game-design",
  "is_featured": false,
  "assignable": true,
  "curriculum_type": "Module",
  "marketing_initiative": null,
  "grade_levels": "3,4,5,6",
  "header": null,
  "image": "https://images.code.org/4da783165d2f96143c05541e088dd13a-K-5 Game Design.png",
  "cs_topic": "games_and_animations,programming",
  "school_subject": null,
  "device_compatibility": "{\"computer\":\"ideal\",\"chromebook\":\"ideal\",\"tablet\":\"\",\"mobile\":\"\",\"no_device\":\"\"}",
  "description": null,
  "professional_learning_program": null,
  "video": null,
  "published_date": null,
  "self_paced_pl_course_offering_id": null,
  "self_paced_pl_course_offering_key": null
}
