{
  "key": "focus-on-coding",
  "display_name": "Focus on Coding (CS Discoveries)",
  "is_featured": false,
  "assignable": true,
  "curriculum_type": "Course",
  "marketing_initiative": "CSD",
  "grade_levels": "6,7,8,9,10,11,12",
  "header": "collections",
  "image": "https://images.code.org/1051573352c6954036412cd466a8b4a9-Programming.png",
  "cs_topic": "art_and_design,games_and_animations,physical_computing,web_design,programming",
  "school_subject": null,
  "device_compatibility": "{\"computer\":\"ideal\",\"chromebook\":\"ideal\",\"tablet\":\"incompatible\",\"mobile\":\"incompatible\",\"no_device\":\"incompatible\"}",
  "description": "Are you ready to code? This unit empowers students to strengthen their programming skills in web development, app development, and more.",
  "professional_learning_program": "https://code.org/apply",
  "video": null,
  "published_date": "2023-07-10 09:00:00 UTC",
  "self_paced_pl_course_offering_id": 443,
  "self_paced_pl_course_offering_key": "self-paced-pl-csd"
}
