{
  "key": "focus-on-hardware",
  "display_name": "Focus on Hardware (CS Discoveries)",
  "is_featured": false,
  "assignable": true,
  "curriculum_type": "Course",
  "marketing_initiative": "CSD",
  "grade_levels": "6,7,8,9,10,11,12",
  "header": "collections",
  "image": "https://images.code.org/1d5a911d1c0c1c41671b9af7439a40df-HardwareFocus.png",
  "cs_topic": "data,physical_computing,programming",
  "school_subject": null,
  "device_compatibility": "{\"computer\":\"ideal\",\"chromebook\":\"ideal\",\"tablet\":\"incompatible\",\"mobile\":\"incompatible\",\"no_device\":\"incompatible\"}",
  "description": "Let's talk hardware! This unit helps students learn how to use physical devices to solve problems.",
  "professional_learning_program": "https://code.org/apply",
  "video": "https://www.youtube-nocookie.com/embed/OAx_6-wdslM/?autoplay=1&enablejsapi=1&iv_load_policy=3&modestbranding=1&rel=0&showinfo=1&v=OAx_6-wdslM&wmode=transparent",
  "published_date": "2023-07-10 09:00:00 UTC",
  "self_paced_pl_course_offering_id": 443,
  "self_paced_pl_course_offering_key": "self-paced-pl-csd"
}
