{
  "key": "grade3-maker",
  "display_name": "grade3-maker",
  "is_featured": false,
  "assignable": true,
  "curriculum_type": "Module",
  "marketing_initiative": null,
  "grade_levels": "3,4",
  "header": null,
  "image": "https://images.code.org/c48c72b1339754c2ad32a5008e5eeee0-maker-grade3.png",
  "cs_topic": "physical_computing,programming",
  "school_subject": null,
  "device_compatibility": "{\"computer\":\"ideal\",\"chromebook\":\"ideal\",\"tablet\":\"\",\"mobile\":\"\",\"no_device\":\"\"}",
  "description": null,
  "professional_learning_program": null,
  "video": null,
  "published_date": null,
  "self_paced_pl_course_offering_id": null,
  "self_paced_pl_course_offering_key": null
}
