{
  "key": "gumball",
  "display_name": "Gumball Play Lab",
  "is_featured": false,
  "assignable": true,
  "curriculum_type": null,
  "marketing_initiative": "HOC",
  "grade_levels": "2,3,4,5,6,7,8",
  "header": "popular_media",
  "image": "https://images.code.org/0c09e51c4bcd25ef3625eca7a7421d4f-Gumball.png",
  "cs_topic": "games_and_animations,programming",
  "school_subject": null,
  "device_compatibility": "{\"computer\":\"ideal\",\"chromebook\":\"ideal\",\"tablet\":\"ideal\",\"mobile\":\"not_recommended\",\"no_device\":\"incompatible\"}",
  "description": "Ever wanted to create your own game with characters you design? Use code to make them interact, score points, throw things, or vanish each other—it's up to you!",
  "professional_learning_program": null,
  "video": "https://www.youtube-nocookie.com/embed/0QQVL8oKEaA/?autoplay=1&enablejsapi=1&iv_load_policy=3&modestbranding=1&rel=0&showinfo=1&v=0QQVL8oKEaA&wmode=transparent",
  "published_date": "2015-11-30 11:00:00 UTC",
  "self_paced_pl_course_offering_id": 497,
  "self_paced_pl_course_offering_key": "self-paced-pl-k5"
}
