{
  "key": "hello-world-emoji",
  "display_name": "Hello World: Emoji",
  "is_featured": true,
  "assignable": true,
  "curriculum_type": null,
  "marketing_initiative": "HOC",
  "grade_levels": "2,3,4,5,6,7,8,9,10,11,12",
  "header": "hello_world",
  "image": "https://images.code.org/2d5ec473ecb9999bccdaae3dbcb8f4a1-Hello World Emoji Theme.png",
  "cs_topic": "art_and_design,games_and_animations,programming",
  "school_subject": null,
  "device_compatibility": "{\"computer\":\"ideal\",\"chromebook\":\"ideal\",\"tablet\":\"ideal\",\"mobile\":\"ideal\",\"no_device\":\"incompatible\"}",
  "description": "In this emoji-themed intro to Sprite Lab, students learn computer science basics by building fun, interactive projects.",
  "professional_learning_program": null,
  "video": "https://www.youtube-nocookie.com/embed/blePeROA7fA/?autoplay=1&enablejsapi=1&iv_load_policy=3&modestbranding=1&rel=0&showinfo=1&v=blePeROA7fA&wmode=transparent",
  "published_date": "2021-12-01 11:00:00 UTC",
  "self_paced_pl_course_offering_id": 497,
  "self_paced_pl_course_offering_key": "self-paced-pl-k5"
}
