{
  "key": "music-tutorial-2024",
  "display_name": "Music Lab Tutorial",
  "is_featured": true,
  "assignable": true,
  "curriculum_type": "Standalone Unit",
  "marketing_initiative": "CSF",
  "grade_levels": "2,3,4,5,6,7,8,9,10,11,12",
  "header": "teacher_led",
  "image": "https://images.code.org/83dd7299edd4c69cdbc44f7a8033cbfa-Music Lab Callout Graphic (11).png",
  "cs_topic": "art_and_design,programming",
  "school_subject": null,
  "device_compatibility": "{\"computer\":\"ideal\",\"chromebook\":\"ideal\",\"tablet\":\"ideal\",\"mobile\":\"not_recommended\",\"no_device\":\"incompatible\"}",
  "description": "In this engaging lesson, students use Music Lab to develop coding skills, compose songs, and connect technology with creativity.",
  "professional_learning_program": null,
  "video": "https://www.youtube-nocookie.com/embed/GqlP5s7KTl4/?autoplay=1&enablejsapi=1&iv_load_policy=3&modestbranding=1&rel=0&showinfo=1&v=GqlP5s7KTl4&wmode=transparent",
  "published_date": "2024-05-17 07:00:00 UTC",
  "self_paced_pl_course_offering_id": null,
  "self_paced_pl_course_offering_key": null
}
