{
  "key": "nevada-standards-aligned-fourth-grade",
  "display_name": "Nevada Standards Aligned: Beta - CSF Course E",
  "is_featured": false,
  "assignable": true,
  "curriculum_type": "Course",
  "marketing_initiative": null,
  "grade_levels": "4",
  "header": "csf",
  "image": "https://images.code.org/b671ac6357900572dbaf947d41d35947-NevadaBetaCatalogCard.png",
  "cs_topic": null,
  "school_subject": null,
  "device_compatibility": "{\"computer\":\"ideal\",\"chromebook\":\"ideal\",\"tablet\":\"ideal\",\"mobile\":\"not_recommended\",\"no_device\":\"incompatible\"}",
  "description": null,
  "professional_learning_program": null,
  "video": null,
  "published_date": null,
  "self_paced_pl_course_offering_id": null,
  "self_paced_pl_course_offering_key": null
}
