{
  "key": "pilot-k5-ai",
  "display_name": "[Pilot] Elementary AI Module",
  "is_featured": false,
  "assignable": true,
  "curriculum_type": "Module",
  "marketing_initiative": null,
  "grade_levels": "3,4,5",
  "header": "csc",
  "image": null,
  "cs_topic": null,
  "school_subject": null,
  "device_compatibility": null,
  "description": null,
  "professional_learning_program": null,
  "video": null,
  "published_date": null,
  "self_paced_pl_course_offering_id": null,
  "self_paced_pl_course_offering_key": null
}
