{
  "key": "pilot-coursef-maker-2024",
  "display_name": "[Pilot] Course F Maker with micro:bit",
  "is_featured": false,
  "assignable": true,
  "curriculum_type": "Course",
  "marketing_initiative": null,
  "grade_levels": "5,6",
  "header": "csf",
  "image": null,
  "cs_topic": null,
  "school_subject": null,
  "device_compatibility": null,
  "description": null,
  "professional_learning_program": null,
  "video": null,
  "published_date": null,
  "self_paced_pl_course_offering_id": null,
  "self_paced_pl_course_offering_key": null
}
