{
  "key": "poem-art",
  "display_name": "Poem Art",
  "is_featured": true,
  "assignable": true,
  "curriculum_type": null,
  "marketing_initiative": "HOC",
  "grade_levels": "2,3,4,5,6,7,8,9,10,11,12",
  "header": "favorites",
  "image": "https://images.code.org/7266e456775d74775a523873e1487ae7-PoemArt2.png",
  "cs_topic": "art_and_design,games_and_animations,programming",
  "school_subject": "english_language_arts",
  "device_compatibility": "{\"computer\":\"ideal\",\"chromebook\":\"ideal\",\"tablet\":\"ideal\",\"mobile\":\"not_recommended\",\"no_device\":\"incompatible\"}",
  "description": "Roses are red, violets are blue, animate your poem, and learn computer science too! This lesson integrates ELA and CS by using code to convey a poem's mood.",
  "professional_learning_program": null,
  "video": "https://www.youtube-nocookie.com/embed/uvwUWTTjIXo/?autoplay=1&enablejsapi=1&iv_load_policy=3&modestbranding=1&rel=0&showinfo=1&v=uvwUWTTjIXo&wmode=transparent",
  "published_date": "2021-11-18 11:00:00 UTC",
  "self_paced_pl_course_offering_id": null,
  "self_paced_pl_course_offering_key": null
}
