{
  "key": "self-paced-pl-k5",
  "display_name": "Computer Science Basics for K-5 Teachers",
  "is_featured": false,
  "assignable": true,
  "curriculum_type": null,
  "marketing_initiative": null,
  "grade_levels": null,
  "header": "self_paced",
  "image": null,
  "cs_topic": null,
  "school_subject": null,
  "device_compatibility": null,
  "description": null,
  "professional_learning_program": null,
  "video": null,
  "published_date": null,
  "self_paced_pl_course_offering_id": 497,
  "self_paced_pl_course_offering_key": "self-paced-pl-k5"
}
