{
  "key": "self-paced-pl-csd-unit2",
  "display_name": "Teaching Web Development",
  "is_featured": false,
  "assignable": true,
  "curriculum_type": null,
  "marketing_initiative": null,
  "grade_levels": null,
  "header": null,
  "image": null,
  "cs_topic": null,
  "school_subject": null,
  "device_compatibility": null,
  "description": null,
  "professional_learning_program": null,
  "video": null,
  "published_date": null,
  "self_paced_pl_course_offering_id": 486,
  "self_paced_pl_course_offering_key": "self-paced-pl-csd-unit2"
}
