{
  "key": "self-paced-pl-csd-unit4",
  "display_name": "Teaching The Design Process",
  "is_featured": false,
  "assignable": true,
  "curriculum_type": "Professional Learning",
  "marketing_initiative": null,
  "grade_levels": null,
  "header": "self_paced",
  "image": null,
  "cs_topic": null,
  "school_subject": null,
  "device_compatibility": null,
  "description": null,
  "professional_learning_program": null,
  "video": null,
  "published_date": null,
  "self_paced_pl_course_offering_id": 488,
  "self_paced_pl_course_offering_key": "self-paced-pl-csd-unit4"
}
