{
  "key": "spelling-bee",
  "display_name": "Spelling Activity",
  "is_featured": false,
  "assignable": true,
  "curriculum_type": "Module",
  "marketing_initiative": "CSC",
  "grade_levels": "3,4,5",
  "header": "csc",
  "image": "https://images.code.org/83b777315a136ad7f6dcd7d868dc8a0e-CSCLanding_SpellingBeeLesson.png",
  "cs_topic": "programming",
  "school_subject": "",
  "device_compatibility": "{\"computer\":\"ideal\",\"chromebook\":\"ideal\",\"tablet\":\"not_recommended\",\"mobile\":\"not_recommended\",\"no_device\":\"incompatible\"}",
  "description": "Learn sequencing and word magic with buzzing adventure! Guide the bee to spell like a pro with your own series of coding commands.",
  "professional_learning_program": null,
  "video": null,
  "published_date": null,
  "self_paced_pl_course_offering_id": 497,
  "self_paced_pl_course_offering_key": "self-paced-pl-k5"
}
