{
  "key": "text-compression",
  "display_name": "Text Compression",
  "is_featured": false,
  "assignable": true,
  "curriculum_type": null,
  "marketing_initiative": "HOC",
  "grade_levels": "6,7,8,9,10,11,12",
  "header": "labs_and_skills",
  "image": "https://images.code.org/3b32276f0f9148d8fd932db9d739c89a-Text Compression.png",
  "cs_topic": "data",
  "school_subject": null,
  "device_compatibility": "{\"computer\":\"ideal\",\"chromebook\":\"ideal\",\"tablet\":\"incompatible\",\"mobile\":\"incompatible\",\"no_device\":\"incompatible\"}",
  "description": "Decode the compression puzzle! Shrink data, swap symbols, and uncover the secrets of lightning-fast info transfer. Let's compress and conquer!",
  "professional_learning_program": null,
  "video": "https://www.youtube-nocookie.com/embed/LCGkcn1f-ms/?autoplay=1&enablejsapi=1&iv_load_policy=3&modestbranding=1&rel=0&showinfo=1&v=LCGkcn1f-ms&wmode=transparent",
  "published_date": "2021-08-09 09:00:00 UTC",
  "self_paced_pl_course_offering_id": null,
  "self_paced_pl_course_offering_key": null
}
