{
  "key": "virtual-pl-csp-summer",
  "display_name": "CS Principles Virtual PL Workshop Course",
  "is_featured": false,
  "assignable": true,
  "curriculum_type": "Professional Learning",
  "marketing_initiative": null,
  "grade_levels": null,
  "header": "summer_workshops_612",
  "image": null,
  "cs_topic": null,
  "school_subject": null,
  "device_compatibility": null,
  "description": null,
  "professional_learning_program": null,
  "video": null,
  "published_date": null,
  "self_paced_pl_course_offering_id": null,
  "self_paced_pl_course_offering_key": null
}
