name_s,url_s,kind_s,codeorg_b,csedweek_b,hourofcode_b,description_t
Accenture,https://www.accenture.com/us-en/?c=ad_usglbprioritypsgs&n=Accenture_Core_Business_-_US&KW_ID=s3eh86k17_dc|pcrid|66973976537,additional,TRUE,TRUE,FALSE,
ACCESS,http://access-ca.org/,additional,TRUE,FALSE,TRUE,
Access Computing,https://doit-prod.s.uw.edu/accesscomputing/,additional,TRUE,FALSE,TRUE,
Afterschool Alliance,http://www.afterschoolalliance.org/,additional,TRUE,TRUE,TRUE,
Akamai,https://www.akamai.com/,additional,FALSE,TRUE,FALSE,
Aldebaran,https://www.ald.softbankrobotics.com/,additional,TRUE,FALSE,TRUE,
Amazon,https://www.amazon.com/,additional,FALSE,TRUE,FALSE,
AngelHack,https://angelhack.com/,additional,FALSE,TRUE,FALSE,
Apple,https://www.apple.com/,additional,FALSE,TRUE,TRUE,
AthleTECH,,additional,FALSE,TRUE,FALSE,
Better Lesson,https://betterlesson.com/,additional,TRUE,TRUE,TRUE,
Black Girl Nerds,https://blackgirlnerds.com/,additional,TRUE,TRUE,TRUE,
Black Girls Code,http://blackgirlscode.org/,additional,TRUE,TRUE,TRUE,
Blacks in Gaming,,additional,TRUE,TRUE,TRUE,
Boys & Girls Clubs of America,https://www.bgca.org/campaign/brand-campaign,additional,TRUE,TRUE,TRUE,
CareerBuilder,https://www.careerbuilder.com/,additional,TRUE,FALSE,TRUE,
Carnegie Learning,https://www.carnegielearning.com/,additional,TRUE,TRUE,TRUE,
Code for Fun,https://www.codeforfun.com/,additional,TRUE,FALSE,TRUE,
CodeNow,http://codenow.org,additional,TRUE,TRUE,TRUE,
CodeStart,,additional,TRUE,FALSE,TRUE,
Common Sense Education,https://www.commonsense.org/education/,additional,FALSE,TRUE,TRUE,
Computing Research Association,http://www.cra.org/,additional,TRUE,FALSE,TRUE,
Congressional App Challenge,http://congressionalappchallenge.us,additional,TRUE,TRUE,TRUE,
CouponCause,http://couponcause.com/,additional,TRUE,FALSE,FALSE,
Coursera,https://www.coursera.org/,additional,TRUE,TRUE,TRUE,
Design Squad,http://pbskids.org/designsquad/,additional,TRUE,FALSE,TRUE,
DigitalUndivided,http://www.digitalundivided.com/,additional,TRUE,TRUE,TRUE,
Discovery Education,http://www.discoveryeducation.com/,additional,TRUE,TRUE,TRUE,
DIY,https://diy.org/,additional,TRUE,TRUE,TRUE,
Donors Choose,https://www.donorschoose.org/,additional,FALSE,TRUE,FALSE,
Dropbox,https://www.dropbox.com/,additional,FALSE,TRUE,TRUE,
Edhesive,https://edhesive.com/,additional,TRUE,FALSE,TRUE,
Edmodo,http://www.edmodo.com,additional,TRUE,TRUE,TRUE,
Educator Innovator,http://educatorinnovator.org/,additional,TRUE,FALSE,TRUE,
Electronic Arts,http://www.ea.com/,additional,TRUE,FALSE,TRUE,
Exploring Computer Science,http://www.exploringcs.org/,additional,TRUE,FALSE,TRUE,
Girl Develop It,http://www.girldevelopit.com/,additional,TRUE,FALSE,TRUE,
GreatSchools,https://www.greatschools.org/,additional,TRUE,TRUE,TRUE,
Hispanic Foundation of Silicon Valley,https://www.hfsv.org/,additional,TRUE,TRUE,TRUE,
Hive Learning Networks,https://hivelearningnetworks.org/,additional,TRUE,TRUE,TRUE,
HYPOTHEkids,http://hypothekids.org/,additional,TRUE,FALSE,TRUE,
IEEE Computer Society,https://www.computer.org/,additional,TRUE,FALSE,TRUE,
Impressionist EMC,http://www.emc.com/index.htm?fromGlobalSelector,additional,FALSE,FALSE,FALSE,
Innovate NYC Schools,,additional,TRUE,TRUE,TRUE,
Institute for Mathematics and Computer Science,http://www.eimacs.com/,additional,TRUE,TRUE,TRUE,
Junior Achievement,https://www.juniorachievement.org/,additional,TRUE,TRUE,TRUE,
Kahoot,https://getkahoot.com/,additional,TRUE,TRUE,TRUE,
Kapor Center for Social Impact,http://kaporcenter.org/,additional,TRUE,TRUE,TRUE,
Kenney,http://kenney.nl/,additional,TRUE,TRUE,FALSE,
Khan Academy,https://www.khanacademy.org/,additional,FALSE,TRUE,FALSE,
KIPP Academy of Innovation,http://www.kippla.org/kai/,additional,TRUE,FALSE,TRUE,
Knodemy,https://www.knodemy.com/,additional,TRUE,TRUE,TRUE,
Koding,https://koding.com/,additional,TRUE,FALSE,TRUE,
Laer Kidsa Koding,http://www.kidsakoder.no/,additional,TRUE,TRUE,TRUE,
Learn Fresh,http://www.learnfresh.org/,additional,TRUE,FALSE,TRUE,
Learn to Mod,http://www.learntomod.com/,additional,TRUE,FALSE,TRUE,
Mass Technology Leadership Council,http://www.masstlc.org/,additional,TRUE,TRUE,TRUE,
Massachusetts Computing Attainment Network,http://masscan.edc.org/,additional,TRUE,TRUE,TRUE,
mobile.pro,,additional,FALSE,TRUE,FALSE,
Mommy Poppins,http://mommypoppins.com,additional,FALSE,FALSE,FALSE,
Mozilla Webmaker,https://webmaker.org,additional,TRUE,TRUE,TRUE,
Museum of Science,http://www.mos.org/,additional,TRUE,TRUE,TRUE,
Mytonomy,http://www.mytonomy.com,additional,FALSE,TRUE,FALSE,
National Center for Technological Literacy,http://legacy.mos.org/nctl/,additional,TRUE,TRUE,TRUE,
National Council of Teachers of Mathematics,https://www.nctm.org/,additional,TRUE,FALSE,TRUE,
National Girls Collaborative Project,https://ngcproject.org/,additional,TRUE,TRUE,TRUE,
National Math + Science Initiative,https://www.nms.org/,additional,FALSE,FALSE,TRUE,
National Science Teachers Association,https://www.nsta.org/,additional,TRUE,FALSE,TRUE,
National Writing Project,https://www.nwp.org/,additional,TRUE,TRUE,TRUE,
NBA Math Hoops,http://nbamathhoops.org/,additional,TRUE,FALSE,TRUE,
NCWIT,https://www.ncwit.org/,additional,TRUE,FALSE,TRUE,
New Schools Venture Fund,http://www.newschools.org/,additional,TRUE,TRUE,TRUE,
nPower,http://www.npower.org/,additional,TRUE,TRUE,TRUE,
One Laptop Per Child,http://one.laptop.org/,additional,TRUE,TRUE,TRUE,
Pluralsight One,https://www.pluralsightone.org,additional,TRUE,TRUE,TRUE,
PowerMyLearning,http://www.PowerMyLearning.org,additional,FALSE,TRUE,TRUE,
PricewaterhouseCoopers,https://www.pwc.com/,additional,FALSE,TRUE,FALSE,
Project Lead the Way,http://www.pltw.org,additional,TRUE,TRUE,FALSE,
Roblox,https://www.roblox.com/,additional,TRUE,FALSE,FALSE,
Rocketship Education,https://www.rocketshipschools.org/,additional,TRUE,FALSE,TRUE,
Salesforce,https://www.salesforce.com/,additional,TRUE,TRUE,TRUE,
SAS,https://www.sas.com/,additional,TRUE,FALSE,TRUE,
School Improvement Network,http://www.schoolimprovement.com/,additional,TRUE,FALSE,TRUE,
Science Channel,http://science.discovery.com/,additional,TRUE,TRUE,TRUE,
ScriptEd,http://www.scripted.org/,additional,TRUE,FALSE,TRUE,
Share My Lesson,https://sharemylesson.com/partner/hour-code,additional,TRUE,FALSE,TRUE,
Smore,https://www.smore.com/,additional,TRUE,FALSE,TRUE,
Splunk,https://www.splunk.com/,additional,TRUE,TRUE,TRUE,
STEM Advisory Council,https://www.iowastem.gov/,additional,FALSE,FALSE,TRUE,
StudentRND,https://srnd.org/,additional,TRUE,TRUE,TRUE,
TAG Education Collaborative,https://www.tagedonline.org/,additional,TRUE,FALSE,TRUE,
Teach For America,https://www.teachforamerica.org/,additional,FALSE,TRUE,FALSE,
Teaching Kids Programming,http://teachingkidsprogramming.org/,additional,TRUE,TRUE,TRUE,
Teaching Matters,http://www.teachingmatters.org/,additional,TRUE,FALSE,TRUE,
TEALS,https://www.tealsk12.org/,additional,TRUE,FALSE,FALSE,
Technovation Challenge,http://www.technovationchallenge.org/,additional,TRUE,FALSE,TRUE,
Technovation Challenge,http://www.TechnovationChallenge.org,additional,FALSE,TRUE,FALSE,
Thinkful,https://www.thinkful.com/,additional,TRUE,FALSE,TRUE,
ThoughtSTEM,https://www.thoughtstem.com/home,additional,TRUE,FALSE,TRUE,
Udacity,https://www.udacity.com/,additional,TRUE,TRUE,TRUE,
United Black Fund of Greater Cleveland,http://www.unitedblackfund.org/,additional,TRUE,FALSE,FALSE,
USENIX,https://www.usenix.org/,additional,TRUE,TRUE,TRUE,
Valve,http://www.valvesoftware.com/,additional,TRUE,TRUE,TRUE,
Vista Equity Partners,https://www.vistaequitypartners.com/,additional,FALSE,TRUE,FALSE,
Washington Interactive Network,http://www.washingtoninteractivenetwork.org/,additional,TRUE,TRUE,TRUE,
Washington STEM,http://www.washingtonstem.org,additional,TRUE,FALSE,TRUE,
Washington Technology,http://washingtontechnology.org/,additional,TRUE,FALSE,TRUE,
Women Who Code,https://www.womenwhocode.com/,additional,TRUE,TRUE,TRUE,
WyzAnt,http://www.wyzant.com/,additional,TRUE,FALSE,TRUE,
Year Up,http://www.yearup.org/,additional,TRUE,FALSE,TRUE,
Yet Analytics,http://www.yetanalytics.com/,additional,TRUE,FALSE,TRUE,
YouTube,https://www.youtube.com/,additional,TRUE,TRUE,TRUE,
Zynga,http://zynga.com/,additional,TRUE,TRUE,TRUE,
AccessCSforAll,https://www.washington.edu/accesscomputing/accesscsforall,advocacy,TRUE,FALSE,FALSE,
Adobe,https://www.adobe.com/,advocacy,TRUE,FALSE,FALSE,
AdvanceKY,https://advancekentucky.com,advocacy,TRUE,FALSE,FALSE,
Afterschool Alliance,http://www.afterschoolalliance.org/,advocacy,TRUE,FALSE,FALSE,
Amazon,https://www.amazon.com/,advocacy,TRUE,FALSE,FALSE,
America Succeeds,https://americasucceeds.org,advocacy,TRUE,FALSE,FALSE,
American Radio Relay League,https://www.arrl.org/ ,advocacy,TRUE,FALSE,FALSE,
ARCodeKids,https://www.arcodekids.org/,advocacy,TRUE,FALSE,FALSE,
Arizona Technology Council,https://www.aztechcouncil.org/,advocacy,TRUE,FALSE,FALSE,
Arman Roy Foundation,https://www.armanroy.org/,advocacy,TRUE,FALSE,FALSE,
Association for Computing Machinery,https://www.acm.org/,advocacy,TRUE,FALSE,FALSE,
AVID,https://www.avid.org/,pl-partner,TRUE,FALSE,FALSE,
Battelle,https://www.battelle.org/,additional,TRUE,FALSE,FALSE,
Beyond Technology Education,www.beyondk12.com,advocacy,TRUE,FALSE,FALSE,
BCAUSEICAN,http://www.bcauseican.net/,advocacy,TRUE,FALSE,FALSE,
BootUP,http://bootuppd.org,advocacy,TRUE,FALSE,FALSE,
Carnegie Mellon University CS Academy,https://academy.cs.cmu.edu/,advocacy,TRUE,FALSE,FALSE,
CEASOM Regional Partnership,http://ceasom.org/,advocacy,TRUE,FALSE,FALSE,
Center for Cyber Education at Mississippi State University,https://www.rcu.msstate.edu/CyberEducation.aspx,advocacy,TRUE,FALSE,FALSE,
Chicago Suburban CSTA,http://www.bit.ly/chisuburbanCSTA,advocacy,TRUE,FALSE,FALSE,
The Citadel,https://go.citadel.edu/stem-center/,advocacy,TRUE,FALSE,FALSE,
CodeCrew,https://www.code-crew.org/,advocacy,TRUE,FALSE,FALSE,
CodeHS,https://codehs.com,advocacy,TRUE,FALSE,FALSE,
CodeVA,http://www.codevirginia.org/,advocacy,TRUE,FALSE,FALSE,
College Board,https://apstudent.collegeboard.org/apcourse/ap-computer-science-a,advocacy,TRUE,FALSE,FALSE,
Colorado Succeeds,http://www.coloradosucceeds.org/,advocacy,TRUE,FALSE,FALSE,
Colorado Technology Association,http://www.coloradotechnology.org/,advocacy,TRUE,FALSE,FALSE,
CompTIA,http://www.comptia.org,advocacy,TRUE,FALSE,FALSE,
Computer Science Alliance,https://computersciencealliance.org/,advocacy,TRUE,FALSE,FALSE,
Computing Research Association,http://cra.org/,advocacy,TRUE,FALSE,FALSE,
Construct,www.construct.net,advocacy,TRUE,FALSE,FALSE,
Contra Costa County Office of Education,http://www.cccoe.k12.ca.us/index.html,advocacy,TRUE,FALSE,FALSE,
CS4IL,http://www.cs4il.org,advocacy,TRUE,FALSE,FALSE,
CS4MS,https://cs4ms.org/,advocacy,TRUE,FALSE,FALSE,
CS4NC,https://www.fi.ncsu.edu/pages/cs4nc/,advocacy,TRUE,FALSE,FALSE,
CS4NJ,https://cs4nj.org/,advocacy,TRUE,FALSE,FALSE,
CS4RI,http://www.cs4ri.org,advocacy,TRUE,FALSE,FALSE,
CS4TX,http://cs4tx.org/,advocacy,TRUE,FALSE,FALSE,
CSforCA,https://csforca.org,advocacy,TRUE,FALSE,FALSE,
CSforGA,https://cs4ga.org/,advocacy,TRUE,FALSE,FALSE,
CSforMA,https://www.batec.org,advocacy,TRUE,FALSE,FALSE,
CSTA,https://www.csteachers.org/,advocacy,TRUE,FALSE,FALSE,
CSTA Connecticut,https://connecticut.csteachers.org/,advocacy,TRUE,FALSE,FALSE,
CSTA Miami,https://miami.csteachers.org/,advocacy,TRUE,FALSE,FALSE,
CSTA New Jersey,http://cstanj.org/,advocacy,TRUE,FALSE,FALSE,
Cyber.org,https://cyber.org/,advocacy,TRUE,FALSE,FALSE,
Educate Maine,https://www.educatemaine.org/,advocacy,TRUE,FALSE,FALSE,
Educational Service District 105,https://www.esd105.org/domain/175,advocacy,TRUE,FALSE,FALSE,
Ellipsis Education,https://www.ellipsiseducation.com ,advocacy,TRUE,FALSE,FALSE,
ExcelinEd,https://excelined.org,advocacy,TRUE,FALSE,FALSE,
Expanding Computing Education Pathways,http://expandingcomputing.cs.umass.edu/,advocacy,TRUE,FALSE,FALSE,
Flagship Kansas,https://www.flagshipkansas.tech/,advocacy,TRUE,FALSE,FALSE,
The Friday Institute for Educational Innovation,http://www.fi.ncsu.edu,advocacy,TRUE,FALSE,FALSE,
Google,https://www.google.com/edu/,advocacy,TRUE,FALSE,FALSE,
Hawaii Kids CAN,https://hawaiikidscan.org/,advocacy,TRUE,FALSE,FALSE,
Her Computing,https://hercomputing.com/,advocacy,TRUE,FALSE,FALSE,
Idaho STEM Action Center,http://stem.idaho.gov,advocacy,TRUE,FALSE,FALSE,
Infosys Foundation USA,http://www.infosys.com/infosys-foundation/infosys-usa-foundation,advocacy,TRUE,FALSE,FALSE,
InventXYZ,https://inventxyz.com/,advocacy,TRUE,FALSE,FALSE,
KC Tech Council,http://www.kctechcouncil.com/,advocacy,TRUE,FALSE,FALSE,
Kira Learning,https://kira-learning.com/,advocacy,TRUE,FALSE,FALSE,
Knowledge Pillars,https://knowledge-pillars.com/,advocacy,TRUE,FALSE,FALSE,
Laurel Ridge Community College,https://laurelridge.edu/degree/computer-science-csc/,advocacy,TRUE,FALSE,FALSE,
Learning Blade,https://learningblade.com/,advocacy,TRUE,FALSE,FALSE,
LEGO Education,http://www.legoeducation.com,advocacy,TRUE,FALSE,FALSE,
LULAC Illinois Education Council 5238,http://www.lulac.org,advocacy,TRUE,FALSE,FALSE,
Maryland Center for Computing Education,http://csmatters.org/,advocacy,TRUE,FALSE,FALSE,
MassCAN,http://masscan.net/,advocacy,TRUE,FALSE,FALSE,
MEDB STEMworks,https://www.medb.org/stem/,advocacy,TRUE,FALSE,FALSE,
Meta,https://www.meta.com/,advocacy,TRUE,FALSE,FALSE,
Microsoft,http://www.microsoft.com/about/corporatecitizenship/en-us/working-responsibly/principled-business-practices/integrity-governance/political-engagement/,advocacy,TRUE,FALSE,FALSE,
Minnesota Technology Association,https://mntech.org/,advocacy,TRUE,FALSE,FALSE,
Missouri Mathematics and Science Coalition,https://mochamber.com/workforce/missouri-math-and-science-coalition/,advocacy,TRUE,FALSE,FALSE,
National Education Association,http://www.nea.org,advocacy,TRUE,FALSE,FALSE,
National Math and Science Initiative,https://www.nms.org,advocacy,TRUE,FALSE,FALSE,
NCCSE,http://www.css.edu/csed,advocacy,TRUE,FALSE,FALSE,
NCWIT,https://www.ncwit.org,advocacy,TRUE,FALSE,FALSE,
NewBoCo,newbo.co,advocacy,TRUE,FALSE,FALSE,
New Mexico Technology Council,https://nmtechcouncil.org,advocacy,TRUE,FALSE,FALSE,
Nextech,http://nextech.org,advocacy,TRUE,FALSE,FALSE,
NOLA CODE,http://nolacode.org,advocacy,TRUE,FALSE,FALSE,
Orlando Science Center,http://www.osc.org,advocacy,TRUE,FALSE,FALSE,
Parallax,https://www.parallax.com/,advocacy,TRUE,FALSE,FALSE,
PACT,https://philadelphiapact.com/,advocacy,TRUE,FALSE,FALSE,
PATTAN,https://www.pattan.net/,advocacy,TRUE,FALSE,FALSE,
Pluralsight,https://www.pluralsight.com/,advocacy,TRUE,FALSE,FALSE,
Prodigy Learning,https://www.prodigylearning.com/,advocacy,TRUE,FALSE,FALSE,
Ready CT,https://readyct.org/,advocacy,TRUE,FALSE,FALSE,
Reboot Representation,https://www.rebootrepresentation.org/,advocacy,TRUE,FALSE,FALSE,
Rural Technology Fund,http://www.ruraltechfund.org,advocacy,TRUE,FALSE,FALSE,
Sacred Heart University,https://www.sacredheart.edu/academics/colleges--schools/college-of-education--human-development/computer-science-education/computer-science-professional-learning-action-network/,advocacy,TRUE,FALSE,FALSE,
SAS,https://www.sas.com,advocacy,TRUE,FALSE,FALSE,
Scratch Foundation,https://www.scratchfoundation.org/,advocacy,TRUE,FALSE,FALSE,
2 Sigma School,https://2sigma.school/,advocacy,TRUE,FALSE,FALSE,
The Southern Regional Institute and Educational Technology Training Center,http://ettc.net/,advocacy,TRUE,FALSE,FALSE,
STEMx,http://www.stemx.us,advocacy,TRUE,FALSE,FALSE,
TAGED,https://www.tagedonline.org/ ,advocacy,TRUE,FALSE,FALSE,
Teach Cyber,https://teachcyber.org/,advocacy,TRUE,FALSE,FALSE,
TechNet,http://www.technet.org,advocacy,TRUE,FALSE,FALSE,
TechStart,https://www.techstart.org/,advocacy,TRUE,FALSE,FALSE,
Technology Association of Louisville Kentucky,http://www.talklou.com/wp,advocacy,TRUE,FALSE,FALSE,
Technology Association of Oregon,http://www.techoregon.org,advocacy,TRUE,FALSE,FALSE,
Technology Outreach Hawaii,https://techoutreachhi.org/,advocacy,TRUE,FALSE,FALSE,
TECNA,https://www.tecna.org/,advocacy,TRUE,FALSE,FALSE,
Unruly Studios,https://www.unrulysplats.com,advocacy,TRUE,FALSE,FALSE,
Washington STEM,http://www.washingtonstem.org,advocacy,TRUE,FALSE,FALSE,
Whiteboard Advisors,https://whiteboardadvisors.com/,advocacy,TRUE,FALSE,FALSE,
West Virginia University Center for Excellence in STEM Education,http://stemcenter.wvu.edu,advocacy,TRUE,FALSE,FALSE,
AnitaB.org,https://anitab.org/,founder,TRUE,TRUE,TRUE,
Association for Computing Machinery,https://www.acm.org/,founder,FALSE,TRUE,TRUE,
College Board,http://www.collegeboard.org/,founder,FALSE,TRUE,TRUE,
Computer Science Teachers Association,https://www.csteachers.org/,founder,FALSE,TRUE,TRUE,
Computing Research Association,http://www.cra.org/,founder,FALSE,TRUE,TRUE,
Google,http://www.google.com,founder,FALSE,TRUE,FALSE,
IEEE Computer Society,https://www.computer.org,founder,FALSE,TRUE,TRUE,
Microsoft,http://www.microsoft.com,founder,FALSE,TRUE,TRUE,
National Center for Women in Information and Technology,https://www.ncwit.org/,founder,FALSE,TRUE,FALSE,
National Council of Teachers of Mathematics,https://www.nctm.org/,founder,FALSE,TRUE,TRUE,
National Math + Science Initiative,http://www.nms.org/,founder,FALSE,TRUE,FALSE,
National Science Teachers Association,http://www.nsta.org/,founder,FALSE,TRUE,TRUE,
SAS,http://www.sas.com/,founder,FALSE,TRUE,TRUE,
Amazon Web Services,http://aws.amazon.com/,infrastructure,TRUE,FALSE,TRUE,
American Airlines,https://www.aa.com/homePage.do,infrastructure,TRUE,FALSE,TRUE,
AnswerDash,http://www.answerdash.com/,infrastructure,TRUE,FALSE,TRUE,
Applitools,http://applitools.com/,infrastructure,TRUE,FALSE,TRUE,
Atlassian,https://www.atlassian.com/,infrastructure,TRUE,FALSE,TRUE,
Bugcrowd,https://www.bugcrowd.com/,infrastructure,TRUE,FALSE,TRUE,
Chef,https://www.getchef.com/,infrastructure,TRUE,FALSE,TRUE,
Cirrus Insight,https://www.cirrusinsight.com/,infrastructure,TRUE,FALSE,FALSE,
Dropbox,https://www.dropbox.com,infrastructure,TRUE,FALSE,TRUE,
EdX,https://www.edx.org/,infrastructure,TRUE,FALSE,TRUE,
GitHub,https://education.github.com,infrastructure,TRUE,FALSE,TRUE,
JetBrains,https://www.jetbrains.com,infrastructure,TRUE,FALSE,TRUE,
Mapbox,https://www.mapbox.com/,infrastructure,TRUE,FALSE,TRUE,
New Relic,http://newrelic.com/,infrastructure,TRUE,FALSE,TRUE,
Pivotal Tracker,http://www.pivotaltracker.com/,infrastructure,TRUE,FALSE,TRUE,
Pusher,http://pusher.com,infrastructure,TRUE,FALSE,TRUE,
Salesforce,https://www.salesforce.com/,infrastructure,TRUE,FALSE,TRUE,
Tableau,https://www.tableau.com/,infrastructure,TRUE,FALSE,TRUE,
Trello,https://trello.com,infrastructure,TRUE,FALSE,TRUE,
WebPurify,http://www.webpurify.com/,infrastructure,TRUE,FALSE,TRUE,
ZenDesk,https://www.zendesk.com/,infrastructure,TRUE,FALSE,TRUE,
AAPRI,http://www.aapri.es,international,FALSE,FALSE,FALSE,
ABCode,https://www.facebook.com/ABCode.IRAQ/,international,FALSE,FALSE,TRUE,
Accenture Slovakia,https://www.accenture.com/,international,FALSE,FALSE,TRUE,
Actua,http://www.actua.ca/,international,FALSE,FALSE,FALSE,
Adfaber,http://adfaber.org/,international,TRUE,FALSE,TRUE,
Adhyayan School,http://adhyayan.edu.np/,international,FALSE,FALSE,TRUE,
Africa Children Code,,international,FALSE,FALSE,FALSE,
Aga Khan Schools,http://www.akdn.org,international,FALSE,FALSE,TRUE,
Aksorn Education PLC,https://www.aksorn.com/,international,TRUE,FALSE,TRUE,
Almooc,http://almooc.com/,international,FALSE,FALSE,FALSE,
ANPRI,http://www.anpri.pt/,international,FALSE,FALSE,TRUE,
Ara Institute of Canterbury,https://www.ara.ac.nz/,international,FALSE,FALSE,TRUE,
Asha for Education,https://chennai.ashanet.org/,international,TRUE,FALSE,TRUE,
ascitech,https://www.ascitech.cd,international,FALSE,FALSE,FALSE,
ASTI Talent and Tech Foundation,https://astifoundation.com/,international,FALSE,FALSE,FALSE,
a2i,https://a2i.gov.bd/,international,TRUE,FALSE,TRUE,
Aveti,https://avetilearning.com/,international,FALSE,FALSE,TRUE,
Be Cre8v,http://becre8v.com/,international,FALSE,FALSE,FALSE,
Bebras Challenge,http://www.bebraschallenge.org/,international,FALSE,FALSE,FALSE,
Brilliant Labs,http://brilliantlabs.com/,international,FALSE,FALSE,FALSE,
Canada Learning Code,https://www.canadalearningcode.ca/,international,TRUE,FALSE,TRUE,
Change the World,https://www.changetheworld.org.za/,international,FALSE,FALSE,FALSE,
Childrens Creativity Lab,http://creativity.rw/,international,FALSE,FALSE,TRUE,
chumbaka,https://www.chumbaka.asia/,international,FALSE,FALSE,TRUE,
Cini,http://www.consorzio-cini.it/,international,FALSE,FALSE,FALSE,
"Classroom Aid, Inc.",https://classroom-aid.com/,international,FALSE,FALSE,FALSE,
Clevio,http://clev.io,international,FALSE,FALSE,FALSE,
Codarica,https://twitter.com/codaricahq,international,FALSE,FALSE,FALSE,
Code Club Aotearoa,https://codeclub.nz/,international,FALSE,FALSE,FALSE,
Code en mi Cole,http://www.codenmicole.com/,international,TRUE,FALSE,TRUE,
Code for Everyone,http://code.or.jp/,international,TRUE,FALSE,TRUE,
Code for Change,https://codeforchange.co.za/,international,TRUE,FALSE,TRUE,
Code4KT,http://code4kt.com.ng/,international,FALSE,FALSE,FALSE,
Codeforsu,http://www.codeforsu.com/,international,FALSE,FALSE,FALSE,
Codercub,http://www.computerscience.mn/,international,TRUE,FALSE,TRUE,
CoderDojo,http://coderdojo.com/,international,FALSE,FALSE,FALSE,
CodersGuild.Net,https://www.codersguild.net/,international,FALSE,FALSE,FALSE,
CodeTigers,https://www.codetigers.com/,international,TRUE,FALSE,TRUE,
Code to Enhance Learning,http://www.codetoenhancelearning.org,international,FALSE,FALSE,TRUE,
Code for Albania,https://www.codeforalbania.com/,international,FALSE,FALSE,FALSE,
codethatidea,https://www.codethatidea.com,international,FALSE,FALSE,TRUE,
Codifica Ed Tech,http://www.codificaedu.com.br/,international,TRUE,FALSE,TRUE,
Coding Bee Academy,https://codingbee.id/,international,TRUE,FALSE,TRUE,
CodingMarch,http://www.codingmarch.com/,international,FALSE,FALSE,TRUE,
Colegio Nikola Tesla,http://nikolatesla.edu.mx/,international,FALSE,FALSE,TRUE,
Computadores Para Educar,https://www.computadoresparaeducar.gov.co/,international,TRUE,FALSE,TRUE,
Computing at School,https://www.computingatschool.org.uk/,international,FALSE,FALSE,TRUE,
creatorslab,https://creatorslabs.org/,international,FALSE,FALSE,FALSE,
CSed_Botswana,https://www.csedbotswana.org/,international,FALSE,FALSE,TRUE,
Cuantrix,https://cuantrix.mx/,international,TRUE,FALSE,TRUE,
CyberSmarties,https://cybersmarties.com/,international,FALSE,FALSE,FALSE,
Czechitas,https://www.czechitas.cz/en/,international,FALSE,FALSE,FALSE,
DEPA,https://www.depa.or.th/,international,TRUE,FALSE,TRUE,
Design Thinking Society,http://designthinkingsociety.org.ge,international,TRUE,FALSE,TRUE,
Developer Circle Indore,,international,FALSE,FALSE,TRUE,
Devcon Kids,https://www.devconkids.org,international,FALSE,FALSE,TRUE,
diginusa,http://diginusa.com/,international,FALSE,FALSE,TRUE,
DIGIT,http://digit.com.pk/,international,FALSE,FALSE,TRUE,
Digital Moment,https://digitalmoment.org,international,TRUE,FALSE,TRUE,
Edraak,https://www.edraak.org/,international,FALSE,FALSE,FALSE,
Educare Georgia,http://www.educaregeorgia.org/,international,TRUE,FALSE,TRUE,
Educational Initiatives,https://ei.study/,international,FALSE,FALSE,FALSE,
EduXtra,https://www.eduxtra.com.ng/,international,FALSE,FALSE,FALSE,
Edvira,http://edvira.com,international,FALSE,FALSE,FALSE,
Eidos,https://www.eidosglobal.org/index.php,international,TRUE,FALSE,TRUE,
Elemental,https://www.elemental.edu.uy,international,TRUE,FALSE,TRUE,
Enuma,https://enuma.com/,international,TRUE,FALSE,TRUE,
eSkills Malta Foundation,https://eskills.org.mt/,international,FALSE,FALSE,TRUE,
Excited Digital Learning,https://vimeo.com/excited,international,FALSE,FALSE,FALSE,
Federal University of Amapa,https://www.unifap.br/,international,FALSE,FALSE,TRUE,
Fondation Rolf Schnyder,https://www.fondationrolfschnyder.org/,international,FALSE,FALSE,TRUE,
Fundacao Lemann,http://www.fundacaolemann.org.br/,international,FALSE,FALSE,FALSE,
Fundacion Omar Dengo,https://fod.ac.cr/,international,TRUE,FALSE,FALSE,
Fundacao Telefonica VIVO,http://fundacaotelefonicavivo.org.br/,international,TRUE,FALSE,TRUE,
Fundacion Sadosky,http://www.fundacionsadosky.org.ar/,international,FALSE,FALSE,FALSE,
Future Class Network,https://www.futureclassnet.org/index.do,international,TRUE,FALSE,TRUE,
Gabinete de Modernizacao das Tecnologias Educativas,http://www02.madeira-edu.pt/dre/main.aspx,international,FALSE,FALSE,TRUE,
Galaxy Education,https://coding.ican.vn,international,FALSE,FALSE,FALSE,
Ghana Code Club,https://ghanacodeclub.org/,international,FALSE,FALSE,TRUE,
Grok Academy,https://groklearning.com/,international,TRUE,FALSE,TRUE,
HADINA RIMTIC,http://hadinarimtic.org/,international,FALSE,FALSE,FALSE,
HKPS,https://www.hkprog.org,international,FALSE,FALSE,TRUE,
IAMAI Academy,https://iamai.hk/,international,FALSE,FALSE,FALSE,
iLabGlobal,https://ilabglobal.com/,international,FALSE,FALSE,TRUE,
India STEM Foundation,https://indiastemfoundation.org/,international,FALSE,FALSE,FALSE,
Informatika 2_0,https://informatika20.sk/,international,FALSE,FALSE,TRUE,
Inspiring Fifty,http://www.inspiringfifty.com/,international,FALSE,FALSE,FALSE,
InSTEDD iLab Southeast Asia,http://ilabsoutheastasia.org/,international,FALSE,FALSE,FALSE,
Instituto San Agustin,https://isat.edu.pe/,international,FALSE,FALSE,TRUE,
IT Park Uzbekistan,https://it-park.uz/,international,TRUE,FALSE,TRUE,
Jawwal,http://www.jawwal.ps/,international,FALSE,FALSE,FALSE,
Jenga Hub,http://jengahub.com/,international,FALSE,FALSE,TRUE,
Junior Achievement,https://www.jaworldwide.org/,international,TRUE,FALSE,FALSE,
Junyi Academy,https://www.junyiacademy.org,international,TRUE,FALSE,TRUE,
Kidcoders Academy,http://www.kidcodersacademy.gm/,international,FALSE,FALSE,FALSE,
Kids and Code,http://www.kidsandcode.org,international,FALSE,FALSE,FALSE,
Kids Code Jeunesse,http://kidscodejeunesse.org/,international,FALSE,FALSE,FALSE,
KNUE,https://en.knue.ac.kr/smain.html,international,FALSE,FALSE,TRUE,
Kodea,http://www.kodea.org/en/home_en/,international,TRUE,FALSE,TRUE,
Koding Next,https://kodingnext.com/,international,FALSE,FALSE,TRUE,
KodeKiddo,https://www.kodekiddo.com,international,FALSE,FALSE,TRUE,
KOFAC,https://kofac.re.kr/main,international,TRUE,FALSE,TRUE,
Korea Information Science Education Federation,http://kcode.kr/,international,TRUE,FALSE,TRUE,
Laer Kidsa Koding,https://www.kidsakoder.no/,international,FALSE,FALSE,FALSE,
Leadership for Equity,https://www.leadershipforequity.org/,international,TRUE,FALSE,TRUE,
Literacy India,https://literacyindia.org/,international,TRUE,FALSE,TRUE,
Love To Code,http://www.lovetocode.kz/,international,FALSE,FALSE,FALSE,
Magpie Education,http://magpie.education/,international,TRUE,FALSE,FALSE,
Makaia,https://makaia.org,international,TRUE,FALSE,TRUE,
Makers Academy,http://makersacademy.net,international,FALSE,FALSE,FALSE,
MDEC,https://mdec.com.my/,international,TRUE,FALSE,TRUE,
Miur,http://www.istruzione.it/,international,FALSE,FALSE,FALSE,
moinworld,https://moinworld.de/,international,FALSE,FALSE,FALSE,
Montebello Academy,https://www.montebello.edu.ec,international,FALSE,FALSE,TRUE,
Moscow Coding School,http://moscoding.ru/,international,FALSE,FALSE,FALSE,
NatureNurture,https://www.naturenurture.in,international,TRUE,FALSE,TRUE,
Navgurukul,https://www.navgurukul.org/,international,FALSE,FALSE,TRUE,
Nirmaan,https://nirmaan.org/,international,TRUE,FALSE,TRUE,
Nuc Ba Academia,http://www.nucba.com.ar,international,FALSE,FALSE,FALSE,
Odyssey Educational Foundation,https://www.odysseyedufoundation.org/,international,FALSE,FALSE,TRUE,
OEIiZK Warsaw,https://www.oeiizk.waw.pl/,international,FALSE,FALSE,FALSE,
OMGTech,https://omgtech.co.nz/,international,TRUE,FALSE,TRUE,
Optima Tech Academy,https://techacademy.id/,international,FALSE,FALSE,TRUE,
Paltel Group,http://www.paltelgroup.ps/,international,FALSE,FALSE,FALSE,
Paraguay Educa,http://paraguayeduca.org/es/,international,TRUE,FALSE,TRUE,
Partners In Research Canada,http://www.pirweb.org/,international,FALSE,FALSE,FALSE,
Peepul,https://www.peepulindia.org/,international,TRUE,FALSE,TRUE,
Pi Jam Foundation,http://www.thepijam.org,international,TRUE,FALSE,TRUE,
PlanB. GmbH,http://www.plan-b-gmbh.com/,international,FALSE,FALSE,FALSE,
Prestasi Junior Indonesia,https://www.prestasijunior.org/,international,FALSE,FALSE,TRUE,
Progracademy,http://www.progracademy.org/,international,TRUE,FALSE,TRUE,
Programae,http://www.programae.org.br/,international,FALSE,FALSE,FALSE,
Programar,http://program.ar/,international,FALSE,FALSE,FALSE,
Programma Il Futuro,https://www.programmailfuturo.it/,international,TRUE,FALSE,TRUE,
ProVisi Mandiri Pratama,https://provisimandiripratama.com/,international,FALSE,FALSE,TRUE,
Quantum Space,https://quantumspacehub.com,international,FALSE,FALSE,FALSE,
Quest Alliance,https://www.questalliance.net/,international,FALSE,FALSE,FALSE,
Rana Maroun Jbeily Foundation,,international,FALSE,FALSE,FALSE,
Rishs International School,http://www.rishsinternationalschool.com/,international,FALSE,FALSE,FALSE,
RobinCode,http://www.robincode.org/,international,TRUE,FALSE,TRUE,
Sault Ste. Marie Innovation Centre,https://ssmic.com/,international,FALSE,FALSE,FALSE,
Seprod Foundation,www.seprodfoundation.org,international,FALSE,FALSE,TRUE,
Siamentis,https://www.siamentis.com/,international,FALSE,FALSE,FALSE,
Shilpa Sayura Foundation,http://shilpasayura.org,international,FALSE,FALSE,TRUE,
Skooqs,https://skooqs.com,international,FALSE,FALSE,TRUE,
spectrum_institute_of_technology,https://www.spectrumcampus.edu.lk/,international,FALSE,FALSE,TRUE,
SHPIK,https://www.shpik.org/,international,FALSE,FALSE,TRUE,
Sri Sakthi Trust,https://sakthitrust.org/,international,FALSE,FALSE,TRUE,
STEAMLabs Africa,https://steamlabsafrica.com/,international,FALSE,FALSE,TRUE,
STEMUP Educational Foundation,http://stemup.lk,international,TRUE,FALSE,TRUE,
Student Edge,https://studentedge.com.au/,international,FALSE,FALSE,FALSE,
Tech for Kids Academy,https://techforkids.asia/en,international,FALSE,FALSE,TRUE,
Transforma Espana,http://ftransformaespana.es/,international,FALSE,FALSE,FALSE,
Thate Pan Hub,https://thatepanhub.org/,international,TRUE,FALSE,TRUE,
Trust for the Americas,https://www.trustfortheamericas.org/,international,TRUE,FALSE,TRUE,
upeducators,https://www.upeducators.com/,international,FALSE,FALSE,TRUE,
UPSITF,https://upsitf.org/,international,TRUE,FALSE,TRUE,
University of the Basque Country,https://www.ehu.eus/,international,TRUE,FALSE,TRUE,
Vaata Maailma SA,http://www.vaatamaailma.ee/,international,FALSE,FALSE,FALSE,
Vietnet ICT,http://vietnet-ict.org/,international,TRUE,FALSE,TRUE,
Warsaw School of CS,,international,FALSE,FALSE,TRUE,
Wix,https://www.wix.com/,international,TRUE,FALSE,TRUE,
World Tech Makers,http://worldtechmakers.com/,international,FALSE,FALSE,FALSE,
Women In Digital,https://www.womenindigital.net/,international,FALSE,FALSE,FALSE,
Women in STEAM,https://www.wisteamnepal.org/,international,FALSE,FALSE,FALSE,
Women in Tech Maldives,https://www.womenintechmv.org/,international,TRUE,FALSE,TRUE,
Women Who Code,https://www.womenwhocode.com/taipei,international,FALSE,FALSE,TRUE,
Zariah Elizabeth Foundation,http://tzefoundation.org/,international,FALSE,FALSE,FALSE,
Accenture,https://www.accenture.com/us-en/?c=ad_usglbprioritypsgs&n=Accenture_Core_Business_-_US&KW_ID=s3eh86k17_dc|pcrid|66973976537,major,FALSE,FALSE,TRUE,
Amazon,https://www.amazon.com/,major,TRUE,FALSE,TRUE,
Association for Computing Machinery,https://www.acm.org/,major,TRUE,FALSE,TRUE,
Atlassian,https://www.atlassian.com/,major,TRUE,FALSE,FALSE,
Cisco,https://www.cisco.com/,major,TRUE,FALSE,FALSE,
Cognizant,https://www.cognizant.com/,major,TRUE,FALSE,FALSE,
College Board,https://www.collegeboard.org/,major,TRUE,FALSE,FALSE,
Common Sense Education,https://www.commonsense.org/education/,major,TRUE,FALSE,FALSE,
Computer Science Teachers Association,https://www.csteachers.org/,major,TRUE,FALSE,TRUE,
CSforAll,https://www.csforall.org/,major,TRUE,FALSE,TRUE,
Donors Choose,https://www.donorschoose.org/,major,TRUE,FALSE,TRUE,
Ecep,https://ecepalliance.org/,major,TRUE,FALSE,FALSE,
Facebook,https://www.facebook.com/,major,TRUE,FALSE,TRUE,
Google,http://www.google.com,major,TRUE,FALSE,TRUE,
Humanitix,https://www.humanitix.com/us,major,TRUE,FALSE,FALSE,
Infosys Foundation USA,http://www.infosys.com/infosys-foundation/infosys-usa-foundation,major,TRUE,FALSE,TRUE,
ISTE,https://www.iste.org/,major,TRUE,FALSE,FALSE,
Khan Academy,https://www.khanacademy.org/,major,TRUE,FALSE,TRUE,
Microsoft,https://www.microsoft.com,major,TRUE,FALSE,TRUE,
National Math + Science Initiative,http://www.nms.org/,major,TRUE,FALSE,FALSE,
Pluralsight One,https://www.pluralsightone.org,major,TRUE,FALSE,FALSE,
PricewaterhouseCoopers,https://www.pwc.com/,major,TRUE,FALSE,TRUE,
Sauce Labs,https://saucelabs.com/resources/case-studies/codeorg-reduced-testing-time-by-78-and-now-delivers-high-quality-code-faster-for-millions-of-students,major,TRUE,FALSE,TRUE,
Teach For America,https://www.teachforamerica.org/,major,TRUE,FALSE,TRUE,
Uber,https://www.uber.com/,major,TRUE,FALSE,FALSE,
Vista Equity Partners,https://www.vistaequitypartners.com/,major,TRUE,FALSE,TRUE,
Workiva,https://www.workiva.com/,major,TRUE,FALSE,FALSE,
A Plus College Ready,http://www.apluscollegeready.org/,pl-partner,TRUE,FALSE,FALSE,
Advance Kentucky,http://www.advancekentucky.com/,pl-partner,TRUE,FALSE,FALSE,
Alaska Staff Development Network,http://www.asdn.org/,pl-partner,TRUE,FALSE,FALSE,
Allegheny Intermediate Unit,http://www.aiu3.net/,pl-partner,TRUE,FALSE,FALSE,
Arizona Science Center,https://www.azscience.org/,pl-partner,TRUE,FALSE,FALSE,
Arkansas Computer Science and Computing Initiative,https://dese.ade.arkansas.gov/Offices/ar-comp-sci-initiative,pl-partner,TRUE,FALSE,FALSE,
BATEC,http://batec.org/,pl-partner,TRUE,FALSE,FALSE,
Battelle Education,https://www.battelle.org/battelle-stem,pl-partner,TRUE,FALSE,FALSE,
Broward County Public Schools,http://www.browardschools.com/,pl-partner,TRUE,FALSE,FALSE,
University of Texas at Austin,https://www.tacc.utexas.edu/,pl-partner,TRUE,FALSE,FALSE,
Charles County Public Schools,http://www.ccboe.com/,pl-partner,FALSE,FALSE,FALSE,
Code Savvy,https://www.codesavvy.org/,pl-partner,TRUE,FALSE,FALSE,
CodeVA,http://www.codevirginia.org/,pl-partner,TRUE,FALSE,FALSE,
Contra Costa County Office of Education,https://www.cccoe.k12.ca.us/cms/one.aspx?portalId=1077397&pageId=2978911,pl-partner,TRUE,FALSE,FALSE,
Educate Maine,http://www.educatemaine.org,pl-partner,TRUE,FALSE,FALSE,
Florida International University,http://www.fiu.edu/,pl-partner,TRUE,FALSE,FALSE,
Fresno County Superintendent of Schools,https://www.fcoe.org/,pl-partner,TRUE,FALSE,FALSE,
George Fox University,https://www.georgefox.edu/,pl-partner,FALSE,FALSE,FALSE,
Georgia Tech Center for Education Integrating Science Mathematics and Computing,http://ceismc.gatech.edu/,pl-partner,TRUE,FALSE,FALSE,
Grand Valley State University,http://www.mi-coding.com/,pl-partner,TRUE,FALSE,FALSE,
Idaho Digital Learning,https://www.idahodigitallearning.org/,pl-partner,FALSE,FALSE,FALSE,
Learning Technology Center of Illinois,https://ltcillinois.org/,pl-partner,FALSE,FALSE,FALSE,
Los Angeles Unified,https://home.lausd.net/,pl-partner,TRUE,FALSE,FALSE,
Louisiana State University,https://www.lsu.edu/caincenter/,pl-partner,TRUE,FALSE,FALSE,
Lumity,http://www.lumity.org/,pl-partner,FALSE,FALSE,FALSE,
Maine Mathematics and Science Alliance,http://www.mmsa.org,pl-partner,TRUE,FALSE,FALSE,
Marquette University,http://pumpcs.mu.edu/,pl-partner,FALSE,FALSE,FALSE,
Maryland Codes,https://www.marylandcodes.org/,pl-partner,TRUE,FALSE,FALSE,
Mind Spark Learning,http://www.mymindsparklearning.org,pl-partner,TRUE,FALSE,FALSE,
Mississippi State University,https://www.msstate.edu/,pl-partner,TRUE,FALSE,FALSE,
Montgomery County Intermediate Unit,https://mciu.org/,pl-partner,TRUE,FALSE,FALSE,
Mouse,http://www.mouse.org/,pl-partner,TRUE,FALSE,FALSE,
New Mexico CS Alliance,https://computersciencealliance.org/,pl-partner,TRUE,FALSE,FALSE,
Nextech,http://nextech.org/,pl-partner,TRUE,FALSE,FALSE,
Northeast Washington Educational Service District 101,http://www.esd101.net/,pl-partner,FALSE,FALSE,FALSE,
Oklahoma Public School Resource Center,http://opsrc.net/,pl-partner,TRUE,FALSE,FALSE,
Orlando Science Center,http://www.osc.org/,pl-partner,TRUE,FALSE,FALSE,
Puget Sound Educational Service District,https://www.psesd.org/,pl-partner,FALSE,FALSE,FALSE,
Rice University School Mathematics Project,https://rusmp.rice.edu/,pl-partner,FALSE,FALSE,FALSE,
Riverside County Office of Education,http://www.rcoe.us/,pl-partner,TRUE,FALSE,FALSE,
Sacramento County Office of Education,http://www.scoe.net/Pages/default.aspx,pl-partner,TRUE,FALSE,FALSE,
Sacred Heart University,https://www.sacredheart.edu/,pl-partner,TRUE,FALSE,FALSE,
Science Foundation Arizona,http://www.sfaz.org/,pl-partner,FALSE,FALSE,FALSE,
Silicon Valley Education Foundation,http://svefoundation.org/,pl-partner,TRUE,FALSE,FALSE,
Southern Nevada Regional Professional Development Program,http://www.rpdp.net/,pl-partner,TRUE,FALSE,FALSE,
STEM Action Center Utah,http://stem.utah.gov/,pl-partner,FALSE,FALSE,FALSE,
STEMworks Program of Women In Technology,http://www.stemworkshawaii.org/,pl-partner,TRUE,FALSE,FALSE,
STEM2Hub,http://stem2hub.org/,pl-partner,TRUE,FALSE,FALSE,
Technology Innovation in Education,https://www.tie.net/,pl-partner,TRUE,FALSE,FALSE,
Tennessee Department of Education,https://www.tn.gov/education,pl-partner,FALSE,FALSE,FALSE,
The Citadel,http://www.citadel.edu/root/stemcenter,pl-partner,TRUE,FALSE,FALSE,
The College of New Jersey,http://tcnj.pages.tcnj.edu/,pl-partner,TRUE,FALSE,FALSE,
The New Bohemian Innovation Collaborative,http://newbo.co/,pl-partner,TRUE,FALSE,FALSE,
The University of Texas at Dallas,http://www.instructionalexcellence.org/,pl-partner,FALSE,FALSE,FALSE,
The William and Ida Friday Institute For Educational Innovation,http://www.fi.ncsu.edu/,pl-partner,TRUE,FALSE,FALSE,
Twin Cities PBS,http://www.scigirlsconnect.org,pl-partner,FALSE,FALSE,FALSE,
UC San Diego CREATE,https://create.ucsd.edu/,pl-partner,TRUE,FALSE,FALSE,
University of Nebraska Lincoln,https://cehs.unl.edu/tlte/techedge/,pl-partner,TRUE,FALSE,FALSE,
University of New Hampshire,https://www.unh.edu/stem/stem-teachers-collaborative,pl-partner,FALSE,FALSE,FALSE,
University of North Florida,https://www.unf.edu/coehs/,pl-partner,TRUE,FALSE,FALSE,
University of Rhode Island,http://k12.cs.uri.edu/,pl-partner,TRUE,FALSE,FALSE,
University of Wyoming,http://www.uwyo.edu/education/,pl-partner,TRUE,FALSE,FALSE,
USC Viterbi,https://viterbischool.usc.edu/,pl-partner,TRUE,FALSE,FALSE,
WNY STEM,https://wnystem.org/,pl-partner,FALSE,FALSE,FALSE,
WSU Tech,https://wsutech.edu/,pl-partner,TRUE,FALSE,FALSE,
WVU Center for Excellence in STEM Education,http://stemcenter.wvu.edu/,pl-partner,TRUE,FALSE,FALSE,
Zip Code Wilmington,https://www.zipcodewilmington.com/,pl-partner,TRUE,FALSE,FALSE,
Teach For America,http://www.teachforamerica.org,promotional,FALSE,TRUE,TRUE,
3dbear,https://www.3dbear.io/,tutorial,TRUE,TRUE,TRUE,
20th Century Fox,https://www.foxmovies.com/,tutorial,TRUE,TRUE,TRUE,
AI4All,https://ai-4-all.org/,tutorial,TRUE,TRUE,TRUE,
Alice,http://www.alice.org/,tutorial,TRUE,TRUE,TRUE,
AllCanCode,https://www.allcancode.com/web,tutorial,TRUE,FALSE,TRUE,
American Printing House,https://www.aph.org/,tutorial,TRUE,FALSE,TRUE,
Barobo,https://www.barobo.com/,tutorial,TRUE,FALSE,TRUE,
beetik,http://www.beetik.net,tutorial,TRUE,TRUE,TRUE,
Bitsbox,https://bitsbox.com/,tutorial,TRUE,TRUE,TRUE,
Blackbird,https://www.blackbirdcode.com/,tutorial,TRUE,TRUE,TRUE,
BlocksCAD,https://www.blockscad3d.com/,tutorial,TRUE,TRUE,TRUE,
Blocksmith,https://www.blocksmithxr.com/,tutorial,TRUE,TRUE,TRUE,
BluPants,https://blupants.com/,tutorial,TRUE,TRUE,TRUE,
Bot School,https://www.botschool.io/,tutorial,TRUE,TRUE,TRUE,
BrainPOP,https://www.brainpop.com/,tutorial,TRUE,TRUE,TRUE,
BreakoutEDU,https://www.breakoutedu.com/,tutorial,TRUE,TRUE,TRUE,
BSD Education,https://bsd.education/,tutorial,TRUE,TRUE,TRUE,
Buzzcoder,https://buzzcoder.com/,tutorial,TRUE,TRUE,TRUE,
Carnegie Learning,https://www.carnegielearning.com/,tutorial,TRUE,TRUE,TRUE,
Carnegie Mellon Robotics Academy,https://www.cmu.edu/roboticsacademy/,tutorial,TRUE,TRUE,TRUE,
Catrobat,https://www.catrobat.org/,tutorial,TRUE,TRUE,TRUE,
Chibitronics,https://chibitronics.com/,tutorial,TRUE,TRUE,TRUE,
Codeacademy,http://www.codecademy.com/,tutorial,TRUE,TRUE,TRUE,
CodeArt,https://code-art.com/,tutorial,TRUE,TRUE,TRUE,
CodeAvengers,http://www.codeavengers.com/,tutorial,TRUE,TRUE,TRUE,
CodeCapture,https://github.com/code-capture/CodeCapture-Xamarin,tutorial,TRUE,TRUE,TRUE,
CodeCombat,https://codecombat.com/,tutorial,TRUE,TRUE,TRUE,
Codeguppy,https://codeguppy.com/,tutorial,TRUE,TRUE,TRUE,
CodeHS,https://codehs.com/,tutorial,TRUE,TRUE,TRUE,
CodeJIKA,https://codejika.com/,tutorial,TRUE,TRUE,TRUE,
Codemoji,https://codemoji.com/,tutorial,TRUE,TRUE,TRUE,
CodeMonkey,https://www.playcodemonkey.com/,tutorial,TRUE,TRUE,TRUE,
Codepip,https://codepip.com/,tutorial,TRUE,TRUE,TRUE,
Coderdojo,https://coderdojo.com/wp-content/cache/all//index.html,tutorial,TRUE,TRUE,TRUE,
CodeSpeak Labs,https://www.codespeaklabs.com/,tutorial,TRUE,TRUE,TRUE,
Codespark,https://codespark.com/,tutorial,TRUE,TRUE,TRUE,
CodeSpells,https://codespells.org/,tutorial,TRUE,TRUE,TRUE,
Codesters,https://www.codesters.com/,tutorial,TRUE,TRUE,TRUE,
CodeTribe,https://codetribe.com/,tutorial,TRUE,TRUE,TRUE,
Codewards,https://codewards.org/#,tutorial,TRUE,TRUE,TRUE,
Code Camp World,https://www.codecampworld.com/,tutorial,TRUE,TRUE,TRUE,
Code It,https://app.code-it-studio.de/,tutorial,TRUE,TRUE,TRUE,
CodinGame,https://www.codingame.com/start,tutorial,TRUE,TRUE,TRUE,
Coding Galaxy,https://codinggalaxy.com/en,tutorial,TRUE,TRUE,TRUE,
Computing Educators Oral History Project,http://ahab.southwestern.edu/departments/mathcompsci/OHProject/materials-overview.html,tutorial,TRUE,TRUE,TRUE,
Create and Learn,https://www.create-learn.us/,tutorial,TRUE,TRUE,TRUE,
Creaticode,https://creaticode.com/,tutorial,TRUE,TRUE,TRUE,
CS4Philly & Digital Youth Network,https://www.cs4philly.org/,tutorial,TRUE,TRUE,TRUE,
Curriculum Pathways,https://www.curriculumpathways.com/portal/#,tutorial,TRUE,TRUE,TRUE,
Cuttle,https://cuttle.org/,tutorial,TRUE,TRUE,TRUE,
Disney,https://www.thewaltdisneycompany.com/,tutorial,TRUE,TRUE,TRUE,
Edison,https://meetedison.com/,tutorial,TRUE,TRUE,TRUE,
Educative,https://www.educative.io/,tutorial,TRUE,TRUE,TRUE,
EduCode,https://educode.org/,tutorial,TRUE,TRUE,TRUE,
Exploring Computer Science,http://www.exploringcs.org/,tutorial,TRUE,TRUE,TRUE,
Firia Labs,https://firialabs.com/,tutorial,TRUE,TRUE,TRUE,
First Robotics Canada,https://ftcsim.org/ftcsim/,tutorial,TRUE,TRUE,TRUE,
Flocabulary,https://www.flocabulary.com/,tutorial,TRUE,TRUE,TRUE,
Gameblox,https://gameblox.org/,tutorial,TRUE,TRUE,TRUE,
Gamefroot,https://make.gamefroot.com/,tutorial,TRUE,TRUE,TRUE,
Girls Who Code,http://www.girlswhocode.com/,tutorial,TRUE,TRUE,TRUE,
Grok Learning,https://groklearning.com/courses/,tutorial,TRUE,TRUE,TRUE,
HatchXR,https://kids.hatchxr.com/,tutorial,TRUE,TRUE,TRUE,
Hello Ruby,http://www.helloruby.com/,tutorial,TRUE,TRUE,TRUE,
Hopscotch,http://www.gethopscotch.com/,tutorial,TRUE,TRUE,TRUE,
HTML Academy,https://htmlacademy.org/,tutorial,TRUE,TRUE,TRUE,
hyperPad,https://www.hyperpad.com/,tutorial,TRUE,TRUE,TRUE,
iCompute,https://www.icompute-uk.com/,tutorial,TRUE,TRUE,TRUE,
imagiLabs,https://imagilabs.com/,tutorial,TRUE,TRUE,TRUE,
iRobot,https://www.irobot.com/,tutorial,TRUE,TRUE,TRUE,
itchcode,https://www.itchcode.com/,tutorial,TRUE,TRUE,TRUE,
Kano,https://kano.me/,tutorial,TRUE,TRUE,TRUE,
Khan Academy,https://www.khanacademy.org/,tutorial,TRUE,TRUE,TRUE,
Kids Code Jeunesse,https://kidscodejeunesse.org/,tutorial,TRUE,TRUE,TRUE,
KinderLab Robotics,https://kinderlabrobotics.com/,tutorial,TRUE,TRUE,TRUE,
Kodable,http://www.surfscore.com/,tutorial,TRUE,TRUE,TRUE,
Lauren Milne,https://milnel2.github.io/blocks4alliOS/danceCircle2.html,tutorial,TRUE,TRUE,TRUE,
LEGO Education,https://education.lego.com/en-us/,tutorial,TRUE,TRUE,TRUE,
Lets Start Coding,https://www.letsstartcoding.com/,tutorial,TRUE,TRUE,TRUE,
Life is Tech,https://lifeistech.co.jp/en/,tutorial,TRUE,TRUE,TRUE,
LightBot,http://lightbot.com/index.html,tutorial,TRUE,TRUE,TRUE,
LiveCode,https://livecode.com/,tutorial,TRUE,TRUE,TRUE,
Lynda.com,http://www.lynda.com/Developer-training-tutorials/50-0.html?utm_medium=ldc-partner&utm_source=SSPRC&utm_content=524&utm_campaign=CD14814&bid=524&aid=CD14814&opt=,tutorial,TRUE,TRUE,TRUE,
MakeSchool,https://www.makeschool.com/,tutorial,TRUE,TRUE,TRUE,
MathWorks,https://www.mathworks.com/?s_tid=gn_logo,tutorial,TRUE,TRUE,TRUE,
Microbit,https://microbit.org/,tutorial,TRUE,TRUE,TRUE,
Microblocks,http://microblocks.fun/,tutorial,TRUE,TRUE,TRUE,
Minecraft Education,https://education.minecraft.net/,tutorial,TRUE,TRUE,TRUE,
MIT App Inventor,http://appinventor.mit.edu/,tutorial,TRUE,TRUE,TRUE,
Modulo,https://modulogames.net/,tutorial,TRUE,TRUE,TRUE,
Monster Coding,http://monstercoding.com,tutorial,TRUE,TRUE,TRUE,
N2Y,https://www.n2y.com/,tutorial,TRUE,TRUE,TRUE,
Nearpod,https://nearpod.com/,tutorial,TRUE,TRUE,TRUE,
NybleApps,http://www.nybleapps.com/,tutorial,TRUE,TRUE,TRUE,
Oppia,https://www.oppia.org/splash,tutorial,TRUE,TRUE,TRUE,
Ozobot,https://ozobot.com/,tutorial,TRUE,TRUE,TRUE,
Pai Technology,https://www.pai.technology/,tutorial,TRUE,TRUE,TRUE,
Pbs Kids,https://pbskids.org/,tutorial,TRUE,TRUE,TRUE,
Peblio,https://www.peblio.co/,tutorial,TRUE,TRUE,TRUE,
Phidgets,https://phidgets.com/,tutorial,TRUE,TRUE,TRUE,
Pitsco Education,https://www.pitsco.com/,tutorial,TRUE,TRUE,TRUE,
Plethora,https://www.iamplethora.com/,tutorial,TRUE,TRUE,TRUE,
Processing Foundation,https://hello.processing.org/,tutorial,TRUE,TRUE,TRUE,
Programming Basics,http://www.programmingbasics.org/en/,tutorial,TRUE,TRUE,TRUE,
Project Guts,http://www.projectguts.org/,tutorial,TRUE,TRUE,TRUE,
Quorum,https://quorumlanguage.com/,tutorial,TRUE,TRUE,TRUE,
Raspberry Pi,https://www.raspberrypi.org/,tutorial,TRUE,TRUE,TRUE,
Radiant Games,http://www.radiantgames.is/,tutorial,TRUE,TRUE,TRUE,
RoboGarden,https://robogarden.ca/,tutorial,TRUE,TRUE,TRUE,
RoboMind Academy,http://www.robomindacademy.com/go/robomind/home,tutorial,TRUE,TRUE,TRUE,
Robotical,https://robotical.io/,tutorial,TRUE,TRUE,TRUE,
RobotMagic,https://robotmagic.org/,tutorial,TRUE,TRUE,TRUE,
Robot Mesh,https://www.robotmesh.com/,tutorial,TRUE,TRUE,TRUE,
SAS,https://www.sas.com/en_us/home.html,tutorial,TRUE,TRUE,TRUE,
SciGirls,https://www.tpt.org/scigirls/,tutorial,TRUE,TRUE,TRUE,
Scratch,https://scratch.mit.edu/,tutorial,TRUE,TRUE,TRUE,
ScriptAcademy,https://www.scriptacademy.net/,tutorial,TRUE,TRUE,TRUE,
shelly,https://shelly.dev,tutorial,TRUE,TRUE,TRUE,
Snap!,http://snap.berkeley.edu,tutorial,TRUE,TRUE,TRUE,
Sololearn,https://www.sololearn.com/,tutorial,TRUE,TRUE,TRUE,
Sphero,http://www.sphero.com/,tutorial,TRUE,TRUE,TRUE,
STEMcoding,https://www.youtube.com/c/STEMcoding,tutorial,TRUE,TRUE,TRUE,
STEMscopes,https://www.stemscopes.com/,tutorial,TRUE,TRUE,TRUE,
Terminal Two,https://terminaltwo.com/home,tutorial,TRUE,TRUE,TRUE,
Texas Instruments,http://www.ti.com/,tutorial,TRUE,TRUE,TRUE,
Thinkersmith,,tutorial,TRUE,TRUE,TRUE,
Thinkfun,https://www.thinkfun.com/,tutorial,TRUE,TRUE,TRUE,
Thunkable,https://thunkable.com/#/,tutorial,TRUE,TRUE,TRUE,
Tickle,https://tickleapp.com/,tutorial,TRUE,TRUE,TRUE,
Tinkercad,https://www.tinkercad.com/,tutorial,TRUE,TRUE,TRUE,
Toxicode,http://www.toxicode.fr/,tutorial,TRUE,TRUE,TRUE,
Tralalere,https://www.tralalere.com/,tutorial,TRUE,TRUE,TRUE,
Trinket,https://trinket.io/,tutorial,TRUE,TRUE,TRUE,
Tynker,http://www.tynker.com,tutorial,TRUE,TRUE,TRUE,
Unity,https://unity.com/,tutorial,TRUE,TRUE,TRUE,
UW Tacoma,https://www.tacoma.uw.edu/,tutorial,TRUE,TRUE,TRUE,
Vidcode,https://www.vidcode.com/,tutorial,TRUE,TRUE,TRUE,
Weavly,https://weavly.org/,tutorial,TRUE,TRUE,TRUE,
Wolfram,http://www.wolfram.com/programming-lab/?source=footer,tutorial,TRUE,TRUE,TRUE,
Wonder Workshop,https://www.makewonder.com/,tutorial,TRUE,TRUE,TRUE,
UC Davis CSTEM Center,https://c-stem.ucdavis.edu/,tutorial,TRUE,TRUE,TRUE,
