<Panels>
  <config><![CDATA[{
  "published": true,
  "game_id": 73,
  "created_at": "2024-04-26T04:08:34.000Z",
  "level_num": "custom",
  "user_id": 1,
  "properties": {
    "encrypted": "false",
    "background": "music-black",
    "level_data": {
      "panels": [
        {
          "imageUrl": "https://images.code.org/294f99cfd6e1d55a2738e91a71b53570-musiclab_intro_end_2.png",
          "text": "#### 🎶Ready to jam?🎶\n\nYou've learned the basics, and now you're ready to make your own song! Don't forget to explore the sound library - there are plenty of cool sounds in there."
        },
        {
          "imageUrl": "https://images.code.org/aa31c5258bbb31a623d50ba9482e6a00-musiclab_intro_end_1.png",
          "text": "There will be new blocks in your toolbox, including:\n\n- A beat-making block\n\n- A synthesizer block\n\n- Sound effects like reverb\n\n- A *random* block\n\n- ...and more!\n\n🎸Rock out!",
          "nextUrl": "/projectbeats"
        }
      ]
    },
    "name_suffix": "_v2",
    "panels": [
      {
        "imageUrl": "https://images.code.org/846388521fe0f07f2577b346a7ba51d9-musiclab-big-banner-image.png",
        "text": "#### 🎶 Ready to jam? 🎶\n\nYou've learned the basics, and now you're ready to make your own song! \n\nCheck out all the new sounds and customizations in the toolbox. \n\nClick Continue to get started. ",
        "key": "musiclab_intro_panels_end_pdx-88ca8817-6cb7-4c5b-a08a-69fc2267eb0b",
        "nextUrl": "https://studio.code.org/projects/music/new"
      }
    ]
  },
  "audit_log": "[{\"changed_at\":\"2024-04-26T04:08:34.103+00:00\",\"changed\":[\"cloned from \\\"musiclab_intro_panels_end_v2\\\"\"],\"cloned_from\":\"musiclab_intro_panels_end_v2\"},{\"changed_at\":\"2024-05-06 22:09:24 +0000\",\"changed\":[\"panels\"],\"changed_by_id\":1196,\"changed_by_email\":\"amy.woodman@code.org\"},{\"changed_at\":\"2024-05-06 22:10:14 +0000\",\"changed\":[\"panels\"],\"changed_by_id\":1196,\"changed_by_email\":\"amy.woodman@code.org\"},{\"changed_at\":\"2024-05-06 22:11:05 +0000\",\"changed\":[\"panels\"],\"changed_by_id\":1196,\"changed_by_email\":\"amy.woodman@code.org\"},{\"changed_at\":\"2024-05-06 22:11:51 +0000\",\"changed\":[\"panels\"],\"changed_by_id\":1196,\"changed_by_email\":\"amy.woodman@code.org\"},{\"changed_at\":\"2024-05-06 22:14:22 +0000\",\"changed\":[\"panels\"],\"changed_by_id\":1196,\"changed_by_email\":\"amy.woodman@code.org\"},{\"changed_at\":\"2024-05-16 02:20:33 +0000\",\"changed\":[\"panels\"],\"changed_by_id\":574,\"changed_by_email\":\"brendan+levelbuilder@code.org\"}]"
}]]></config>
</Panels>
