<Panels>
  <config><![CDATA[{
  "game_id": 73,
  "created_at": "2024-06-03T22:50:42.000Z",
  "level_num": "custom",
  "user_id": 1,
  "properties": {
    "encrypted": "false",
    "background": "music-black",
    "level_data": {
      "panels": [
        {
          "imageUrl": "https://images.code.org/294f99cfd6e1d55a2738e91a71b53570-musiclab_intro_end_2.png",
          "text": "#### 🎶Ready to jam?🎶\n\nYou've learned the basics, and now you're ready to make your own song! Don't forget to explore the sound library - there are plenty of cool sounds in there."
        },
        {
          "imageUrl": "https://images.code.org/aa31c5258bbb31a623d50ba9482e6a00-musiclab_intro_end_1.png",
          "text": "There will be new blocks in your toolbox, including:\n\n- A beat-making block\n\n- A synthesizer block\n\n- Sound effects like reverb\n\n- A *random* block\n\n- ...and more!\n\n🎸Rock out!",
          "nextUrl": "/projectbeats"
        }
      ]
    },
    "name_suffix": "_coursee",
    "panels": [
      {
        "imageUrl": "https://images.code.org/846388521fe0f07f2577b346a7ba51d9-musiclab-big-banner-image.png",
        "text": "#### 🎶 Ready to jam? 🎶\n\nYou've learned the basics, and now you're ready to make your own song! \n\nCheck out all the new sounds and customizations in the toolbox. \n\nClick Continue to get started. ",
        "key": "musiclab_intro_panels_end_pdx-88ca8817-6cb7-4c5b-a08a-69fc2267eb0b",
        "nextUrl": "https://studio.code.org/projects/music/new"
      }
    ]
  },
  "published": true,
  "audit_log": "[{\"changed_at\":\"2024-06-03T22:50:42.185+00:00\",\"changed\":[\"cloned from \\\"usiclab_tutorial_panels_end_course-d\\\"\"],\"cloned_from\":\"usiclab_tutorial_panels_end_course-d\"}]"
}]]></config>
</Panels>
