<Javalab>
  <config><![CDATA[{
  "properties": {
    "encrypted": "false",
    "long_instructions": "The `RowPainter`(#e7e8ea) class extends the `Painter`(#e7e8ea) class. It has a method called `paintArea()`(#e7e8ea) that paints a row while a `RowPainter`(#e7e8ea) object can move forward in the direction it is facing. If the `RowPainter`(#e7e8ea) object is facing east, the parameter `firstColor`(#e7e8ea) is used to paint. If the `RowPainter`(#e7e8ea) object is facing west, the parameter `secondColor`(#e7e8ea) is used to paint. The `RowPainter`(#e7e8ea) object moves to the next row when the end of the current row is reached.\r\n\r\n##In RowPainter.java:\r\n   \r\n1. Use nested `if`(#e7e8ea) statements to write the `paintEast()`(#e7e8ea) method. The method should paint using the parameter `color`(#e7e8ea) if the `RowPainter`(#e7e8ea) object is facing east and its y location is an even number.\r\n\r\n2. Use nested `if`(#e7e8ea) statements to write the `paintWest()`(#e7e8ea) method. The method should paint using the parameter `color`(#e7e8ea) if the `RowPainter`(#e7e8ea) object is facing west and its y location is an odd number.\r\n\r\n##In MyConsole.java:\r\n\r\n3. Instantiate a `RowPainter`(#e7e8ea) object at `(1, 4)`(#e7e8ea) facing `\"east\"`(#e7e8ea) with `40`(#e7e8ea) units of paint.\r\n\r\n4. Call your `paintArea()`(#e7e8ea) method.\r\n\r\n![](https://images.code.org/0dae016d46592111144b51ada96d7516-image-1650557990966.gif)",
    "mini_rubric": "false",
    "submittable": "false",
    "hide_share_and_remix": "false",
    "csa_view_mode": "neighborhood",
    "display_name": "Paint the Area",
    "bubble_choice_description": "Use nested if statements to paint the area inside the walls.",
    "serialized_maze": [
      [
        {
          "tileType": 0,
          "value": 0,
          "assetId": 48
        },
        {
          "tileType": 0,
          "value": 0,
          "assetId": 48
        },
        {
          "tileType": 0,
          "value": 0,
          "assetId": 48
        },
        {
          "tileType": 0,
          "value": 0,
          "assetId": 48
        },
        {
          "tileType": 0,
          "value": 0,
          "assetId": 48
        },
        {
          "tileType": 0,
          "value": 0,
          "assetId": 48
        },
        {
          "tileType": 0,
          "value": 0,
          "assetId": 48
        },
        {
          "tileType": 0,
          "value": 0,
          "assetId": 48
        },
        {
          "tileType": 0,
          "value": 0,
          "assetId": 48
        },
        {
          "tileType": 0,
          "value": 0,
          "assetId": 48
        },
        {
          "tileType": 0,
          "value": 0,
          "assetId": 48
        },
        {
          "tileType": 0,
          "value": 0,
          "assetId": 48
        }
      ],
      [
        {
          "tileType": 0,
          "value": 0,
          "assetId": 48
        },
        {
          "tileType": 0,
          "value": 0,
          "assetId": 48
        },
        {
          "tileType": 0,
          "value": 0,
          "assetId": 48
        },
        {
          "tileType": 0,
          "value": 0,
          "assetId": 48
        },
        {
          "tileType": 0,
          "value": 0,
          "assetId": 48
        },
        {
          "tileType": 0,
          "value": 0,
          "assetId": 48
        },
        {
          "tileType": 0,
          "value": 0,
          "assetId": 48
        },
        {
          "tileType": 0,
          "value": 0,
          "assetId": 48
        },
        {
          "tileType": 0,
          "value": 0,
          "assetId": 48
        },
        {
          "tileType": 0,
          "value": 0,
          "assetId": 48
        },
        {
          "tileType": 0,
          "value": 0,
          "assetId": 48
        },
        {
          "tileType": 0,
          "value": 0,
          "assetId": 48
        }
      ],
      [
        {
          "tileType": 0,
          "value": 0,
          "assetId": 48
        },
        {
          "tileType": 0,
          "value": 0,
          "assetId": 48
        },
        {
          "tileType": 0,
          "value": 0,
          "assetId": 48
        },
        {
          "tileType": 0,
          "value": 0,
          "assetId": 48
        },
        {
          "tileType": 0,
          "value": 0,
          "assetId": 48
        },
        {
          "tileType": 0,
          "value": 0,
          "assetId": 48
        },
        {
          "tileType": 0,
          "value": 0,
          "assetId": 48
        },
        {
          "tileType": 0,
          "value": 0,
          "assetId": 48
        },
        {
          "tileType": 0,
          "value": 0,
          "assetId": 48
        },
        {
          "tileType": 0,
          "value": 0,
          "assetId": 48
        },
        {
          "tileType": 0,
          "value": 0,
          "assetId": 48
        },
        {
          "tileType": 0,
          "value": 0,
          "assetId": 48
        }
      ],
      [
        {
          "tileType": 0,
          "value": 0,
          "assetId": 76
        },
        {
          "tileType": 0,
          "value": 0,
          "assetId": 77
        },
        {
          "tileType": 0,
          "value": 0,
          "assetId": 77
        },
        {
          "tileType": 0,
          "value": 0,
          "assetId": 77
        },
        {
          "tileType": 0,
          "value": 0,
          "assetId": 77
        },
        {
          "tileType": 0,
          "value": 0,
          "assetId": 77
        },
        {
          "tileType": 0,
          "value": 0,
          "assetId": 77
        },
        {
          "tileType": 0,
          "value": 0,
          "assetId": 77
        },
        {
          "tileType": 0,
          "value": 0,
          "assetId": 77
        },
        {
          "tileType": 0,
          "value": 0,
          "assetId": 77
        },
        {
          "tileType": 0,
          "value": 0,
          "assetId": 77
        },
        {
          "tileType": 0,
          "value": 0,
          "assetId": 78
        }
      ],
      [
        {
          "tileType": 0,
          "value": 0,
          "assetId": 80
        },
        {
          "tileType": 1,
          "value": 0,
          "assetId": 0
        },
        {
          "tileType": 1,
          "value": 0,
          "assetId": 0
        },
        {
          "tileType": 1,
          "value": 0,
          "assetId": 0
        },
        {
          "tileType": 1,
          "value": 0,
          "assetId": 0
        },
        {
          "tileType": 1,
          "value": 0,
          "assetId": 0
        },
        {
          "tileType": 1,
          "value": 0,
          "assetId": 0
        },
        {
          "tileType": 1,
          "value": 0,
          "assetId": 0
        },
        {
          "tileType": 1,
          "value": 0,
          "assetId": 0
        },
        {
          "tileType": 1,
          "value": 0,
          "assetId": 0
        },
        {
          "tileType": 1,
          "value": 0,
          "assetId": 0
        },
        {
          "tileType": 0,
          "value": 0,
          "assetId": 81
        }
      ],
      [
        {
          "tileType": 0,
          "value": 0,
          "assetId": 80
        },
        {
          "tileType": 1,
          "value": 0,
          "assetId": 0
        },
        {
          "tileType": 1,
          "value": 0,
          "assetId": 0
        },
        {
          "tileType": 1,
          "value": 0,
          "assetId": 0
        },
        {
          "tileType": 1,
          "value": 0,
          "assetId": 0
        },
        {
          "tileType": 1,
          "value": 0,
          "assetId": 0
        },
        {
          "tileType": 1,
          "value": 0,
          "assetId": 0
        },
        {
          "tileType": 1,
          "value": 0,
          "assetId": 0
        },
        {
          "tileType": 1,
          "value": 0,
          "assetId": 0
        },
        {
          "tileType": 1,
          "value": 0,
          "assetId": 0
        },
        {
          "tileType": 1,
          "value": 0,
          "assetId": 0
        },
        {
          "tileType": 0,
          "value": 0,
          "assetId": 81
        }
      ],
      [
        {
          "tileType": 0,
          "value": 0,
          "assetId": 80
        },
        {
          "tileType": 1,
          "value": 0,
          "assetId": 0
        },
        {
          "tileType": 1,
          "value": 0,
          "assetId": 0
        },
        {
          "tileType": 1,
          "value": 0,
          "assetId": 0
        },
        {
          "tileType": 1,
          "value": 0,
          "assetId": 0
        },
        {
          "tileType": 1,
          "value": 0,
          "assetId": 0
        },
        {
          "tileType": 1,
          "value": 0,
          "assetId": 0
        },
        {
          "tileType": 1,
          "value": 0,
          "assetId": 0
        },
        {
          "tileType": 1,
          "value": 0,
          "assetId": 0
        },
        {
          "tileType": 1,
          "value": 0,
          "assetId": 0
        },
        {
          "tileType": 1,
          "value": 0,
          "assetId": 0
        },
        {
          "tileType": 0,
          "value": 0,
          "assetId": 81
        }
      ],
      [
        {
          "tileType": 0,
          "value": 0,
          "assetId": 80
        },
        {
          "tileType": 1,
          "value": 0,
          "assetId": 0
        },
        {
          "tileType": 1,
          "value": 0,
          "assetId": 0
        },
        {
          "tileType": 1,
          "value": 0,
          "assetId": 0
        },
        {
          "tileType": 1,
          "value": 0,
          "assetId": 0
        },
        {
          "tileType": 1,
          "value": 0,
          "assetId": 0
        },
        {
          "tileType": 1,
          "value": 0,
          "assetId": 0
        },
        {
          "tileType": 1,
          "value": 0,
          "assetId": 0
        },
        {
          "tileType": 1,
          "value": 0,
          "assetId": 0
        },
        {
          "tileType": 1,
          "value": 0,
          "assetId": 0
        },
        {
          "tileType": 1,
          "value": 0,
          "assetId": 0
        },
        {
          "tileType": 0,
          "value": 0,
          "assetId": 81
        }
      ],
      [
        {
          "tileType": 0,
          "value": 0,
          "assetId": 85
        },
        {
          "tileType": 0,
          "value": 0,
          "assetId": 86
        },
        {
          "tileType": 0,
          "value": 0,
          "assetId": 86
        },
        {
          "tileType": 0,
          "value": 0,
          "assetId": 86
        },
        {
          "tileType": 0,
          "value": 0,
          "assetId": 86
        },
        {
          "tileType": 0,
          "value": 0,
          "assetId": 86
        },
        {
          "tileType": 0,
          "value": 0,
          "assetId": 86
        },
        {
          "tileType": 0,
          "value": 0,
          "assetId": 86
        },
        {
          "tileType": 0,
          "value": 0,
          "assetId": 86
        },
        {
          "tileType": 0,
          "value": 0,
          "assetId": 86
        },
        {
          "tileType": 0,
          "value": 0,
          "assetId": 86
        },
        {
          "tileType": 0,
          "value": 0,
          "assetId": 87
        }
      ],
      [
        {
          "tileType": 0,
          "value": 0,
          "assetId": 48
        },
        {
          "tileType": 0,
          "value": 0,
          "assetId": 48
        },
        {
          "tileType": 0,
          "value": 0,
          "assetId": 48
        },
        {
          "tileType": 0,
          "value": 0,
          "assetId": 48
        },
        {
          "tileType": 0,
          "value": 0,
          "assetId": 48
        },
        {
          "tileType": 0,
          "value": 0,
          "assetId": 48
        },
        {
          "tileType": 0,
          "value": 0,
          "assetId": 48
        },
        {
          "tileType": 0,
          "value": 0,
          "assetId": 48
        },
        {
          "tileType": 0,
          "value": 0,
          "assetId": 48
        },
        {
          "tileType": 0,
          "value": 0,
          "assetId": 48
        },
        {
          "tileType": 0,
          "value": 0,
          "assetId": 48
        },
        {
          "tileType": 0,
          "value": 0,
          "assetId": 48
        }
      ],
      [
        {
          "tileType": 0,
          "value": 0,
          "assetId": 48
        },
        {
          "tileType": 0,
          "value": 0,
          "assetId": 48
        },
        {
          "tileType": 0,
          "value": 0,
          "assetId": 48
        },
        {
          "tileType": 0,
          "value": 0,
          "assetId": 48
        },
        {
          "tileType": 0,
          "value": 0,
          "assetId": 48
        },
        {
          "tileType": 0,
          "value": 0,
          "assetId": 48
        },
        {
          "tileType": 0,
          "value": 0,
          "assetId": 48
        },
        {
          "tileType": 0,
          "value": 0,
          "assetId": 48
        },
        {
          "tileType": 0,
          "value": 0,
          "assetId": 48
        },
        {
          "tileType": 0,
          "value": 0,
          "assetId": 48
        },
        {
          "tileType": 0,
          "value": 0,
          "assetId": 48
        },
        {
          "tileType": 0,
          "value": 0,
          "assetId": 48
        }
      ],
      [
        {
          "tileType": 0,
          "value": 0,
          "assetId": 48
        },
        {
          "tileType": 0,
          "value": 0,
          "assetId": 48
        },
        {
          "tileType": 0,
          "value": 0,
          "assetId": 48
        },
        {
          "tileType": 0,
          "value": 0,
          "assetId": 48
        },
        {
          "tileType": 0,
          "value": 0,
          "assetId": 48
        },
        {
          "tileType": 0,
          "value": 0,
          "assetId": 48
        },
        {
          "tileType": 0,
          "value": 0,
          "assetId": 48
        },
        {
          "tileType": 0,
          "value": 0,
          "assetId": 48
        },
        {
          "tileType": 0,
          "value": 0,
          "assetId": 48
        },
        {
          "tileType": 0,
          "value": 0,
          "assetId": 48
        },
        {
          "tileType": 0,
          "value": 0,
          "assetId": 48
        },
        {
          "tileType": 0,
          "value": 0,
          "assetId": 48
        }
      ]
    ],
    "start_sources": {
      "MyNeighborhood.java": {
        "text": "import org.code.neighborhood.Painter;\n\npublic class MyNeighborhood {\n  public static void main(String[] args) {\n\n    // TO DO #3: Instantiate a RowPainter object.\n    \n\n    // TO DO #4: Call the paintArea() method.\n    \n\n    \n  }\n}",
        "isVisible": true
      },
      "RowPainter.java": {
        "text": "import org.code.neighborhood.*;\n\n/*\n * A Painter that paints rows in The Neighborhood\n */\npublic class RowPainter extends Painter {\n\n  /*\n   * Constructor to create a RowPainter object\n   */\n  public RowPainter() {\n    super();\n  }\n\n  /*\n   * Constructor to create a RowPainter object\n   */\n  public RowPainter(int x, int y, String direction, int paint) {\n    super(x, y, direction, paint);\n  }\n\n  /*\n   * Turns right\n   */\n  public void turnRight() {\n    turnLeft();\n    turnLeft();\n    turnLeft();\n  }\n\n  /*\n   * Moves forward in the direction facing if can move\n   */\n  public void moveIfCanMove() {\n    if (canMove()) {\n      move();\n    }\n  }\n\n  /*\n   * Paints a row in The Neighborhood with firstColor\n   * then moves to the next row with secondColor\n   */\n  public void paintArea(String firstColor, String secondColor) {\n    while (canMove()) {\n      paintEast(firstColor);\n      paintWest(secondColor);\n      moveIfCanMove();\n\n      if (!canMove()) {\n        paintEast(firstColor);\n        paintWest(secondColor);\n        moveToNextRow();\n      }\n    }\n  }\n\n  /*\n   * Paints a row if facing east and y location is even\n   */\n  public void paintEast(String color) {\n    // TO DO #1: If the RowPainter object is facing east and its y\n    // location is an even number, paint with the parameter color.\n\n\n    \n  }\n\n  /*\n   * Paints a row if facing west and y location is odd\n   */\n  public void paintWest(String color) {\n    // TO DO #2: If the RowPainter object is facing west and its y\n    // location is an odd number, paint with the parameter color.\n\n\n    \n  }\n\n  /*\n   * Moves to the next row if unable to move forward\n   */\n  public void moveToNextRow() {\n    if (canMove(\"south\")) {\n      if (facingEast()) {\n        turnRight();\n        moveIfCanMove();\n        turnRight();\n      }\n      else {\n        turnLeft();\n        moveIfCanMove();\n        turnLeft();\n      }\n    }\n  }\n  \n}",
        "isVisible": true
      }
    },
    "thumbnail_url": "https://images.code.org/0dae016d46592111144b51ada96d7516-image-1650557990966.gif",
    "encrypted_exemplar_sources": "R6CdU+VhUSkKblWJHUDBND8hxPwuFNueck9vf8s9vK0mvesG2+Qfr/EHIQdj\nas5xLpum/++tBmBLV5zvXWw1KofVgaZEmgDmrAzbsaU0NSMnFChujHmOnO+G\nj8mwu4FNdL0ns4LVQ0l26Plp1dwuM5z90WF1tKFp8XCo/AKgeuhTTNl7rLMl\nXfmL/SaDKmw5IK5KoSIDASlCTK0r184jzpwMG5gyI7PdmgeU+rWFkTQeELoj\nKxQmWFFjNGI93QbJjEpyxmPVMmykEK8mUyE64vQaPzwOq3BCdeOII81vqDyV\n4AWaIB5EcSWbxpKC2sJUsXoMEIeyC+FbKJuJf4Qozm3QHJ/t2B31qf89PVHn\nKoGvKfEbKgV+irobgNpEAtS8pEvdAkORNjeQhJTZ8HzGKTooC9p9YiBJxU+u\nmcM39LAl9S4KajbfRAVd9g7c0po0wNQfxSg0Q6/V7tc8csXnv4gKOIYGh2g7\nfgbt4ClgFLbMDLJ2sVLoDlRmpcNUJKegnjMJ/YhDT758aP5f2BjAolH8OfWw\nOjnNCtDcwJzsZ4Ahg+9uzFeUKR76dNjod5BonS0jbpBfiaaehHxXwzAghQBR\nadW/KxlAMqbdVZzdf4dN+uPFzXvMhIDbM7mOkRyBSREU6xtdLFjjQJieZKm2\nHV0vYyJFWI2Dak/K7yx3eKkDywEVSsSmVaKSwcb7Ch/F9p/NPstFvtDhgbNo\nM7wzXf04mMVtLCdP92vlYm+sHeLekm4wiP4nwKVCYjI3wB4htOeqf5iscADn\nUcmkszjTj6b2ScZ3kn28mOYRrbPmJ9uRYLbV9WgwwUJo0K/OgDYv1zST83wK\nCAACLKE8XC1AVD2/q493i3RhI56qTJAu69+yFIhV5U4PT4iGFnrxqGPHZLqD\nniLAH7x1vClXVzpw6+FtK8kw7sB4w6mhZjxQc7GqvUzrXEBgM7NLaQd57T9V\nrMRDngm8tn5LNv906QONeumfujI+7oB5A+/jbT3mCt63wJzgZUA8KZXfciap\ngaDJ/IjBfnsHz+CA0yKxNGLwcLTDtB4oxYw5tQiwBcMJEDnb1fcYxGQfmjVT\noivbw/DEdMuzhYa/Im6FVQDv9ItDRApp2FPl2wwYTCQg2acUFRhaRgdpLTHn\nqb6GwETwfCfDtfZ1QBHoTxgTVXOQPp5GXhJjidBwZ9Ysz4XdApuQvmZqJXFY\npjW5x7j/rGRjke66uperV89dPdVedpVelqdC/6T8A90FgNTAI/Hsc6Re1B44\nghXJjQbt9hxGRbaoZ281ruiLeBL3ywDuRB9EoTicokKb4UtmrODoWRGoz4xv\nuauF1lXtUTATfbQFTzEWfqP1uA8GkUwusz3E9oSR5wfI/i92w40Kw2ZNJGiO\noI4q3qeJ7xtHcyniZjby0NtIsPWuWgXibLlmSGBQbiEgRWrCmZoiM7h8CjFU\n1g+Gz832r5MQVkTDI52E30XVjP1Z4i9r4oX9LdfbccYRP1RvfaePmCmFyN54\nmuXdu4nzAGR6SBDlSEsKz7JudAgD9+4q/zIMg3XKK/9ewNg1ic0CIPQBHvxu\nWbXHI29drqQFELXj/5MxwJk1fVkgvWNPoilwd0MwsiOCrmx0CzyFORdUHKzD\nbYVUgFiRWlcuwuFbsNfsJAzIy6pCF060PJLz2mBha6SavZoUpG1dxMV1eSpv\nsuw3zNotMptOiqNn6nU0sABR5A3ys70SiGx/N94+JJt6mkud2yfxRsdb2MrA\n6k8kAa3Qe5IOkMND/ycKlTckaUuSfRSFwCNCsKhbel8zLh+pf1tgVJrhSAlP\nd62tHmFzrkxMFlR6LkHen3MG2D+NHBTnDtXSWBmaYbCuODDhg57GbOrVpcTN\n/VmkPRVs9repJ+I76TPdsGHRfmqpeD2JMnTAxQnKm91IAEU16IsKSGbLKSch\n7QixY46YC7fyuD7o3iBSBwBi0f3t2VSK/ywCijAnHvi10zEqm5GyZxEP6YM6\nauxlpXyyu4RkSoqjXLR2TOnfC5ZMWdYmzvPAsHy3wEuIr7f0j2b2iP5IDF6A\nTX5A5qoutfRWHACRri89pwSakzld9Rl64v0Qbjna9GgCo4G3CYZsbPeATAPK\nbDP6hzeinLWxfVBVlUZKXc9c8+iiNLm+a0ty0Y0nlJ14XXxotyWuLnopS9xu\nJB2rUB05eGJa7qmRU++XLQ8ypzUjQAH6VrcT0wbdP782ivu08h/ardDdaMJn\noXd+WwnYot208blWEb27RqgCDI4SgeMLO11BqxeLrBwhqBQNHEXd70PxwD30\nEarRr0UpHP5qNaKCQQR7CAmNRfdSQPs4He6VAJCh9muI7zgUCxGupupN28eW\nQl+CMohbP34mVKz52ABj31aUmZGnQEfV5ClLs9anCjwPCZFeLnd9E1pbJm1X\n6GTJ4WRIrO+gJE2edmMOL6daSQTMceZpLja1LMaDkn/E1Tq7+g9uWgb9CO+Y\nt5Co1pgtAq2/H1V+qS6Tyca64yzRpqisNkCgtAW5sFTt2bCw/+rpCrhjKxe7\n4OH2ktO5eKpUSQ3Jcs22nylnkouOjJgCm8YK3UZbnxdBdLBZstwL6SiSy4pE\nV4SFRpgZ2riWY+K4s6NwwoOPIgKmR8pG9JZlMx8q/An4/+Tcw85rxV4LCSLW\nQylSolgp3pFEmNnWwE8hVnzYu2q3fxPyYkPlCA3gjY8qnhVQgAf4Rfd9NAa0\nTuWrjz0ssEtjOM/4bAFC5WvalM8Wsge1gk+LTTAahp+CN3FqqcFfbHgmk36f\nItyyc3CfD+WM7Mq6eAWMZdm4iP7vtnHfDtL3v/3s0InT3Pp29FqANRjYJvmT\nYxCRJL2vq+GHEzX+/Ls+MZNtrtvj4AscutBUVizTanD35FFExHFRCy07F65w\n5FcBF2ifrM+B0mx+1OONaalnAgO95QzOgLyY6jzwoluOTraQ+4ghc1C9vTTJ\nLqz1arwsgz/SN+qGhK5H9o5wv+7GqwYmbQ5kkp43iCPbMneYTCpqReNu67B+\nt6gV5bXDrMg3At32/3igOnBTmuQ5pFBUBm0D+MPXgUelIP6+pY5hZNYa2eDY\n1CqUJmw7T6frcjava6FWa++wKlhItlyN+HsIIl3HfJNkCU3/2xg7UqcrENar\n2tNevoui9GiiqX5cqhSaS34yfo//LjxaYoBGzpqTbxtQ/mTQnhL/AsYbBouQ\n5y9vJ3okltPqmKVOXXSFFPV96G1XqBHTaf+/nUqtjf9XGHTvt9RUtiQ7NPPd\npBdwtNn7Idt/DkApC8GJlHM4yZcGHoxkXhKyav4yDEbopq95gF+414/hZsro\nvvJBV/cE67+Nr69W8o75XcCIOaSnfpVLH8qYj6SV1g76ap6Qlw==\n"
  },
  "game_id": 68,
  "created_at": "2022-04-07T17:45:10.000Z",
  "level_num": "custom",
  "user_id": 16889,
  "published": true,
  "audit_log": "[{\"changed_at\":\"2022-04-07T17:45:10.868+00:00\",\"changed\":[\"cloned from \\\"CSA U4L3-L3a_2022\\\"\"],\"cloned_from\":\"CSA U4L3-L3a_2022\"},{\"changed_at\":\"2022-04-07 17:45:13 +0000\",\"changed\":[],\"changed_by_id\":16889,\"changed_by_email\":\"jamila+lb@code.org\"},{\"changed_at\":\"2022-04-21 15:04:13 +0000\",\"changed\":[\"long_instructions\",\"csa_view_mode\",\"contained_level_names\"],\"changed_by_id\":16889,\"changed_by_email\":\"jamila+lb@code.org\"},{\"changed_at\":\"2022-04-21 15:15:48 +0000\",\"changed\":[],\"changed_by_id\":16889,\"changed_by_email\":\"jamila+lb@code.org\"},{\"changed_at\":\"2022-04-21 16:08:32 +0000\",\"changed\":[\"start_sources\"],\"changed_by_id\":16889,\"changed_by_email\":\"jamila+lb@code.org\"},{\"changed_at\":\"2022-04-21 16:12:57 +0000\",\"changed\":[\"long_instructions\",\"serialized_maze\"],\"changed_by_id\":16889,\"changed_by_email\":\"jamila+lb@code.org\"},{\"changed_at\":\"2022-04-21 16:20:03 +0000\",\"changed\":[\"long_instructions\",\"serialized_maze\",\"encrypted_examples\"],\"changed_by_id\":16889,\"changed_by_email\":\"jamila+lb@code.org\"},{\"changed_at\":\"2022-04-21 16:21:01 +0000\",\"changed\":[\"start_sources\"],\"changed_by_id\":16889,\"changed_by_email\":\"jamila+lb@code.org\"},{\"changed_at\":\"2022-04-21 16:23:48 +0000\",\"changed\":[\"long_instructions\",\"serialized_maze\"],\"changed_by_id\":16889,\"changed_by_email\":\"jamila+lb@code.org\"},{\"changed_at\":\"2022-04-21 16:30:48 +0000\",\"changed\":[\"long_instructions\",\"serialized_maze\",\"encrypted_examples\"],\"changed_by_id\":16889,\"changed_by_email\":\"jamila+lb@code.org\"},{\"changed_at\":\"2022-04-21 17:04:58 +0000\",\"changed\":[\"long_instructions\",\"serialized_maze\",\"encrypted_examples\"],\"changed_by_id\":16889,\"changed_by_email\":\"jamila+lb@code.org\"},{\"changed_at\":\"2022-05-01 15:53:41 +0000\",\"changed\":[],\"changed_by_id\":16889,\"changed_by_email\":\"jamila+lb@code.org\"},{\"changed_at\":\"2022-06-27 20:36:41 +0000\",\"changed\":[\"long_instructions\",\"serialized_maze\",\"contained_level_names\"],\"changed_by_id\":16889,\"changed_by_email\":\"jamila+lb@code.org\"},{\"changed_at\":\"2022-07-12 20:58:09 +0000\",\"changed\":[\"long_instructions\",\"serialized_maze\",\"contained_level_names\"],\"changed_by_id\":16889,\"changed_by_email\":\"jamila+lb@code.org\"},{\"changed_at\":\"2022-09-20 20:25:41 +0000\",\"changed\":[\"encrypted_exemplar_sources\"],\"changed_by_id\":16889,\"changed_by_email\":\"jamila+lb@code.org\"},{\"changed_at\":\"2022-09-20 20:26:36 +0000\",\"changed\":[\"start_sources\"],\"changed_by_id\":16889,\"changed_by_email\":\"jamila+lb@code.org\"},{\"changed_at\":\"2022-09-20 20:26:37 +0000\",\"changed\":[],\"changed_by_id\":16889,\"changed_by_email\":\"jamila+lb@code.org\"},{\"changed_at\":\"2022-09-20 20:31:35 +0000\",\"changed\":[\"long_instructions\",\"serialized_maze\"],\"changed_by_id\":16889,\"changed_by_email\":\"jamila+lb@code.org\"},{\"changed_at\":\"2022-09-20 20:32:42 +0000\",\"changed\":[\"long_instructions\",\"serialized_maze\",\"encrypted_examples\"],\"changed_by_id\":16889,\"changed_by_email\":\"jamila+lb@code.org\"},{\"changed_at\":\"2022-09-20 20:39:55 +0000\",\"changed\":[\"encrypted_exemplar_sources\"],\"changed_by_id\":16889,\"changed_by_email\":\"jamila+lb@code.org\"},{\"changed_at\":\"2022-09-20 20:42:19 +0000\",\"changed\":[\"encrypted_exemplar_sources\"],\"changed_by_id\":16889,\"changed_by_email\":\"jamila+lb@code.org\"}]"
}]]></config>
</Javalab>
