<Javalab>
  <config><![CDATA[{
  "game_id": 68,
  "created_at": "2024-01-12T20:51:52.000Z",
  "level_num": "custom",
  "user_id": 16889,
  "properties": {
    "encrypted": "false",
    "long_instructions": "The <code style=\"background-color: #ececec; color: black; font-weight: bold;\">ArrayPainter</code> class declares an instance variable for a 1D array of <code style=\"background-color: #ececec; color: black; font-weight: bold;\">String</code> values to store the paint colors an <code style=\"background-color: #ececec; color: black; font-weight: bold;\">ArrayPainter</code> object can use to paint with. The constructor initializes the 1D array to the 1D array that is passed to its parameter <code style=\"background-color: #ececec; color: black; font-weight: bold;\">colors</code>.\r\n\r\n✅ **TO DO:** In <code style=\"background-color: #ececec; color: black; font-weight: bold;\">NeighborhoodRunner.java</code>,\r\n\r\n1. Declare and initialize a 1D array to store the following values:\r\n\r\n<pre style=\"background-color: #333333; color: white;\">\r\n\"crimson\", \"khaki\", \"lavender\", \"forestgreen\", \"powderblue\", \"plum\"\r\n</pre>\r\n\r\n2. Instantiate an <code style=\"background-color: #ececec; color: black; font-weight: bold;\">ArrayPainter</code> object by passing the 1D array as the argument to the constructor.\r\n\r\n3. Print the <code style=\"background-color: #ececec; color: black; font-weight: bold;\">ArrayPainter</code> object.\r\n\r\n<div style=\"background-color: #E0D1EC; border: 1px solid #9660bf; border-radius: 5px; font-size: 1.1em; padding: 15px; margin-bottom: 10px;\">\r\n💡 <strong>TIP:</strong> Check out the <strong>Help & Tips</strong> tab ⬆️ for help with declaring and initializing a 1D array using an initializer list.\r\n</div>\r\n\r\n## ***Don't forget to . . .***\r\n\r\n![](https://images.code.org/eb2c8910ae2e150019b8e2177405d4af-image-1668191576873.png)",
    "mini_rubric": "false",
    "submittable": "false",
    "hide_share_and_remix": "true",
    "csa_view_mode": "neighborhood",
    "reference_links": [
      "/courses/csa-2023/guides/one-dimensional-arrays"
    ],
    "display_name": "The ArrayPainter Class",
    "bubble_choice_description": "Create a 1D array that stores the paint colors an `ArrayPainter` object can use to paint with.",
    "thumbnail_url": "https://images.code.org/d6391b84cf2921d545418dc00667cd30-image-1648511686276.gif",
    "serialized_maze": [
      [
        {
          "tileType": 1,
          "value": 0,
          "assetId": 0
        },
        {
          "tileType": 1,
          "value": 0,
          "assetId": 0
        },
        {
          "tileType": 1,
          "value": 0,
          "assetId": 0
        },
        {
          "tileType": 1,
          "value": 0,
          "assetId": 0
        },
        {
          "tileType": 1,
          "value": 0,
          "assetId": 0
        },
        {
          "tileType": 1,
          "value": 0,
          "assetId": 0
        },
        {
          "tileType": 1,
          "value": 0,
          "assetId": 0
        },
        {
          "tileType": 1,
          "value": 0,
          "assetId": 0
        },
        {
          "tileType": 1,
          "value": 0,
          "assetId": 0
        },
        {
          "tileType": 1,
          "value": 0,
          "assetId": 0
        },
        {
          "tileType": 1,
          "value": 0,
          "assetId": 0
        },
        {
          "tileType": 1,
          "value": 0,
          "assetId": 0
        }
      ],
      [
        {
          "tileType": 1,
          "value": 0,
          "assetId": 0
        },
        {
          "tileType": 1,
          "value": 0,
          "assetId": 0
        },
        {
          "tileType": 1,
          "value": 0,
          "assetId": 0
        },
        {
          "tileType": 1,
          "value": 0,
          "assetId": 0
        },
        {
          "tileType": 1,
          "value": 0,
          "assetId": 0
        },
        {
          "tileType": 1,
          "value": 0,
          "assetId": 0
        },
        {
          "tileType": 1,
          "value": 0,
          "assetId": 0
        },
        {
          "tileType": 1,
          "value": 0,
          "assetId": 0
        },
        {
          "tileType": 1,
          "value": 0,
          "assetId": 0
        },
        {
          "tileType": 1,
          "value": 0,
          "assetId": 0
        },
        {
          "tileType": 1,
          "value": 0,
          "assetId": 0
        },
        {
          "tileType": 1,
          "value": 0,
          "assetId": 0
        }
      ],
      [
        {
          "tileType": 1,
          "value": 0,
          "assetId": 0
        },
        {
          "tileType": 1,
          "value": 0,
          "assetId": 0
        },
        {
          "tileType": 1,
          "value": 0,
          "assetId": 0
        },
        {
          "tileType": 1,
          "value": 0,
          "assetId": 0
        },
        {
          "tileType": 1,
          "value": 0,
          "assetId": 0
        },
        {
          "tileType": 1,
          "value": 0,
          "assetId": 0
        },
        {
          "tileType": 1,
          "value": 0,
          "assetId": 0
        },
        {
          "tileType": 1,
          "value": 0,
          "assetId": 0
        },
        {
          "tileType": 1,
          "value": 0,
          "assetId": 0
        },
        {
          "tileType": 1,
          "value": 0,
          "assetId": 0
        },
        {
          "tileType": 1,
          "value": 0,
          "assetId": 0
        },
        {
          "tileType": 1,
          "value": 0,
          "assetId": 0
        }
      ],
      [
        {
          "tileType": 1,
          "value": 0,
          "assetId": 0
        },
        {
          "tileType": 1,
          "value": 0,
          "assetId": 0
        },
        {
          "tileType": 1,
          "value": 0,
          "assetId": 0
        },
        {
          "tileType": 1,
          "value": 0,
          "assetId": 0
        },
        {
          "tileType": 1,
          "value": 0,
          "assetId": 0
        },
        {
          "tileType": 1,
          "value": 0,
          "assetId": 0
        },
        {
          "tileType": 1,
          "value": 0,
          "assetId": 0
        },
        {
          "tileType": 1,
          "value": 0,
          "assetId": 0
        },
        {
          "tileType": 1,
          "value": 0,
          "assetId": 0
        },
        {
          "tileType": 1,
          "value": 0,
          "assetId": 0
        },
        {
          "tileType": 1,
          "value": 0,
          "assetId": 0
        },
        {
          "tileType": 1,
          "value": 0,
          "assetId": 0
        }
      ],
      [
        {
          "tileType": 1,
          "value": 0,
          "assetId": 0
        },
        {
          "tileType": 1,
          "value": 0,
          "assetId": 0
        },
        {
          "tileType": 1,
          "value": 0,
          "assetId": 0
        },
        {
          "tileType": 1,
          "value": 0,
          "assetId": 0
        },
        {
          "tileType": 1,
          "value": 0,
          "assetId": 0
        },
        {
          "tileType": 1,
          "value": 0,
          "assetId": 0
        },
        {
          "tileType": 1,
          "value": 0,
          "assetId": 0
        },
        {
          "tileType": 1,
          "value": 0,
          "assetId": 0
        },
        {
          "tileType": 1,
          "value": 0,
          "assetId": 0
        },
        {
          "tileType": 1,
          "value": 0,
          "assetId": 0
        },
        {
          "tileType": 1,
          "value": 0,
          "assetId": 0
        },
        {
          "tileType": 1,
          "value": 0,
          "assetId": 0
        }
      ],
      [
        {
          "tileType": 1,
          "value": 0,
          "assetId": 0
        },
        {
          "tileType": 1,
          "value": 0,
          "assetId": 0
        },
        {
          "tileType": 1,
          "value": 0,
          "assetId": 0
        },
        {
          "tileType": 1,
          "value": 0,
          "assetId": 0
        },
        {
          "tileType": 1,
          "value": 0,
          "assetId": 0
        },
        {
          "tileType": 1,
          "value": 0,
          "assetId": 0
        },
        {
          "tileType": 1,
          "value": 0,
          "assetId": 0
        },
        {
          "tileType": 1,
          "value": 0,
          "assetId": 0
        },
        {
          "tileType": 1,
          "value": 0,
          "assetId": 0
        },
        {
          "tileType": 1,
          "value": 0,
          "assetId": 0
        },
        {
          "tileType": 1,
          "value": 0,
          "assetId": 0
        },
        {
          "tileType": 1,
          "value": 0,
          "assetId": 0
        }
      ],
      [
        {
          "tileType": 1,
          "value": 0,
          "assetId": 0
        },
        {
          "tileType": 1,
          "value": 0,
          "assetId": 0
        },
        {
          "tileType": 1,
          "value": 0,
          "assetId": 0
        },
        {
          "tileType": 1,
          "value": 0,
          "assetId": 0
        },
        {
          "tileType": 1,
          "value": 0,
          "assetId": 0
        },
        {
          "tileType": 1,
          "value": 0,
          "assetId": 0
        },
        {
          "tileType": 1,
          "value": 0,
          "assetId": 0
        },
        {
          "tileType": 1,
          "value": 0,
          "assetId": 0
        },
        {
          "tileType": 1,
          "value": 0,
          "assetId": 0
        },
        {
          "tileType": 1,
          "value": 0,
          "assetId": 0
        },
        {
          "tileType": 1,
          "value": 0,
          "assetId": 0
        },
        {
          "tileType": 1,
          "value": 0,
          "assetId": 0
        }
      ],
      [
        {
          "tileType": 1,
          "value": 0,
          "assetId": 0
        },
        {
          "tileType": 1,
          "value": 0,
          "assetId": 0
        },
        {
          "tileType": 1,
          "value": 0,
          "assetId": 0
        },
        {
          "tileType": 1,
          "value": 0,
          "assetId": 0
        },
        {
          "tileType": 1,
          "value": 0,
          "assetId": 0
        },
        {
          "tileType": 1,
          "value": 0,
          "assetId": 0
        },
        {
          "tileType": 1,
          "value": 0,
          "assetId": 0
        },
        {
          "tileType": 1,
          "value": 0,
          "assetId": 0
        },
        {
          "tileType": 1,
          "value": 0,
          "assetId": 0
        },
        {
          "tileType": 1,
          "value": 0,
          "assetId": 0
        },
        {
          "tileType": 1,
          "value": 0,
          "assetId": 0
        },
        {
          "tileType": 1,
          "value": 0,
          "assetId": 0
        }
      ],
      [
        {
          "tileType": 1,
          "value": 0,
          "assetId": 0
        },
        {
          "tileType": 1,
          "value": 0,
          "assetId": 0
        },
        {
          "tileType": 1,
          "value": 0,
          "assetId": 0
        },
        {
          "tileType": 1,
          "value": 0,
          "assetId": 0
        },
        {
          "tileType": 1,
          "value": 0,
          "assetId": 0
        },
        {
          "tileType": 1,
          "value": 0,
          "assetId": 0
        },
        {
          "tileType": 1,
          "value": 0,
          "assetId": 0
        },
        {
          "tileType": 1,
          "value": 0,
          "assetId": 0
        },
        {
          "tileType": 1,
          "value": 0,
          "assetId": 0
        },
        {
          "tileType": 1,
          "value": 0,
          "assetId": 0
        },
        {
          "tileType": 1,
          "value": 0,
          "assetId": 0
        },
        {
          "tileType": 1,
          "value": 0,
          "assetId": 0
        }
      ],
      [
        {
          "tileType": 1,
          "value": 0,
          "assetId": 0
        },
        {
          "tileType": 1,
          "value": 0,
          "assetId": 0
        },
        {
          "tileType": 1,
          "value": 0,
          "assetId": 0
        },
        {
          "tileType": 1,
          "value": 0,
          "assetId": 0
        },
        {
          "tileType": 1,
          "value": 0,
          "assetId": 0
        },
        {
          "tileType": 1,
          "value": 0,
          "assetId": 0
        },
        {
          "tileType": 1,
          "value": 0,
          "assetId": 0
        },
        {
          "tileType": 1,
          "value": 0,
          "assetId": 0
        },
        {
          "tileType": 1,
          "value": 0,
          "assetId": 0
        },
        {
          "tileType": 1,
          "value": 0,
          "assetId": 0
        },
        {
          "tileType": 1,
          "value": 0,
          "assetId": 0
        },
        {
          "tileType": 1,
          "value": 0,
          "assetId": 0
        }
      ],
      [
        {
          "tileType": 1,
          "value": 0,
          "assetId": 0
        },
        {
          "tileType": 1,
          "value": 0,
          "assetId": 0
        },
        {
          "tileType": 1,
          "value": 0,
          "assetId": 0
        },
        {
          "tileType": 1,
          "value": 0,
          "assetId": 0
        },
        {
          "tileType": 1,
          "value": 0,
          "assetId": 0
        },
        {
          "tileType": 1,
          "value": 0,
          "assetId": 0
        },
        {
          "tileType": 1,
          "value": 0,
          "assetId": 0
        },
        {
          "tileType": 1,
          "value": 0,
          "assetId": 0
        },
        {
          "tileType": 1,
          "value": 0,
          "assetId": 0
        },
        {
          "tileType": 1,
          "value": 0,
          "assetId": 0
        },
        {
          "tileType": 1,
          "value": 0,
          "assetId": 0
        },
        {
          "tileType": 1,
          "value": 0,
          "assetId": 0
        }
      ],
      [
        {
          "tileType": 1,
          "value": 0,
          "assetId": 0
        },
        {
          "tileType": 1,
          "value": 0,
          "assetId": 0
        },
        {
          "tileType": 1,
          "value": 0,
          "assetId": 0
        },
        {
          "tileType": 1,
          "value": 0,
          "assetId": 0
        },
        {
          "tileType": 1,
          "value": 0,
          "assetId": 0
        },
        {
          "tileType": 1,
          "value": 0,
          "assetId": 0
        },
        {
          "tileType": 1,
          "value": 0,
          "assetId": 0
        },
        {
          "tileType": 1,
          "value": 0,
          "assetId": 0
        },
        {
          "tileType": 1,
          "value": 0,
          "assetId": 0
        },
        {
          "tileType": 1,
          "value": 0,
          "assetId": 0
        },
        {
          "tileType": 1,
          "value": 0,
          "assetId": 0
        },
        {
          "tileType": 1,
          "value": 0,
          "assetId": 0
        }
      ]
    ],
    "encrypted_validation": "o7yQ3e399OohFBEo5QSD4f1H0EWTM2dBUjvGDs8EtDwIn7V7U1lUSew53QYj\nJEt58pmzTSyrrbWMiDRez8Aqcq3e3jj5QeN4bY8Q/iNSiPVKPx7HK1LW9miZ\nSgMIasMUFRMGwz52f0nTyaskOE1xJudjTC4wW+zh9F6yoKgPARzof3X0qyxY\n7KM+3MY78vOIEaPdrGw0N+/GrsBAN765QdjcfUdUxJVGjihA0LaO4juX5bes\nKKU571X3RE+SORMMTYNPIL5Qenj6roDNmjALW5939WF0eEXftHS4aJwJCynE\nrVWUQLFiTZ3AZ5Pjk/N2Tyd4iqUTBuiUbW0GwIcAB/6sx9pxgk0TNlllCpJQ\nXfeGQY3PLdOIIJSv70GogV3MdqK5m3OINhzFAa3ZlNdhvYl430Fr5aAzazVu\nB9eoeNLieh4bDq5mXD797punvW2eyIwKCq5koLlZXGfSRqc4C2Dh3VM7I/vI\nji5QlODC+pZaWC77ocORehle6Ql0tEvddSzaZj7VqpFHu/JsYEqCKLXeoBok\nRLnPw6JijN6Nk1yDC3tJ7UVmDoPpJGdobPpHu6/DVdHi06xsIJTdsdUIPqDE\nKb4uQOb9nIUDwtJM2HuistnRpCBfZBooT3hFmJWtF6e7HPcEnfOikbsT2sE0\nhW7ZE+VrCbhAiX55P4iWSD3P0O6QY+srlDzEoajRmBoznDJnJJfGG5Jkujej\nwqKdERRM7kFi7TcvuUa+QajGD0ygRr9eImpd0Xuki3/uzGt+UiaTeL2FpuPn\n4p8H3fTdawRciX4bQYL0SyUNfp+IWUX5XrMMugfxpAXl5uhPjKaUvIFWTcG4\nD7aXLhfcD8QsTm/TtDKu6qD8uk2QxMjF1dAIGiqFq5ZaCX7Jxw6YqWy+pNmM\nYIARUlQ9raP+ksnOAnxnl3laUaYgrJL7J+eCvSsdwmhb+f+/zW+81+6TM4qI\n0e87KWa1WVzzgfGbhBVnJpF+E61/5UJKbG8aIaO0TF5YuCD7ED+91RH0Af99\nXFJ9q6PHTcrd6JLPI/tghxGnci0Sa+E7rJvxWB+gkdoh0XYqU68V25zYAear\n39Uaz61SsehTXOnErwHK2VoeYIXpSTPLV1pAVX1HCH7am9/RDoe2XFGlT1nq\n+SiGudcFMYhYSLGmAY4c2GXGPjPIvOpaM2jr3eTfrAd2+xs67r3XZWZDDbKk\nk/VtFY1/gUmIKtEG90kQtawNBxfWmkXTwIzlIETx+GBu3rciTfqJMl2FZYFi\nISpt27U8RbuTheUf/kx2CrqiQBGjjfDQgSQg/AQIAFuuQs8aPixbvd2MDHzX\ns992i1/6VZS2uQZfo4Pk1KlF0r5Ws2IDmmFBycyIf04mlVLAcy6URxL5ngmn\noiTTTwt1dQktBL4+DguF9ivnsjBiBtLQuHKhvVgc2arhfxbVQZXlGoCTl0oP\nskLfNzHdvr2BMqXqno8f34L4fa/l0lzubYd7E/yR11lZ1NSHTu4V1BIxSiKG\nxnTHFoAAFqnPZBcJbbj/k8k50IDO3hMM2rJxuWDP8rf7aNQrjcuZyUyEaa3M\nRN/gsDqAv0cJwM8WuE31Gd3hBMyEJMLLW1XCphwIjLUwYqwx6Ie3mkr57AHI\nlCHtAvIzLmhl6HNtSHNjWM25y7xOdhMoHiuYlvUjGX1sZPv0hU3dy3+S1fSf\nHGqEGc2ZrQp0iQqY3FLzbUhD8pD7IlXzgaXcNa3WQYElofpyeU7ovWOAyRMH\nPuGYraD0R1ygCNGdZWlk16zBczwpcE+crSOFtGA1SVDJd2fG/2wbFUokgjkx\n4ifZbr0WKGxmHuP4UbEqVJSIs7xv55s+3OaeYycuVavxdn7djinwzA/1M7tD\njZzM4vVuU9R5cfxR17umZpM3aOOBU7e4rHHNGlMBLU79xMKTKqsLSc9Xg7fL\ntgjJlxesXxLyJ4G4NIJdKJQMEXXTToHXsaq8hBGMnyJAAchDYC97hiGewT2C\n/k+czCjEDBdeGsEDZFn0091Uj+GjZKyRSOjNrd10qd8ewPzzYES2CmPgmA5c\nX0F460apYFWkpZWztqzRMSyBzcYqO55urD2nvZFC5Z6uwOjVqFi1WXOgc0vS\nTEM+ZRJED17WBwM/pRadksM2BGH0xa/DFvBPBlAc9baw0pX+3S8GbrXdHkeB\nvxzAlgFoMkUbTj+fKL+bGd56VDgCIsBI5BKoVc/KNL+HJOSKmf+Zcx/Ybm2z\n45tXBbtoBNuC5L/TO4kWbElPZe4KfUu1dxNlzXcITMORpnnNdJZysr+zaWPt\nnkh/OEWhDgRLQ+CiP8VzlUqIQ7mZMZByQxPGaZ2Ck7swAt6eP7vZOgQcR1sd\n5iLoiS4snxtQQeJxQHDDWrTUil8IHMFhnjE+3XY8aDUgifTF9y4ujw7BXWLD\nXBFWFivUM+8AwImNsMTx5Eatl72VKlPpcXRXtWjBvpq2roIikEbr3qESmDQ0\nF9ay14sy/yovVrS4jkrXfuu2ZpyK3l08cxVXowjQXCZvR6EAmWxuwGpJgTTp\nOR+h4jaQ+KQkBejcURB992rx4SjbPGFWLFCwpweJvsGHNg1YwL0I0UmxW321\n+qMRldYaA4viMLRtnShJPBqGdDdVJI+ouDjrCMPvfF+DnVu0p5aifw6/b5vw\nvi8ZtsjlrNF/dYB+OUa74cpTnVaRWatDIl/z1iiZ4jBATgYvhMBCbMtk6fYk\nYAZ9eskf9RLEfO0Q8FSgi7v5hGGBTBjpc5ZYzwX/b1r8YilMHHBxsx76+Q7j\nDzJTTrA1b76tnI4bEtUUqHklLWTH3u+baawzSBJcFg7Bzta2IDwYVLh07neA\nJddCbp0FxA1j2wLvJX6NvQoEdsDVkDG2UZktoLQIGzPwKR/iV1Nj8Vo0zC8s\nSVErDPmpTm/OdRDM2uUjVwab7MPNm6TFMdQSjKTGaWEoJpyUARbKlVuGm/YU\nN1GBbj3kTBQljewWLhAGRxlMOcWiwP6SklWPj55eXG/BZiyCJpJa4iOEYmvT\nGT5A1ILcqiV6Hg8jOduqZpohosH+BhPQsagvmFYuHmOxjJwIz39fkDk/dRG/\n6zYI032qhYwcZViuVM+gWsL0g762+4c95F+Q5hjs6daPjUgvCibH9Uk=\n",
    "start_sources": {
      "NeighborhoodRunner.java": {
        "text": "import org.code.neighborhood.*;\n\npublic class NeighborhoodRunner {\n  public static void main(String[] args) {\n\n    /* ----------------------------------- TO DO -----------------------------------\n     * ✅ Declare and initialize a 1D array to store the specified values and use\n     * it to instantiate an ArrayPainter object. Then, print the ArrayPainter object.\n     * -----------------------------------------------------------------------------\n     */\n\n\n\n\n\n\n    \n    \n  }\n}",
        "isVisible": true,
        "tabOrder": 0
      },
      "ArrayPainter.java": {
        "text": "import org.code.neighborhood.*;\n\n/*\n * Represents a Painter with a 1D array of paint colors\n */\npublic class ArrayPainter extends Painter {\n\n  private String[] colors;      // The 1D array of paint colors\n\n  /*\n   * Sets the starting x and y location, direction, and amount of paint\n   * and initializes colors to the specified 1D array of paint colors\n   */\n  public ArrayPainter(int x, int y, String direction, int numPaint, String[] colors) {\n    super(x, y, direction, numPaint);\n    this.colors = colors;\n  }\n\n  /*\n   * Returns a String containing each paint color\n   */\n  public String toString() {\n    String result = \"Number of Paint Colors: \" + colors.length + \"\\n\";\n\n    int index = 0;\n\n    while (index < colors.length) {\n      result += \"\\nPaint Color #\" + (index + 1) + \": \" + colors[index];\n      index++;\n    }\n\n    return result;\n  }\n  \n}",
        "isVisible": true,
        "tabOrder": 1
      }
    },
    "encrypted_exemplar_sources": "TFI5x/qrTvxmY5LlF2G9AbTyYs9BXqTjMJzhHtMrLQA95KIRYXiBsJxp2JJW\nB9QYU0sUglL0Bh6Zq3fcLmszYybByD9Xkl3agJzRGa5b8Hux2iFpKpLGCv+b\npScAEsyu3y7WXHRbJTg7XuMGcLJ/nrAba2oygGKSvlRPJC/Pn3+TKpRCbPIv\nHlhkiPSeYVfodV4F+fIfHY6uLn3BSG+GBj+5xro/ItrI+Xtp7+2kSAo/L2t5\npXBu2eoHJvpKJm9z5nXaQkltn8QJMYlbmirehGhR+m+KIMb5neNVPcoI2ciy\nWm3/GSAY8zWXCPZOavojlhr4rwdOoUhA/YoA82YyxSkaUE7KXj+8ldd7dea4\njtnu9lYWVj67ARDBCONa9S3qoud3yoPWwLgznDJcSkDNh1t1pFl9MosdkTCK\n3sEn/1LMqyjnh3O8I+b2S9d5FducYiAxApOA+5YnvsuhS2QRLWdgMDMClgYO\nUwC+59deTDXAP/S6iUyXtL080uWUAdy0SDuzuy+52fxjZegW7joCeacdGYG2\n4HvSC6HZb3CdYiApUkLlix6Y5IJHUL57K5IGGHdyprirFKC8P9CbNsPobHhX\n8uxOnqkxsCklbhGwDL1UaVCb3b1w2qdlswlpc95hfrmg5zvtfJ+IV/bJgVkN\nOZDBxMf4b9w0oBi/Y9/2Gvr5z/F7y6KAYsGUUwgYnrUZxRWdWMeWSszUMbq5\n9XEygzNzr+p/bb7JuqacGKdudWDL4PZNvPQnSst9+6vXvW1RBhFWEVNHInOe\nsAZAB2rE/w+342WSvogit9xRCqiYoO+PpQKKpO9WfMVKV4oa/7mhv5WWwi0R\no4NE0xlpGPk1lGDHJPgmpdPNdx04TJFefeYnrkq6SIc9fRKtB+KiPwBzcYCl\nkZRoUa4xqbGeq/+DW5tGltx2iWJ3ngB0kqwLta6QF1bntZDfmWEVIQYmzTj7\no9VnUHs84Qo1vz8UENg6doXG7G/Fv0IWVd0MEKEGD8YUCjjsmrxoz6sobG2S\nI9Z6zMH0H92kXMNMxrfyZz/o+gjbLa+PJo0EBx5/2gIbk2NYnsyDVTlb2zaQ\nsEjE4DXUQOJF0cX/KQf4vKkkXn/1SoRi5S5jJwjvFKRLJlJzcJVO0oFcIWXv\n7YpRHSEmTBlguO2cKVj5i6QU3SuTO8DOqPnFE1CIEONbq7kJX8cBfJVaTyf6\n1DqJLZh5WwcSUtvLihTM2GLhKlcmCaCNpmNs3f0VUM1fVVyRGsPrQI4j2bM7\n00CmHKTViATPc4ffyX6TQwu669GplEKCSECqbvXHQo+PnbEfqnxTtCeTJ+I5\nRul8tojIeJNRW63ga/udHVvUKxGlyq1HC2HwNZN+ErvL3i86RvZNzzEnF60P\nt+lkwZ7OY3PNzCQyoL0d5WHRpwKtOH1yDJ0Ux10EbqYvJbK4UuVz+/DapR96\nlMiyXOUTRyqE0apFtixlw1daWj3/LpS0JRI78RLMnk6AZfhZcMl3E60ylRkG\nXiifIbvibTKOcH8pMFx/oGy7LIbbbmaY6/xXQLQiy6TdtOoSAn8GqOqtBegW\njRuivZ9odlkWOvfDxYsH0n+rr0PHXfJVOU2YGDlz4bBUFYf9jfxBxMC8gar3\n3uBceokZ5iJICGbsPkFGpjQ4hYcCVfompqP37lEAPYzq2K3qtIoNPL/IQTbi\nrdVxxJLv/QjZydI9lg8cW5WhV3vspm3r3UFlD8jjN4BKVbb/1xxpaZx0AoQy\ntJVBt3dMG0tDc3stBCGZ3eKEknRv1XXbx5/seCpStwNKAsAD91/BLpLKiBCl\ndpviJEb2r2crrerJPm2LzQKMytc9AyGCCpt2I7TtFKJMEYrrHa6hp2QcwvOS\nG8vdYonITBaeuyZ59L7AhfGb5z25LsVzPJdHPnaCRBzE4p8uV4KCCKWBXi4V\nSXC301H9NApavr7LT2HcpVcuBXWcv1V2q8MHKNOQQ9HjZaR/wr9SXahLK5ej\na52TlX6qiKwq+iklxwSZkDmxJSTVpsrWr9rsFac+T1OmQ2P5kjpTqd6VSDHQ\n6GV+/WgmC7rvTUQhQ8tpTrmkezZFCdzZEGCilbjkm+CEILwgFKgOnffdUOZs\nSJYcXKyq9w+lafIFiloMjvItrDOhfRXqM+4hEHFz3qsDzeDw+QA4La1HzxC3\neSJrqEOVmG75tKYeFcB09DWaAgkYDodHHab3NLbbR+M+rtFyTNt9Lkk5T528\nIECAx1fdzHjVhHXk4dyJCZPfNRspzuyKrQzRBHCmT4B+KoUFIjl1k4Uxzbxm\nFs45vF2dX/oxw0WjFqe4Yiit2jcBobRgBRXGcBIATKSKuUB91UvM7qIHk78z\nj8uqs99Kprv8TeT3pUzpb3HAC3hv\n",
    "video_key": "csa_modifying_values_in_a_1d_array",
    "name_suffix": "_2024"
  },
  "published": true,
  "audit_log": "[{\"changed_at\":\"2024-01-12T20:51:52.025+00:00\",\"changed\":[\"cloned from \\\"CSA U3L2-L6d_2023\\\"\"],\"cloned_from\":\"CSA U3L2-L6d_2023\"}]"
}]]></config>
</Javalab>
