<Javalab>
  <config><![CDATA[{
  "game_id": 68,
  "created_at": "2022-08-23T20:22:16.000Z",
  "level_num": "custom",
  "user_id": 16889,
  "properties": {
    "encrypted": "false",
    "display_name": "12x12 Neighborhood",
    "mini_rubric": "false",
    "submittable": "false",
    "hide_share_and_remix": "false",
    "csa_view_mode": "neighborhood",
    "serialized_maze": [
      [
        {
          "tileType": 1,
          "value": 0,
          "assetId": 0
        },
        {
          "tileType": 1,
          "value": 0,
          "assetId": 0
        },
        {
          "tileType": 1,
          "value": 0,
          "assetId": 0
        },
        {
          "tileType": 1,
          "value": 0,
          "assetId": 0
        },
        {
          "tileType": 1,
          "value": 0,
          "assetId": 0
        },
        {
          "tileType": 1,
          "value": 0,
          "assetId": 0
        },
        {
          "tileType": 1,
          "value": 0,
          "assetId": 0
        },
        {
          "tileType": 1,
          "value": 0,
          "assetId": 0
        },
        {
          "tileType": 1,
          "value": 0,
          "assetId": 0
        },
        {
          "tileType": 1,
          "value": 0,
          "assetId": 0
        },
        {
          "tileType": 1,
          "value": 0,
          "assetId": 0
        },
        {
          "tileType": 1,
          "value": 0,
          "assetId": 0
        }
      ],
      [
        {
          "tileType": 1,
          "value": 0,
          "assetId": 0
        },
        {
          "tileType": 1,
          "value": 0,
          "assetId": 0
        },
        {
          "tileType": 1,
          "value": 0,
          "assetId": 0
        },
        {
          "tileType": 1,
          "value": 0,
          "assetId": 0
        },
        {
          "tileType": 1,
          "value": 0,
          "assetId": 0
        },
        {
          "tileType": 1,
          "value": 0,
          "assetId": 0
        },
        {
          "tileType": 1,
          "value": 0,
          "assetId": 0
        },
        {
          "tileType": 1,
          "value": 0,
          "assetId": 0
        },
        {
          "tileType": 1,
          "value": 0,
          "assetId": 0
        },
        {
          "tileType": 1,
          "value": 0,
          "assetId": 0
        },
        {
          "tileType": 1,
          "value": 0,
          "assetId": 0
        },
        {
          "tileType": 1,
          "value": 0,
          "assetId": 0
        }
      ],
      [
        {
          "tileType": 1,
          "value": 0,
          "assetId": 0
        },
        {
          "tileType": 1,
          "value": 0,
          "assetId": 0
        },
        {
          "tileType": 1,
          "value": 0,
          "assetId": 0
        },
        {
          "tileType": 1,
          "value": 0,
          "assetId": 0
        },
        {
          "tileType": 1,
          "value": 0,
          "assetId": 0
        },
        {
          "tileType": 1,
          "value": 0,
          "assetId": 0
        },
        {
          "tileType": 1,
          "value": 0,
          "assetId": 0
        },
        {
          "tileType": 1,
          "value": 0,
          "assetId": 0
        },
        {
          "tileType": 1,
          "value": 0,
          "assetId": 0
        },
        {
          "tileType": 1,
          "value": 0,
          "assetId": 0
        },
        {
          "tileType": 1,
          "value": 0,
          "assetId": 0
        },
        {
          "tileType": 1,
          "value": 0,
          "assetId": 0
        }
      ],
      [
        {
          "tileType": 1,
          "value": 0,
          "assetId": 0
        },
        {
          "tileType": 1,
          "value": 0,
          "assetId": 0
        },
        {
          "tileType": 1,
          "value": 0,
          "assetId": 0
        },
        {
          "tileType": 1,
          "value": 0,
          "assetId": 0
        },
        {
          "tileType": 1,
          "value": 0,
          "assetId": 0
        },
        {
          "tileType": 1,
          "value": 0,
          "assetId": 0
        },
        {
          "tileType": 1,
          "value": 0,
          "assetId": 0
        },
        {
          "tileType": 1,
          "value": 0,
          "assetId": 0
        },
        {
          "tileType": 1,
          "value": 0,
          "assetId": 0
        },
        {
          "tileType": 1,
          "value": 0,
          "assetId": 0
        },
        {
          "tileType": 1,
          "value": 0,
          "assetId": 0
        },
        {
          "tileType": 1,
          "value": 0,
          "assetId": 0
        }
      ],
      [
        {
          "tileType": 1,
          "value": 0,
          "assetId": 0
        },
        {
          "tileType": 1,
          "value": 0,
          "assetId": 0
        },
        {
          "tileType": 1,
          "value": 0,
          "assetId": 0
        },
        {
          "tileType": 1,
          "value": 0,
          "assetId": 0
        },
        {
          "tileType": 1,
          "value": 0,
          "assetId": 0
        },
        {
          "tileType": 1,
          "value": 0,
          "assetId": 0
        },
        {
          "tileType": 1,
          "value": 0,
          "assetId": 0
        },
        {
          "tileType": 1,
          "value": 0,
          "assetId": 0
        },
        {
          "tileType": 1,
          "value": 0,
          "assetId": 0
        },
        {
          "tileType": 1,
          "value": 0,
          "assetId": 0
        },
        {
          "tileType": 1,
          "value": 0,
          "assetId": 0
        },
        {
          "tileType": 1,
          "value": 0,
          "assetId": 0
        }
      ],
      [
        {
          "tileType": 1,
          "value": 0,
          "assetId": 0
        },
        {
          "tileType": 1,
          "value": 0,
          "assetId": 0
        },
        {
          "tileType": 1,
          "value": 0,
          "assetId": 0
        },
        {
          "tileType": 1,
          "value": 0,
          "assetId": 0
        },
        {
          "tileType": 1,
          "value": 0,
          "assetId": 0
        },
        {
          "tileType": 1,
          "value": 0,
          "assetId": 0
        },
        {
          "tileType": 1,
          "value": 0,
          "assetId": 0
        },
        {
          "tileType": 1,
          "value": 0,
          "assetId": 0
        },
        {
          "tileType": 1,
          "value": 0,
          "assetId": 0
        },
        {
          "tileType": 1,
          "value": 0,
          "assetId": 0
        },
        {
          "tileType": 1,
          "value": 0,
          "assetId": 0
        },
        {
          "tileType": 1,
          "value": 0,
          "assetId": 0
        }
      ],
      [
        {
          "tileType": 1,
          "value": 0,
          "assetId": 0
        },
        {
          "tileType": 1,
          "value": 0,
          "assetId": 0
        },
        {
          "tileType": 1,
          "value": 0,
          "assetId": 0
        },
        {
          "tileType": 1,
          "value": 0,
          "assetId": 0
        },
        {
          "tileType": 1,
          "value": 0,
          "assetId": 0
        },
        {
          "tileType": 1,
          "value": 0,
          "assetId": 0
        },
        {
          "tileType": 1,
          "value": 0,
          "assetId": 0
        },
        {
          "tileType": 1,
          "value": 0,
          "assetId": 0
        },
        {
          "tileType": 1,
          "value": 0,
          "assetId": 0
        },
        {
          "tileType": 1,
          "value": 0,
          "assetId": 0
        },
        {
          "tileType": 1,
          "value": 0,
          "assetId": 0
        },
        {
          "tileType": 1,
          "value": 0,
          "assetId": 0
        }
      ],
      [
        {
          "tileType": 1,
          "value": 0,
          "assetId": 0
        },
        {
          "tileType": 1,
          "value": 0,
          "assetId": 0
        },
        {
          "tileType": 1,
          "value": 0,
          "assetId": 0
        },
        {
          "tileType": 1,
          "value": 0,
          "assetId": 0
        },
        {
          "tileType": 1,
          "value": 0,
          "assetId": 0
        },
        {
          "tileType": 1,
          "value": 0,
          "assetId": 0
        },
        {
          "tileType": 1,
          "value": 0,
          "assetId": 0
        },
        {
          "tileType": 1,
          "value": 0,
          "assetId": 0
        },
        {
          "tileType": 1,
          "value": 0,
          "assetId": 0
        },
        {
          "tileType": 1,
          "value": 0,
          "assetId": 0
        },
        {
          "tileType": 1,
          "value": 0,
          "assetId": 0
        },
        {
          "tileType": 1,
          "value": 0,
          "assetId": 0
        }
      ],
      [
        {
          "tileType": 1,
          "value": 0,
          "assetId": 0
        },
        {
          "tileType": 1,
          "value": 0,
          "assetId": 0
        },
        {
          "tileType": 1,
          "value": 0,
          "assetId": 0
        },
        {
          "tileType": 1,
          "value": 0,
          "assetId": 0
        },
        {
          "tileType": 1,
          "value": 0,
          "assetId": 0
        },
        {
          "tileType": 1,
          "value": 0,
          "assetId": 0
        },
        {
          "tileType": 1,
          "value": 0,
          "assetId": 0
        },
        {
          "tileType": 1,
          "value": 0,
          "assetId": 0
        },
        {
          "tileType": 1,
          "value": 0,
          "assetId": 0
        },
        {
          "tileType": 1,
          "value": 0,
          "assetId": 0
        },
        {
          "tileType": 1,
          "value": 0,
          "assetId": 0
        },
        {
          "tileType": 1,
          "value": 0,
          "assetId": 0
        }
      ],
      [
        {
          "tileType": 1,
          "value": 0,
          "assetId": 0
        },
        {
          "tileType": 1,
          "value": 0,
          "assetId": 0
        },
        {
          "tileType": 1,
          "value": 0,
          "assetId": 0
        },
        {
          "tileType": 1,
          "value": 0,
          "assetId": 0
        },
        {
          "tileType": 1,
          "value": 0,
          "assetId": 0
        },
        {
          "tileType": 1,
          "value": 0,
          "assetId": 0
        },
        {
          "tileType": 1,
          "value": 0,
          "assetId": 0
        },
        {
          "tileType": 1,
          "value": 0,
          "assetId": 0
        },
        {
          "tileType": 1,
          "value": 0,
          "assetId": 0
        },
        {
          "tileType": 1,
          "value": 0,
          "assetId": 0
        },
        {
          "tileType": 1,
          "value": 0,
          "assetId": 0
        },
        {
          "tileType": 1,
          "value": 0,
          "assetId": 0
        }
      ],
      [
        {
          "tileType": 1,
          "value": 0,
          "assetId": 0
        },
        {
          "tileType": 1,
          "value": 0,
          "assetId": 0
        },
        {
          "tileType": 1,
          "value": 0,
          "assetId": 0
        },
        {
          "tileType": 1,
          "value": 0,
          "assetId": 0
        },
        {
          "tileType": 1,
          "value": 0,
          "assetId": 0
        },
        {
          "tileType": 1,
          "value": 0,
          "assetId": 0
        },
        {
          "tileType": 1,
          "value": 0,
          "assetId": 0
        },
        {
          "tileType": 1,
          "value": 0,
          "assetId": 0
        },
        {
          "tileType": 1,
          "value": 0,
          "assetId": 0
        },
        {
          "tileType": 1,
          "value": 0,
          "assetId": 0
        },
        {
          "tileType": 1,
          "value": 0,
          "assetId": 0
        },
        {
          "tileType": 1,
          "value": 0,
          "assetId": 0
        }
      ],
      [
        {
          "tileType": 1,
          "value": 0,
          "assetId": 0
        },
        {
          "tileType": 1,
          "value": 0,
          "assetId": 0
        },
        {
          "tileType": 1,
          "value": 0,
          "assetId": 0
        },
        {
          "tileType": 1,
          "value": 0,
          "assetId": 0
        },
        {
          "tileType": 1,
          "value": 0,
          "assetId": 0
        },
        {
          "tileType": 1,
          "value": 0,
          "assetId": 0
        },
        {
          "tileType": 1,
          "value": 0,
          "assetId": 0
        },
        {
          "tileType": 1,
          "value": 0,
          "assetId": 0
        },
        {
          "tileType": 1,
          "value": 0,
          "assetId": 0
        },
        {
          "tileType": 1,
          "value": 0,
          "assetId": 0
        },
        {
          "tileType": 1,
          "value": 0,
          "assetId": 0
        },
        {
          "tileType": 1,
          "value": 0,
          "assetId": 0
        }
      ]
    ],
    "long_instructions": "##In MyNeighborhood.java:\r\n\r\n1. Instantiate an object of your new subclass.\r\n\r\n2. (Optional) Instantiate `PatternPainter`(#e7e8ea) and/or `BackgroundPainter`(#e7e8ea) objects.\r\n\r\n3. Write your program to create your asphalt art.",
    "project_template_level_name": "CSA U1L16-L1b PBT_pilot-2022",
    "encrypted_exemplar_sources": "TLdHmjU3f0oAaoZ7vnf1+hL76CEOijG8shBhFhG3B8rc8H23cnKXvOAOWnih\nrgaX+wQu5fGCSYEksaVWbNdT3cvAa6Sp+3Gr9BjWQ7WyM3Z9AbVxIgceNFOo\nH5AWygCgJxUTOP0sf8RzaixoSnFP1MLxmMnWeaXocrrbflMZ2VZ1P8vXBUXm\n5Io1Lqt4g047epxnolrM4x2BtTCzreWNd7+ayZniJ1UJw72N9gSXXRI4CdzI\ndLUQ34RYY2SnuiPoCxu0DQKtIAuvUgX2BMj1rnY//qWGLXI0IerMQGRAxPno\n/xirM5yz0pNeb3tHGm28bdYP4NP57Vr00sprm8joX9riIfoMQZIiNN5+YBgW\nt4+lyAMhpUXT2ZU5ItETuuY1jm4M1M3QnehuXsCABDn6wlAw7TQYWmGLc/TF\njn+urw3o3t5EZHEubIkdEFookYam4zoRFr/yNayvCH0krhHljRM0OZoJJx2o\n8t3M8482JEHF/44Xz+riAyUnnSinxXpTfYPLAIsmv4O4gchCghG3z/35stsl\nM2RCXafgvz5KmrlYWWsDaMWmdnDMCAEkjUGku0MmPQ7TC5H+r1vHS8PN9V6f\nrzjFPp+GZ18ypFpSgpv8z+nldI1/+q8H4ShOiJdCp5Whj1nf2F5gm9CU6PJM\n3WYC6xLD8x+BqUBSUwBlUoNW5vUlPghSqmwDPet1hKkfb6i+p4We4+EelZ/L\nPAbfG/3z9qzMMDwJKjAg56qlG7qSBGw7Yfp0UGlQJlfvn0AcK0pO/CUF2UW5\ntiXmgHsxypwDlQ2bimmRz2QT/tH3Ml0gI71IDBXNfjLxYD/MfLA1pZVPHcpI\nEKReNRIJu80Vnn2VCsRf/7DqBgfMLnHQo0UGSRN2quWi+MEU3wWIjbiPr+uf\n+VYoiUisWonEqO+5N+mYJlr245ZWFQu52Oz/5iqxKI8ldrICl8nFcPu0DTXo\n1cm6sfWWHQY23ov7Jo08Hhe55J62acuK64pfzfT52CcdE+enqi2awSKOsRgc\n/UYg4r3c51jn0Vne0FQjR8j4lLw5M/IvvT4+vetIUzKFSgRQEV7XlaDojYqo\n77n1Ynnh+VW5L1veFyEUQvVoPfDZ8oD1EWpb62Pfu3WJ1rNl5xgGz+e+g4vo\nDGrdPlDOLNXooefnKHRep2obSAie42Jd0kfnsu9jL36Trflgobl03r4AW6Ty\nmfQxahsNinaENj0W4AjuoVHTPofRd2AKmcTaljxcPT4T1Fssx4+SEHHSJmB4\n7WkXlUSHtdVpxch2mV0m/8c/N1lA6yMcxBDjjMWfTh6ivFspw5P3DM5Tui76\nJR9TJe8WoHoRo0qzlRVdHZuQsbwB0OantlOSFOimzSrWy0hycGgqjTgr6O0T\nChuPO4vbk+ce8clbUOuM8r7RkVdc58kuxKch9zua/qPFN9JnllIneblh+WSX\npqML5v2Na6yk+FvxxwCYsPmK3Sq28n4FhumbYpJ11Pceo1b6WSlhqc5KfsX+\nt5QqYm7dVmbPehu/muxXXRaTLN0490XGwjH4ugMtUspmAI8t5ZsaZph2ERr7\nHVeWqGMPT5bC8eLgCkk9ACHRqlrqFSnc1SEnKOh5a4FkSzrtFCat4aW4+SFO\nZ7hkKCC40TBAJSTNXgYE8Ty1OYZ7m+a/dNAw3drvNUxN/zD7hYPiVhQFhLlb\nPD+EdIoWangJ4pA5ABx6oFpH1FdwEhJ+A4Ou5F5ImoPoPPcZFmDZ2w9yO0LW\nSkg5VIoO7+qJ/sXUhbSB6qlyZVm5k0YzcNstFQAzuXTgTlm1NCHC9OS0f8/E\nTTMr8icHs1GVmUWoXJDxVXzstCAEj6ohrMXo3mm0QsagbDQZjv2mW6U8Ptlp\nInJ1uyYpBtLvvpVhvAw+bhIijCy+8o7kgsDFGRPqXrXob1BWMP19WR1AQ6ra\nTPW64DrEry7zp2qlDwyXnFh0YXZEjJcn9Ubg/l1e9ottOO9LodQ4v9mvOe0v\nEk5dER/xVPNuFHn7sczOipienkpA3Up1fmaVsD5iHCt3PsCYKqSRp6cvWb7T\nenIdDkUrAVxU0lUo5KiHE9WyrcB5waBqo0EwAJYUtlz5In9Zkjl24ZcG9fzG\n8YgaJaFPxqoWnYUPP9CSNMcMfBSBzXhtaMj96oxDrHvdR8DtmwawK7cBh/dL\n1tkGajtJVZ8VHmii5k2SDwNGDHwxoh/jrpX/Ls5VJuHiItFSO77qVeG5FM9B\n3wkd+ePZQAtG0gMvJVl8WoXb/IGzhoN/fsb97UOOi6svtPYsqcoNVyXYDU4j\nX3F/EfTI+0aPTULKixU9gJuYp/f5rhK4Ow/p5bTkUfdRHn900/nqg6YMb0go\nepnNDe3cnRAIL1WqrYaI/W9RHQ2W1wZMyrCtrKXOyxCy7By7/Rbt0c9Lpc8n\nRrawUgU9/bjheEB0HHSKf8c+rRQUQbTpDtWwQngRq2rr/TX/hV5BCO3aOEbO\nflS+aue8aBamy2Q/OCKLp2YlSM/sKa41Ld+Tm+AKUMTSDqDx+ZB+FmkXD0OZ\no+zY7ZWj0d2E26TDOZRqa4nfu6LaGZ03W7RMRWLYL8qatQQT+Gm927ICVBNw\n5iIbeziNqBj45+P6QyOOjrBG6vtcOTlM/d8p1kZxX0WaFtPJqfkEY2Fcdvne\nwWxNl4hsN+rbGMzwijz7riQAPZ5tuYSBzF7PU+lEFKCX6S+wo7fpsouIGAD6\nLzqZMBCB9Lf9iwkXyZxQp/S0RVBOh8EcMEqUwiSJxkHTGP3mPsCfTChX+jOB\nHtbeHkgKOtN/OHn9yksX5g48D/S2H3MdANMheDzUyRn3Rdh2QNTmOG5GtwKz\nYZ6NzP+YWw2OYOh8t3PePutjYBKtUX6TI+qV2b4bn2qoNYz5AuOcNlTvwAgk\nGlFHuf3stkRKw4FXX5gpOHyOVO7y75nCWsVf5Q+s2PSqKYcxa3Oj3nCjzhNT\n5MkiMUMnj6Gi7x//b5rWj+m63gBJ0MVfyqB3MuMNBUGl1dWrat+3tu5b3iZl\n99OTD+0c3JS9cNbWjb+Z4Lzlo312P6wenQQfE5HSNZISCPy+tfzsAMYzPDQ+\npwMF8ps1jcdfLVYUJB2uB8Ar877CbrEjjvcxyfoLhu+7Cemii6JKC6q5cQRV\n4a8el1Ot5DVGkpX994f0u2Qway+9ty057m0dACqiNbk/Br519KlmokLOdQL/\njlRVBmP5hU+Xf+W3NCBE52VQO1OYgKRdlM9TFoZ1lexqa1SnZjbAbMUqMvEl\ny8I+WLXhVpXewCBYSiqJARpURdz3qNqpzsF19LEmG1lqcnxjrLIsEHbY6zFW\nxtJmCCFmU5zbZOJzGzxwdXQCxmLdEcaF9uX3xkB86dOZYde2K/TBfpFU/+5q\nfrn+zRnBRSBSz0fioJkr01eLJYcMXVUqmuxlT/v+Bdkv0Baz1zxy2B6YT2bN\ndgQjZV00qx3rkYjP8L8cKC6lU0fY0J7uqhA8tj8vt/G/+yn7uWkoMXa5k2fO\no50IHOFuNdERuS9hwoD27EAa8pg72Kgz6V73AjtWz7YBpKT+3L7R0oDqfIqK\nudwSUXAcC34XJN1llYOKaRJjmI9ZWglrhfyDykN87D9wgupphwTyainC101l\n2szw8CbUpBmHD674/JPwkxd/wDRD09xrlAQPadt4ChlJ49Ov067CjjkG1KWA\n+gl8rvP2XQdoZKwwjnPh+CHa47krACDp//r7mMoHF7TotAOHF8XB/b50tqsH\nWx+3MXa88L1dUWHZiXSCL8IlHwKSNXzGy/5YzeS9/RDwdrTueEIygzAwj/fn\nKcJeePV4v/gk0QjQPMIN3pg82ZVJ6QMZUS2Qrdwg4AYxxecG8+k4uz6wVT04\n+spxhJuGozKeTGHbeqlk56ZLgODZ4KFn+nWrUHdHl9RYEfsT+OvI724BAsds\nuoCg6VkObKwCfqLdA/ze77TxSZBlu+mwMlWbl5yzTOvWnEF4RKQP0bSW6Y0v\nyRBdWB4TgkriqpKppbQl0+eLO0uv8t+qUBqYNAIVE29+Ydg/hQcstvkQ0CHi\n3UPEK5h4CAYRD8UKgH5nfFYBcyCDQn/1auLc78fONiGiyKAM5tIs2/Hp+sXR\naHTFrA9NCGWR10PcHPuOZVhFri9rlOQmMBGuLwH2Do50fepUv3fyE29ThyN8\nf0CBxlf7B0krRqKmsVyW1Gcor5QAhvPZAirPk1W8Ykmn+hVmEqSACyk3lVU5\nUR2ZSatv5XDxpLtDZhmDG/sAegdacgyFXXF0dZ9Bvk1SIeNSWrQ1BFXEjf2p\n/0/x5wcbPS4SypwfCJliq3+I9QKKhPT95K07oTWlWOhVU3C+Y7WPXrh35yrd\nNBUhMrilA8w1VaHGvfn33Y4+t+iaWAqj4bbAl69e60wtQp0+9z6A9MEFy2q3\nPfEgs+TzIKwS6g1VLCzbGnGJuzgjbGLnBv34G29nOZ+eRTHK3tLNdhHKG7/q\no+8H3Es2ytYbARbYRO0mxOgPME1kqWIeoa+clqb6GhoJlrCjPZEm5Y0MlWiE\nWK85SKpe/Xw+Y5znUSinTlFQnQMxa9yI/AfBwb9xCGeMQykjM0iBzy8EW6av\nyNbUSPMA+4Xz3bGaKIfYlNORmoD4vZA6UWsAT9CkgnFl2Cufm95NQbQ8YghG\no4a9nX1WwMOe3Y/xW/0LNnYOinlgb6Z4cHvRZZY/BO6Mzr51AgzwDO1B7AcW\nsuNQU1EeEZ977yAzkzIUUF7BbY9+3AhjS5kBZhKEIICZqBxnaKr4AgLT/0Lj\nUnh8LKpfBEigSKDmS0BJMMEbckRoc9tAtC+LLOX3MQQG2+j63swNeOi/n410\nE8oVFwCYarGVf9i0LaKg1KiIEHjvfgrEHhdTG9jhDAefXQEEffhpiEBEpf84\nK5eEb9zFr6pepSp46SdVm8cq5TsPnZBwqsv9y8ME1Kmf06aJTYhMgNnNUh80\nrnrer31gjIDS80xIRYmvOIqAv6ao/HjYLe1EBdk/D4rj+drvvA4DBH+N3VLk\nTNj94Agc7Rkodda1Q4MllwBJ3fbx9itkh9z2BO/a8JN+0iD7Y/BjlSEaUzBR\nXQ34sCkw7wmdSzLMMgMZ3AeOkj51JPSADoilgVRFzQ4JuM8Cnh7bsriItYp9\ntSnTleCKFuClfH9MG3QrYn/A+pf1Zxj4ihnTq/CmFUaxYDKM5yqWOtwW8I5s\n5s2Jvr9I1Ff5uaLV+xvTr9oYRz2l9yV8dl45JdwYYTZa54SHL+3WXHOlop6D\nSrUD9qZPAn3SyJJbFKZHEccrzXIeSmoChqoh9Vqmq9Q128Ah5XLFYFPRR4Lu\nrKKfRQ8AGA9qwV9Bow/75CiYLZgaDaZclqKcKGsA+z2A8Ot/mURAkqpczgPc\nWmuGqF7zF2FE3jeZvNX2Zi3VL37Qggt0irQMQaI6eXhFH0HmlYqyly8UwwAT\nOJ5HjoHqdKjQJUILLHuKf4XPMmn8Pn/BJCCl9hkT8S47dyjThhPCZL478MDI\nIvdwR0Q6EE7n/LpZSkAlCQYA/qd/5EpDJ9f2mPQVPfeVGfZZuckyHYZvA42A\nGlqp8QXr6TKpSEop9OhFqwnofYPWcEp4A64SrfXX/NdWWpMp6jLvZq6v/wQk\nW55w/zaFD1+SWW/SFi7bzgArkuzBwTk/rbWd1WgYHkOTnlHX3dUQVbohWbKy\n8gx/NAO79aYORccb7k7x7FFxRkboeQh50HKOsm8An4MaF8O2jq6tW/tG/XV3\nIl37muF8cjRsUnz86EVeAMMSfHLJ7lQldLWu58CWrXfVk61Tno3dm8vdbWt1\ntYrIJOdbfuN61DExD7LwOz2lhMXjRCdv0xXa4KFE3H+ZzhdI7br2IekjNhfy\nabNM/3qrQ3jBneY0MMBmuzxfVL5CJCRYMp9Miz3an/bwCKw5qa+2zglw+BYR\nVI42FikU0zcEkAdGXePV+A8A4rV5SSv9+NTEwIzRPrquJzecEpHIpJgoyb8L\nb+ONZzjomcm1AEyPmVehuPIn64lu2ra2XY8hloHHmdFXW8Q/+Pm2CYnkKnK9\nrM34i9hha97q9AeWjEzaIr48PPksHQ8/8900hGIyd/Uq/q64mhsZxxuEImpM\nW2r6v3m891nAcP+mBbxEef8lyyEJYG/pJEL1ZAP3vEQnpgD9xROo4SknjcKH\nShoYsSIe1NrpWhlepFj+gnuL8w4cvV7CS0DqFF6LbDcNYHFyWCB6DG47rP+9\nwcEzU/QUm0NP4PREAWt7Xge4mt/D6jgo4TvonXhagD9yY1dU3erNJ+Ab8k7E\nhMqp0ga0Y4GYF+a96XmuBCiLa6LWgxkSYfJKNe4UZaC03vVmpOAo1tpVpBdn\nYm8JfmAZp5Ow5sZnjuYGToREdrT1/Yz8c40T+R8TIXfa2KxUjviO1mVjcrNd\n4wY0/w0GO/0sSV399pD//38TmY9hPFhcJQHjRZF0pLCdPMaMjxU2aibjUtaw\n1fDlmC50UVg1ncm+u52Wv2pr/NS91uzNnkJd64DKobezuO2DUcBJcTQtPhBu\ntdCTCUSY5RFrw9qjHEBXbiSB+GpBAe1U6Dz/60mDN+ItrziTHNZGQRx1cRp8\nzYMdw/OIfA7smGxi79JCJIMspN/og8ojB3f3JD8q3SEU52hZXYSswCIEGoI9\nT2pSRkubt6MQOtWr3fx08RDwP8TGvcI8jm1S3jmJcnJ10E2IH0KEJAGsHcvU\nIdhFvNA16p26JQmrl2dVMioYYQ3+lzZz1hBklkE42K4oA2DZvi+Ylte/y5iK\ng9+R94vxuZjKyMiUKkO09H1DT3XCNkq4gPmzkgEIyNFo7s2yoZh7+56g3a1w\nyaL/ab9GjMHaC3jLTa+jyJ+sn8GOphSsH3e1fxulwjYVndRvFiFTfWq17njE\nS2bEN/5HweyxkT4HtBFX0lnIS5yHBL++gtUjQGwV7eBfPysaZyo8G+EbjBDR\nptrApZBuaDCsSxv1aCaEXz5TfLJlGBYiP+rBE5munx5Zshd1+H5EKKdFNlHd\nXQyCKQLO2Xl6LZb0fOyf/JbkoNZXsJpqviN1jPxJM6A90sWwlGT4s0TD1zJ5\nk2Mm6WT/USac5lZezv/fOuzsEkY0BBH+vyr/W1RyGWE7XpiM2Y61LA4jHfve\nHpFQyrUTfqcPDUr3MLSb45WOqqeIazKURZsmbF0tADyM5Ly+w7ppOfpjUFuD\nj+V9D7rDQM72FgOFifXLgQWu83OnOZwClV26tqBVnGrNt+fkiyGOgcqkUdyD\nDTkkVY0hHr8c+4Li6s07wTXB09N4CNx8m/GTWHFyOF8o7Fos2MI3aFcfRoOJ\nVl8ey6sBoF4HR8On2ISQiVQgWuag2xBLPSRDShs9r7cjP6UYm5GIHZwA8TNc\nZIU4DAEymV8J85CZjmvQ5Kc4jVnkP3bl7j9TilavWaLZp1HKZooZT7EaEVaY\nBLzxjQQcLyop56PlrBbVXZWU8hAKbcIuZ/1iIFVdUFznA3I3GzAhvAMEcEX+\n7Uk8o+MAtaJfjODyH6FTp3hoVqVS78oz/EQz4zACdNiQtviwAaCXC31N1BqV\nWTyqrTWVU9/HUNZ8Bcmc8An4C2SCQ0JJ0mIO42D8+cxmMwU2zgaUAu9J0MHe\nPksx1dW1ejPkTFU1rWtUUQ/cdSKXR4eUtjswqSQVVaf3dIH66XVw7Nm9tIff\n/hf0tQCD735HovheMJmzEBuSnaYcCeLGDQWhR88xEFAbJKryVOec6PgL8/f7\nEjrNsDT/Sg7zNK9q8gBTqZ41GDm7wcFRmlT5tH6ANjcyxHTDIohqQrRSFQl+\nEguxSq8nHwhxgdT7uZZnIocbXNqtCpBZnPjG6pAK2N2rAK/RmQYC909ABHN1\nUXZbSIPy0vLSszzVUsAxsa0sfJFqTJ/Ae3nkjGd3rIAtBvcqma/Plr74VZ8j\nN9vM1B/lS18SIlEER295cowlTrsOfXCZ+SIc+ceZoDNyHjoB0YuKGcYR93No\nSMXixsnvN9hyCG1l5p9TA4V6FVdtERy9AtMELFfpsiaBP7DYyll/PsMYdmFn\nnE8ficPqzz1Ep8c3zsk6aP7qGHJCuUGnqu/rr4yOIj5O4vAEwk2g8pKLa68Q\nUu0XGse0S1rebZbXjB0ZQEThb4HnYjJWQT2uabnZEJeyeCS+9y/Rh9MaF3MH\neu1JGq3w3Va/HzctRaRj6fk5bzbGxVsa6Qizlu3Ga8nea9Ek1v6FhBM01Eq1\nX24Ty+c9ia3/F8nnmZamddMnvr2/sDtNfEbK3tkWXCSKDvOwiEh9l99JE5Td\nu7D3uYL+8yU3haeTrIRl29UKXLrbCw0UpvE/8JvJTwuxt+8Vq9NefA3ZelgE\n7fvIe8AnwZqb8r14S7xqfbNbLuqYhubOJr4kiDWskgRDCCAEg8u5F++k7gkE\nfdMn7R222IOGROvMed5nZgLQhT7QmmJuNj5Lqlde47xVqiX5BaHhcc0aypzC\nxUJlj7/9VnB+sw2P5LA/VbX5ZWpZ/cp9uBl8hw0ZPeV5rqx65YpZ29SlCz9S\n+Qny23izhHj4bKQcvyMNkY1PlZMC7y5e3TT7fBfqxPcO7nOO7mmK1BDI/C73\ntH7DD6trvXGmg/V5CXDUp/HlrA560HOvtJfRdbVjJQqNzMN76WgItJ9gwJu2\nhql4sVsZRls/SsLDMn9kKI198U4BcFrf/WxkLU1mnyifcwz8Cebmdm45axq+\nB6EmyaCHZa7YoaJB3Sjh50I1pGQzmb9u5hKToR4EmKDrRoLeiDjZbBHoPwt2\nzFziKwdeZQQSPZy8m7MCR3FQziBhOGXpPL2ApyuQOaYxEfw66hwe6fshEnDO\nm+y5CPq+6k+NWgJfGTVGfh+LGSQdKCKTqfhOlLgRPKYbIrllIdnzjUxVO9KK\nUNROnn2bQ8flDkTig1FQ0N1t5Fl1QaSXBuKIbU0UHfIhg+s6hW/R4bGggb3M\n3BMXvubpCmMjRZBeTLgr4ZrLH8bgWSsHI+4Pa497UOnn7PraN8jDfFDpVY/2\naaLIW0Sc4oUInsSixToz+d0Kl+VEaEZ415Vu/st5nUTEq+c6XdJ+jM3R+C8C\nMUhPsLHJL3lnDbr6iP2EmtJ18j7pS9/c+/KSWM6NJRmRahrtZoTuJCsRJsT/\nzxis0A+nuPGiKjlFCfsDnMZnkh9QcwupAD7QOIgEf/V49jHU5sKnT4j5uonf\nlIgekbLbbycWj1yWEcLQUH6pgknHVLDWPpIX6TfrJCSp/3sT3VYVINTzmvlQ\nMFcri0zxRSS/hWGDbMBXOXvSBpuNZ5InRdoB\n",
    "thumbnail_url": "https://images.code.org/7e6c6d6a652495ad9598b205af1eb410-image-1649688934925.png",
    "name_suffix": "_pilot-2022"
  },
  "published": true,
  "audit_log": "[{\"changed_at\":\"2022-08-23T20:22:16.343+00:00\",\"changed\":[\"cloned from \\\"CSA U1L17-L1b_2022\\\"\"],\"cloned_from\":\"CSA U1L17-L1b_2022\"}]"
}]]></config>
</Javalab>
