<Javalab>
  <config><![CDATA[{
  "game_id": 68,
  "created_at": "2022-10-10T15:24:39.000Z",
  "level_num": "custom",
  "user_id": 16889,
  "properties": {
    "encrypted": "false",
    "mini_rubric": "false",
    "submittable": "false",
    "hide_share_and_remix": "true",
    "csa_view_mode": "neighborhood",
    "display_name": "Multiple Syntax Errors",
    "bubble_choice_description": "This program has MULTIPLE syntax errors that are preventing it from running. Can you find and fix the errors?",
    "serialized_maze": [
      [
        {
          "tileType": 1,
          "value": 0,
          "assetId": 0
        },
        {
          "tileType": 1,
          "value": 0,
          "assetId": 0
        },
        {
          "tileType": 1,
          "value": 0,
          "assetId": 0
        },
        {
          "tileType": 1,
          "value": 0,
          "assetId": 0
        },
        {
          "tileType": 1,
          "value": 0,
          "assetId": 0
        },
        {
          "tileType": 1,
          "value": 0,
          "assetId": 0
        },
        {
          "tileType": 1,
          "value": 0,
          "assetId": 0
        },
        {
          "tileType": 1,
          "value": 0,
          "assetId": 0
        },
        {
          "tileType": 1,
          "value": 0,
          "assetId": 0
        },
        {
          "tileType": 1,
          "value": 0,
          "assetId": 0
        }
      ],
      [
        {
          "tileType": 1,
          "value": 0,
          "assetId": 0
        },
        {
          "tileType": 1,
          "value": 0,
          "assetId": 0
        },
        {
          "tileType": 1,
          "value": 0,
          "assetId": 0
        },
        {
          "tileType": 1,
          "value": 0,
          "assetId": 0
        },
        {
          "tileType": 1,
          "value": 0,
          "assetId": 0
        },
        {
          "tileType": 1,
          "value": 0,
          "assetId": 0
        },
        {
          "tileType": 1,
          "value": 0,
          "assetId": 0
        },
        {
          "tileType": 1,
          "value": 0,
          "assetId": 0
        },
        {
          "tileType": 1,
          "value": 0,
          "assetId": 0
        },
        {
          "tileType": 1,
          "value": 0,
          "assetId": 0
        }
      ],
      [
        {
          "tileType": 1,
          "value": 0,
          "assetId": 0
        },
        {
          "tileType": 1,
          "value": 0,
          "assetId": 0
        },
        {
          "tileType": 1,
          "value": 0,
          "assetId": 0
        },
        {
          "tileType": 1,
          "value": 0,
          "assetId": 0
        },
        {
          "tileType": 1,
          "value": 0,
          "assetId": 0
        },
        {
          "tileType": 1,
          "value": 0,
          "assetId": 0
        },
        {
          "tileType": 1,
          "value": 0,
          "assetId": 0
        },
        {
          "tileType": 1,
          "value": 0,
          "assetId": 0
        },
        {
          "tileType": 1,
          "value": 4,
          "assetId": 303
        },
        {
          "tileType": 1,
          "value": 0,
          "assetId": 0
        }
      ],
      [
        {
          "tileType": 1,
          "value": 0,
          "assetId": 0
        },
        {
          "tileType": 1,
          "value": 0,
          "assetId": 0
        },
        {
          "tileType": 1,
          "value": 0,
          "assetId": 0
        },
        {
          "tileType": 1,
          "value": 0,
          "assetId": 0
        },
        {
          "tileType": 1,
          "value": 0,
          "assetId": 0
        },
        {
          "tileType": 1,
          "value": 0,
          "assetId": 0
        },
        {
          "tileType": 1,
          "value": 0,
          "assetId": 0
        },
        {
          "tileType": 1,
          "value": 0,
          "assetId": 0
        },
        {
          "tileType": 1,
          "value": 0,
          "assetId": 0
        },
        {
          "tileType": 1,
          "value": 0,
          "assetId": 0
        }
      ],
      [
        {
          "tileType": 1,
          "value": 0,
          "assetId": 0
        },
        {
          "tileType": 1,
          "value": 4,
          "assetId": 303
        },
        {
          "tileType": 1,
          "value": 0,
          "assetId": 0
        },
        {
          "tileType": 1,
          "value": 0,
          "assetId": 0
        },
        {
          "tileType": 1,
          "value": 0,
          "assetId": 0
        },
        {
          "tileType": 1,
          "value": 0,
          "assetId": 0
        },
        {
          "tileType": 1,
          "value": 0,
          "assetId": 0
        },
        {
          "tileType": 1,
          "value": 0,
          "assetId": 0
        },
        {
          "tileType": 1,
          "value": 0,
          "assetId": 0
        },
        {
          "tileType": 1,
          "value": 0,
          "assetId": 0
        }
      ],
      [
        {
          "tileType": 1,
          "value": 0,
          "assetId": 0
        },
        {
          "tileType": 1,
          "value": 0,
          "assetId": 0
        },
        {
          "tileType": 1,
          "value": 0,
          "assetId": 0
        },
        {
          "tileType": 1,
          "value": 0,
          "assetId": 0
        },
        {
          "tileType": 1,
          "value": 0,
          "assetId": 0
        },
        {
          "tileType": 1,
          "value": 0,
          "assetId": 0
        },
        {
          "tileType": 1,
          "value": 0,
          "assetId": 0
        },
        {
          "tileType": 1,
          "value": 0,
          "assetId": 0
        },
        {
          "tileType": 1,
          "value": 0,
          "assetId": 0
        },
        {
          "tileType": 1,
          "value": 0,
          "assetId": 0
        }
      ],
      [
        {
          "tileType": 1,
          "value": 0,
          "assetId": 0
        },
        {
          "tileType": 1,
          "value": 0,
          "assetId": 0
        },
        {
          "tileType": 1,
          "value": 0,
          "assetId": 0
        },
        {
          "tileType": 1,
          "value": 0,
          "assetId": 0
        },
        {
          "tileType": 1,
          "value": 0,
          "assetId": 0
        },
        {
          "tileType": 1,
          "value": 4,
          "assetId": 303
        },
        {
          "tileType": 1,
          "value": 0,
          "assetId": 0
        },
        {
          "tileType": 1,
          "value": 0,
          "assetId": 0
        },
        {
          "tileType": 1,
          "value": 0,
          "assetId": 0
        },
        {
          "tileType": 1,
          "value": 0,
          "assetId": 0
        }
      ],
      [
        {
          "tileType": 1,
          "value": 0,
          "assetId": 0
        },
        {
          "tileType": 1,
          "value": 0,
          "assetId": 0
        },
        {
          "tileType": 1,
          "value": 0,
          "assetId": 0
        },
        {
          "tileType": 1,
          "value": 0,
          "assetId": 0
        },
        {
          "tileType": 1,
          "value": 0,
          "assetId": 0
        },
        {
          "tileType": 1,
          "value": 0,
          "assetId": 0
        },
        {
          "tileType": 1,
          "value": 0,
          "assetId": 0
        },
        {
          "tileType": 1,
          "value": 0,
          "assetId": 0
        },
        {
          "tileType": 1,
          "value": 0,
          "assetId": 0
        },
        {
          "tileType": 1,
          "value": 0,
          "assetId": 0
        }
      ],
      [
        {
          "tileType": 1,
          "value": 0,
          "assetId": 0
        },
        {
          "tileType": 1,
          "value": 0,
          "assetId": 0
        },
        {
          "tileType": 1,
          "value": 0,
          "assetId": 0
        },
        {
          "tileType": 1,
          "value": 0,
          "assetId": 0
        },
        {
          "tileType": 1,
          "value": 0,
          "assetId": 0
        },
        {
          "tileType": 1,
          "value": 0,
          "assetId": 0
        },
        {
          "tileType": 1,
          "value": 0,
          "assetId": 0
        },
        {
          "tileType": 1,
          "value": 0,
          "assetId": 0
        },
        {
          "tileType": 1,
          "value": 0,
          "assetId": 0
        },
        {
          "tileType": 1,
          "value": 0,
          "assetId": 0
        }
      ],
      [
        {
          "tileType": 1,
          "value": 0,
          "assetId": 0
        },
        {
          "tileType": 1,
          "value": 0,
          "assetId": 0
        },
        {
          "tileType": 1,
          "value": 0,
          "assetId": 0
        },
        {
          "tileType": 1,
          "value": 0,
          "assetId": 0
        },
        {
          "tileType": 1,
          "value": 0,
          "assetId": 0
        },
        {
          "tileType": 1,
          "value": 0,
          "assetId": 0
        },
        {
          "tileType": 1,
          "value": 0,
          "assetId": 0
        },
        {
          "tileType": 1,
          "value": 0,
          "assetId": 0
        },
        {
          "tileType": 1,
          "value": 0,
          "assetId": 0
        },
        {
          "tileType": 1,
          "value": 0,
          "assetId": 0
        }
      ]
    ],
    "long_instructions": "##Fix the Error\r\n\r\nRun the program to see the error displayed in the console.\r\n\r\n✅ **TO DO:** This program has **multiple** syntax errors to fix! Find and fix the syntax errors in the program.\r\n\r\n<div style=\"background-color: #E0D1EC; border: 1px solid #9660bf; border-radius: 5px; font-size: 1.1em; padding: 15px; margin-bottom: 10px;\">\r\n💡 <strong>TIP:</strong> Check out the <strong>Help & Tips</strong> tab ⬆️ for tips for finding and fixing syntax errors!\r\n</div>\r\n\r\n🖥️ **TEST:** Test your program to check if your code achieves the expected result.\r\n\r\n🎉 **RUN:** Run your program to see the result of your code!",
    "start_sources": {
      "NeighborhoodRunner.java": {
        "text": "import org.code.neighborhood.*;\n\npublic class NeighborhoodRunner {\n  public static void main(String[] args) {\n\n    // Creates a Painter called madison\n    Painter madison = new Painter();\n\n    // Moves forward one space\n    madison.move();\n\n    // Turns right by turning left three times\n    madison.turnLeft;\n    madison.turnLeft();\n    madison.turnLeft();\n\n    // Moves forward four spaces\n    madison.move();\n    madison.move();\n    madison.move();\n    madison.move();\n\n    // Takes paint four times to get all the paint from the bucket\n    madison.takePaint();\n    madison.takepaint();\n    madison.takePaint();\n    madison.takePaint();\n\n    // Paints the first half of the smile\n    madison.paint(\"gold\");\n    madison.move();\n    madison.turnLeft();\n    madison.move();\n    madison.paint(\"gold\");\n    madison.move();\n    madison.turnLeft();\n    madison.turnLeft()\n    madison.turnleft();\n    madison.move();\n    madison.paint(\"gold\");\n    madison.turnLeft();\n    madison.move();\n    madison.paint(\"gold\");\n    madison.move();\n\n    // Takes paint four times to get all the paint from the bucket\n    madison.takePaint();\n    madison.takePaint();\n    madison.takePaint();\n    madison.takePaint();\n\n    // Paints the second half of the smile\n    madison.paint(\"gold\");\n    madison.move();\n    madison.paint(\"gold\");\n    madison.move();\n    madison.turnLeft();\n    madison.move();\n    madison.paint(\"gold\");\n    madison.turnLeft();\n    madison.turnLeft();\n    madison.turnLeft();\n    madison.move();\n    madison.turnLeft();\n    madison.move();\n    Madison.paint(\"gold\");\n\n    // Moves forward two spaces\n    madison.move();\n    madison.move();\n\n    // Takes paint four times to get all the paint from the bucket\n    madison.takePaint();\n    madison.takePaint();\n    madison.takePaint();\n    madison.takePaint();\n\n    // Turns left then moves forward two spaces\n    madison.turnLeft();\n    madison.move();\n    madison.move();\n\n    // Paints the right eye\n    madison.paint(\"gold\");\n\n    // Moves forward three spaces\n    madison.move();\n    madison.move();\n    madison.move();\n\n    // Paints the left eye\n    madison.paint(\"gold\");\n\n    // Moves forward one space to get off the paint\n    madison.move();\n    \n  }\n}",
        "isVisible": true,
        "tabOrder": 0
      }
    },
    "encrypted_exemplar_sources": "kq0Pf5c4aweori7RVLPa2YdCHg6i+267r90rZwE5q3QjjBR/PpJw16UPErsZ\nOeh4jzEltNQ+JpWT8Ax8rnO4BY5QZqqN1nyBDEYv6G/tOD/2a/po48K+KK1i\n0H+AO2cOxmcnA8VxdEqc52hoZEFkPoTzA8nmTEowR8kMk9opbdoKc5QjvrOv\nK3wPYjnMtkB94q2Jkps4h/FD+WGp/jYRJCA58iiIb/H9es01KsRVINvKjkUw\nfJGGzA1lVMD8/Z76Qtmp91qYt342ETLhtKSGUJ708jfSEOHFb+fbGAZJ21/6\n1IrDuAW4vGj5TyQGfynqaBmig5WZvykLv6kQCbtNKvoW2Tz0oHgflsuiv7nI\n0VdHbfuv/W1U0Ynplb50gBjkJ5b6ovveZ2hlA/s4NxM2+ZHdQmwG1BIcAPCq\nKmZCt2UpBTkeBiA1VBZm08g+Pp6+sLBdWv7nrCZZx57fxOKgoRNLqMR+Qix4\nTLN0NhiCysWOOPCi7fZ+ckMtlS5eIRXraWm7DaqFpGQoAPQHf8zTnIgX0/dD\nCMFl1qRDmUJqsWKlUQGV8OFMoBwxShdasQteJkLJSui+efelnkrG8IYD0SuG\njnB0DcjbsU2VQsHLm34NTWWocJNMo2NVMpHOT88b0CTYStYepnDmOLhWsGMj\nXAKXwFNH3mnEORHUTWUHHcj2x9QKiHbiLU7FtrjaUuYxYqeMjZbxIRba9Xij\ntrgkLeuD7RyQxV4bugcalVhXYckfklx4knH8LyYma6r4xasDP8e+09vX1Mrn\n27grkyJvjoUotDsz9CcwBZ1yHOUtcO65kIUcjzbyTIVslSiKKDWSIw8Yx3AJ\nRVVt+NUeOBCLyUqWMCnedNM4ukSQifppzAJwMCBOTMk1JyfyVkKXN3n5plzF\nYGsPbGQm56WB/cOwPHIrl8P+bTun4DOReP6CBto2bAq0IFWAxJsI2PoJNGzL\nndVGKOlbbmZeOGnNgdEPTPdDKu8GwhkA3QrZbR6nrH2uulZnxqNSfeKMuJWs\nxpCQonKhkiZxf0tiiJfP+RQLKQ+pzosWwJ3aYSpWWmfYapPtBLm+vO5SHPkR\nlLZBTrR/uO/pSOKnsAv5AdCHifQuaKkhpOzsiVKbcL6LFKQN3w2Wj6e9WsAj\nPDukxJLzIxdXhFyH34dkjz5NNagVw77BacqtiKA7UUP3+RyoPWGuIeloEPpk\nxOzgMZXTCk9Jb3tShkBz7YOebC3oasF5kr712LiMBnf6vVCqNHhLB85avjgA\ng0u/CBkmLr001mVipqssxjuMygUhvpkSJkmjotL2IkL0x8kbx6YesmdWE8Mt\nJZ33NIumWNBbhhzLYFEwk/Z6KbdBhHE1M4JvPFievUuP/Q2erGrwUU89XcwB\n5RrXdLTLL6ZN/Bj6qA/hyq6rSjftnG1Gq+1K7qjd9ySK1LpKKqD4NJ2ZMPmI\npAeS5EOqnLiS9p8tu35pLJlLgnWEFnhbjoMHsBLGNfY8enpbiyd55gpP0KY9\nlyrOSXlrRe5ds+uI0y49Z3/b0d1d+I+jMjcXzNDJ26JBuYE5Z2DU3WR/CYXM\nOzkJ3NxFKc42JAXV/KmMUFbdE+ds/cKz1kyIzAhyix8hLiGVOFE/zX4LXRcK\ndUjziNx2SkT37U8oshxDZPH94qQGq4FWpf8dYaRnxVHHGU7v+stVVi5P1s2U\nqI7TBLQgwYs2xkPuRoowEyNNdSAuXEQyc7NV7zvflyw8ENr6v5if9v20umx3\nlXHuuoMZKbycn+V4yvqx0rZkPyGYHeCRtcG112h/LPBqyMJttAnZwezfDuru\noe+FvjREgkh7mR6/Ks11LezKq+wUepaBD1+lY8VQgqPf22PNHXmrW7+Ddv4b\niIms3JxwOS4sef52YoZ96hH8BueKE8haWw18z4dXOriejqj/H/Uqyr271F7U\nsWJq5Iw3Ed8ymt/UR0ld/5la2jPBeGHSKmxF1Dkn2L79yXGl5pQ3sZ6sxtyw\nAWYfcTjdU6ZrcjVt4lWnkaFXdYuMzyZLrJNcjiflQy1uS+ewkU2xCRYLqQrK\n1HtSoTW+9Fpu+z/o7a3mOCwPOY30nvLTn/LiCQkCn2zKQMFVEdGdsLzJA+Pm\noA5ueL820r4LE9e5O+QEgb+ogr1jUiBJk17yGyFEZLF4kbQtx21j8gGYvUZo\n9XTAI9ifuyzBEjE2KSQrvsvmO8lLOLacBbSLnHBA7gfjimt4M20WstTbQ7X7\nghHqfd5eVRKa5uu9lfQGo61bHD+GyARzbeUOqhFtigTb/AgtmpKSJeNwTpiV\n/Nf2wLtCDeKJTuOIgdS8f6rlFlTTUex9yGV76fY2C619z0TlY76z30APTqUF\nUBwzMoQmaS+jv0gyKOD5vqLxPI1W3mrY+BoXQ1MfYULrnpoWatA/wAkg6gSl\nDpOc4rE7JwltHAp83cDhflMFDjf9LSL3dxJO/30/h+lD4QZ9E84GGYHexexk\nOAj9ll4041XE4MNAe0K8cI5UjHJQp/03WfA0Nj224liFj9GC7ssvJGbQ9Ipl\nLwD6CFEuR2wf36eCEtjqfylH8KP4+M+5mMC7CkH1opYbeKqaIW/e01+HeDPb\nXkJ5vCWdSsEZ7mOBLe/8ZvjxKPYXHev6vl7JmhoTjVBANUikgafFQy9v4l0k\n5H1ysgCRZf5wrrUgeecKOH1U7jLOMrvylC3iOVjngHHzZejn+gbZ92IJIL4P\n8W3DgMMPGzXDDd/EdxtvwUefLBtA/AOIuZdmvmTNSKdy3bAUhvxwGy/jnR/A\nQmrLZosShSAFlvAx8EREYTCI4NiVIlXpXA1o3F/8OtFWPO06tK0jUkxypZ/6\n9j20VrRwyZUGbw1STMTvysn7e2EB6TBejtceAgGhl1g8XXok487PdrLzazAr\nKEB4vA9+KxRiZ6FGM9hnMWHzHyzUX3OaXsvF1ROQZ6j90Q3/2onH7Ru4Jufq\nVcQJ/UW+gdPPPcCy+9/97KdtdkU5686SvKAqjeS/JzC+cfF3MFPXyUd1PUjw\nJAvwa/JOfnWox5Ewfm68cPM1a/QuRwJ1SsM6vStpkKMWFfVA4i45kp6tERu9\ndDocNemJx3Gl2/7SHyu95ZmKkSbwh4GQrA==\n",
    "teacher_markdown": "The first error occurs on **Line 37**. The line\r\n\r\n```\r\nmadison.turnLeft()\r\n```\r\n\r\nis missing the semicolon at the end of the statement.\r\n\r\nThe second error occurs on **Line 13**. The line\r\n\r\n```\r\nmadison.turnLeft;\r\n```\r\n\r\nis missing the parentheses at the end of `turnLeft()`.\r\n\r\nThe third error occurs on **Line 25**. The line\r\n\r\n```\r\nmadison.takepaint();\r\n```\r\n\r\nshould have a capital `P` to be `takePaint()`.\r\n\r\nThe fourth error occurs on **Line 38**. The line\r\n\r\n```\r\nmadison.turnleft();\r\n```\r\n\r\nshould have a capital `L` to be `turnLeft()`.\r\n\r\nThe last error occurs on **Line 66**. The line\r\n\r\n```\r\nMadison.paint(\"gold\");\r\n```\r\n\r\nshould have a lowercase `m` to be `madison`.",
    "thumbnail_url": "https://images.code.org/db66ec219c92b6614bf21648e150a657-U1L2-L4d.png",
    "encrypted_validation": "P+fEJkEQW9FcZIoo/ak1FxE4B2sRnoI2gdxCZ3uRBZIUyfZ5rAb35iSqsZpi\ncD6Wf7NVYalLUQs6oyNaATfYmZ5e202RceYxHu0hC4VuRfyz6sCmp6B0xB6M\nenI2GANmx7UgyxRW8wbXGQ29eJCpR3BRQNWbY38qDDTNDmVYUfj5cIB6X4Iy\nMmzKvYauUk1SPCfijip1FKc3Zh7hcuodwdib1dNuOSMXzibRpr+GAWAsLZez\n2NSeqnL7yFiW3jcfXXGkoI6VbXOXHgwW7iT/il+4Qtbmy7wop64tnygsPneZ\nsA95jfik52VnQxlfaR5c0dq/gympkH/1XlsXb3L8iG4coNWMcElHJ3f4Q7fS\nMhwFGDMfnARNPjpZzPYd3DjQN7TUCzDJytyP/9vqHmXtw6i+qvyBFucmRrFi\nWrU3cHq3CpBj/4nCMh4RLXvjz+J+mCWRqqOh9m8pXva9k+x8iMV3qe5Spjao\njHZvLbCkX5jNxD5nZgJTOs82YkgY+75XPJFImagS6Z83QrJeVetj6q50HRV6\n1FznVl+NkqfM5mfP070Xoo4+7EQBqirb8dFF5n1gJla42KqsOxBxEHF+XSTe\naGisn+a8xajB5XAXO77mHM11gLxJa9QMYtN/pT7yUcc0oxLbNqtmq5lc4ONl\nkkOiJ4drKgeZEX5igBP/rKT+fxWCMFKxdhbv1dPK5z/zm5sfue8OUpI/1Ni3\nq1dQzrE7jssw+q92O5zeRNodBZyKOTcIK58hAV6t5TsYw4xiSyrcSu9GHpMC\nxFAvkou4efpBqcdjVaKV1GDyGSzUA9iJHft+oiObd6R/w5/2eE5BZpq3RUcH\nAqFRAD2EVHyGfyOOj7O1/rr8xhTUvyJ4qK4s2QGYF98kAfafTOoGMl5Pp9Oq\nOiVREyrKH8aM860RREDejv6x+xlcXVCmnHx6ve6PT2Shkcioc3gBMFxqmCR9\niR8Jg6Sy5BFvwD3MnlpZ1i6f5U8iH7yyb4+pAj1rFWCDnUf5wZryzbEE7lSB\nZtuvSvdePGk4eW1XUPK1SC4emrNU1AC+D2kc+T4TTOXYtZAwfKjl+BJhCmiv\niwZCzpmVbsxJG91QXnXbxe6NmmTW2ukblJI2Z1nUBl97V/bvetMr9XX5Qay8\nyCsbWeqFLxTsCG87RbrEGeSoz16FcfR5bXQhp45/bcIiCKd4N3aYFRlTqDcK\nXb46dp0KKTgRGxXnKytk24K/yjbHNXkqlqf/hYssEWIzHslp17lnDXfKIKfR\nl5y7EedLf0AFPWTNMLd2RpxwdINigXXG10qjclMo1e3UdzmMO5AtefmAi6Um\nhO2NbU6QEJXx/5Owjngghn70b10lDQTu1aDWRMDXdShMbHzMzqucF31S+SK4\nmDLrER7/YQhnXPQ6jw/0lUyc74dq5qe+gq0mDd4g8/kqwMnmavBYvq+5v/6M\nkOXKVdjCqgWZVAAMUF1prgrdqd9v4We6MI6Mc2LGkZjzkiWB4CobxJGGu3Ff\n0CD7KbsRJLsYy1/FOamj56BAsal8XkG9QmE6JZZe29OTUmAEhy44GUhW3cyb\nkrxvUE5YhtVMLdlHZYLI3pdSo58TPloUyZGvUY9Nm8XrrHTH46oSEV4cESHP\nBkilBrZZnm8c6S5ZzjJ2IucYrNRk1U7B0uMBj0apbnmY2atJnwVhYhg/kMe9\n+Oj8cl54yUfyezIRK9Tfc9G6haLguo3wQwB/bP5X/N77kWDGiWX/4+8F69bi\neox3m9iRaroaap02KTxncwHiJOzESUWH9rBO6IBVw76BJBQ1uujsCysNk5Sr\nSj+S34To/DDcpQDHKZxYa9+E2ogosLsUHOtN+29uQvTuU9Ye1OinRsErrXcv\nGJR9cV089dC7uSSGtc/RXGuxGzcWihiTA+Mh3lyRfVO/1uOwWyZ6nVSJzDlw\nqYxiovwYQnF7HFbkuOBSiOlNfO4eaEqe30LJ8g0s9VxNnnbtMB8EEbvh9j0V\nINwJpDh6HPhCSo6VjKsqOPqqdt85CVHwlCV/pPPHVPUzg9mT1XIxk6H5T+ig\nJSG5d4jSyyz/A3L62BegUrnuTkvdCE6hlmWmbJxyXW6QPzh4rTgKX3Sy4/RM\nCiMU9DJ6MLAmOHyJUXayrJvjcYVzt66MOtdB554TzSY0rPI7sKbrsR4OUujm\nZvlBLIs9KuqRfkal1tsGySYgjyhk9spEpKDfXWnEaLEI1q07zJ9Y/DaO8V7G\nQuJlaU+ZRefE9qqVD3I+Ukxnw9t9JCymq3Izxwxz2hClvv6nPCjykbiw3D1h\nlk+j9L3jyGY5KxxQru+PQ6zzGwbjAU9/uOcd9gPYZxVK/E/JWrof9+KRiZSc\n0GbAvLt1Xz709hLqW/n/YNvFi6ecRkq0nHowsfz0z/7lGBq9fm+BLVApIl3K\n4bEZr04b8AHMejQPO0F2gdZ9G5cY0sdjS6h7t+H8e18kQlFMG8EM4mMHikNx\n1NINWg2Cv9k/ETA5ne3qPrJbTwzQmH0idZm0R18BGKNwvhVL/UVV+8569wGk\nHzPVaT/sf/ybiFdCqwLfQcCdVAOE2PJEVbyLMhuJfdllZX9CteCFRK4zkQRA\nQwjqly5fI2RbYVSjjffuta1J7u2iytOqGtL5UnytRfdxpjW7Yg3zCcUx+Pg7\nKl9N+KwXaWLPLavXEOoPDERMdGMfa5naPv2Y8wSxwvDjz7J6nGRv1NRJ+Ezi\nSmrZ46mvU4HVhUfYpchAC6a9Mu6fk2AipaD//tAhk7PKMBoeyzKYXBAYdZIV\n8iHUYR58HZ2KQVv7JAQ4pXCpzPY8zgyTpIBO198CNUusJTp2gXwdcmsVHMwP\nZu6Hq9pDYNbZh3g5Nd5QrcIJko/OY5CdDWiWNDl5Ka2r496v524Dopw+Df4U\ngkEi9qYlWwVXruHvp+EzSpjTrpdr/EjXZPn2vLzXYKPAMLfFOeUuW6iq3SfP\n9XzexiNmD3erzG7/3Sm4zM9cusn6zmwWzlzvqFEeVSFECM0H+h2/dPvHjxE5\na66FrDOSoqc/yxeFcOgUuAw6aCEY1iUPjOIHCA9GSz+NmzOjX9i2XdwYMD2o\ne9XaEYysfxsP4iKcSsFuKbeoFIeYHOa+bJEe7uohgjPUZDjzoaiiwHqQCnEA\n++04LbHr/hUYF5H/y3nL73Laj3iTn4nAs8VDzN0ub1rfewBAcsycHnC0ZERa\nyNc/x0I45GNaFluJFB967M3lCCc8GKAVDZo2fnDIQA9hHcj14A9EZhO8jbNA\nA+JUHIT8MZUgSOt5go+EXIzA18ZQq9yijaiJew57SrZR9SgwQdLtEiyb+xyn\np1l+u3UwVhg8AWloejahPEQW5tYIt192xB71YmZ+AaQxP6M8NZFwskDLM87E\ngjz5JarC0HDRQ8ewpIAYV3YLnE7rbohRx0YBeeMNJmJJjxXXUUDMh0oqjFEO\nrAHb32c4Od3S4rnMtkprYtjTmml5RWcsu2FZHUJllFnFRPqbwEZ2hA1nGge3\nn9AV7H7Zh1PLH8JXXgKoWkUuoVB1ReCsIlK8gR57va9+CO95UYE9tygudDbO\n2cOAi6+AkoUngXZbViEn8DhU+ZowMwnUs+5scPP/eclHsswfM8NZFTlzKWhB\nXt23GTBI2cdH3F3sutNOb4X6ID3sCZBpMa2ZDqAB8YdihfFE5nAC7OeauhFq\niQ0JFTWeQre6xEsOvJpVQraEOxUpqUPHgCBJpCVXjF9nMHeOCgKW4q0U/yee\nBmaQo7SoKSCtzhCt6wpRMQVa2bpTA7SfyujzvoB+iNLg7XA8NiBlvLQH+pWi\ne2wfxQY4YPfh7XR0U8Ub5TRfKoTdt1d08kU3ox+FkGSpmprnCAHo0o4QaoFK\nCpvVEsnrrDzCoGezu0PuTrjIwCZiAqOAsqfEfreM5bMwcD5EkEii9gwxLjBQ\nql6Jb4A25WCAu7jMrN6wh6LWZ71f0suYod4+tb/9NILgTElTFuclwa6ug/BF\nKMdiiHBhfmWa38rd4qxJn+yEmZWye+dH356yHmqx2v6h4GCM26J0ghTZhfLL\nmXDrLcuwTIT1PeIrNO1JHy0D70Tqapt1IQ5xnTsrbYj/BElmw+/FtFNadNLw\nmRio2MoyAribOkgvQXlE9Gnb3FOF152K/aNNxNd1BCkPe+ZWPlCc1Rk2lazS\nmSprmw27I3udkYYnd7XHjixnmWvvKEhkw2qIYVcEAVsBhRDQyX7C/NnqOcfc\nukuDtpMJAXn51I2hniEOhsqO+4ydf/a9wxj3/3LFYF8i6L5SFgs/PuMQj0bw\nwwN7QrlYFn9wxLIiAV+0ig8kzKZdUsESjyQ6xY4+EFEKAF+ZXA==\n",
    "reference_links": [
      "/courses/csa-2023/guides/reading-error-messages"
    ]
  },
  "published": true,
  "audit_log": "[{\"changed_at\":\"2022-10-10T15:24:39.644+00:00\",\"changed\":[\"cloned from \\\"CSA U1L2-L4c_2023\\\"\"],\"cloned_from\":\"CSA U1L2-L4c_2023\"},{\"changed_at\":\"2022-10-10 15:24:41 +0000\",\"changed\":[],\"changed_by_id\":16889,\"changed_by_email\":\"jamila+lb@code.org\"},{\"changed_at\":\"2022-10-10 21:41:22 +0000\",\"changed\":[\"csa_view_mode\",\"encrypted_examples\"],\"changed_by_id\":16889,\"changed_by_email\":\"jamila+lb@code.org\"},{\"changed_at\":\"2022-10-10 22:07:32 +0000\",\"changed\":[\"encrypted_examples\",\"serialized_maze\"],\"changed_by_id\":16889,\"changed_by_email\":\"jamila+lb@code.org\"},{\"changed_at\":\"2022-10-10 22:52:33 +0000\",\"changed\":[],\"changed_by_id\":16889,\"changed_by_email\":\"jamila+lb@code.org\"},{\"changed_at\":\"2022-10-10 22:53:19 +0000\",\"changed\":[\"start_sources\"],\"changed_by_id\":16889,\"changed_by_email\":\"jamila+lb@code.org\"},{\"changed_at\":\"2022-10-10 23:09:25 +0000\",\"changed\":[],\"changed_by_id\":16889,\"changed_by_email\":\"jamila+lb@code.org\"},{\"changed_at\":\"2022-10-10 23:12:02 +0000\",\"changed\":[\"serialized_maze\"],\"changed_by_id\":16889,\"changed_by_email\":\"jamila+lb@code.org\"},{\"changed_at\":\"2022-10-10 23:16:30 +0000\",\"changed\":[\"serialized_maze\",\"encrypted_examples\"],\"changed_by_id\":16889,\"changed_by_email\":\"jamila+lb@code.org\"},{\"changed_at\":\"2022-10-10 23:46:56 +0000\",\"changed\":[],\"changed_by_id\":16889,\"changed_by_email\":\"jamila+lb@code.org\"},{\"changed_at\":\"2022-10-11 18:39:41 +0000\",\"changed\":[\"encrypted_validation\"],\"changed_by_id\":16889,\"changed_by_email\":\"jamila+lb@code.org\"},{\"changed_at\":\"2022-10-12 18:29:32 +0000\",\"changed\":[\"serialized_maze\",\"long_instructions\",\"contained_level_names\"],\"changed_by_id\":16889,\"changed_by_email\":\"jamila+lb@code.org\"},{\"changed_at\":\"2022-10-12 19:53:25 +0000\",\"changed\":[\"encrypted_validation\"],\"changed_by_id\":16889,\"changed_by_email\":\"jamila+lb@code.org\"},{\"changed_at\":\"2022-10-12 19:53:37 +0000\",\"changed\":[\"serialized_maze\",\"long_instructions\"],\"changed_by_id\":16889,\"changed_by_email\":\"jamila+lb@code.org\"},{\"changed_at\":\"2022-10-12 20:03:15 +0000\",\"changed\":[\"serialized_maze\",\"long_instructions\",\"encrypted_examples\"],\"changed_by_id\":16889,\"changed_by_email\":\"jamila+lb@code.org\"},{\"changed_at\":\"2022-10-13 18:30:08 +0000\",\"changed\":[\"serialized_maze\",\"long_instructions\",\"contained_level_names\"],\"changed_by_id\":16889,\"changed_by_email\":\"jamila+lb@code.org\"},{\"changed_at\":\"2022-10-13 18:40:59 +0000\",\"changed\":[\"serialized_maze\",\"long_instructions\",\"encrypted_examples\"],\"changed_by_id\":16889,\"changed_by_email\":\"jamila+lb@code.org\"},{\"changed_at\":\"2022-10-17 23:28:06 +0000\",\"changed\":[\"encrypted_validation\"],\"changed_by_id\":16889,\"changed_by_email\":\"jamila+lb@code.org\"},{\"changed_at\":\"2022-10-20 19:19:09 +0000\",\"changed\":[\"serialized_maze\",\"long_instructions\",\"contained_level_names\"],\"changed_by_id\":16889,\"changed_by_email\":\"jamila+lb@code.org\"},{\"changed_at\":\"2022-10-20 19:21:39 +0000\",\"changed\":[\"serialized_maze\",\"encrypted_examples\"],\"changed_by_id\":16889,\"changed_by_email\":\"jamila+lb@code.org\"},{\"changed_at\":\"2022-10-26 14:58:14 +0000\",\"changed\":[\"hide_share_and_remix\",\"serialized_maze\",\"contained_level_names\"],\"changed_by_id\":16889,\"changed_by_email\":\"jamila+lb@code.org\"},{\"changed_at\":\"2023-03-09 21:07:04 +0000\",\"changed\":[\"serialized_maze\",\"long_instructions\",\"contained_level_names\"],\"changed_by_id\":16889,\"changed_by_email\":\"jamila+lb@code.org\"},{\"changed_at\":\"2023-03-31 17:44:50 +0000\",\"changed\":[\"encrypted_validation\"],\"changed_by_id\":16889,\"changed_by_email\":\"jamila+lb@code.org\"}]"
}]]></config>
</Javalab>
