<Javalab>
  <config><![CDATA[{
  "game_id": 68,
  "created_at": "2024-01-16T23:55:13.000Z",
  "level_num": "custom",
  "user_id": 16889,
  "properties": {
    "encrypted": "false",
    "long_instructions": "The <code style=\"background-color: #ececec; color: black; font-weight: bold;\">RowPainter</code> class extends the <code style=\"background-color: #ececec; color: black; font-weight: bold;\">Painter</code> class and has a method called <code style=\"background-color: #ececec; color: black; font-weight: bold;\">paintArea()</code> that paints a row while a <code style=\"background-color: #ececec; color: black; font-weight: bold;\">RowPainter</code> can move forward in the direction it is facing. If the <code style=\"background-color: #ececec; color: black; font-weight: bold;\">RowPainter</code> object is facing east, the parameter <code style=\"background-color: #ececec; color: black; font-weight: bold;\">firstColor</code> is used to paint. If the <code style=\"background-color: #ececec; color: black; font-weight: bold;\">RowPainter</code> is facing west, the parameter <code style=\"background-color: #ececec; color: black; font-weight: bold;\">secondColor</code> is used to paint. The <code style=\"background-color: #ececec; color: black; font-weight: bold;\">RowPainter</code> object moves to the next row when the end of the current row is reached.\r\n\r\n✅ **TO DO #1:** In <code style=\"background-color: #ececec; color: black; font-weight: bold;\">RowPainter.java</code>, write the <code style=\"background-color: #ececec; color: black; font-weight: bold;\">paintEast()</code> method to use the parameter <code style=\"background-color: #ececec; color: black; font-weight: bold;\">color</code> if the <code style=\"background-color: #ececec; color: black; font-weight: bold;\">RowPainter</code> object is facing <code style=\"background-color: #ececec; color: black; font-weight: bold;\">\"east\"</code> and its <code style=\"background-color: #ececec; color: black; font-weight: bold;\">y</code> location is an even number.\r\n\r\n✅ **TO DO #2:** In <code style=\"background-color: #ececec; color: black; font-weight: bold;\">RowPainter.java</code>, write the <code style=\"background-color: #ececec; color: black; font-weight: bold;\">paintWest()</code> method to use the parameter <code style=\"background-color: #ececec; color: black; font-weight: bold;\">color</code> if the <code style=\"background-color: #ececec; color: black; font-weight: bold;\">RowPainter</code> object is facing <code style=\"background-color: #ececec; color: black; font-weight: bold;\">\"west\"</code> and its <code style=\"background-color: #ececec; color: black; font-weight: bold;\">y</code> location is an odd number.\r\n\r\n✅ **TO DO #3:** In <code style=\"background-color: #ececec; color: black; font-weight: bold;\">NeighborhoodRunner.java</code>, instantiate a <code style=\"background-color: #ececec; color: black; font-weight: bold;\">RowPainter</code> object at <code style=\"background-color: #ececec; color: black; font-weight: bold;\">(1, 4)</code> facing <code style=\"background-color: #ececec; color: black; font-weight: bold;\">\"east\"</code> with <code style=\"background-color: #ececec; color: black; font-weight: bold;\">40</code> units of paint and call the <code style=\"background-color: #ececec; color: black; font-weight: bold;\">paintArea()</code> method.\r\n\r\n<div style=\"background-color: #E0D1EC; border: 1px solid #9660bf; border-radius: 5px; font-size: 1.1em; padding: 15px; margin-bottom: 10px;\">\r\n💡 <strong>TIP:</strong> Check out the <strong>Help & Tips</strong> tab ⬆️ for help with writing nested <code style=\"background-color: #ececec; color: black; font-weight: bold;\">if</code> statements.\r\n</div>",
    "mini_rubric": "false",
    "submittable": "false",
    "hide_share_and_remix": "false",
    "csa_view_mode": "neighborhood",
    "display_name": "Paint the Area",
    "bubble_choice_description": "Use nested `if` statements to paint the area inside the walls.",
    "thumbnail_url": "https://images.code.org/0dae016d46592111144b51ada96d7516-image-1650557990966.gif",
    "serialized_maze": [
      [
        {
          "tileType": 0,
          "value": 0,
          "assetId": 48
        },
        {
          "tileType": 0,
          "value": 0,
          "assetId": 48
        },
        {
          "tileType": 0,
          "value": 0,
          "assetId": 48
        },
        {
          "tileType": 0,
          "value": 0,
          "assetId": 48
        },
        {
          "tileType": 0,
          "value": 0,
          "assetId": 48
        },
        {
          "tileType": 0,
          "value": 0,
          "assetId": 48
        },
        {
          "tileType": 0,
          "value": 0,
          "assetId": 48
        },
        {
          "tileType": 0,
          "value": 0,
          "assetId": 48
        },
        {
          "tileType": 0,
          "value": 0,
          "assetId": 48
        },
        {
          "tileType": 0,
          "value": 0,
          "assetId": 48
        },
        {
          "tileType": 0,
          "value": 0,
          "assetId": 48
        },
        {
          "tileType": 0,
          "value": 0,
          "assetId": 48
        }
      ],
      [
        {
          "tileType": 0,
          "value": 0,
          "assetId": 48
        },
        {
          "tileType": 0,
          "value": 0,
          "assetId": 48
        },
        {
          "tileType": 0,
          "value": 0,
          "assetId": 48
        },
        {
          "tileType": 0,
          "value": 0,
          "assetId": 48
        },
        {
          "tileType": 0,
          "value": 0,
          "assetId": 48
        },
        {
          "tileType": 0,
          "value": 0,
          "assetId": 48
        },
        {
          "tileType": 0,
          "value": 0,
          "assetId": 48
        },
        {
          "tileType": 0,
          "value": 0,
          "assetId": 48
        },
        {
          "tileType": 0,
          "value": 0,
          "assetId": 48
        },
        {
          "tileType": 0,
          "value": 0,
          "assetId": 48
        },
        {
          "tileType": 0,
          "value": 0,
          "assetId": 48
        },
        {
          "tileType": 0,
          "value": 0,
          "assetId": 48
        }
      ],
      [
        {
          "tileType": 0,
          "value": 0,
          "assetId": 48
        },
        {
          "tileType": 0,
          "value": 0,
          "assetId": 48
        },
        {
          "tileType": 0,
          "value": 0,
          "assetId": 48
        },
        {
          "tileType": 0,
          "value": 0,
          "assetId": 48
        },
        {
          "tileType": 0,
          "value": 0,
          "assetId": 48
        },
        {
          "tileType": 0,
          "value": 0,
          "assetId": 48
        },
        {
          "tileType": 0,
          "value": 0,
          "assetId": 48
        },
        {
          "tileType": 0,
          "value": 0,
          "assetId": 48
        },
        {
          "tileType": 0,
          "value": 0,
          "assetId": 48
        },
        {
          "tileType": 0,
          "value": 0,
          "assetId": 48
        },
        {
          "tileType": 0,
          "value": 0,
          "assetId": 48
        },
        {
          "tileType": 0,
          "value": 0,
          "assetId": 48
        }
      ],
      [
        {
          "tileType": 0,
          "value": 0,
          "assetId": 76
        },
        {
          "tileType": 0,
          "value": 0,
          "assetId": 77
        },
        {
          "tileType": 0,
          "value": 0,
          "assetId": 77
        },
        {
          "tileType": 0,
          "value": 0,
          "assetId": 77
        },
        {
          "tileType": 0,
          "value": 0,
          "assetId": 77
        },
        {
          "tileType": 0,
          "value": 0,
          "assetId": 77
        },
        {
          "tileType": 0,
          "value": 0,
          "assetId": 77
        },
        {
          "tileType": 0,
          "value": 0,
          "assetId": 77
        },
        {
          "tileType": 0,
          "value": 0,
          "assetId": 77
        },
        {
          "tileType": 0,
          "value": 0,
          "assetId": 77
        },
        {
          "tileType": 0,
          "value": 0,
          "assetId": 77
        },
        {
          "tileType": 0,
          "value": 0,
          "assetId": 78
        }
      ],
      [
        {
          "tileType": 0,
          "value": 0,
          "assetId": 80
        },
        {
          "tileType": 1,
          "value": 0,
          "assetId": 0
        },
        {
          "tileType": 1,
          "value": 0,
          "assetId": 0
        },
        {
          "tileType": 1,
          "value": 0,
          "assetId": 0
        },
        {
          "tileType": 1,
          "value": 0,
          "assetId": 0
        },
        {
          "tileType": 1,
          "value": 0,
          "assetId": 0
        },
        {
          "tileType": 1,
          "value": 0,
          "assetId": 0
        },
        {
          "tileType": 1,
          "value": 0,
          "assetId": 0
        },
        {
          "tileType": 1,
          "value": 0,
          "assetId": 0
        },
        {
          "tileType": 1,
          "value": 0,
          "assetId": 0
        },
        {
          "tileType": 1,
          "value": 0,
          "assetId": 0
        },
        {
          "tileType": 0,
          "value": 0,
          "assetId": 81
        }
      ],
      [
        {
          "tileType": 0,
          "value": 0,
          "assetId": 80
        },
        {
          "tileType": 1,
          "value": 0,
          "assetId": 0
        },
        {
          "tileType": 1,
          "value": 0,
          "assetId": 0
        },
        {
          "tileType": 1,
          "value": 0,
          "assetId": 0
        },
        {
          "tileType": 1,
          "value": 0,
          "assetId": 0
        },
        {
          "tileType": 1,
          "value": 0,
          "assetId": 0
        },
        {
          "tileType": 1,
          "value": 0,
          "assetId": 0
        },
        {
          "tileType": 1,
          "value": 0,
          "assetId": 0
        },
        {
          "tileType": 1,
          "value": 0,
          "assetId": 0
        },
        {
          "tileType": 1,
          "value": 0,
          "assetId": 0
        },
        {
          "tileType": 1,
          "value": 0,
          "assetId": 0
        },
        {
          "tileType": 0,
          "value": 0,
          "assetId": 81
        }
      ],
      [
        {
          "tileType": 0,
          "value": 0,
          "assetId": 80
        },
        {
          "tileType": 1,
          "value": 0,
          "assetId": 0
        },
        {
          "tileType": 1,
          "value": 0,
          "assetId": 0
        },
        {
          "tileType": 1,
          "value": 0,
          "assetId": 0
        },
        {
          "tileType": 1,
          "value": 0,
          "assetId": 0
        },
        {
          "tileType": 1,
          "value": 0,
          "assetId": 0
        },
        {
          "tileType": 1,
          "value": 0,
          "assetId": 0
        },
        {
          "tileType": 1,
          "value": 0,
          "assetId": 0
        },
        {
          "tileType": 1,
          "value": 0,
          "assetId": 0
        },
        {
          "tileType": 1,
          "value": 0,
          "assetId": 0
        },
        {
          "tileType": 1,
          "value": 0,
          "assetId": 0
        },
        {
          "tileType": 0,
          "value": 0,
          "assetId": 81
        }
      ],
      [
        {
          "tileType": 0,
          "value": 0,
          "assetId": 80
        },
        {
          "tileType": 1,
          "value": 0,
          "assetId": 0
        },
        {
          "tileType": 1,
          "value": 0,
          "assetId": 0
        },
        {
          "tileType": 1,
          "value": 0,
          "assetId": 0
        },
        {
          "tileType": 1,
          "value": 0,
          "assetId": 0
        },
        {
          "tileType": 1,
          "value": 0,
          "assetId": 0
        },
        {
          "tileType": 1,
          "value": 0,
          "assetId": 0
        },
        {
          "tileType": 1,
          "value": 0,
          "assetId": 0
        },
        {
          "tileType": 1,
          "value": 0,
          "assetId": 0
        },
        {
          "tileType": 1,
          "value": 0,
          "assetId": 0
        },
        {
          "tileType": 1,
          "value": 0,
          "assetId": 0
        },
        {
          "tileType": 0,
          "value": 0,
          "assetId": 81
        }
      ],
      [
        {
          "tileType": 0,
          "value": 0,
          "assetId": 85
        },
        {
          "tileType": 0,
          "value": 0,
          "assetId": 86
        },
        {
          "tileType": 0,
          "value": 0,
          "assetId": 86
        },
        {
          "tileType": 0,
          "value": 0,
          "assetId": 86
        },
        {
          "tileType": 0,
          "value": 0,
          "assetId": 86
        },
        {
          "tileType": 0,
          "value": 0,
          "assetId": 86
        },
        {
          "tileType": 0,
          "value": 0,
          "assetId": 86
        },
        {
          "tileType": 0,
          "value": 0,
          "assetId": 86
        },
        {
          "tileType": 0,
          "value": 0,
          "assetId": 86
        },
        {
          "tileType": 0,
          "value": 0,
          "assetId": 86
        },
        {
          "tileType": 0,
          "value": 0,
          "assetId": 86
        },
        {
          "tileType": 0,
          "value": 0,
          "assetId": 87
        }
      ],
      [
        {
          "tileType": 0,
          "value": 0,
          "assetId": 48
        },
        {
          "tileType": 0,
          "value": 0,
          "assetId": 48
        },
        {
          "tileType": 0,
          "value": 0,
          "assetId": 48
        },
        {
          "tileType": 0,
          "value": 0,
          "assetId": 48
        },
        {
          "tileType": 0,
          "value": 0,
          "assetId": 48
        },
        {
          "tileType": 0,
          "value": 0,
          "assetId": 48
        },
        {
          "tileType": 0,
          "value": 0,
          "assetId": 48
        },
        {
          "tileType": 0,
          "value": 0,
          "assetId": 48
        },
        {
          "tileType": 0,
          "value": 0,
          "assetId": 48
        },
        {
          "tileType": 0,
          "value": 0,
          "assetId": 48
        },
        {
          "tileType": 0,
          "value": 0,
          "assetId": 48
        },
        {
          "tileType": 0,
          "value": 0,
          "assetId": 48
        }
      ],
      [
        {
          "tileType": 0,
          "value": 0,
          "assetId": 48
        },
        {
          "tileType": 0,
          "value": 0,
          "assetId": 48
        },
        {
          "tileType": 0,
          "value": 0,
          "assetId": 48
        },
        {
          "tileType": 0,
          "value": 0,
          "assetId": 48
        },
        {
          "tileType": 0,
          "value": 0,
          "assetId": 48
        },
        {
          "tileType": 0,
          "value": 0,
          "assetId": 48
        },
        {
          "tileType": 0,
          "value": 0,
          "assetId": 48
        },
        {
          "tileType": 0,
          "value": 0,
          "assetId": 48
        },
        {
          "tileType": 0,
          "value": 0,
          "assetId": 48
        },
        {
          "tileType": 0,
          "value": 0,
          "assetId": 48
        },
        {
          "tileType": 0,
          "value": 0,
          "assetId": 48
        },
        {
          "tileType": 0,
          "value": 0,
          "assetId": 48
        }
      ],
      [
        {
          "tileType": 0,
          "value": 0,
          "assetId": 48
        },
        {
          "tileType": 0,
          "value": 0,
          "assetId": 48
        },
        {
          "tileType": 0,
          "value": 0,
          "assetId": 48
        },
        {
          "tileType": 0,
          "value": 0,
          "assetId": 48
        },
        {
          "tileType": 0,
          "value": 0,
          "assetId": 48
        },
        {
          "tileType": 0,
          "value": 0,
          "assetId": 48
        },
        {
          "tileType": 0,
          "value": 0,
          "assetId": 48
        },
        {
          "tileType": 0,
          "value": 0,
          "assetId": 48
        },
        {
          "tileType": 0,
          "value": 0,
          "assetId": 48
        },
        {
          "tileType": 0,
          "value": 0,
          "assetId": 48
        },
        {
          "tileType": 0,
          "value": 0,
          "assetId": 48
        },
        {
          "tileType": 0,
          "value": 0,
          "assetId": 48
        }
      ]
    ],
    "encrypted_validation": "vchIQrW2ljWdmh4Ai2rboW59vDerIR42Onn7Rg6xEXwA1lwv3uXQ4p95lMHb\nZ91ggTNSWFN2Wa+L3F5/KGb8xK8IUDTxDre7QKLd3IblEq3oQu1+VwcQY7Uw\npdy+QRnrcY/1oh/C1ZdslxsbcnVCQ8SJIffFuCPbL0jdZXObZ4fi2YImE/6B\nv7Dmub+vODs8Sselxf1deESi/uhWJH3ofEVw7K4KX2w9qy4ztHn9Im0AZCr+\nVUwppAct/FDQiYwW0i3XvIkGZpZpl9iX3DEIIw1KUK6qTq39pP1dKqxrlibV\ng3Njk8XhnCEpb+Rnbk0EUWEuzKV/SabRJ0dyjbuKqD370LytLGFiz7Kd3eBB\nFsKGBg3Gwd4f0F/Q4K5zbYvIbYh2s1E9hmNFWdv/Hfd/TKrrVPtkjq7xXokO\nGBjydqn0wuHiCvy0A1xUTLaFnpFb6Yt/GHdwVWwKrxbiiqmV8Hmb+Gprsl9x\nWysp/wVUp4Ga9kx7LPTZbEAoWI93EElo48uRduSCTaiQ7nnZeE8jJrXBHQZm\n1hTMrle6pYz8tnam0rIBzXSskXdVuCoSrpYOEmumu7GE/XNrM4TXAB2FSJCS\n2rrBuPSY/9nOnVn1iB8SxJbyRQLZtxI852PmOetO+DxK9sn7GRrZR8ev/tci\nPt+zonGWZwIAXs7wGDK49KyIwlya1Xv9aTKaXDqlcgBshyulCM2H047vzPlX\nj057mQ8Hh3qM4kkZl633Dt3oY6CVamqXGirL1JId6s3IZqZGprG4EWM7ITQf\nXX0KWnNrpZxFLI3lj1BXtTHT7MNilH8xLNNftkWpyGajUIkDMM+RIr85srEq\n29O7ABFggc+DeBHKSQJA4woX8btymK4EWUzfzqtETZM0Wtf18ODIJPdpIQBW\nL4LumNZbDRGj7c2bPcHQ2PuxZ6tTkMnybB/QTUlj5zzIA5DGCbmhh2jvPutM\ncKwqz2PsWo6VnYIEVOeR6iSjDJjP32zJsNM6TJ5GaIh01Mq0TaAcvJRahXDY\nrC0jRNqOW30HjEaTvjT2jQNqgFH89ztUlw5dB5s6bQwStaMI8xitvRMvo2os\ndsLcwNwV35m/9XHzaFhPhpqEbVK3cXO7zwvR499OJxub6YZtNDln1n/46CDa\n2ntx5UN7fCJeT5S+oGTrXlAIN8nLHouKXREegEpTC4T3XKp6zgmgwEjaCS3P\nmBJinX4281L96+0g73NEX12acDqsNvzOl3WgFONmqi8YOHZUAyGbzz9lnE5r\nXPmDQ+hfMYghzBR0eKZKlBagCXU8V+4eElg57iDexwYS6H8XfJuYcfL56Yim\nJNFUwjcDf08pUnPBRd4tx7+MZxLOOhCps1M6BOO9dpzcLk24A1a20TUbdJh6\nmFxw5WgUNEkvY5r4T/moGxnsDWlge3i+2z3FzChUrusV45nWTHK/7iTf+9Jp\np+bnYNEO4Ct/T4ywuxeex2eng38CTnB+2aI00opNe4BXWNlS1S/fIQgJecrR\nPBFKwMAcIOFqblrDjmdlJNmF3ym47XU/k0yRegYEqnDg1VjejMPPtUgl6SDp\nnE2BN4XjXAkIyGvmRM6zsjSX6BJIUDlTQSzMgjwo3JCMAzqojS+52JD4bxHB\n09CeRCKLzZZPlULsfUawsJU4aWklyx/mV7PnojE/VM1uh/bf7qfLGED7n9Uh\nXYpCoFgcoB26/t5LoIRkBrS4Vata/f8B8/4aXm1m6NJ1zezOOXYMTvbJo/RG\nZTIqe6A4aY+fDM3M7ZYR+D5rKd8Dw61CxGKpQGTqj5yoSXnObApvMezEtpXs\ntLMKlzbBoe346CKZNzILehFoD9dhQU9wZpHZRpYLQqoPyVVWBS0pfq5x1IPU\n5oqvc8qaVWihf/Y4C21IveH9UZlGQEuEWcL7GdVVCRTUck9btLWeqHlcmL+S\nhhB1oGb2n6xBU9Ffz+wViItAK8hp+1ntwVQ2TeYIEyf9ZxtsNVS2EI0try6V\nglY6z9Kz5VjfQCxhXWIcWzGQ6odwaTudbfvUPpdlVGandZmPtKRwyRlvBZof\ngxFZ8b9dKDPOYvx/mKYHzfpLyP+JIoUdBaSARqbl0Nyj4MIFAmetdyj8LoIF\n54JWrOd5/kvM5GvirTMT0FmgEoausiXUK9XPjnRgAJgNGl2H9lMlbwHiR+gG\nMS8EKd2AJxk7e9fu7s/XV4Q5pobK8ez1eZvhaDSCHDtLBSxWhiIiqSj+QKgT\nQRU/u7y/azRsfeuD4bDvsGOLms0CvSiDCnYjWhVsOEdZYrB5l+tCdMg1f6kr\ndAGlKr7okvG3c+0xKisKDZrvVVsPG2HHlN+ddQBS3nt7n02k3fg/xoYWhTkc\n3GfmHSAgnS9WOW4nbiOW18itS0c1YK0i4EZ2bsk4lti4Ioqsc5PkZPHHdkG8\n+kPsItIGrkqrKV+Yu3MTEYFTHS3TZaS6bJ6RhaSaVpnYyXK1IFuiimmNN/oZ\nM4UaVJLWDcm7uAWsJQJ2meCeMxYyycxK8fp93J9BKX5K1y9cK+HJMHVH3y78\naEfTZ5K6CgppDueA+NBRNnxU7jlQFn2mHb5sSI2o6zSBx5R5wvUKQvch/tjN\nANE3Le6OY1oDVvv/kk2x6bNKil41cccwaFrBVS8qmMlkC0JCvH+kx5MoXjTU\n15d+snjWGzupalyAlm4QpH5e5y903BG0BLHzONOvkXmjeO4qVP9TDmTkemKq\nm4YjUfL9G+G0/f3a9504ypLiX3ye7/exvUbHIVP++jFm7IRFOrFzNyZ/y/a9\nk3rMBYwRb0eB4eBQr1u9YKgULKqDrUYzd7cnwLVQ6gPI01Kl7FoNfcY1PMZ1\n/QLfOwJ0cyIXWNJwi37/P4REODNnlcke88Wleofm3V4FBuTORVvj6q/LCc0f\n5QYcnXba/N1hCKcUK4yyuJO4ofcUYeshvg5sx2fZOv4TXv6GOqdmjuS24ucE\nMUmt2yQg206vvRcXxniR9hG/Xx9NBgRPYwEEtewH/wQHbSKzLs9RCfCZdqZK\nyllIkp88rdcbimbTVOPm59v1gEf37VtzUQNeKUhFwb9j7yqRT2YGe5cb574a\nrNyNHABKNFw0v7qR663uIWquTQdpEjlpj6cYTj67qMlanZwu6O9G0cEisDTj\nom+uKrmeq18OeEgDtb7LWk/jOVZ5Wd0BcUQg9tU5FAbo/UjDyJbp6OWufwEu\nywD3o0WKRTf+8i2L4GtsZJegPFy/hqxCuKM6H/A5IdigcmBSwOHuRSgKPWNU\n07YoW2thWbsrJSndhLd2tnWJQ+sg3BmeoK17GfSKNnW+tlbgtoG1Ucab6Ugr\nsbJntzmGot+nWuuOBxHuy6kOwD6hC2gkm3S7vWIg/25LvQhyzbzKfd0VfM08\nRm5AkobWovQfJkEjmEe281nFQsCwSnYwitJSYnvNqAUBwulX8PdKNcqRXaS8\nnBlaiFrmaFOXvkaMM8CwGdt1d+PN8CM2/0zyqIv28qM/9fx427Ja+BPxjApx\n3lFlVvrTo9cUE7kzAveDKYPQoeCox2TP0Rsl6oy+ONoEgggLaJVAGXuGg/0A\nDNofRc5w0uBq3iCWIQBal1G2jBsTLQlAbMnAMWBkxW4brLYY9nBpLesSeljn\naac9NE0lrBfYfB3klcl7/jHzEz69RvAS8yS/7EMyxCiiNTs8Zb0z5GpQ97df\n8eX95e5QPkNZDw56YLHiGTYFmL891Db6z0J9P1nDj28srUGy4Q7zNNP0DbhM\n/QpBYDpXksX12/NDCEnO9Oni58+NQeNOpokYqWTE43MIcUh+XKOdzk8Zb4Ry\nNhzTIQR/n3WAICTtoFQBTHBdkOofnDL4zglWydKmukgDrcDO1S3HeIhyu2dg\nvTaDMgBDUdnL5mJe4bDxmyxqUOaWpYSIkCpuby2oleYuJnJxNZkZMMCsKAMV\ndc3I3vp73HP0BzDU3fvT5w+IrzE8Bai2/peXA1W/fAJ8TbxRgsIAmUQXl6BX\nkFJEpYn5fUCKv6QmGihvWIQtKLAh7UjN5AyAl7zs17BBAPjEhgWXodMI2YVo\nInv+FXQKx5XukAJeVcZ2mHhWfQK767gWchoVIGuZn1fE3OMeK9xeHt35gkcX\nyPGJlzOgPlDiUIRw/zqsZXvKHxjj7uicUUkY1N8MF04yvdJaLp8IikfRLcB+\nEnJ2Qj4GMVbWZNTMQIiMMSEFAN0iWvPgxVmLb0Z4OTsdplHcjffCPc5Y/g71\nQcJclGLZFl61e6mQjgEWQR4Sg++oxt3mkaim9kJVgzKDF/7GiCAHPOAHokf0\nxCqIeCv0Wkx8w7AuPHPvPo1W5UMRODVHyA+vHBQnfBRGGjQn7ni5o1XnOIlv\nBydBmKfwABta/hvYr5RQ59/3Ei+a9vHoVpNHWDYFJhKT6yVqrykEN2CZouTw\nlHSejFLBlH5Hno+C8nM5XPzH8JZbU2dawu/vHsH75WsmXlutQvLzp7C6io1B\nggWMWWSHXN04Y1J5eNsvlR4acsemh/Czf+fVSRMW659vDkzxKCJ/OsQTu3XY\niRvB+ryLr7ifKgu4HMkpPc2cP6nTu+9Ps9LqbdKH2Qiame04tmyrHozy1ByG\nuqAnhnSe0xDUrV+0y1/ppg7qpXUOAomqxTyOdoA5yxj9nvxWuQAJpJo0xPst\nrhEfHcYXXkFXA/PaLo8I8KqdmRNaJRQAgY6EQOOQUf70ibpYOhJ0HoPqHkbP\nzF29JBwOJTBmKZoDiWImFJogVcbMnxDbBHdZuM5L/BtgIAQ2Nj9a/IPH7qiQ\nqS3akfcl3YkR9DCpBGmDMSDTzwSA+m/LgHT9gltoG5+bxq/ySc75y8wo3Iay\nzp/V9XD3HZCRxztGSJFEfiPt39nIlRpSCzIv7ogr7J/PJMVmatv/Hw0WAABp\nQf+MVPJmV2KdGReNMo/SsYVjuyx44oqm6JfcFqCSAO3N632GuBAi2gR17VPc\n69mUD4HiqqEiQFodPeuEsMdm0Te4z0tR+q0G5Z2AkgIYF4WyMZz23f4/mQhH\nOCMTtdZJG0BtDj4mnSc/n60etXk82qCRnZeSBC6LLr4gzXpopiFIjKjsvm9q\nqXDL9L9eAblOGA1J/4e6s6CSSItV/h9U9jJLcsY6c//EC2mlj9JQV++e6ffd\nW4/Ygs/sTbWeaveqQxBunAO4qwP4NNF9+HpfYFIRIn7QWa1lRVMYVUOlvrF0\nMikrtYkErYGLO4gR/h29e1zwBIDxKLX527j+mB2LrM1OENmpqvGZwmI2S9QB\nZo7d1gtlm+DG8nBmkwIeX9v6FH+7gM0WnaLphvKjLm7Y0fiZSh81dOPqX6AD\nas1WV7oO4OpN3X41nKB+qDGkaJJ7Hq1RuBoCHo7mQwrMRHM2+qbpxX7JddQr\nkoHtA0vCcVXBV9IwHMReTzSRPz0JD+31NUJ9rDKXhDcm7PaSXz3IV1ibynH+\nu87iZucpSwe+mXC1TmK0bsGf+0zBh1dbJCtKaWzM9zfMoRTUEylQeBVYR7r3\nk45MlpG0e7X8V7Prm5utTC8XYQVpjJTX/HS0ORO2IzVQ884V9RyfjnbuzGvq\nlXCIo2fyCYg0xQhq9ugolQjaR3IQ0lmiRZOdg9HKFeOb/zTiOPqekQjYT6vK\nukmo0Axyzuuga9mNnqAIVsxcGtMEmPgy+Oa2HQUheyNlhG2iJ0B0uC+x5fRu\nBRKANlmKT3980H4ZnsJLrhuqtdwzltqCVr0a6zGSNBD/CY9AG3JtWrORgt6o\nwwtNRIXBh9MnVXHCfQg4ADpfYlKePJH1kk/58Ue+ZweOOQ03x9zbS3URb2A3\n+sqOdMxf3jYXL2des52zYbnxS8YXJxRjEqF7n3gB7KaU8JcGrOsYaQcZykKy\nzFK1fwLwj+fTLC6FbhkRwqolyrEVIr9WeWbuoKhf7SfBQn9lZ9oSD2Xv832m\nF8YcypklVrXcUagiCdGmGyhEDSdzJBJpzs+IFWTeC1KKhOPFxHbbhyTD3SwT\n9oUa5r2Aj6H0lZl6G3ibxjPMnfaFLHotAF5QcleBjQiade5eWD8TKHtjtYqe\niwK34DMBWF/2FU0Xb6pLmIn0lCTQETJRQ8qAhpOm2wDXxfA4VE9tn69Xvpne\nNPZqhnWi2CX8tR62pr7QJ492dkofAxGc3rbdtPBi4QLQ5j9Cnxbk86+G07fW\nnq6cftRAqPznPG+60eZB54F4X2Eaz/nB3S61ARZwHgcnX9SgY2eakmd1jJmD\nU9b/KCr9VynQ2us5s7NfhM8pDBmHLHDHRtd8EToyD58AXC3fMa6tXsCqs/aD\n7QViiJ1oWrKDHz0hrNIp0jemPWx2bxxldXzwge0uWolFQDMxQv2FklMsI4XY\n2EDE+eehllX7uddoGr+NRor6dCo1FO9PeqbgfCB9lwrnNELIYmkFGv3WAMOQ\n1Xz6DW7gZ3fIGx7kprc=\n",
    "start_sources": {
      "NeighborhoodRunner.java": {
        "text": "public class NeighborhoodRunner {\n  public static void main(String[] args) {\n\n    /* ----------------------------------- TO DO -----------------------------------\n     * ✅ Instantiate a RowPainter object and call the paintArea() method.\n     * -----------------------------------------------------------------------------\n     */\n\n\n\n    \n    \n  }\n}",
        "isVisible": true,
        "tabOrder": 0
      },
      "RowPainter.java": {
        "text": "import org.code.neighborhood.*;\n\n/*\n * A Painter that paints rows in The Neighborhood\n */\npublic class RowPainter extends Painter {\n\n  /*\n   * Sets the x and y values to the starting x and y location,\n   * direction to the specified starting direction, and paint\n   * to the specified starting paint amount\n   */\n  public RowPainter(int x, int y, String direction, int paint) {\n    super(x, y, direction, paint);\n  }\n\n  /*\n   * Turns the RowPainter object to the right\n   */\n  public void turnRight() {\n    turnLeft();\n    turnLeft();\n    turnLeft();\n  }\n\n  /*\n   * Moves the RowPainter object forward in the direction it is facing if it can move\n   */\n  public void moveIfCanMove() {\n    if (canMove()) {\n      move();\n    }\n  }\n\n  /*\n   * Paints a row in The Neighborhood with firstColor\n   * then moves to the next row with secondColor\n   */\n  public void paintArea(String firstColor, String secondColor) {\n    while (canMove()) {\n      paintEast(firstColor);\n      paintWest(secondColor);\n      moveIfCanMove();\n\n      if (!canMove()) {\n        paintEast(firstColor);\n        paintWest(secondColor);\n        moveToNextRow();\n      }\n    }\n  }\n\n  /*\n   * Paints a row if facing east and y location is even\n   */\n  public void paintEast(String color) {\n    /* ----------------------------------- TO DO -----------------------------------\n     * ✅ If the RowPainter object is facing east and its y location is an even\n     * number, paint with the parameter color.\n     * -----------------------------------------------------------------------------\n     */\n\n\n    \n    \n  }\n\n  /*\n   * Paints a row if facing west and y location is odd\n   */\n  public void paintWest(String color) {\n    /* ----------------------------------- TO DO -----------------------------------\n     * ✅ If the RowPainter object is facing west and its y location is an odd\n     * number, paint with the parameter color.\n     * -----------------------------------------------------------------------------\n     */\n\n\n    \n    \n  }\n\n  /*\n   * Moves to the next row if unable to move forward\n   */\n  public void moveToNextRow() {\n    if (canMove(\"south\")) {\n      if (facingEast()) {\n        turnRight();\n        moveIfCanMove();\n        turnRight();\n      }\n      else {\n        turnLeft();\n        moveIfCanMove();\n        turnLeft();\n      }\n    }\n  }\n  \n}",
        "isVisible": true,
        "tabOrder": 1
      }
    },
    "encrypted_exemplar_sources": "TFI5x/qrTvxmY5LlF2G9AbTyYs9BXqTjMJzhHtMrLQA95KIRYXiBsJxp2JJW\nB9QYanAO2+VpauHof+BjEuvn6O0+kBcFNIx74qJFBt7TL0g1VQKdEhv0yEfM\nv2ikzz5Ss1jX8IDu+pOp69+AE4oR4PH+yG/imF8OLnHQ9CE20aZajcI6mxOH\nP7rTmK/PfZfaqLAYAAXKJGYvW6NVcHpap+E6pl/hL8BT26H7azCZAw04n641\nzyDx9q4upostFCASQPhA4xzCdF77AUPKK56SnNwUDlqkH+kSYBDjlMJU6Vq3\nBdOyc7tbxYTx6L8iRJdSOINDo6fkxXYNLB93LgO3ric7g39j+38B0wjbODX1\n8RkwH04oylC0zoN8pPOS1CBgqD0ERWYwuBV23hRwdWWS7houw/a55qGFUQXu\n5ymkNmT4BgyL4gp37rJO1/3FN6Sesd25ndgkzGspjqgDI4JhZwFdFfzTzQ94\nCGZZzIUo3X+2UC6jFu4MkLXXNnpkVVRh9Sw0P+XCbnnBPmH3e1JGKKhJ9cRI\nwRlP/T+EgcRl7z+s2R8qd+88b0LiKszBXGKrXdk6hDMzktiPEx5QWBt9LEKx\niRz2ZG5dif/J05FcWccyNX1znM51pBYWLeasbGnrJcQQFn3RjIlJ7MM8SGt6\niVBGoN2XAdBKRFZrZXU+8zgmRVXBKl4GYYxC5VFjnCkiYqMSL/RtSnQ5VQiO\nhRGsj1MwZpBusLu36IhdvkqLg82iFVpiobi6/lnd8Qi1wHWoMBfTcT3w+R7O\nMK2bu6txoQmIP7xgZGxR4JZhmJ0IDBLChqtTtFBa/kJccf/Rw4lG86DGa52j\nXFzAJ+kNAcVrjy2uTNIttg+OnYKYI0Ll9LybnEfS4kSbK9Vn7/xqUqHm7o1n\n/YMPttr+qK3clx/HlCmTX2FavJNfI26jbAmU9mgquTSUcHnApzvjgOc5Du9w\nr5tHjkCUwyjwp1o2dFSLwtRzZOwxJrfYV/swXGLIN70bmMBu9VbK2HnN3BP2\nRsE+Nu+nZFuMCXjflnjxOsKvvCkms5a3nYqYOHt+Pa3MMR1EsM95IElEUhKC\nzS9ZDBy2vO/zVsKmR2l9k3Lww5ETMAYpb4IePdnal3jlY8QnECNJ1c81Ohff\nj9UJ3jWH7RVoxKPrIgx7MSxNOIgJArnqork2DIhp5VpZtO/p8bCJsKveP4Dc\nJ9V2X5Q8H2XbN7gjW14fiq+kUAzjLJjnCA+fUb8D2h/nthdllX17UxDdQk2o\nMqWrsfukqKQl9eWwQIthjfsQsae/0iWcEk8JaG+YpA7uab0Nxy1IpATuKWeW\nBT0FcRh8jNhhqELU6P04yY8tIwQNJOCSGzuwZmQbtIe9xr9YTPy9wMWBE4QC\njBv+FKfgZu5OJynAZKR43z9rQgUZmJnjkw5rA0KOHJuIV1nnVbMzrVVWfpQG\nmGBccVowJCGIniW0ZqzQJAAuR181qwjjQz5GlrdwkMO3/0c9a2yszMuP/BZL\ned3vkfoWIcLHCWs+WdMqHzvfwUwVVwtxnOxau3+bhPXJu/Ev9Tb6fCU5ipzH\nayh9EJBHLgPLlYvii1eJgjgaaNc0F7ZbihInf91i5qP89sml2jwOU1iReVbX\nBjSX4Av+Ex6fwo1sRqWstbC9MQif9TsJpOxNWASH/vHpIVKQCiqSvFUq89Pc\n8bTIYgRsyHgJ+rZXdaESmvtrw3cJnTwdvEhAaip5Bv4NoLxk4Cf6XAsWilwt\nxzpGYtZAAkMvuG0xBMf3bVMFsEjfQnZP8MTduIQAcju+GXROr9287JV/tm7s\nW4XOSRMbuZGguArhNmBElY1v3E3IaTWnqAJiEDTqpIAA+imnL9A687YPkeVM\nCzywjhjRm7M2MAhkx/vAib6HJVPspw0N8brOdG6N82qKE8GUkN788TbfAyAW\noVmdmxmWf5z38KkDt6CPHGGvOCnozFoxApS1H+Wk1qdmLtfjFXUAcQ23E8ZW\nNtOzlarxw7940Y1i4mkb8HSH0SSXORIm/o6sbRyV2QUNNTfmKQnixje674io\n5LGcvRQQWiW2wWISYOZk4RWuGAZbKmx9+opUOuk/lv4cs8Ej7G6mUwrd8VNS\nwmdbesuOpIPt+/xI+zBjY4uqEP+9tK3vTxzQyZT4TEG++nvtvfsC+0SLGZdG\nlTjvSx9GZ+ztluBmy4F/E8w5Dx4LdtyrFvtRRjtIzS/cQ7CewnL9qlXiNNhd\nb6UaeDeIrwdde5cTSeVFXC4g3b6Mh+WeQjcF0GE447pk/Cp6A3vt9ELir4dE\nwqZKWw0rAaLrAm+veBN2cTmjmO/SN60mjou1jjoKmMq7mPdPlhPchSLkgkw+\nrVNXK75i/QqZEBzkJYank79t66kjQWwnJB06bdOVUo4AgVH0vyXQhvxQ7mNt\n0EfkakkwLU3+akBN8mLmtp8T9OFinEeqbX0Ca16w6O19NU0wNWNInf/ueASz\n+/o6TksI0ieEJDITuAFh1exM9OsTVBf+cSDRf45ZwANVxDtu2zCsi/qMLALB\n1PaWJGsUwLGmvRKmggV+LKwE8KLktY0LNE6wEExjYelSBGWSXvLXqGUNilH6\nnzxbgyE2T2FAw1Ai0eesQIb+MKx/LZIB3iY+8ZcbXzUjNwFZDz0SeKiKwPhC\nRbbEdG0kJtsCNXKTP2lilcQnQnNDayzD2y5/WJ73uivbPjVFS/R30My4Iiaf\n2HXBfJT2Pfamu7MwMg3fKbEezpppybFCuXpj9AdjVyFK2YjtuXS8O5KTrCdo\noAq/WbURsr+XzRZZOHS8lIvq0pVqUG39T/n3w4jZpPVn+T+SyGRLX8pBie/U\ncx+n5p23k7YZ3bfn47qY+FbmylfbGJryYMCRZbj22lPUqn+oQxdx3Doq3vZH\n+Ou3c+Q6EXaaypwelDz/QxyKjdpsnSJZdjC86RWV0IuIafLMZRIaAIIZSpqS\nSyQFfm99aedDLX7LrgO/y0dYLxpgsuIzRyr3GCYfDQkqBVJ2JX0vaWfMJS8k\nziB+EUg70fhB7DUgUwFm5oK7SjsCM3StCzXYkQDXhyTvu4/kTVGd6rmigMwe\ngTQ8EcOO/HHO2PeyRk7/nU8dmqSqbTju7278ZyZfdkVLvZYSEpSBwZyTm3ii\n45gMXJa/b2LCNk7mH3/g9HNjTDl6ts69QLrh9KHFSW8WzmFqYxfnsHKM2wZJ\nFbtYUQ7hnqSYuoElAsUqqVXoL1RhXR2jDkCdRp81fmXcLZ9GHQy35X58io13\nOylFSge/5LMi9iWFmgJRDn0KLIYe2KCcU7CwUMnG62J2IRQ5i6alNNY9E0ea\neJ+QWxdeJjgtQYLny4b26eB69YrZwvCvqNxEqmNCqd0Oz/19RjVeOlsCYea4\nakZ73LL4e55DLNzOU6rG4NA/DF+X7yqJGv1CVTS63v+JzxQyKLp838CK0PDG\nP6vcz2dMOEIJdQKGx2KZMtGPpU8jEYAaR1/Zcz/BQbDcxfgHIA3QB1Hziyfo\nDVL7XQ1UBiamKDgSw6tDxqTDZVbsjWYkNPtYbncDhJCX/de0yEMvORRbtbEu\nRskviKaI2U6eesOktSOE3rEOgyHoVSMiOWWuAj9TjziwYuItYjRHQozxONZA\nU5w8e6lKsthgt3jooi4KAlsJF+33noJZM1q2QO6d5hMiYWIX5CURs75UOHX5\n7Pg6/izklhX0fStGLj7ZzqAoBpfvNNVChVLnDMwMJGDE0hsB8C/Yaa78uhI/\nm2m7MhhgEkTUhgaW5sIkdUYybS+/ep982pd1Daj+oupM0daMvhQQw7/4Mg3Z\nlkTSkpQ7BR4eHQlEMYYC6mxPOBb4Sux3HKRcXqVVGcPvEtR/TTfxKgrk8ZTG\nvxUhKo7Jf6WH+ukdQ3FVHnPXuxRVOzc4qG5xZ8ASb7HbRq/LBnyWJms8m48i\nN23Q7VTvlPyqfAzUWbw/7rQ35Vi0ZZy5LkwBm6BSZf3ghu4aLLfNbU+YrK98\nWiMmaGYJm+DzexSjoPDC0TYEs/3+kUiXMqfjz/mGdjVW6Jqes9QdKl0ImBcF\nZ5VXOlsxDIOmL4wwswPFcG6crHn2L6j26Jzo0CEDVGW5WSuhtNxUvBT0qogs\npuc3dYh8aIC8HBBk2KLwY2o8mqqUqmLdh2+qSg3k1YqhkSIMbBBqYgeCLPg7\nBJBo4+FNOYUOf32t0oNfzJXhIeDKDPpcXmK3n1lzYAkK66d6F4up+pzTWn1N\nXjE=\n",
    "name_suffix": "_2025"
  },
  "published": true,
  "audit_log": "[{\"changed_at\":\"2024-01-16T23:55:13.892+00:00\",\"changed\":[\"cloned from \\\"CSA U4L7-L6b_2023\\\"\"],\"cloned_from\":\"CSA U4L7-L6b_2023\"}]"
}]]></config>
</Javalab>
