<Javalab>
  <config><![CDATA[{
  "game_id": 68,
  "created_at": "2024-01-12T20:52:00.000Z",
  "level_num": "custom",
  "user_id": 16889,
  "properties": {
    "encrypted": "false",
    "mini_rubric": "false",
    "submittable": "false",
    "hide_share_and_remix": "false",
    "csa_view_mode": "neighborhood",
    "serialized_maze": [
      [
        {
          "tileType": 1,
          "value": 0,
          "assetId": 0
        },
        {
          "tileType": 1,
          "value": 0,
          "assetId": 0
        },
        {
          "tileType": 1,
          "value": 0,
          "assetId": 0
        },
        {
          "tileType": 1,
          "value": 0,
          "assetId": 0
        },
        {
          "tileType": 1,
          "value": 0,
          "assetId": 0
        },
        {
          "tileType": 1,
          "value": 0,
          "assetId": 0
        },
        {
          "tileType": 1,
          "value": 0,
          "assetId": 0
        },
        {
          "tileType": 1,
          "value": 0,
          "assetId": 0
        },
        {
          "tileType": 1,
          "value": 0,
          "assetId": 0
        },
        {
          "tileType": 1,
          "value": 0,
          "assetId": 0
        },
        {
          "tileType": 1,
          "value": 0,
          "assetId": 0
        },
        {
          "tileType": 1,
          "value": 0,
          "assetId": 0
        }
      ],
      [
        {
          "tileType": 0,
          "value": 0,
          "assetId": 88
        },
        {
          "tileType": 0,
          "value": 0,
          "assetId": 89
        },
        {
          "tileType": 0,
          "value": 0,
          "assetId": 90
        },
        {
          "tileType": 1,
          "value": 0,
          "assetId": 0
        },
        {
          "tileType": 1,
          "value": 0,
          "assetId": 0
        },
        {
          "tileType": 1,
          "value": 0,
          "assetId": 0
        },
        {
          "tileType": 1,
          "value": 0,
          "assetId": 0
        },
        {
          "tileType": 1,
          "value": 0,
          "assetId": 0
        },
        {
          "tileType": 1,
          "value": 0,
          "assetId": 0
        },
        {
          "tileType": 1,
          "value": 0,
          "assetId": 0
        },
        {
          "tileType": 1,
          "value": 0,
          "assetId": 0
        },
        {
          "tileType": 1,
          "value": 0,
          "assetId": 0
        }
      ],
      [
        {
          "tileType": 1,
          "value": 0,
          "assetId": 0
        },
        {
          "tileType": 1,
          "value": 0,
          "assetId": 0
        },
        {
          "tileType": 1,
          "value": 0,
          "assetId": 0
        },
        {
          "tileType": 1,
          "value": 0,
          "assetId": 0
        },
        {
          "tileType": 1,
          "value": 0,
          "assetId": 0
        },
        {
          "tileType": 1,
          "value": 0,
          "assetId": 0
        },
        {
          "tileType": 1,
          "value": 0,
          "assetId": 0
        },
        {
          "tileType": 1,
          "value": 0,
          "assetId": 0
        },
        {
          "tileType": 1,
          "value": 0,
          "assetId": 0
        },
        {
          "tileType": 1,
          "value": 0,
          "assetId": 0
        },
        {
          "tileType": 1,
          "value": 0,
          "assetId": 0
        },
        {
          "tileType": 1,
          "value": 0,
          "assetId": 0
        }
      ],
      [
        {
          "tileType": 1,
          "value": 0,
          "assetId": 0
        },
        {
          "tileType": 1,
          "value": 0,
          "assetId": 0
        },
        {
          "tileType": 1,
          "value": 0,
          "assetId": 0
        },
        {
          "tileType": 1,
          "value": 0,
          "assetId": 0
        },
        {
          "tileType": 1,
          "value": 0,
          "assetId": 0
        },
        {
          "tileType": 1,
          "value": 0,
          "assetId": 0
        },
        {
          "tileType": 1,
          "value": 0,
          "assetId": 0
        },
        {
          "tileType": 1,
          "value": 0,
          "assetId": 0
        },
        {
          "tileType": 1,
          "value": 0,
          "assetId": 0
        },
        {
          "tileType": 1,
          "value": 0,
          "assetId": 0
        },
        {
          "tileType": 1,
          "value": 0,
          "assetId": 0
        },
        {
          "tileType": 1,
          "value": 0,
          "assetId": 0
        }
      ],
      [
        {
          "tileType": 1,
          "value": 0,
          "assetId": 0
        },
        {
          "tileType": 1,
          "value": 0,
          "assetId": 0
        },
        {
          "tileType": 1,
          "value": 0,
          "assetId": 0
        },
        {
          "tileType": 1,
          "value": 0,
          "assetId": 0
        },
        {
          "tileType": 1,
          "value": 0,
          "assetId": 0
        },
        {
          "tileType": 1,
          "value": 0,
          "assetId": 0
        },
        {
          "tileType": 1,
          "value": 0,
          "assetId": 0
        },
        {
          "tileType": 1,
          "value": 0,
          "assetId": 0
        },
        {
          "tileType": 1,
          "value": 0,
          "assetId": 0
        },
        {
          "tileType": 1,
          "value": 0,
          "assetId": 0
        },
        {
          "tileType": 1,
          "value": 0,
          "assetId": 0
        },
        {
          "tileType": 1,
          "value": 0,
          "assetId": 0
        }
      ],
      [
        {
          "tileType": 1,
          "value": 0,
          "assetId": 0
        },
        {
          "tileType": 1,
          "value": 0,
          "assetId": 0
        },
        {
          "tileType": 1,
          "value": 0,
          "assetId": 0
        },
        {
          "tileType": 1,
          "value": 0,
          "assetId": 0
        },
        {
          "tileType": 1,
          "value": 0,
          "assetId": 0
        },
        {
          "tileType": 1,
          "value": 0,
          "assetId": 0
        },
        {
          "tileType": 1,
          "value": 0,
          "assetId": 0
        },
        {
          "tileType": 1,
          "value": 0,
          "assetId": 0
        },
        {
          "tileType": 1,
          "value": 0,
          "assetId": 0
        },
        {
          "tileType": 1,
          "value": 0,
          "assetId": 0
        },
        {
          "tileType": 1,
          "value": 0,
          "assetId": 0
        },
        {
          "tileType": 1,
          "value": 0,
          "assetId": 0
        }
      ],
      [
        {
          "tileType": 1,
          "value": 0,
          "assetId": 0
        },
        {
          "tileType": 1,
          "value": 0,
          "assetId": 0
        },
        {
          "tileType": 1,
          "value": 0,
          "assetId": 0
        },
        {
          "tileType": 1,
          "value": 0,
          "assetId": 0
        },
        {
          "tileType": 1,
          "value": 0,
          "assetId": 0
        },
        {
          "tileType": 1,
          "value": 0,
          "assetId": 0
        },
        {
          "tileType": 1,
          "value": 0,
          "assetId": 0
        },
        {
          "tileType": 1,
          "value": 0,
          "assetId": 0
        },
        {
          "tileType": 1,
          "value": 0,
          "assetId": 0
        },
        {
          "tileType": 1,
          "value": 0,
          "assetId": 0
        },
        {
          "tileType": 1,
          "value": 0,
          "assetId": 0
        },
        {
          "tileType": 1,
          "value": 0,
          "assetId": 0
        }
      ],
      [
        {
          "tileType": 1,
          "value": 0,
          "assetId": 0
        },
        {
          "tileType": 1,
          "value": 0,
          "assetId": 0
        },
        {
          "tileType": 1,
          "value": 0,
          "assetId": 0
        },
        {
          "tileType": 1,
          "value": 0,
          "assetId": 0
        },
        {
          "tileType": 1,
          "value": 0,
          "assetId": 0
        },
        {
          "tileType": 1,
          "value": 0,
          "assetId": 0
        },
        {
          "tileType": 1,
          "value": 0,
          "assetId": 0
        },
        {
          "tileType": 1,
          "value": 0,
          "assetId": 0
        },
        {
          "tileType": 1,
          "value": 0,
          "assetId": 0
        },
        {
          "tileType": 1,
          "value": 0,
          "assetId": 0
        },
        {
          "tileType": 1,
          "value": 0,
          "assetId": 0
        },
        {
          "tileType": 1,
          "value": 0,
          "assetId": 0
        }
      ],
      [
        {
          "tileType": 1,
          "value": 0,
          "assetId": 0
        },
        {
          "tileType": 1,
          "value": 0,
          "assetId": 0
        },
        {
          "tileType": 1,
          "value": 0,
          "assetId": 0
        },
        {
          "tileType": 1,
          "value": 0,
          "assetId": 0
        },
        {
          "tileType": 1,
          "value": 0,
          "assetId": 0
        },
        {
          "tileType": 1,
          "value": 0,
          "assetId": 0
        },
        {
          "tileType": 1,
          "value": 0,
          "assetId": 0
        },
        {
          "tileType": 1,
          "value": 0,
          "assetId": 0
        },
        {
          "tileType": 1,
          "value": 0,
          "assetId": 0
        },
        {
          "tileType": 1,
          "value": 0,
          "assetId": 0
        },
        {
          "tileType": 1,
          "value": 0,
          "assetId": 0
        },
        {
          "tileType": 1,
          "value": 0,
          "assetId": 0
        }
      ],
      [
        {
          "tileType": 1,
          "value": 0,
          "assetId": 0
        },
        {
          "tileType": 1,
          "value": 0,
          "assetId": 0
        },
        {
          "tileType": 1,
          "value": 0,
          "assetId": 0
        },
        {
          "tileType": 0,
          "value": 0,
          "assetId": 46
        },
        {
          "tileType": 1,
          "value": 0,
          "assetId": 0
        },
        {
          "tileType": 1,
          "value": 0,
          "assetId": 0
        },
        {
          "tileType": 1,
          "value": 0,
          "assetId": 0
        },
        {
          "tileType": 1,
          "value": 0,
          "assetId": 0
        },
        {
          "tileType": 1,
          "value": 0,
          "assetId": 0
        },
        {
          "tileType": 1,
          "value": 0,
          "assetId": 0
        },
        {
          "tileType": 1,
          "value": 0,
          "assetId": 0
        },
        {
          "tileType": 1,
          "value": 0,
          "assetId": 0
        }
      ],
      [
        {
          "tileType": 1,
          "value": 0,
          "assetId": 0
        },
        {
          "tileType": 1,
          "value": 0,
          "assetId": 0
        },
        {
          "tileType": 1,
          "value": 0,
          "assetId": 0
        },
        {
          "tileType": 1,
          "value": 0,
          "assetId": 0
        },
        {
          "tileType": 1,
          "value": 0,
          "assetId": 0
        },
        {
          "tileType": 1,
          "value": 0,
          "assetId": 0
        },
        {
          "tileType": 1,
          "value": 0,
          "assetId": 0
        },
        {
          "tileType": 1,
          "value": 0,
          "assetId": 0
        },
        {
          "tileType": 1,
          "value": 0,
          "assetId": 0
        },
        {
          "tileType": 1,
          "value": 0,
          "assetId": 0
        },
        {
          "tileType": 1,
          "value": 0,
          "assetId": 0
        },
        {
          "tileType": 1,
          "value": 0,
          "assetId": 0
        }
      ],
      [
        {
          "tileType": 1,
          "value": 0,
          "assetId": 0
        },
        {
          "tileType": 1,
          "value": 0,
          "assetId": 0
        },
        {
          "tileType": 1,
          "value": 0,
          "assetId": 0
        },
        {
          "tileType": 1,
          "value": 0,
          "assetId": 0
        },
        {
          "tileType": 1,
          "value": 0,
          "assetId": 0
        },
        {
          "tileType": 1,
          "value": 0,
          "assetId": 0
        },
        {
          "tileType": 1,
          "value": 0,
          "assetId": 0
        },
        {
          "tileType": 1,
          "value": 0,
          "assetId": 0
        },
        {
          "tileType": 1,
          "value": 0,
          "assetId": 0
        },
        {
          "tileType": 1,
          "value": 0,
          "assetId": 0
        },
        {
          "tileType": 1,
          "value": 0,
          "assetId": 0
        },
        {
          "tileType": 1,
          "value": 0,
          "assetId": 0
        }
      ]
    ],
    "start_sources": {
      "NeighborhoodRunner.java": {
        "text": "import org.code.neighborhood.*;\n\npublic class NeighborhoodRunner {\n  public static void main(String[] args) {\n\n    String[] colors = {\"OrangeRed\", \"Orchid\", \"SeaGreen\", \"DodgerBlue\", \"LavenderBlush\"};\n\n    LoopPainter ezra = new LoopPainter(0, 0, \"east\", 20);\n\n    ezra.moveTimes(3);\n    ezra.turnRight();\n    ezra.paintAndMove(colors);\n    ezra.turnLeft();\n    ezra.move();\n\n    /* ---- 🔎 ADD YOUR CODE BELOW THIS LINE ---- */\n\n\n\n\n\n    \n  }\n}",
        "isVisible": true,
        "tabOrder": 0
      },
      "LoopPainter.java": {
        "text": "import org.code.neighborhood.*;\n\n/*\n * Represents a Painter that can paint in The Neighborhood\n */\npublic class LoopPainter extends Painter {\n\n  /*\n   * Sets the x and y location, starting direction, and amount\n   * of paint to the specified values\n   */\n  public LoopPainter(int x, int y, String direction, int numPaint) {\n    super(x, y, direction, numPaint);\n  }\n\n  /*\n   * Turns the LoopPainter to the right\n   */\n  public void turnRight() {\n    turnLeft();\n    turnLeft();\n    turnLeft();\n  }\n\n  /*\n   * Moves forward one space if the LoopPainter can move\n   */\n  public void moveIfCanMove() {\n    if (canMove()) {\n      move();\n    }\n  }\n\n  /*\n   * Paints the current space if the LoopPainter has paint\n   */\n  public void paintIfHasPaint(String color) {\n    if (hasPaint()) {\n      paint(color);\n    }\n  }\n\n  /*\n   * Moves the LoopPainter a specified number of steps\n   */\n  public void moveTimes(int numSteps) {\n    for (int steps = 0; steps < numSteps; steps++) {\n      if (canMove()) {\n        move();\n      }\n    }\n  }\n\n  /*\n   * Paints and moves using the colors in paintColors\n   */\n  public void paintAndMove(String[] paintColors) {\n    for (int index = 0; index < paintColors.length; index++) {\n      paintIfHasPaint(paintColors[index]);\n      moveIfCanMove();\n    }\n  }\n  \n}",
        "isVisible": true,
        "tabOrder": 1
      }
    },
    "name_suffix": "_2024"
  },
  "published": true,
  "audit_log": "[{\"changed_at\":\"2024-01-12T20:52:00.600+00:00\",\"changed\":[\"cloned from \\\"CSA U3L4-For Loop PBT_2023\\\"\"],\"cloned_from\":\"CSA U3L4-For Loop PBT_2023\"}]"
}]]></config>
</Javalab>
