<Javalab>
  <config><![CDATA[{
  "game_id": 68,
  "created_at": "2022-08-23T20:55:42.000Z",
  "level_num": "custom",
  "user_id": 16889,
  "properties": {
    "encrypted": "false",
    "long_instructions": "The `SpeedyPainter`(#e7e8ea) class is a `PainterPlus`(#e7e8ea) that can navigate The Neighborhood faster than a `PainterPlus`(#e7e8ea) object.\r\n\r\n##Getting Started\r\n1. Import `PainterPlus.java`(#e7e8ea) from the ![Backpack](https://images.code.org/b17feeef2e8db2a98abdb4a5860c5c61-image-1642175705297.png)\r\n\r\n*Don't have it or it doesn't work? That's ok! Just copy and paste the code from <a href=\"https://studio.code.org/projects/javalab/jI2Nc4XfjI0GOKF-EDlM9Eog1iBXuGcsviKKnqeODsk\" target=\"_blank\">**here**</a>.*\r\n\r\n##In SpeedyPainter.java:\r\n\r\n1. Override the `moveFast()`(#e7e8ea) method from the `PainterPlus`(#e7e8ea) class to move three spaces.\r\n\r\n##In MyConsole.java:\r\n\r\n2. Instantiate a `SpeedyPainter`(#e7e8ea) object.\r\n\r\n3. Use the `moveFast()`(#e7e8ea) method from the `SpeedyPainter`(#e7e8ea) class to navigate The Neighborhood.\r\n\r\n![](https://images.code.org/a3bfae918971c19443f0c26059681bcd-image-1652276231671.gif)",
    "mini_rubric": "false",
    "submittable": "false",
    "hide_share_and_remix": "false",
    "csa_view_mode": "neighborhood",
    "project_template_level_name": "CSA U7L5-L4b PBT_pilot-2022",
    "serialized_maze": [
      [
        {
          "tileType": 1,
          "value": 0,
          "assetId": 0
        },
        {
          "tileType": 1,
          "value": 0,
          "assetId": 0
        },
        {
          "tileType": 1,
          "value": 0,
          "assetId": 0
        },
        {
          "tileType": 1,
          "value": 0,
          "assetId": 0
        },
        {
          "tileType": 1,
          "value": 0,
          "assetId": 0
        },
        {
          "tileType": 1,
          "value": 0,
          "assetId": 0
        },
        {
          "tileType": 1,
          "value": 0,
          "assetId": 0
        },
        {
          "tileType": 1,
          "value": 0,
          "assetId": 0
        },
        {
          "tileType": 1,
          "value": 0,
          "assetId": 0
        },
        {
          "tileType": 1,
          "value": 0,
          "assetId": 0
        },
        {
          "tileType": 0,
          "value": 0,
          "assetId": 49
        },
        {
          "tileType": 0,
          "value": 0,
          "assetId": 286
        }
      ],
      [
        {
          "tileType": 0,
          "value": 0,
          "assetId": 286
        },
        {
          "tileType": 0,
          "value": 0,
          "assetId": 286
        },
        {
          "tileType": 0,
          "value": 0,
          "assetId": 286
        },
        {
          "tileType": 0,
          "value": 0,
          "assetId": 286
        },
        {
          "tileType": 0,
          "value": 0,
          "assetId": 286
        },
        {
          "tileType": 0,
          "value": 0,
          "assetId": 286
        },
        {
          "tileType": 0,
          "value": 0,
          "assetId": 286
        },
        {
          "tileType": 0,
          "value": 0,
          "assetId": 286
        },
        {
          "tileType": 0,
          "value": 0,
          "assetId": 50
        },
        {
          "tileType": 1,
          "value": 0,
          "assetId": 0
        },
        {
          "tileType": 0,
          "value": 0,
          "assetId": 285
        },
        {
          "tileType": 0,
          "value": 0,
          "assetId": 48
        }
      ],
      [
        {
          "tileType": 0,
          "value": 0,
          "assetId": 48
        },
        {
          "tileType": 0,
          "value": 0,
          "assetId": 48
        },
        {
          "tileType": 0,
          "value": 0,
          "assetId": 48
        },
        {
          "tileType": 0,
          "value": 0,
          "assetId": 48
        },
        {
          "tileType": 0,
          "value": 0,
          "assetId": 48
        },
        {
          "tileType": 0,
          "value": 0,
          "assetId": 48
        },
        {
          "tileType": 0,
          "value": 0,
          "assetId": 48
        },
        {
          "tileType": 0,
          "value": 0,
          "assetId": 48
        },
        {
          "tileType": 0,
          "value": 0,
          "assetId": 284
        },
        {
          "tileType": 1,
          "value": 0,
          "assetId": 0
        },
        {
          "tileType": 0,
          "value": 0,
          "assetId": 285
        },
        {
          "tileType": 0,
          "value": 0,
          "assetId": 48
        }
      ],
      [
        {
          "tileType": 0,
          "value": 0,
          "assetId": 164
        },
        {
          "tileType": 0,
          "value": 0,
          "assetId": 165
        },
        {
          "tileType": 0,
          "value": 0,
          "assetId": 166
        },
        {
          "tileType": 0,
          "value": 0,
          "assetId": 283
        },
        {
          "tileType": 0,
          "value": 0,
          "assetId": 282
        },
        {
          "tileType": 0,
          "value": 0,
          "assetId": 48
        },
        {
          "tileType": 0,
          "value": 0,
          "assetId": 48
        },
        {
          "tileType": 0,
          "value": 0,
          "assetId": 48
        },
        {
          "tileType": 0,
          "value": 0,
          "assetId": 284
        },
        {
          "tileType": 1,
          "value": 0,
          "assetId": 0
        },
        {
          "tileType": 0,
          "value": 0,
          "assetId": 285
        },
        {
          "tileType": 0,
          "value": 0,
          "assetId": 48
        }
      ],
      [
        {
          "tileType": 0,
          "value": 0,
          "assetId": 172
        },
        {
          "tileType": 0,
          "value": 0,
          "assetId": 173
        },
        {
          "tileType": 0,
          "value": 0,
          "assetId": 174
        },
        {
          "tileType": 0,
          "value": 0,
          "assetId": 46
        },
        {
          "tileType": 0,
          "value": 0,
          "assetId": 52
        },
        {
          "tileType": 0,
          "value": 0,
          "assetId": 283
        },
        {
          "tileType": 0,
          "value": 0,
          "assetId": 283
        },
        {
          "tileType": 0,
          "value": 0,
          "assetId": 283
        },
        {
          "tileType": 0,
          "value": 0,
          "assetId": 51
        },
        {
          "tileType": 1,
          "value": 0,
          "assetId": 0
        },
        {
          "tileType": 0,
          "value": 0,
          "assetId": 285
        },
        {
          "tileType": 0,
          "value": 0,
          "assetId": 48
        }
      ],
      [
        {
          "tileType": 0,
          "value": 0,
          "assetId": 180
        },
        {
          "tileType": 0,
          "value": 0,
          "assetId": 181
        },
        {
          "tileType": 0,
          "value": 0,
          "assetId": 182
        },
        {
          "tileType": 1,
          "value": 0,
          "assetId": 0
        },
        {
          "tileType": 1,
          "value": 0,
          "assetId": 0
        },
        {
          "tileType": 1,
          "value": 0,
          "assetId": 0
        },
        {
          "tileType": 0,
          "value": 0,
          "assetId": 97
        },
        {
          "tileType": 1,
          "value": 0,
          "assetId": 0
        },
        {
          "tileType": 1,
          "value": 0,
          "assetId": 0
        },
        {
          "tileType": 1,
          "value": 0,
          "assetId": 0
        },
        {
          "tileType": 0,
          "value": 0,
          "assetId": 285
        },
        {
          "tileType": 0,
          "value": 0,
          "assetId": 48
        }
      ],
      [
        {
          "tileType": 0,
          "value": 0,
          "assetId": 186
        },
        {
          "tileType": 0,
          "value": 0,
          "assetId": 187
        },
        {
          "tileType": 0,
          "value": 0,
          "assetId": 188
        },
        {
          "tileType": 0,
          "value": 0,
          "assetId": 286
        },
        {
          "tileType": 0,
          "value": 0,
          "assetId": 50
        },
        {
          "tileType": 1,
          "value": 0,
          "assetId": 0
        },
        {
          "tileType": 0,
          "value": 0,
          "assetId": 98
        },
        {
          "tileType": 1,
          "value": 0,
          "assetId": 0
        },
        {
          "tileType": 1,
          "value": 0,
          "assetId": 0
        },
        {
          "tileType": 1,
          "value": 0,
          "assetId": 0
        },
        {
          "tileType": 0,
          "value": 0,
          "assetId": 285
        },
        {
          "tileType": 0,
          "value": 0,
          "assetId": 48
        }
      ],
      [
        {
          "tileType": 0,
          "value": 0,
          "assetId": 192
        },
        {
          "tileType": 0,
          "value": 0,
          "assetId": 193
        },
        {
          "tileType": 0,
          "value": 0,
          "assetId": 194
        },
        {
          "tileType": 0,
          "value": 0,
          "assetId": 48
        },
        {
          "tileType": 0,
          "value": 0,
          "assetId": 284
        },
        {
          "tileType": 1,
          "value": 0,
          "assetId": 0
        },
        {
          "tileType": 0,
          "value": 0,
          "assetId": 97
        },
        {
          "tileType": 1,
          "value": 0,
          "assetId": 0
        },
        {
          "tileType": 0,
          "value": 0,
          "assetId": 49
        },
        {
          "tileType": 0,
          "value": 0,
          "assetId": 286
        },
        {
          "tileType": 0,
          "value": 0,
          "assetId": 280
        },
        {
          "tileType": 0,
          "value": 0,
          "assetId": 48
        }
      ],
      [
        {
          "tileType": 0,
          "value": 0,
          "assetId": 48
        },
        {
          "tileType": 0,
          "value": 0,
          "assetId": 48
        },
        {
          "tileType": 0,
          "value": 0,
          "assetId": 48
        },
        {
          "tileType": 0,
          "value": 0,
          "assetId": 48
        },
        {
          "tileType": 0,
          "value": 0,
          "assetId": 284
        },
        {
          "tileType": 1,
          "value": 0,
          "assetId": 0
        },
        {
          "tileType": 0,
          "value": 0,
          "assetId": 98
        },
        {
          "tileType": 1,
          "value": 0,
          "assetId": 0
        },
        {
          "tileType": 0,
          "value": 0,
          "assetId": 285
        },
        {
          "tileType": 0,
          "value": 0,
          "assetId": 48
        },
        {
          "tileType": 0,
          "value": 0,
          "assetId": 48
        },
        {
          "tileType": 0,
          "value": 0,
          "assetId": 48
        }
      ],
      [
        {
          "tileType": 0,
          "value": 0,
          "assetId": 48
        },
        {
          "tileType": 0,
          "value": 0,
          "assetId": 48
        },
        {
          "tileType": 0,
          "value": 0,
          "assetId": 48
        },
        {
          "tileType": 0,
          "value": 0,
          "assetId": 281
        },
        {
          "tileType": 0,
          "value": 0,
          "assetId": 51
        },
        {
          "tileType": 1,
          "value": 0,
          "assetId": 0
        },
        {
          "tileType": 1,
          "value": 0,
          "assetId": 0
        },
        {
          "tileType": 1,
          "value": 0,
          "assetId": 0
        },
        {
          "tileType": 0,
          "value": 0,
          "assetId": 52
        },
        {
          "tileType": 0,
          "value": 0,
          "assetId": 283
        },
        {
          "tileType": 0,
          "value": 0,
          "assetId": 282
        },
        {
          "tileType": 0,
          "value": 0,
          "assetId": 48
        }
      ],
      [
        {
          "tileType": 0,
          "value": 0,
          "assetId": 48
        },
        {
          "tileType": 0,
          "value": 0,
          "assetId": 48
        },
        {
          "tileType": 0,
          "value": 0,
          "assetId": 48
        },
        {
          "tileType": 0,
          "value": 0,
          "assetId": 284
        },
        {
          "tileType": 0,
          "value": 0,
          "assetId": 291
        },
        {
          "tileType": 0,
          "value": 0,
          "assetId": 292
        },
        {
          "tileType": 0,
          "value": 0,
          "assetId": 293
        },
        {
          "tileType": 0,
          "value": 0,
          "assetId": 10
        },
        {
          "tileType": 0,
          "value": 0,
          "assetId": 8
        },
        {
          "tileType": 0,
          "value": 0,
          "assetId": 6
        },
        {
          "tileType": 0,
          "value": 0,
          "assetId": 285
        },
        {
          "tileType": 0,
          "value": 0,
          "assetId": 48
        }
      ],
      [
        {
          "tileType": 0,
          "value": 0,
          "assetId": 48
        },
        {
          "tileType": 0,
          "value": 0,
          "assetId": 48
        },
        {
          "tileType": 0,
          "value": 0,
          "assetId": 48
        },
        {
          "tileType": 0,
          "value": 0,
          "assetId": 284
        },
        {
          "tileType": 0,
          "value": 0,
          "assetId": 294
        },
        {
          "tileType": 0,
          "value": 0,
          "assetId": 295
        },
        {
          "tileType": 0,
          "value": 0,
          "assetId": 296
        },
        {
          "tileType": 0,
          "value": 0,
          "assetId": 11
        },
        {
          "tileType": 0,
          "value": 0,
          "assetId": 9
        },
        {
          "tileType": 0,
          "value": 0,
          "assetId": 7
        },
        {
          "tileType": 0,
          "value": 0,
          "assetId": 285
        },
        {
          "tileType": 0,
          "value": 0,
          "assetId": 48
        }
      ]
    ],
    "display_name": "The Neighborhood",
    "bubble_choice_description": "Override the moveFast() method from the PainterPlus class in the SpeedyPainter class.",
    "thumbnail_url": "https://images.code.org/c0627f99c65dd11bbc8716497d2de9c7-image-1639151600336.gif",
    "encrypted_exemplar_sources": "TLdHmjU3f0oAaoZ7vnf1+hL76CEOijG8shBhFhG3B8oIKq1+SRx+g6PEoM+2\nMIqM+QcDDh1RZIi8rH+arMiEtcCX9tkoflGREG2NMDKUQBOl402fIEnRM+3q\nViqNv+WFO7FERHEmm6BOxoX5hcGIqOszxrkxjPdYKasHT58JLX+tPxyqY3AY\n4xRlailIsx5+RNlYJC3XaAdD0O9DvDWuQkTem1khgOqjzw/hPe/X4hQiML1c\nLX6f+9L9rAq5kxlCXkvfVbFj3pbi48rw1dD5Z4zKq1eGhCvVjbvVIgQRNjdj\nBNJxDL09fU5nwjoEC1+6PCmLe+oag3PoJGX826XJCx6cxSLF8xRzjSqhxBfW\nrED6JVDxuHUIAdDeR8S6novxQueYv97Op2uj4KEvW84A/oPpliW4SFqvV1OP\nqqFMaf8DpYQY43UNCqtRuwMeL7Y30Fw+swOsiQcPAATyXkhuCs7Ns8XwhtEy\nnOOieShnSrwoy4V1Rc47+g/I2e4WBNqPKRb1nUhg83qcXrEqZ5i/bhLDhbv1\nubMz99GDAghFHV+cPJcoz/9+kifGD1DBGZBn8coQVA3HVdUPgtXtIDrohkLD\nujox7niPi71P28KWjN61klUJyY1972SIDb00SCnckgiayu+5NlvSwZY2iEQc\nayrA44ETGGpCL3TgyjQaO3ANkXKD6/rswm1Ff1ZY2S1TN6VyVe4bJQN04YbP\n26RVd2UHFStV7u0z3dBnf9z28qSIzN/kZg7h9875lRzGVB2IT6F4Ph14oMZI\n5EQsFx3pYD4nxtyS4pXj3bKXRfFpLUVKtkyjcvnjcr0Lyd06H8est8WYG3CF\nk910gLppBPQrvpesQrU8zdhhKcAj72IOxz0n5aJcCGocVB/94s0OSXJut0qr\nrwgBf82DxhdlibXDvib291Gon5gDs97V3FoUF3DSwia3AdRkumlMC+iVLA2Z\n/92dn1tQa5wvC4rAm2fBW9mSyY9P9o+ppATbs+zpEv4lpwKoHuExYWreEr18\nhAqW+H/0L9XGmr+0EaeiJUCtshBdIYwro7mneT0lXm/qwlz96KQ1FcLHBkKB\nJpQ/CdlkXTG4OtVt6pRDQVBKpZ7R/gYhTatKSx+VczvWm18gjzNE4lhzc669\naRhbcHw0/jpYjcJmB2eSbHEEIZnltqhPO/LJfxiADU+BldMD6UasvUR6fiiC\nmm/SErY5ZY4K+Qu2BbkjCPPJldUvfnBTiSo1s7yx61idT8TTJyWmpCTyaMTs\npXbM1QVY+qqU7QYlleyHhrXGIzKN19LhTQqM/EQxxoYFIO1GLIk7ssayyV+h\nyWRS62Q55OcWynYmnjP8aFQU6CK6T7zAc9XbinIRVD01SplhBPCNEf7mzgfF\nZu4ItuN8xRU5WaJj8Z6k9uAWwMDFgJJePmWd9uOqUIWGAmqnOY78ZRESmWQt\nBBawtlEPHcnz3/Fk8YOZNqlX/fJUKwA7WT5kyT7k7E7SgD/43RMO5E31Mvzf\nIoqaOmNJJocU5xSX+XRqwyOXKlwYUqVA94abAwDyc71o2XrHpN/+u5GZZ1tG\nbpLAK+k2ankARVKdagVxwF0/WZPT3MU2yXVbQx2IYGE4Bw1FZZr6J57Er7/8\ni7o9elILCVjAubZYSV310SoORifwQnqlOkFHh9t3rpvp8fyVoUieTVikn0Y4\n8+0suJFIB3qprkKrSrnZe1rFTz4/KOSVrGu+xJVmGP7u9ncYDjuGCxeLbyJM\ntsE7ye1y5XmQ6DZsLoJcIT2a1QAnuJxAyBC7Rr1+Ex1PVKQ2vZTK8MP+LmVj\nxTcC6rPgs1PKUc3/PoihMWVXDrx0mGaAoOfvE/9KIc+kfNJSf4P8yd02nyYM\nDozTMIW/9Tr5d2jgkzxuW74Jwt73i93QhlZqTmsfUL2Nsmx37BA9A9vkLJRF\n4LpGJwhByz4P/VfJDJPEptvYmdN6YZIiYTeRCP7zmYOEBv3ujht5T4V7NPxd\nBgyQwsNEGvGS19oMjgxaluIhnMSYxPxaU4d4G2qMIimSF1xTkGSmyi0ePIK1\nPXhIJsGmc/9kWeQoBK0/lckOF5b9EWMmDcujzPHjJ75oRCxTkdfNMdY8di5c\nAF7QMQnRPO+gPcb4OGQJinQvjwfu5XTA5Uf6sMVtVk/ZZiiTvMneIJzu/dkk\nM7hd4H0KwXRylR5XmzeYzVZ0H907cYGjikryEnfUOI9m5pJuradizSkxsaPp\n0svZRWgwDvlBSYb+lGWs6bW5gXm5SDoDC6bRom2ZY1Ik+0zZVNfdho/eDyO5\nhfHpUfDoXapJqJ9A7auldVtQ+emNvigG/jlMNFhFy9eEfeC0pSYN9ZtwDa0W\n1hLHPmWOkBFVbwyN38fE+yWju3bM5EmZNksOPPVIyCVTvp+k2S8DAf8GeH9R\nLdKM3N2IaVlZUp+elAwuxQNAEU4HtXQzykdp5scYfq2apxv7zPJzLr2f2nhM\neEvSNh+9JesQoaDNUTjyxOxXVsGolRtVaB+Pu2S/8dGhClMpqOPiJ5IPgi+9\n8JRmdYgT+6U8upuPBLwgVB4vVvjgC243NApLNLuE75i8E85bobCfgAFpcQbU\ntKLwMRMpqZaVWJhI6PPV5alqtgdufLstH7mnEzoznJOPxYceY1zJV3+/2jYs\nNaLb9346Bi2Tyo53gRuZshZO/A7KpdRLTIg3jTvBdkZS3mDUYcUgAVrQbXxw\nHoCbA/o4jBduwPsrNiWkemeegos3AYDZQzF9A25auTuCEC5og6h024aiK24m\nIyDooVIRqI7jAf005RHq4sDG7U4BJlsFOXRw/uZyxU4DbzXTm9swlKL+0xM1\n9qhpjYRi+Ytcs1mQU6YxfQ/6kbUQmcU7N/ONpaVgNoN8kGtmnylC9k9ZruI9\nJZ5UuKB3PvdT4AVqkofesg75hm+/rc8RL3mIZ1xLoh+F4sTFgkNAnTEp0wxG\nRxaVGasVpeNE5zPhDn3I1O2LyZtWnoFfRR2QWbVoqVCxVTrV/YkcaujrwD5D\n1Gilo0B2JYwiy4tWhQUZLKy+nWEibnQhJBruRCiHTqAXvUHPprRT0GFbxpRh\n9ErUZrCrJmBYdtFmQ0dbaK/5yL0J6jy+SeuTbdBmjsCyD4DtdrLDhK3yhDVW\nbsb85X6cdPdn0L+RHXUyjF3kEoxLQq99m42eVGDBYtdRYiHE19PCCLuO83mV\nu0gSSZrbpc9n2X5R3L3vGbaduTf4KTF0ElxQWgmj1320rSLCSgw3vmxNLgLk\ncOHnvfEemZCYs990pi5MOblEH9FjEYODK0hUsCoKe3t0kSo+JrPe0H1VWeI/\n48rvKmMdWsO776ofr7/pChHws27SyA77UyjsEL7n2mPGjn4l+vVKDy4v7aVy\nx92bsxEhKCrnt5Srsg+nxxbfbJuC8jS6Dm2eGIdz65t3wIJEY8/jWESSXbWM\nlfByBFPTYTDDXqZHbklp1tZPuuFo9uKepamkOFc7QQrTIlNhIMq7MfbgQF5y\niQZMFEL2qlEoSpN8giNc4biCzLKsJhNPL1WyzuoHQ/bRyGvq0o0UCda5B07Y\n24y9B/EkSaFx2VJUKDKBxzo1eWLyZIdb6L06gFF8mbWvFXTlOS/djHOghT/L\nxyL61tUuEvuQk8nCogEWN47lpjnCpb85VPAJ5LS+xiXe3buRt/dHtSCPycjr\nOIhGBJNHBYlj8hVBmRTfItGidQBJfLjtZY1kn5rSSOQUs6BPVM4Du0YIZDiF\neVJYRt5Ac5CUrsl1aBQkWg7SesYxwP9NW3BcvlzEF8BB967x4aKkpu+UKIH9\n6TYr1Zy1S0r8MNJunajIjJiWq0nzqfNAMQSKY0RVrhxBvQTD/7PFq63QvGzD\nEnZKDmV/xlSGHLPGd1gVdvHDBByfwp6ANNnWmiL0O2MeEdZS2Pdeis2qaWWs\n+171XUpXG/Xiwvf7n83tQk420qQVFIFglKvdhqi/sbQ54Rx4xKXWSL+XcXW5\n7MLbOyhQBnuPAw4mVN5DKqmt/oQG8WHodnWtTPmO4s8tVx1p/EyqPi2wP278\noaCcIJCHevNqJCikwCt7CGUDXniNUgO4jpcWSrD/pMkGAFkWZCJlbEpSnSzZ\nakgcmXJJlxfyV3l2oDdoRmoZIciey3WuUhK5rds8MRuLoBufXze4T7xODXHI\n/RR7kMla2Zr2mMrHvCX8Wc82i3BcSZiUii2bbVBkBiN3/zGd5adbLgYkpapB\nkFGWyjTMQmJjft9Et2UFuNPVGKHpGSNkVFWzoMZOd6A4kEuev2PgAy7xivpI\nBtQYlqagHBvEAJh059pgb789TTOmBv+hwY2vrv1Fu/hou9sE7iEF86cjxso1\nHR7wZUKu2p2CmcgY+Rdwr/YxNF9IeosjWsbv8+4f32VVucDgoKsf5kZxMrXa\n0fGy+/vZcW5igQ5DstfadQiXlZhak66jJzW5UHhmJNxZAq4rb6e9+QJfbatm\nOQawRA7Phfo1I1cfRXsvrBJRfdaYfdxIzwmCx+/oSSPUZhzkgnTgAK96+o5J\nmYroLnb3BXyOk+0s44wD2M0nc2SUH6uGDEoUJDyXydmm3OtTucmonyQKCFRF\n5TheFYJ2fJkPW0L9p2/wbRh+zZNiVbPWie5lL3fUxiVztwVXkJZK1TuBnd1f\nkY75s+Rq/azuEdNoAn7pR9MSZsNtpQvZew5bt5m7UNljr21atJrpJ1/38NoN\nGAm0n+tYiUqTERrV9sgvZiOY217FSJeSFBVj9/2H94sHKuUUrssu6rHJakWL\nPXyI6TE+r/evo8Nm8HomDlvGpdtbGf0I1fGwYgllGBQ+uYv3F2He/h6xTP3X\n+brAshupo7kx1fwWG5uZw0RM1PURoLMF6lCcWsb8+7mGNLlGwmFX1Lu2wMQs\n0EVoNNtRYFVH1fzEmOMjMLkZroHTt2L1vrf0x6hsuxXNd84BWENkeboMnO3t\n2fCixCuRrhCVE+zbo+gjIOtsf0+wNqN0c0cMoW7VLqbJ68SunFP+pXxcYzti\n5618PAfvKq9nziaAZi3kQZE5JQCOIXQKT/FzwlzUDjI/FDcGHNaomW3gYH+1\nZizSebcj+UFbwbcIDmGxQ0M90pnQAskQ1Gg9GVksCDrIA6uoN7uarh4H5n1t\npZ3TOwsJGMrCSwdaY6mzhhmmiijQx4Ob4D9pULA/E4+mIMroGPq2g1nzcWQg\nTtYCPm0cwlfurTZTxpwKySEu1i68g/ZQpfdpeA0HDS4SMzs0waE4PZlSy50t\nKB7z2wXHhXU8N7WrmrWYgwDmISqI6RCoypKrNkukv7jnkgKNRiMJCFfk0x0U\nkX15O5Gt493rkczFMgBwavssIp/nuDOnSUKxiHe9AKUEBFPApK86FHoGwMW4\na5Rp0RYj6WHVKgAn/P2wMvrgecTx3CyDKs/rwJGWoR6Wrrj3azwebNpuaXmO\naNAaX53k9ZyCFFthPm9HCv2do2Bl70gagioWjPnt6GDBbl1MMv3NQJssfDbO\npfhIxEmntnLNvlBFSm31yMqpdLRgvLzbxYW+rNlI1RuoXxPOHyBnZBzt4JfW\nf7hYdjThPU6EMLqQhsdaJd+MOIAvexXHFNZ2qHFv7EhRK9B95cdm6T0h2PqO\n7y627FArh1PjyEeOvLoofl12YmhUjhC711LQJPz2C7m0ONQl6dUDTKFUsn8A\nzt8qXPLORJKI5UwCxiSuL9ZU8MP2N1nehiNfAlaoIi79diMcqmxc0ZDyEFkh\nlSKleOy4JlwdouKhK/+jphv0fj4XQmCPJF4TDa7H+43DdQidW6ccICcuCA+I\nEK0niE1JWh19VdJivpgXTrRnjbKuPOnArSafqqK1WbGpR3D95uLnhKt/A9cx\no3h9NcfzWtpSrLjTJt3wxF8GGXntxI9tFOZ69IDvGjU7w0uoM7r7vyIIB7ZI\nRYXrlnztfyom30eSjbiqUqboxGQNFk/StAMTkhcIB7WvTpQ+gbQ0Cujt2J+4\n9Y+VBTOOVtCVsnMSOQ5H1azGb0t+KeIt7iPziJ8rPKksyBJOuNKIfcy+gpGo\nUJD+AvAEV7G/upuIffA44aZpjLPHO0GcCaAmkOeAMPqL1IgWDHxhL9VZsxCV\ns0fYPnM+bsbCxs2HKJjKmh38y1mTzYzo5KX0xYKnwvRaHioZe3DtOG2HCFzl\nBfZU9pzYw/Xj6DNeLBG03yCfzm7cN/GFAZ3fKbiN55nlU61EEIFHBCFLHVsI\nYk3UhpeglBgyoCIREOlPR7DP/+U5FLRymhhmLue0R3uSYNNSQ/Kc82450Duq\nAc3kJ0a06bHKGkfU8Y9t5GBeJheR9rDDODk96AXcZO/JCg5iWaH5WuIid2q5\nG/41zx+GiPeFLvui/ibBzoRr572UWT7Jx5vf4SE4EqOAAGWhmm7cyO9qxrwk\nvprvxGif5xsEXWoyJe4RGQdDurt2DK6jw67ZfKOF89Aj7x85SvnPo88MgcUb\nuNHz6hTw+2csgVOXQuy0oNuJgc1WJKFdGSCah1tK9YqXqXsOj/jnDQO9xWtj\ngQ+50D+Q/0seAGiSSw7OKHvj8a3QmRSP9cRMnUuxwdu+P6RyA1T8Rsc4VmGW\nT+vtYqVDo3cy4KVb0/f2hQXRblfZoEpeoseMzRb+xCj4ZT1bLG1EGoYKfm13\nZeecbD9ixzkEFxqwlW8EpchMqCypdamOIffcLR42fS1aHNwqzLeIUU8gbndA\nVXn/ab8vq/QLz/ys2lyfOb2Tisr0qmuUi0uJ0mqfhDCjorABt/PyeGuWz7/h\nJ06hgZFvzd6hLFW6gDbxK3xM58aTXTazGRNC+Sw+DPiMeWqyV6oVfTNaCR2t\n0R3aWNT3wfl+pp7lgQdgrzfyZMbRv6D310SHG4O0zAfVT8Bm4GoBtidmcvjP\nf2AfegxpS7ND+dXWcYTw6WsgoBsWm/K7kyNgMPk2Js6ZYT81ARvCWEqeTszg\nRHtyou6Lw6Yw5k3IajeG5GApgwya8jO8aK6xCH5tAnpVAJEzz0f1Vxw3Nn7y\n8w9ygj6WCS4le1NiQ/yvtq5C/dbKg6Zvr6Zc5syDXs5LdiaqBqeW6a2Hf1Oz\noGowVYpYwnMmDvpVIMHf/o6X3psYtEnNq45FOwUyD20X5BgyH8t3akYMDwnC\n4yzcfJs9JH9uICvUotNkhQUNDqFtFbuc5yCC+4VmkPDKCNdR4Gpb0IT1H+Ij\nSWEwYd7tqsKEI+0seihQpq/pC/1FJPfQUZ08jCN1Uka6AXX5XIJc7+AJm3sv\npcJQEdEoEVAdJs4aixRGsEYPMQt9NFIwrwgAkcjhzTZwoZojOpBELqNT2vka\nfAAT4u+8FmBuziM8ic5vPRXYHqQ3W10WA08Uh/y8zf1yV4hRuIdZk2u8feIg\n+xZVRIzZMZjrdMR635djwd4V3QIT4CciBPakbjmfWeIsphHIsbKWPI15sLjs\npeZZB0txCbuQdDR80J8VIvAtLnVMgp5+KkkfUrimKoWwr/XF0miufWfPSHT8\ngg7trsvBxX2Qvrjl11rVCY6NkqeNCbLqIEXiF/BWTlVBsjmJzgtUpoVx+Gdq\n5ERqdCOvv3TS8V2TURHyD8dyiGBaXQ4=\n",
    "name_suffix": "_pilot-2022"
  },
  "published": true,
  "audit_log": "[{\"changed_at\":\"2022-08-23T20:55:42.189+00:00\",\"changed\":[\"cloned from \\\"CSA U7L5-L4b_2022\\\"\"],\"cloned_from\":\"CSA U7L5-L4b_2022\"}]"
}]]></config>
</Javalab>
