<Javalab>
  <config><![CDATA[{
  "game_id": 68,
  "created_at": "2023-01-11T21:17:56.000Z",
  "level_num": "custom",
  "user_id": 16889,
  "properties": {
    "encrypted": "false",
    "long_instructions": "The <code style=\"background-color: #ececec; color: black; font-weight: bold;\">ArrayPainter</code> class declares an instance variable for a 1D array of <code style=\"background-color: #ececec; color: black; font-weight: bold;\">String</code> values to store the paint colors an <code style=\"background-color: #ececec; color: black; font-weight: bold;\">ArrayPainter</code> object can use to paint with and an instance variable for a 1D array of <code style=\"background-color: #ececec; color: black; font-weight: bold;\">int</code> values to store the amount of paint an <code style=\"background-color: #ececec; color: black; font-weight: bold;\">ArrayPainter</code> object has for each paint color.\r\n\r\n✅ **TO DO:** In <code style=\"background-color: #ececec; color: black; font-weight: bold;\">NeighborhoodRunner.java</code>, instantiate an <code style=\"background-color: #ececec; color: black; font-weight: bold;\">ArrayPainter</code> object with a 1D array that stores **12** <code style=\"background-color: #ececec; color: black; font-weight: bold;\">String</code> values and a 1D array that stores **12** <code style=\"background-color: #ececec; color: black; font-weight: bold;\">int</code> values.\r\n\r\n1. Declare and initialize a 1D array to store **12** <code style=\"background-color: #ececec; color: black; font-weight: bold;\">String</code> values.\r\n\r\n2. Declare and initialize a 1D array to store **12** <code style=\"background-color: #ececec; color: black; font-weight: bold;\">int</code> values.\r\n\r\n3. Instantiate an <code style=\"background-color: #ececec; color: black; font-weight: bold;\">ArrayPainter</code> object by passing the 1D arrays as the arguments to the constructor.\r\n\r\n4. Print the <code style=\"background-color: #ececec; color: black; font-weight: bold;\">ArrayPainter</code> object.\r\n\r\n<div style=\"background-color: #E0D1EC; border: 1px solid #9660bf; border-radius: 5px; font-size: 1.1em; padding: 15px; margin-bottom: 10px;\">\r\n💡 <strong>TIP:</strong> Check out the <strong>Help & Tips</strong> tab ⬆️ for help with declaring and initializing a 1D array.\r\n</div>\r\n\r\n## ***Don't forget to . . .***\r\n\r\n![](https://images.code.org/eb2c8910ae2e150019b8e2177405d4af-image-1668191576873.png)",
    "mini_rubric": "false",
    "submittable": "false",
    "hide_share_and_remix": "true",
    "csa_view_mode": "neighborhood",
    "reference_links": [
      "/courses/csa-2023/guides/one-dimensional-arrays"
    ],
    "display_name": "Paint Colors and Units",
    "bubble_choice_description": "Create a 1D array of type `String` to store the paint colors an `ArrayPainter` object can use to paint with and a 1D array of type `int` to store the amount of paint an `ArrayPainter` object has for each paint color.",
    "thumbnail_url": "https://images.code.org/f7140bfb443850edb6c1409bb8c5304f-Screenshot 2023-01-13 142514.png",
    "serialized_maze": [
      [
        {
          "tileType": 1,
          "value": 0,
          "assetId": 0
        },
        {
          "tileType": 1,
          "value": 0,
          "assetId": 0
        },
        {
          "tileType": 1,
          "value": 0,
          "assetId": 0
        },
        {
          "tileType": 1,
          "value": 0,
          "assetId": 0
        },
        {
          "tileType": 1,
          "value": 0,
          "assetId": 0
        },
        {
          "tileType": 1,
          "value": 0,
          "assetId": 0
        },
        {
          "tileType": 1,
          "value": 0,
          "assetId": 0
        },
        {
          "tileType": 1,
          "value": 0,
          "assetId": 0
        }
      ],
      [
        {
          "tileType": 1,
          "value": 0,
          "assetId": 0
        },
        {
          "tileType": 1,
          "value": 0,
          "assetId": 0
        },
        {
          "tileType": 1,
          "value": 0,
          "assetId": 0
        },
        {
          "tileType": 1,
          "value": 0,
          "assetId": 0
        },
        {
          "tileType": 1,
          "value": 0,
          "assetId": 0
        },
        {
          "tileType": 1,
          "value": 0,
          "assetId": 0
        },
        {
          "tileType": 1,
          "value": 0,
          "assetId": 0
        },
        {
          "tileType": 1,
          "value": 0,
          "assetId": 0
        }
      ],
      [
        {
          "tileType": 1,
          "value": 0,
          "assetId": 0
        },
        {
          "tileType": 1,
          "value": 0,
          "assetId": 0
        },
        {
          "tileType": 1,
          "value": 0,
          "assetId": 0
        },
        {
          "tileType": 1,
          "value": 0,
          "assetId": 0
        },
        {
          "tileType": 1,
          "value": 0,
          "assetId": 0
        },
        {
          "tileType": 1,
          "value": 0,
          "assetId": 0
        },
        {
          "tileType": 1,
          "value": 0,
          "assetId": 0
        },
        {
          "tileType": 1,
          "value": 0,
          "assetId": 0
        }
      ],
      [
        {
          "tileType": 1,
          "value": 0,
          "assetId": 0
        },
        {
          "tileType": 1,
          "value": 0,
          "assetId": 0
        },
        {
          "tileType": 1,
          "value": 0,
          "assetId": 0
        },
        {
          "tileType": 1,
          "value": 0,
          "assetId": 0
        },
        {
          "tileType": 1,
          "value": 0,
          "assetId": 0
        },
        {
          "tileType": 1,
          "value": 0,
          "assetId": 0
        },
        {
          "tileType": 1,
          "value": 0,
          "assetId": 0
        },
        {
          "tileType": 1,
          "value": 0,
          "assetId": 0
        }
      ],
      [
        {
          "tileType": 1,
          "value": 0,
          "assetId": 0
        },
        {
          "tileType": 1,
          "value": 0,
          "assetId": 0
        },
        {
          "tileType": 1,
          "value": 0,
          "assetId": 0
        },
        {
          "tileType": 1,
          "value": 0,
          "assetId": 0
        },
        {
          "tileType": 1,
          "value": 0,
          "assetId": 0
        },
        {
          "tileType": 1,
          "value": 0,
          "assetId": 0
        },
        {
          "tileType": 1,
          "value": 0,
          "assetId": 0
        },
        {
          "tileType": 1,
          "value": 0,
          "assetId": 0
        }
      ],
      [
        {
          "tileType": 1,
          "value": 0,
          "assetId": 0
        },
        {
          "tileType": 1,
          "value": 0,
          "assetId": 0
        },
        {
          "tileType": 1,
          "value": 0,
          "assetId": 0
        },
        {
          "tileType": 1,
          "value": 0,
          "assetId": 0
        },
        {
          "tileType": 1,
          "value": 0,
          "assetId": 0
        },
        {
          "tileType": 1,
          "value": 0,
          "assetId": 0
        },
        {
          "tileType": 1,
          "value": 0,
          "assetId": 0
        },
        {
          "tileType": 1,
          "value": 0,
          "assetId": 0
        }
      ],
      [
        {
          "tileType": 1,
          "value": 0,
          "assetId": 0
        },
        {
          "tileType": 1,
          "value": 0,
          "assetId": 0
        },
        {
          "tileType": 1,
          "value": 0,
          "assetId": 0
        },
        {
          "tileType": 1,
          "value": 0,
          "assetId": 0
        },
        {
          "tileType": 1,
          "value": 0,
          "assetId": 0
        },
        {
          "tileType": 1,
          "value": 0,
          "assetId": 0
        },
        {
          "tileType": 1,
          "value": 0,
          "assetId": 0
        },
        {
          "tileType": 1,
          "value": 0,
          "assetId": 0
        }
      ],
      [
        {
          "tileType": 1,
          "value": 0,
          "assetId": 0
        },
        {
          "tileType": 1,
          "value": 0,
          "assetId": 0
        },
        {
          "tileType": 1,
          "value": 0,
          "assetId": 0
        },
        {
          "tileType": 1,
          "value": 0,
          "assetId": 0
        },
        {
          "tileType": 1,
          "value": 0,
          "assetId": 0
        },
        {
          "tileType": 1,
          "value": 0,
          "assetId": 0
        },
        {
          "tileType": 1,
          "value": 0,
          "assetId": 0
        },
        {
          "tileType": 1,
          "value": 0,
          "assetId": 0
        }
      ]
    ],
    "encrypted_exemplar_sources": "TFI5x/qrTvxmY5LlF2G9AbTyYs9BXqTjMJzhHtMrLQA95KIRYXiBsJxp2JJW\nB9QYKUNN+pEKb0Zrxv4C7MQz4lFp3diEeu4xfkpu/wDRaIrIqoz4lx7vMu4M\nENoeGRz85htDhfZ0X05yxPiBeCUX4JRYatNByK6M4Cm53f4cm4b0GhpT+8Z5\nliP/fBNDGxCnUUSKvTW4XbCpDycVdwT9g5cMd4JWbpl0AcTfiHqAfuMO0AB0\nuSZu+3+XGLa6zFQZM4uNCZFJe8RNvxvIdd84V4AOlCSTF2oLYxTpozUk3YHk\nY3pvV6TDh8/Ev7VEskbiBzKd4NiMAAgZL4ACRMlJbg8a3qr25IP0ac6exlIL\ntl1zlrVQHPnQsJWSyRJm9wXvCU1nu9G8WPXzAYQm36ioLZt243exN/i0IU1k\n2fL8HVnRMNuC8U1PFQG46WtWjuqrz3EDenQZBuJHZIjMJYBBwHPYU9eXfL8v\n8zAnF7Mk/n/FqniwSlzIy8CZGzebSbizg2LvJE7yw/fpdLjjIYJvTO0KpLLR\nkeNVj1S//f4/sI7CwoDXjlB1YZCT3xwI6cAKD42mRsZzMvmAj1I2QQicRfzg\nhCEey5C6O8y0ZQjgtPKFQDZp2Bh2XijAusMiEVS+YlW7SF3jCPCKXfw6fdV4\nt0h7eqmITpNOA9K5nxdZ+RUOBxhS1R5ecNSQ46bxNvHQolX0vpIg2Dl1TewM\ntPsGvaMPB46BK+5jP0+rMh6hz8kYUnmV6MXtH0IIk1fjM1WTEb+lCsLqFMcP\nkWfKflVzxdsIxTZiGtO9GdbCR39A50e6Otr7cZX78UmwAji4Iq1oWFJSFtUT\nT515K6hj8FvtW3/1CzeALAUQjlcSKQf1zW8txl8nbUOdsTi6OWcAuSBcc1pj\nKBDLtLGaOxW2w1rqCLEUt5TLGqcDXQWorU94wE6KyLj7lm2xp+3T+MzFAvRT\nunfq7VvOnCzaXkdq1bsALC2XeExEDp3RYkoLvS7Gaq8wOjl0zZHIC4gpI8hp\ndUMGkjwmlzy+0b7VgxyTc6yWtLPei5A+jZO4ibXVGg6Q29z/nqh9BFEzZzfx\nAEDBGGgCT+Mo0UpUOQi9MjEVlyDfciPfqrRsgbKmT6UwjwAeOZ8mJMRhzXKw\nMxhPdbIqsFydI5+N1D37bFfWkz9jgqfi0oWxNu+/xZSDjaLYCH9Hlhxi5HN5\nGqX88/N0nh5d3Ll8NMMWZwP902kYPHOAVyNACCAYRDqdu11f2ZcOoS0JI5rc\nad0BdvC4O8+cAiqc/KPFnhW6GsEDiqwy6Ihzox5rxZV2+PzZU53yTSCKkXOZ\nkteG7g8OpCoXwzS9A5l1zjX8JSQu9oMxF+KKFDyP2GAD//iVsuhBZsuKG69f\n3gvXpYiQVgjXmHa4LTwS5v2nfALeH3i3eVI8aH9JmGlFW8ZEttJrfxfcUxAA\n9aVcXSpLt8X8fQZGfIHnRKEOd0RMzkviy19ew9IxR6DHtcc0vTGfnkgRN8rj\nB1dlwO1dk3iBhKe5FyKeCyCVmxT3CtQeHIntK+3TF5wFjYG91evXui4kfjKz\nPzL9n9mc3xzJKdX5pD/aRVG0KPHpmhspuS6PEeGw+nRBlV+fsaxxTjx87kFF\nuRBuTadtWzW6YJaWaf3Z9mdEmkcbsEbFFx6yWWfRBFimi3bArCMisYwhy5Ll\nzzNz18t2TVcFPBWpyStNm8+MQ+0xGndYD+lZ6kT+BgeORrJate0W8aRkuy+N\nDkEYAseKKlEoaXB4Dzp0Str+LP8GZMWKBs8MMLO5tCCkRd6zZRl8pHajJqEV\nsQIZOLw1Fxnph4w90Fl/JZ4ER+jxJl+xPDzTyUIYueAQy4Ng+iHyvnzif2aG\nbLse1Khggcd78nIVRRCDLy0HGKpBz0dD6kK1fms0YC2efu7N/OuiV5E0UXL5\nHQ3CncIPoO2OuZUNCjgse8KuGoBOoSIpk/iX+auV1fg4UkUhOEQ3POpxrOxm\n5iaVtRxK9DerFGqgGWdc1XFjt9OxABPysxo4m/oQ6iBhKMC5mcXNyP3IlhbS\nP0PmmKsw8LH11x062BG0/CtX2HaHQFckvia/DYlm9Y/C1GPjLwWn8N3PprB4\naA8Ucl1sPrkslooNUDRFMqC8NfSJz/Lz2JtbZ07zFEqbobmWlXsANDVQdMeJ\n5584KoxzwMFtLKMIMvQ/1Lc4a63yuROjQZHv2hy10ang13OUEJrDuqOWB4Vm\nuQZiZrLi96c3TwLvmnqT+kQnRL3s1D5bSRltgyrxrADKQo7vIir8znnqePfG\ns2CVEtjiW/IakdkBL5sJDCppwf57VtfGbQAMPHivrEqPUJzIb86qNpwaM5Rd\nl4g2ykHW8NRalRb8Uweaqam7zF8Tumnt68+tBrUUB+WncKZoHo+pFzcXyBoq\nzZB74HHnb7ZC5R1hMNAH4LF1A8WXXQZ1ptSjOpSoAc9D6sAaiShUFvUnl80T\n6XHzvmd9wGazsEslqnWXohW+ZgkTXeS52pOgZpdUdokmCF60iM2cFxt+CAKO\nj1xZQNV9WwhIgGHFaDK+L0iRAdiRwGVtuIq32gJLnPxIwlQUGz/jCMBp+WMk\nnwnTzocaMqobfHTHEFS/xka+oq7mUCDH/fwLCk70E07z/3YJOOYfzO4FEYlZ\nxTnde/RwgN4gb/LXlgb2JTSUQH7JUizByrcN/qT1aMsor7u2\n",
    "video_key": "csa_one_dimensional_arrays",
    "encrypted_validation": "o7yQ3e399OohFBEo5QSD4f1H0EWTM2dBUjvGDs8EtDwIn7V7U1lUSew53QYj\nJEt5bpzLkjd8k2grfFyDnnXttNl0AMOdTK5tiAnss1kbKlG9EUmcX6TsBi3R\nYM/EzXTNJj+V9kmxpia6RIuarID9rfYTZu/zCqdZ4UH7o0z+hbTWw9Uokjk6\n3lGuq3J1SvmJFrvVqvT5s8Vr+R0F0+lElzmxUmBPAt9DSJRoVi6R5H2FTbCf\nOHOysGnsDiNvNkUVQ662eTHCpO6SMFkaimLOVvfi56LLxeEqTEaXiJGHZbxo\nHicjtj0khxHsd938E3FzdmtFUfpRQsD5xPwFSpoCJuxKlx+Z12YmUoqhexam\nSsMNwoeCi/5bMvi/YaWYH/9t3Ce9Gi8oIVuPL5uuoew11lcuxOXqa+4SOOx6\n/BgFYYjI7EA25Rrqf4/DuecLNF+ktQA+ZCC22V/GFMhF8aC3N0A2UOSJAieY\n0CUZZzt4WrfNwVJcY3JqHrX9nfc2x3kZC2D+REJQQTCSicPhmgleQxuCNezt\nBElVJk856aJIgPqFHgEl38d0zqo0XiWmrJwEd52488lQj9cMKw1ty75ume1L\nDLP1ar5Ztyzvv8M54FwfHpOQjaUrhkbX+HiayGGHKSWRjTEbvPEa9H1BvfdY\nRR5Cpn9QLyu0eeLpHVyokYd6qe2m5KZ+Ox3WxWksCPvqhS9jniLpLOfSWcoe\nYQ4lw65oPOIelZGtDl/0XwKwkHv/oycfC86fVTiIPShzqPX5lpWUyxP57XeP\n8jw5F1NuucbV0zPVBnc40Ah9OGflKImC39dA9zwW+YQdT22A/OPlIxYODQ60\n7+IGSn3YymYNy5d0+OROkOqX6xmPD1NiY2vuGDqq3H8U1xvbW9Al2l8YUwDO\ndIUpB5x7EuGQk6QKLdOAFGCbnCzL3udBaEDfavVqsnM3IzI3oyF2TPkBnHHy\n03+LcMhbYXbCpKDR63EKKTiY+OE0BfMb/u/kjCC8GZhFzs3YQR2oR4137mpX\nYq7avHYJ0EpUqriQkhJZZOWGEd1HPNc8OvnMCriMGg9oUPWmsM7x4RgC8vOf\nN0QDPc/cgxHZ5yWhgmPKEfMThANmSpAm9awHOROY40cZ/oSDj8NKdEuwIGAG\nLRyUgb6+1e0ov+ZbsGgY7qCNosqQesVb/0owosueofpqJI9TCzk9k9hV3JsA\nw6pREYSDSpM3HQUY6WUwijAl5iAq1GNLI+/SFAtY2Uvl0vfHuMVxmHyc9lNO\nXr/1x/RD39MhEsxuNzuWl3m+t5F05tBFM9rHz7iLJHF9shVaFacJdKViQPYv\nUmhnecB/ACN+z9InktaUZcAhQC/ZHzQXQriHLdijSQmRm7DnxVdiCv5cMq0V\nOdN1KfIMFmxuZMqWDz1mVj5cT1YjYs7adtlu8UktYNitmbpr5nJiMrveIfJB\nCLYhHgMZdwwZ2BIZB1jQAL54pdmhcJ/uGJzOxL3vtMmcJhgB8J3mBc9ZK4+l\nsw8xJCUAW7sSc6OtTYkfVYGRPMxwyRZ/ErZZlLzatIf2txj7fEUVzl9DcCIO\nVgNtzqv1qg2AJP8xeUMixkn1Z9WJqWMiLfsn7EcqvTiTdksmtGmVdqcmjR8+\n+mBfBzxgnpEGYA8LvDDUp7SkAMxfc6l/xsuVJMQySIy8zzoj79wehpr7iP6e\ntClU9tAMVkgsY4UoYXWUqcku9CjyUu+EX9NORss9ZnRnfsEb5eocq45aIItL\neUdxZKKRQudTEJdD6JRgOw882ZqeqScf7w9542B56CciGvEhUGfxjwWK18k4\nlScLgPMtnKOVhqoJ8A8WGLaz1sB2O5paiP0uW+MEdIZnpj5h7k2q0xvJLIWZ\nKc/j190B7/KtJnUgAqYQ/wKUMKuPB8hC1FWAyJoqPYpKrgduZgQB4gQllvNk\nz0GkkslI0poyXzH0fUAdqCDiFI146zZ6tc4nIcuw8EGW27u/b1n42FTnGNuc\nIYC6v+8loqIjzK2tKnLpUypkwuhhfBDotEfaQmmBehApkCp+8oY/OxyS0xF8\nY2P4/4wOt0JEQaKBlV1Pu4I7Jl3VkrxUeXOi48DuFuWKp20Dc2NOmCk3Z1LP\nxys4Bam6noOKPWJKbsjFC9nbAGxXzIoB2VkNz8wJGJVIa5Pnn89UytmQIFbu\n73zhy5Tp69/jgstKbvzgZv/XGc5VVEVy574tGkc8zyiJ0CyO+5JMj0eIELeZ\nBLRD4bWenvl8gEm4iEHSmFBInKLBwjMWxeH9zmlzgypM6NOjOdhJfW8kfm7v\nTui6/kqUAj2yohnhFcOl3RSX7vYbsk0b/WyvhKNnL5RdE9OL7IVK5r6szDPu\nXaeFxYEXmk1JBpPXsk4w29keTHdlrwDw1xcnAMoWp0tj/Ot6eqzaDpjVAhTc\n6B9+4LkLSnVNjOxwQQdK3KzfbfmVL77j+XNhnDftx/XxEYujJgBkPNkeZAwP\nLW+J+wgoUv2eKoCRXpN0X76L/LYZ/ca7YVmTBvafSbY9oJbCJ09/+S+EwBzQ\nDsPaJkKAse+aKAUdhW51/uTCHvBTOD/y7CNr/kvnQIr4OdWSKD3Sp9+DzeOl\nRXclv7QMj+ArdStp+0kmccGa+USUsiOu/TXjTNHlPh5E0BXuO2lHFLvxWTup\nyHfEKvynzS2v7kuBXl7Ymu+EvlFoxFqz6qEy7A1o41Bf9ovO\n",
    "start_sources": {
      "NeighborhoodRunner.java": {
        "text": "import org.code.neighborhood.*;\n\npublic class NeighborhoodRunner {\n  public static void main(String[] args) {\n\n    /* ----------------------------------- TO DO -----------------------------------\n     * ✅ Declare and initialize a 1D array to store 12 String values\n     * and a 1D array to store 12 int values use them to instantiate an\n     * ArrayPainter object. Then, print the ArrayPainter object.\n     * -----------------------------------------------------------------------------\n     */\n    \n    \n\n\n\n    \n    \n  }\n}",
        "isVisible": true,
        "tabOrder": 0
      },
      "ArrayPainter.java": {
        "text": "import org.code.neighborhood.*;\n\n/*\n * Represents a Painter that has a 1D array of paint colors\n */\npublic class ArrayPainter extends Painter {\n\n  private String[] paintColors;    // The 1D array of paint colors\n  private int[] paintUnits;        // The 1D array of paint units\n\n  /*\n   * Sets x, y, direction, and paint to the specified values \n   * and initializes paintColors to the parameter paintColors\n   * and paintUnits to the parameter paintUnits\n   */\n  public ArrayPainter(int x, int y, String direction, int paint, String[] paintColors, int[] paintUnits) {\n    super(x, y, direction, paint);\n    this.paintColors = paintColors;\n    this.paintUnits = paintUnits;\n  }\n\n  /*\n   * Returns a String containing the number of paint colors in the 1D array \n   * paintColors and the number of paint units in the 1D array paintUnits\n   */\n  public String toString() {\n    return \"Number of Paint Colors: \" + paintColors.length + \"\\nNumber of Paint Units: \" + paintUnits.length;\n  }\n  \n}",
        "isVisible": true,
        "tabOrder": 1
      }
    }
  },
  "published": true,
  "audit_log": "[{\"changed_at\":\"2023-01-11T21:17:56.883+00:00\",\"changed\":[\"cloned from \\\"CSA U3L1-L7c_2023\\\"\"],\"cloned_from\":\"CSA U3L1-L7c_2023\"},{\"changed_at\":\"2023-01-11 21:17:59 +0000\",\"changed\":[],\"changed_by_id\":16889,\"changed_by_email\":\"jamila+lb@code.org\"},{\"changed_at\":\"2023-01-13 21:34:46 +0000\",\"changed\":[\"long_instructions\",\"contained_level_names\"],\"changed_by_id\":16889,\"changed_by_email\":\"jamila+lb@code.org\"},{\"changed_at\":\"2023-01-13 23:18:13 +0000\",\"changed\":[\"long_instructions\",\"encrypted_examples\"],\"changed_by_id\":16889,\"changed_by_email\":\"jamila+lb@code.org\"},{\"changed_at\":\"2023-01-14 00:29:08 +0000\",\"changed\":[\"csa_view_mode\",\"encrypted_examples\"],\"changed_by_id\":16889,\"changed_by_email\":\"jamila+lb@code.org\"},{\"changed_at\":\"2023-01-14 00:33:58 +0000\",\"changed\":[\"start_sources\"],\"changed_by_id\":16889,\"changed_by_email\":\"jamila+lb@code.org\"},{\"changed_at\":\"2023-01-14 00:36:17 +0000\",\"changed\":[\"start_sources\"],\"changed_by_id\":16889,\"changed_by_email\":\"jamila+lb@code.org\"},{\"changed_at\":\"2023-01-14 00:38:46 +0000\",\"changed\":[\"start_sources\"],\"changed_by_id\":16889,\"changed_by_email\":\"jamila+lb@code.org\"},{\"changed_at\":\"2023-01-14 00:38:49 +0000\",\"changed\":[],\"changed_by_id\":16889,\"changed_by_email\":\"jamila+lb@code.org\"},{\"changed_at\":\"2023-01-14 00:38:57 +0000\",\"changed\":[],\"changed_by_id\":16889,\"changed_by_email\":\"jamila+lb@code.org\"},{\"changed_at\":\"2023-01-14 00:39:13 +0000\",\"changed\":[\"start_sources\"],\"changed_by_id\":16889,\"changed_by_email\":\"jamila+lb@code.org\"},{\"changed_at\":\"2023-01-14 00:39:17 +0000\",\"changed\":[\"start_sources\"],\"changed_by_id\":16889,\"changed_by_email\":\"jamila+lb@code.org\"},{\"changed_at\":\"2023-01-18 19:25:52 +0000\",\"changed\":[\"hide_share_and_remix\",\"serialized_maze\"],\"changed_by_id\":16889,\"changed_by_email\":\"jamila+lb@code.org\"},{\"changed_at\":\"2023-02-02 15:23:42 +0000\",\"changed\":[\"serialized_maze\",\"contained_level_names\"],\"changed_by_id\":16889,\"changed_by_email\":\"jamila+lb@code.org\"},{\"changed_at\":\"2023-03-22 15:51:23 +0000\",\"changed\":[\"long_instructions\",\"serialized_maze\",\"contained_level_names\"],\"changed_by_id\":16889,\"changed_by_email\":\"jamila+lb@code.org\"},{\"changed_at\":\"2023-04-17 13:26:37 +0000\",\"changed\":[\"encrypted_validation\"],\"changed_by_id\":16889,\"changed_by_email\":\"jamila+lb@code.org\"},{\"changed_at\":\"2023-04-17 13:26:46 +0000\",\"changed\":[],\"changed_by_id\":16889,\"changed_by_email\":\"jamila+lb@code.org\"},{\"changed_at\":\"2023-04-17 13:26:47 +0000\",\"changed\":[],\"changed_by_id\":16889,\"changed_by_email\":\"jamila+lb@code.org\"},{\"changed_at\":\"2023-04-17 13:35:41 +0000\",\"changed\":[\"start_sources\"],\"changed_by_id\":16889,\"changed_by_email\":\"jamila+lb@code.org\"},{\"changed_at\":\"2023-04-17 13:36:32 +0000\",\"changed\":[],\"changed_by_id\":16889,\"changed_by_email\":\"jamila+lb@code.org\"},{\"changed_at\":\"2023-04-17 13:39:18 +0000\",\"changed\":[],\"changed_by_id\":16889,\"changed_by_email\":\"jamila+lb@code.org\"},{\"changed_at\":\"2023-04-17 13:39:19 +0000\",\"changed\":[],\"changed_by_id\":16889,\"changed_by_email\":\"jamila+lb@code.org\"},{\"changed_at\":\"2023-04-17 13:39:30 +0000\",\"changed\":[\"start_sources\"],\"changed_by_id\":16889,\"changed_by_email\":\"jamila+lb@code.org\"},{\"changed_at\":\"2023-10-25 14:07:01 +0000\",\"changed\":[\"start_sources\"],\"changed_by_id\":18603,\"changed_by_email\":\"erik+levelbuilder@code.org\"},{\"changed_at\":\"2023-10-25 14:07:45 +0000\",\"changed\":[\"start_sources\"],\"changed_by_id\":18603,\"changed_by_email\":\"erik+levelbuilder@code.org\"}]"
}]]></config>
</Javalab>
