<Javalab>
  <config><![CDATA[{
  "properties": {
    "encrypted": "false",
    "mini_rubric": "false",
    "submittable": "false",
    "hide_share_and_remix": "false",
    "csa_view_mode": "neighborhood",
    "serialized_maze": [
      [
        {
          "tileType": 1,
          "value": 0,
          "assetId": 0
        },
        {
          "tileType": 1,
          "value": 0,
          "assetId": 0
        },
        {
          "tileType": 1,
          "value": 0,
          "assetId": 0
        },
        {
          "tileType": 1,
          "value": 0,
          "assetId": 0
        },
        {
          "tileType": 1,
          "value": 0,
          "assetId": 0
        },
        {
          "tileType": 1,
          "value": 0,
          "assetId": 0
        },
        {
          "tileType": 0,
          "value": 0,
          "assetId": 285
        },
        {
          "tileType": 0,
          "value": 0,
          "assetId": 48
        }
      ],
      [
        {
          "tileType": 0,
          "value": 0,
          "assetId": 10
        },
        {
          "tileType": 0,
          "value": 0,
          "assetId": 8
        },
        {
          "tileType": 0,
          "value": 0,
          "assetId": 6
        },
        {
          "tileType": 1,
          "value": 0,
          "assetId": 0
        },
        {
          "tileType": 1,
          "value": 0,
          "assetId": 0
        },
        {
          "tileType": 1,
          "value": 0,
          "assetId": 0
        },
        {
          "tileType": 0,
          "value": 0,
          "assetId": 285
        },
        {
          "tileType": 0,
          "value": 0,
          "assetId": 48
        }
      ],
      [
        {
          "tileType": 0,
          "value": 0,
          "assetId": 11
        },
        {
          "tileType": 0,
          "value": 0,
          "assetId": 9
        },
        {
          "tileType": 0,
          "value": 0,
          "assetId": 7
        },
        {
          "tileType": 1,
          "value": 0,
          "assetId": 0
        },
        {
          "tileType": 1,
          "value": 0,
          "assetId": 0
        },
        {
          "tileType": 0,
          "value": 0,
          "assetId": 104
        },
        {
          "tileType": 0,
          "value": 0,
          "assetId": 105
        },
        {
          "tileType": 0,
          "value": 0,
          "assetId": 106
        }
      ],
      [
        {
          "tileType": 1,
          "value": 0,
          "assetId": 0
        },
        {
          "tileType": 1,
          "value": 0,
          "assetId": 0
        },
        {
          "tileType": 1,
          "value": 0,
          "assetId": 0
        },
        {
          "tileType": 0,
          "value": 0,
          "assetId": 46
        },
        {
          "tileType": 0,
          "value": 0,
          "assetId": 46
        },
        {
          "tileType": 0,
          "value": 0,
          "assetId": 112
        },
        {
          "tileType": 0,
          "value": 0,
          "assetId": 113
        },
        {
          "tileType": 0,
          "value": 0,
          "assetId": 114
        }
      ],
      [
        {
          "tileType": 1,
          "value": 0,
          "assetId": 0
        },
        {
          "tileType": 1,
          "value": 0,
          "assetId": 0
        },
        {
          "tileType": 1,
          "value": 0,
          "assetId": 0
        },
        {
          "tileType": 1,
          "value": 0,
          "assetId": 0
        },
        {
          "tileType": 1,
          "value": 0,
          "assetId": 0
        },
        {
          "tileType": 0,
          "value": 0,
          "assetId": 120
        },
        {
          "tileType": 0,
          "value": 0,
          "assetId": 121
        },
        {
          "tileType": 0,
          "value": 0,
          "assetId": 122
        }
      ],
      [
        {
          "tileType": 1,
          "value": 0,
          "assetId": 0
        },
        {
          "tileType": 1,
          "value": 0,
          "assetId": 0
        },
        {
          "tileType": 1,
          "value": 0,
          "assetId": 0
        },
        {
          "tileType": 1,
          "value": 0,
          "assetId": 0
        },
        {
          "tileType": 1,
          "value": 0,
          "assetId": 0
        },
        {
          "tileType": 0,
          "value": 0,
          "assetId": 126
        },
        {
          "tileType": 0,
          "value": 0,
          "assetId": 127
        },
        {
          "tileType": 0,
          "value": 0,
          "assetId": 128
        }
      ],
      [
        {
          "tileType": 1,
          "value": 0,
          "assetId": 0
        },
        {
          "tileType": 1,
          "value": 0,
          "assetId": 0
        },
        {
          "tileType": 1,
          "value": 0,
          "assetId": 0
        },
        {
          "tileType": 1,
          "value": 0,
          "assetId": 0
        },
        {
          "tileType": 1,
          "value": 0,
          "assetId": 0
        },
        {
          "tileType": 0,
          "value": 0,
          "assetId": 132
        },
        {
          "tileType": 0,
          "value": 0,
          "assetId": 133
        },
        {
          "tileType": 0,
          "value": 0,
          "assetId": 134
        }
      ],
      [
        {
          "tileType": 1,
          "value": 0,
          "assetId": 0
        },
        {
          "tileType": 1,
          "value": 0,
          "assetId": 0
        },
        {
          "tileType": 1,
          "value": 0,
          "assetId": 0
        },
        {
          "tileType": 1,
          "value": 0,
          "assetId": 0
        },
        {
          "tileType": 1,
          "value": 0,
          "assetId": 0
        },
        {
          "tileType": 1,
          "value": 0,
          "assetId": 0
        },
        {
          "tileType": 0,
          "value": 0,
          "assetId": 285
        },
        {
          "tileType": 0,
          "value": 0,
          "assetId": 48
        }
      ]
    ],
    "start_sources": {
      "NeighborhoodRunner.java": {
        "text": "import org.code.neighborhood.*;\n\npublic class NeighborhoodRunner {\n  public static void main(String[] args) {\n\n    // Creates a Painter object\n    Painter silas = new Painter();\n\n    // Moves forward three spaces\n    silas.move();\n    silas.move();\n    silas.move();\n\n    // Turns right by turning left three times\n    silas.turnLeft();\n    silas.turnLeft();\n    silas.turnLeft();\n\n    // Moves forward two spaces\n    silas.move();\n    silas.move();\n\n    /* ---- 🔎 ADD YOUR CODE BELOW THIS LINE ---- */\n\n\n\n    \n    \n  }\n}",
        "isVisible": true,
        "tabOrder": 0
      }
    }
  },
  "game_id": 68,
  "created_at": "2022-10-12T16:02:25.000Z",
  "level_num": "custom",
  "user_id": 16889,
  "published": true,
  "audit_log": "[{\"changed_at\":\"2022-10-12 16:02:27 +0000\",\"changed\":[\"encrypted_examples\"],\"changed_by_id\":16889,\"changed_by_email\":\"jamila+lb@code.org\"},{\"changed_at\":\"2022-10-12 17:03:52 +0000\",\"changed\":[\"encrypted_examples\",\"csa_view_mode\"],\"changed_by_id\":16889,\"changed_by_email\":\"jamila+lb@code.org\"},{\"changed_at\":\"2022-10-12 17:04:52 +0000\",\"changed\":[\"encrypted_examples\",\"serialized_maze\"],\"changed_by_id\":16889,\"changed_by_email\":\"jamila+lb@code.org\"},{\"changed_at\":\"2022-10-12 17:06:19 +0000\",\"changed\":[\"encrypted_examples\",\"serialized_maze\"],\"changed_by_id\":16889,\"changed_by_email\":\"jamila+lb@code.org\"},{\"changed_at\":\"2022-10-12 17:09:03 +0000\",\"changed\":[\"encrypted_examples\",\"serialized_maze\"],\"changed_by_id\":16889,\"changed_by_email\":\"jamila+lb@code.org\"},{\"changed_at\":\"2022-10-12 17:14:06 +0000\",\"changed\":[],\"changed_by_id\":16889,\"changed_by_email\":\"jamila+lb@code.org\"},{\"changed_at\":\"2022-10-12 17:14:07 +0000\",\"changed\":[],\"changed_by_id\":16889,\"changed_by_email\":\"jamila+lb@code.org\"},{\"changed_at\":\"2022-10-12 17:17:42 +0000\",\"changed\":[],\"changed_by_id\":16889,\"changed_by_email\":\"jamila+lb@code.org\"},{\"changed_at\":\"2022-10-12 17:17:43 +0000\",\"changed\":[],\"changed_by_id\":16889,\"changed_by_email\":\"jamila+lb@code.org\"},{\"changed_at\":\"2022-11-04 13:03:49 +0000\",\"changed\":[\"start_sources\"],\"changed_by_id\":16889,\"changed_by_email\":\"jamila+lb@code.org\"},{\"changed_at\":\"2022-11-04 13:03:50 +0000\",\"changed\":[],\"changed_by_id\":16889,\"changed_by_email\":\"jamila+lb@code.org\"},{\"changed_at\":\"2022-11-15 03:14:39 +0000\",\"changed\":[\"start_sources\"],\"changed_by_id\":16889,\"changed_by_email\":\"jamila+lb@code.org\"},{\"changed_at\":\"2022-11-15 03:14:53 +0000\",\"changed\":[\"csa_view_mode\",\"serialized_maze\"],\"changed_by_id\":16889,\"changed_by_email\":\"jamila+lb@code.org\"},{\"changed_at\":\"2022-11-15 03:56:59 +0000\",\"changed\":[\"csa_view_mode\",\"serialized_maze\",\"encrypted_examples\"],\"changed_by_id\":16889,\"changed_by_email\":\"jamila+lb@code.org\"},{\"changed_at\":\"2022-11-15 16:12:12 +0000\",\"changed\":[\"start_sources\"],\"changed_by_id\":16889,\"changed_by_email\":\"jamila+lb@code.org\"},{\"changed_at\":\"2022-11-15 16:13:06 +0000\",\"changed\":[],\"changed_by_id\":16889,\"changed_by_email\":\"jamila+lb@code.org\"},{\"changed_at\":\"2022-11-15 16:17:03 +0000\",\"changed\":[\"start_sources\"],\"changed_by_id\":16889,\"changed_by_email\":\"jamila+lb@code.org\"}]"
}]]></config>
</Javalab>
