<Javalab>
  <config><![CDATA[{
  "game_id": 68,
  "created_at": "2024-01-12T20:43:47.000Z",
  "level_num": "custom",
  "user_id": 16889,
  "properties": {
    "encrypted": "false",
    "long_instructions": "Move, turn, and paint in a square until the <code style=\"background-color: #ececec; color: black; font-weight: bold;\">Painter</code> object runs out of paint.\r\n\r\n✅ **TO DO:** Implement the algorithm you wrote on the <a href=\"https://docs.google.com/document/d/1mSMNiQgmUwDa-9O0FbHdGZgftTihecXenOPaOL38BQs/edit?usp=sharing\" target=\"_blank\">**Writing Algorithms**</a> activity guide to have a <code style=\"background-color: #ececec; color: black; font-weight: bold;\">Painter</code> object move, turn, and paint in a square until it runs out of paint.\r\n\r\n<div style=\"background-color: #E0D1EC; border: 1px solid #9660bf; border-radius: 5px; font-size: 1.1em; padding: 15px; margin-bottom: 10px;\">\r\n💡 <strong>TIP:</strong> Check out the <strong>Help & Tips</strong> tab ⬆️ for help with writing a <code style=\"background-color: #ececec; color: black; font-weight: bold;\">while</code> loop.\r\n</div>\r\n\r\n📝 **COMMENT:** Be sure to add comments to note what your code does.\r\n\r\n🖥️ **TEST:** Test your program to check if your code achieves the expected result.\r\n\r\n🎉 **RUN:** Run your program to see the result of your code!\r\n\r\n## 🎯 Goal\r\n\r\n![](https://images.code.org/9cfc0ce8d7a6f22f6dd7186401e13e9b-image-1665706010720.gif)",
    "mini_rubric": "false",
    "submittable": "false",
    "hide_share_and_remix": "true",
    "csa_view_mode": "neighborhood",
    "display_name": "Paint in a Square",
    "bubble_choice_description": "Write an algorithm to move, turn, and paint in a square until the `Painter` object runs out of paint.",
    "serialized_maze": [
      [
        {
          "tileType": 1,
          "value": 0,
          "assetId": 0
        },
        {
          "tileType": 1,
          "value": 4,
          "assetId": 303
        },
        {
          "tileType": 1,
          "value": 0,
          "assetId": 0
        },
        {
          "tileType": 1,
          "value": 0,
          "assetId": 0
        },
        {
          "tileType": 1,
          "value": 0,
          "assetId": 0
        },
        {
          "tileType": 1,
          "value": 0,
          "assetId": 0
        },
        {
          "tileType": 1,
          "value": 0,
          "assetId": 0
        },
        {
          "tileType": 1,
          "value": 0,
          "assetId": 0
        }
      ],
      [
        {
          "tileType": 1,
          "value": 0,
          "assetId": 0
        },
        {
          "tileType": 1,
          "value": 0,
          "assetId": 0
        },
        {
          "tileType": 1,
          "value": 0,
          "assetId": 0
        },
        {
          "tileType": 1,
          "value": 0,
          "assetId": 0
        },
        {
          "tileType": 1,
          "value": 0,
          "assetId": 0
        },
        {
          "tileType": 1,
          "value": 0,
          "assetId": 0
        },
        {
          "tileType": 1,
          "value": 0,
          "assetId": 0
        },
        {
          "tileType": 1,
          "value": 0,
          "assetId": 0
        }
      ],
      [
        {
          "tileType": 1,
          "value": 0,
          "assetId": 0
        },
        {
          "tileType": 1,
          "value": 0,
          "assetId": 0
        },
        {
          "tileType": 1,
          "value": 0,
          "assetId": 0
        },
        {
          "tileType": 1,
          "value": 0,
          "assetId": 0
        },
        {
          "tileType": 1,
          "value": 0,
          "assetId": 0
        },
        {
          "tileType": 1,
          "value": 0,
          "assetId": 0
        },
        {
          "tileType": 1,
          "value": 0,
          "assetId": 0
        },
        {
          "tileType": 1,
          "value": 0,
          "assetId": 0
        }
      ],
      [
        {
          "tileType": 1,
          "value": 0,
          "assetId": 0
        },
        {
          "tileType": 1,
          "value": 0,
          "assetId": 0
        },
        {
          "tileType": 1,
          "value": 0,
          "assetId": 0
        },
        {
          "tileType": 1,
          "value": 0,
          "assetId": 0
        },
        {
          "tileType": 1,
          "value": 0,
          "assetId": 0
        },
        {
          "tileType": 1,
          "value": 0,
          "assetId": 0
        },
        {
          "tileType": 1,
          "value": 0,
          "assetId": 0
        },
        {
          "tileType": 1,
          "value": 0,
          "assetId": 0
        }
      ],
      [
        {
          "tileType": 1,
          "value": 0,
          "assetId": 0
        },
        {
          "tileType": 1,
          "value": 0,
          "assetId": 0
        },
        {
          "tileType": 1,
          "value": 0,
          "assetId": 0
        },
        {
          "tileType": 1,
          "value": 0,
          "assetId": 0
        },
        {
          "tileType": 1,
          "value": 0,
          "assetId": 0
        },
        {
          "tileType": 1,
          "value": 0,
          "assetId": 0
        },
        {
          "tileType": 1,
          "value": 0,
          "assetId": 0
        },
        {
          "tileType": 1,
          "value": 0,
          "assetId": 0
        }
      ],
      [
        {
          "tileType": 1,
          "value": 0,
          "assetId": 0
        },
        {
          "tileType": 1,
          "value": 0,
          "assetId": 0
        },
        {
          "tileType": 1,
          "value": 0,
          "assetId": 0
        },
        {
          "tileType": 1,
          "value": 0,
          "assetId": 0
        },
        {
          "tileType": 1,
          "value": 0,
          "assetId": 0
        },
        {
          "tileType": 1,
          "value": 0,
          "assetId": 0
        },
        {
          "tileType": 1,
          "value": 0,
          "assetId": 0
        },
        {
          "tileType": 1,
          "value": 0,
          "assetId": 0
        }
      ],
      [
        {
          "tileType": 1,
          "value": 0,
          "assetId": 0
        },
        {
          "tileType": 1,
          "value": 0,
          "assetId": 0
        },
        {
          "tileType": 1,
          "value": 0,
          "assetId": 0
        },
        {
          "tileType": 1,
          "value": 0,
          "assetId": 0
        },
        {
          "tileType": 1,
          "value": 0,
          "assetId": 0
        },
        {
          "tileType": 1,
          "value": 0,
          "assetId": 0
        },
        {
          "tileType": 1,
          "value": 0,
          "assetId": 0
        },
        {
          "tileType": 1,
          "value": 0,
          "assetId": 0
        }
      ],
      [
        {
          "tileType": 1,
          "value": 0,
          "assetId": 0
        },
        {
          "tileType": 1,
          "value": 0,
          "assetId": 0
        },
        {
          "tileType": 1,
          "value": 0,
          "assetId": 0
        },
        {
          "tileType": 1,
          "value": 0,
          "assetId": 0
        },
        {
          "tileType": 1,
          "value": 0,
          "assetId": 0
        },
        {
          "tileType": 1,
          "value": 0,
          "assetId": 0
        },
        {
          "tileType": 1,
          "value": 0,
          "assetId": 0
        },
        {
          "tileType": 1,
          "value": 0,
          "assetId": 0
        }
      ]
    ],
    "encrypted_validation": "P+fEJkEQW9FcZIoo/ak1FxE4B2sRnoI2gdxCZ3uRBZIAbRAei8xme74AEaCc\n4mVXlNC9HfExk6e/XR5VevLCyOK02o+N7axqnw82j1cDJJ6U4oN1vRmWvwI9\nScoRxN1Ed0szkwmdPgrwBVPSUFUFDxab0utTUHmrRuebHTL/e6I5M6HdOzO4\n8tdDkjGiJBiAGMMFFv0HckyOONK8vnhwqK3Y7ZemqS/XE50q+tRS5h4QyuF2\nCpLwA21qWvGQw3Nl6aePpQXFL0o6t363TXNdc42fdrtI+OWP6+YkEgoc9nsa\nRLrSyVQrUQJky2tZNhkzakGMaAwLFI9p6kJAJG+SvPReA4DVvyc0E2jzkTio\npWaMC7yiWVCDPv3/sJTSfxcO6bhO8wMdixlqg0LeIJVEc/y9e9IphvfZg/tO\nqC5JDPmgyYxe9RlerAr/Sl6Vy2YntgCIh1td7jYyQUXv7M1bEKvDvL2hLLlG\nqKIY7+crN7i2LYr9V3SVqoly+sLjdrc6Y7rzJlHjgLp6YjYB4EQQh6y2+c7T\nSmMJos1xsJI+SDWzOXhh3wGGkh/3+AAhYsAbbDSHBVtQRcMlMBt57Jj2/ai0\nNdGgii74jFAGvJmer1XzWjWuuKi485lhgbCW2Tvj2G0MUHczFodmC5yVc7Ob\nhu4OvxpNdFSTqtyJo7bCInw5vvLhfe8nGrEMxbQw6X9wnpqFiIOXQVWErBWj\nRdZtMsE/moVb+7MZ2o6YYyg5QmwCLmJq8fVGFBQioQ61gpDhWIv6Kl+5YUoZ\nlZosElfDi3yr362pJFusCT0HokzgZg50t6B7WmD/Jl2QYOD0nqWbJghXhcFY\nrqz5428tfGN43mb2B705nk1jGtGns76PLZJMOJIO0COM5xj/kfYcMzy5kRyO\nogxZvmMR5Ps6nxsmzSiJuMSidYunctirFFEd+WlyZ7RzitxB4zxMNJtiqmmI\n/UhmWuGOZMID6ApJugxAoejiWPiHh/9TCxlxmZTXvM6MC5ZW6N2YzvsQX6qp\nggiB4l8KslI0M62nxq3CjqWIXEwPH/+g4UWFofQ3HolihmriXVqj8oGPTxjk\nHEmAqg9le8S1eF1D/y/ERZ2N0hkDRI/gD53KY3z2/tDKWMkD1QWkPFUesDxR\n+3fpoJlEaVN/3ohfjbC/jvarrIBFpj4pqWyZrtY7hfkK+ALcw4gMIB1EVB2K\nGKhuh+3JDgz6J3GBXSL6CVjlzGNBzhE8V7boZo/TtjSTaZQfci57Vhs6PSbX\nxwp9AblbJf5qKFD/jQLaaNH/aK60SQbJNq2qjki5RraPpG2SdTp+Zge1gdnr\nsHLtNUcoZtn07Wvi9XwA1HlcAZjeIpbsj81lArd47SocEU0wzfTUnxV/Sn6j\nVyxznuep3grAJc7soTJEuRqpDUZ8KVioGKdvP8fTUswDb1o7CiKLDuGCnTK5\n2UuvH2839brQXZLkYp4iDkfa/8ORVXmO0aCpmXJ29EGFu012puuh57x5FwzB\nspPc7NAOZMYZDP/SeqRwRhZvyfkAIaOxbt0AuZRZufRsXeDDg4k7hpuPLsmn\nbc2P60Ky29NAlF4eYIq6YZ6UWWxW4quJHBuWgNVt8QfMbNVjY6+/Vo8gTAEi\nbtif/J3wbqraV03waLTmvA1pieL6WPXiWtHxIXPEWVNhWpzYkEFlk5xnHKEG\nvsp3C6sB0o/zvp1vzBoLJBpVu89YrHg1+u28Sg0++7vMHFOXvqHCiCnXWOII\n2plbc3sPrMTc3joDFTiUiqNMn3jfRL1wbsa9j/o5gShNiIieDEoCpPGePfGA\noojeS+tpL3mnRWoeJnbYXiqo28lD6H7NW+efGIkSOHu5qb1d7eDB2dNKaH6u\n/nOZgyJvOgIoNZGtpOOuNahJxnBW2q/D/OQs9Rv7PXl0+2EhrIp4ea6/yoPL\n+nrb4orRrtegXJeUnP7yKGLFjbDG37AbRaLShERXinChiPpXcsn+ptWnoVxS\nKdezALZ+fBk3sZ5ef/TFTN7tklfmJLbuuFLGzItpyOoQ0+J/KvMRMI7vzbJa\nVB/vVIti0sI3hZLHvGlRdyo7TlX8DiGqFl3IL4xZDllimxkgXO15cTe38s2a\niDtZo43A9keCTKtE2qnnwaD5GmNLp2fi2Pj/DhzyoUbCTKttwHgHCfCU+EVZ\ntFWPhQU+xr2iYhCTA1WNR7aA4di/z9zz8B2910xNrD3JtN3gK/zhT/sYGhJu\nLlnlkplAf1aRCGSXS3xenN0RvOWv7A/GHMamCn/dRzixndyLEneQ71GZR9yf\nyIPvGM2DeQhfGnblOjEANcmJy1jmKsadpCb8WRz9lstUJyOkgKtuBRo4G4uq\n4PrnpX3iSUQxUwbOY0z78l23bwNfTDlDmPaezfo7Vj4m6yS/iEBVlzKwTZt5\nMCE0wSzkV59d6nv6X0H0BCxw7q1K+/b+dWTbtXO/RkxRBlYrIQzERRBd9qsl\nE3CUYHNZ+o1+BXBe6msYUdHE5QU7ww9CYmrT5O09vpDl931virAhJrq+5SYI\nJZaVl0kWBIUjWjcG0JnJM0HyalzKC0ecGCAo8bnTeTFzb/h8SukSXeRZSwJn\nCeduiOhEMiVqBDYlFR+RjGJuqg/oikqw7RfZz4I50NN9iydnXL4CJ8XQNwqe\nq3RxXJOeuRua+p8OaY5krc9F7wFXrtqjG8aCbfw7ScLgTLtNZVjXBFMonYIN\n+PIYr7v3yPZJvTFMiHo5D6JhS9Y+TzXU//tiO/f1CrrBFag+vEMvZR42qxz8\nByBouL4TPe0RnC/wZfG6/Drrmfu39JUvQ4nS5GLSUbPBWruelorJNtBDR2og\nFdT3zHtWWjtDB7CmCuS6bxV03bcbvmuxy4862d85DfewBUY+Q6PF6SKaA0b3\n0D5SmCeJB4A3WQnv9s+2UQDFlMmmJURNk0aVgqK6TLJ/VWHhGcbDccW/e7ud\n3uMzcwKAYVub9gy98CLycmcrE0MsJSEjIQ6Bykl35FUNiBFStGkhJcUuO+Tv\np7iDtQQdsWgP8MEs9vn1sVEVbpxGT1faFvobGkGNlCCSeXZ8HqUPAQIyWqrl\n6t8lTuxWp04dQGYE7WpYCkXg4wxbBlBG4IH7sDXT6iymZPb9lwoPuw09+/Bi\nOKFY4Q80QkxxNWg/jsnpjXrU2pMrMpN5GwFCZCtt4erz1udRAiC+5fzDrVw0\nYMpa54szd8n4zznO+EnRL6VPVla7lCHlxfyND/fXyZ+fsQrOjRs+SXItB/Ic\nBOa26QAKRVUCu3sm8RV5gA3n4LXYnAOJYOiAu6BcgDlu6WIDaY4CVJ86EB5l\nN/nR6a90olniZFn5Pzom8diqPEsB6rA4UceFk7THaowLWEhv2Hq9WnVfntyq\n7xKtRdMY15Zzz2PbIT3HM20rR1yNPjFoW2/RxaB9kkLM4wRVLzAYalHLyM0j\ndg4+fM4o2wM+Wg7oduPwGkFOJm8pwf1mEe0fdTZrMd9R7Iu9EbJTGlV0va98\nM0MjHT2s/ClsdEQ5+XyLc0EzcBbxdJgaxMwznYgP\n",
    "start_sources": {
      "NeighborhoodRunner.java": {
        "text": "import org.code.neighborhood.*;\n\npublic class NeighborhoodRunner {\n  public static void main(String[] args) {\n\n    /* ----------------------------------- TO DO -----------------------------------\n     * ✅ Implement your algorithm to have a Painter object move forward, turn,\n     * and paint in a square until it runs out of paint.\n     * -----------------------------------------------------------------------------\n     */\n    \n\n\n\n\n\n    \n    \n  }\n}",
        "isVisible": true,
        "tabOrder": 0
      }
    },
    "encrypted_exemplar_sources": "kq0Pf5c4aweori7RVLPa2YdCHg6i+267r90rZwE5q3QjjBR/PpJw16UPErsZ\nOeh4K22VS6/80okNqMaszK2EYQAUt0+moDbZT/QmehB9jaYMR6P62XvLp/iN\nu7/8wIR0FdWstuRXzH6YQFBndYzCUVaPjB3zSBTAdovnVlDlT++rnno3PUng\ncUpcc520dxvxCtI0Sl7EKoaJFhp6jyuV3uHJlvZnhQHeiw8UgFqXw8FD4r9b\nnhr8bdRDkC3cVC0drP7pE2beU5AHePOviAuTSziZlWyguX6MKlKs5/U3ikCo\n7iygr3EsTHqSWN84+1ooP4Uk3naQqKEXP2Ve7ntnvGqMLFlCY0zldzEjWaTP\n362WjzXzsvsBYDHgDnP42VRh/73mSoAHF3+bvi8+eqbmzDPoHalZzHPvhBQi\nBVHIo5Z9hbBluMQBkDcFft4YV4EXAnGRl9suMs9YLI/3ukA8GwlINyGkHYMD\n9kDST17fNP8DYhTV97+DBarbXFvwJvzl9jhu6dLE1Bc88SulIUhCy+pGFCQO\nhOiv87YvMgzwpFURLCas/wtN2JeGOs7ihTZ+KnlpWKMfkPCSKlL6uZmclmqx\nWk0DAUIFb9wl2aMS6mWqj8jBR1QAUn6Mrp4+fyiKkGM2mgIwyl8StdZpuDJ0\n4HtwgcQh2EMHuYsany5hcuNSOnXZ/bqtTNHXyl963q4P+64QOSxS9p7PpPs+\nIDtOPq862oCGNFnydNBRDByDpKZkoepkJF8qT9H3jRgD1/Kewwyc9mhOANHI\n83UaEz0LdQ92nNhusbmHEo6gO402ffwF6/1K8woj9ZsLZW1XelceKuSnQO3y\nKhLVzmmfEvJQQ9G7AcqGrK2kltibDuUcIy5xtVp0ZWTcYnpbR4b5LpHa3ULR\nM/E5So/diwbJvw/lGkqR9VFRLhYbZSEWJX8VUKuRIq3QD+AbLYYRQTx0kn6I\nRf853C4+iBNr8/NQ97mFqXykC+iAvOSQSBLuPAJ/kGpgqSwrpPZOqf5GlaGY\nydditCR6kForsre7x2cKl8rwGv1/Xyu5tEbJ+7vuLp0bBahKuXAdQWkbU2qN\nM05k3JqiGm2be6iImEI/zFDrz54LlK7uAQ5N5EKIFqch4LF3ERUj6w9Gnacd\nG2Q+7MF3RvSjBt59chJDJ11+GeTC9NLt1OpKZAethOpT0lMA7YCJb3KPM0RM\nx09sFNoMeRIuyQXcj1+mT/eTfwe8/3wgri7rRb5KZWVCF5OZzZTgILBzaaJn\nf4Qry3JT7po7cS9Fj1wHQicjeY2J7cVgMVUsdgYHOROzxEHyZXN8xIfNHcEb\nHvLiOrjKvJODRpg/h/n4kWJg9pcqtcycwTddgUE4B+NyImHgin0FQj+GEiyx\nY4leEyg=\n",
    "thumbnail_url": "https://images.code.org/9cfc0ce8d7a6f22f6dd7186401e13e9b-image-1665706010720.gif",
    "reference_links": [
      "/courses/csa-2023/guides/while-loops"
    ],
    "video_key": "csa_while_loops",
    "name_suffix": "_2024"
  },
  "published": true,
  "audit_log": "[{\"changed_at\":\"2024-01-12T20:43:47.298+00:00\",\"changed\":[\"cloned from \\\"CSA U1L5-L4d_2023\\\"\"],\"cloned_from\":\"CSA U1L5-L4d_2023\"}]"
}]]></config>
</Javalab>
