<Javalab>
  <config><![CDATA[{
  "game_id": 68,
  "created_at": "2024-01-16T23:01:14.000Z",
  "level_num": "custom",
  "user_id": 16889,
  "properties": {
    "encrypted": "false",
    "mini_rubric": "false",
    "submittable": "false",
    "hide_share_and_remix": "true",
    "csa_view_mode": "neighborhood",
    "display_name": "The MuralPainter",
    "long_instructions": "The <code style=\"background-color: #ececec; color: black; font-weight: bold;\">Painter</code> is planning a mural to paint in The Neighborhood, and they need help painting a diagonal line to get started.\r\n\r\n🎒 **IMPORT:** Import your <code style=\"background-color: #ececec; color: black; font-weight: bold;\">PainterPlus</code> class from your **Backpack**.\r\n\r\n*Don't have it, or it doesn't work? That's ok! Copy the code from* <a href=\"https://studio.code.org/projects/javalab/MrU6HbfE2LHNSyZIuepuzTDnvKIBCQdg7qcW5PNtDJ4\" target=\"_blank\">***here***</a> *and paste it into a new file in your project.*\r\n\r\n✅ **TO DO:** Write the <code style=\"background-color: #ececec; color: black; font-weight: bold;\">MuralPainter</code> class that paints a diagonal line in The Neighborhood.\r\n\r\n1. Write the <code style=\"background-color: #ececec; color: black; font-weight: bold;\">MuralPainter</code> class to be a subclass of the <code style=\"background-color: #ececec; color: black; font-weight: bold;\">PainterPlus</code> class.\r\n\r\n2. Write the method <code style=\"background-color: #ececec; color: black; font-weight: bold;\">paintDiagonal()</code> with the parameter <code style=\"background-color: #ececec; color: black; font-weight: bold;\">String color</code> to have a <code style=\"background-color: #ececec; color: black; font-weight: bold;\">Painter</code> object paint a diagonal line.\r\n\r\n3. In <code style=\"background-color: #ececec; color: black; font-weight: bold;\">NeighborhoodRunner.java</code>, create a <code style=\"background-color: #ececec; color: black; font-weight: bold;\">MuralPainter</code> object and use your <code style=\"background-color: #ececec; color: black; font-weight: bold;\">paintDiagonal()</code> method to paint the star mural in The Neighborhood.\r\n\r\n<details style=\"background-color: #ececec; padding: 10px; margin-bottom: 10px; border: 1px solid transparent; border-radius: 5px;\">\r\n    <summary style=\"font-size: 1.2em; font-weight: bold;\">🔦 Need help with your algorithm?</summary>\r\n    <div style=\"margin-top: 20px; margin-left: 20px; margin-right: 20px;\">\r\n    \t<p>Here is one approach to solving this problem.</p>\r\n        <pre style=\"background-color: #333333; color: white;\">\r\nif the Painter has paint\r\n  if the Painter is facing east\r\n    paint with the color\r\n&nbsp;\r\n    if the Painter can move\r\n      move\r\n&nbsp;\r\n    turn right\r\n&nbsp;\r\n    if the Painter can move\r\n      move\r\n&nbsp;\r\nif the Painter has paint\r\n  if the Painter is facing south\r\n    paint with the color\r\n&nbsp;\r\n    if the Painter can move\r\n      move\r\n&nbsp;\r\n    if the Painter can move\r\n      move\r\n</pre>\r\n    </div>\r\n</details>\r\n\r\n📝 **COMMENT:** Be sure to add comments to note what your code does.\r\n\r\n🖥️ **TEST:** Test your program to check if your code achieves the expected result.\r\n\r\n🎉 **RUN:** Run your program to see the result of your code!\r\n\r\n## 🎯 Goal\r\n\r\n![](https://images.code.org/e31ed026a06425c2a7ea9b6ea67a18a7-image-1666186635858.gif)",
    "bubble_choice_description": "The `Painter` is planning a mural to paint in The Neighborhood, and they need help painting a diagonal line to get started.",
    "serialized_maze": [
      [
        {
          "tileType": 1,
          "value": 0,
          "assetId": 0
        },
        {
          "tileType": 1,
          "value": 12,
          "assetId": 303
        },
        {
          "tileType": 1,
          "value": 0,
          "assetId": 0
        },
        {
          "tileType": 1,
          "value": 0,
          "assetId": 0
        },
        {
          "tileType": 0,
          "value": 0,
          "assetId": 285
        },
        {
          "tileType": 0,
          "value": 0,
          "assetId": 48
        },
        {
          "tileType": 0,
          "value": 0,
          "assetId": 138
        },
        {
          "tileType": 0,
          "value": 0,
          "assetId": 140
        },
        {
          "tileType": 0,
          "value": 0,
          "assetId": 140
        },
        {
          "tileType": 0,
          "value": 0,
          "assetId": 141
        },
        {
          "tileType": 0,
          "value": 0,
          "assetId": 142
        },
        {
          "tileType": 0,
          "value": 0,
          "assetId": 48
        }
      ],
      [
        {
          "tileType": 1,
          "value": 0,
          "assetId": 0
        },
        {
          "tileType": 1,
          "value": 0,
          "assetId": 0
        },
        {
          "tileType": 1,
          "value": 0,
          "assetId": 0
        },
        {
          "tileType": 1,
          "value": 0,
          "assetId": 0
        },
        {
          "tileType": 0,
          "value": 0,
          "assetId": 285
        },
        {
          "tileType": 0,
          "value": 0,
          "assetId": 48
        },
        {
          "tileType": 0,
          "value": 0,
          "assetId": 146
        },
        {
          "tileType": 0,
          "value": 0,
          "assetId": 148
        },
        {
          "tileType": 0,
          "value": 0,
          "assetId": 148
        },
        {
          "tileType": 0,
          "value": 0,
          "assetId": 149
        },
        {
          "tileType": 0,
          "value": 0,
          "assetId": 150
        },
        {
          "tileType": 0,
          "value": 0,
          "assetId": 48
        }
      ],
      [
        {
          "tileType": 1,
          "value": 0,
          "assetId": 0
        },
        {
          "tileType": 1,
          "value": 0,
          "assetId": 0
        },
        {
          "tileType": 1,
          "value": 0,
          "assetId": 0
        },
        {
          "tileType": 1,
          "value": 0,
          "assetId": 0
        },
        {
          "tileType": 0,
          "value": 0,
          "assetId": 52
        },
        {
          "tileType": 0,
          "value": 0,
          "assetId": 283
        },
        {
          "tileType": 0,
          "value": 0,
          "assetId": 154
        },
        {
          "tileType": 0,
          "value": 0,
          "assetId": 156
        },
        {
          "tileType": 0,
          "value": 0,
          "assetId": 156
        },
        {
          "tileType": 0,
          "value": 0,
          "assetId": 157
        },
        {
          "tileType": 0,
          "value": 0,
          "assetId": 158
        },
        {
          "tileType": 0,
          "value": 0,
          "assetId": 283
        }
      ],
      [
        {
          "tileType": 1,
          "value": 0,
          "assetId": 0
        },
        {
          "tileType": 1,
          "value": 0,
          "assetId": 0
        },
        {
          "tileType": 1,
          "value": 0,
          "assetId": 0
        },
        {
          "tileType": 1,
          "value": 0,
          "assetId": 0
        },
        {
          "tileType": 1,
          "value": 0,
          "assetId": 0
        },
        {
          "tileType": 1,
          "value": 0,
          "assetId": 0
        },
        {
          "tileType": 1,
          "value": 0,
          "assetId": 0
        },
        {
          "tileType": 1,
          "value": 0,
          "assetId": 0
        },
        {
          "tileType": 1,
          "value": 0,
          "assetId": 0
        },
        {
          "tileType": 1,
          "value": 0,
          "assetId": 0
        },
        {
          "tileType": 1,
          "value": 0,
          "assetId": 0
        },
        {
          "tileType": 1,
          "value": 0,
          "assetId": 0
        }
      ],
      [
        {
          "tileType": 1,
          "value": 0,
          "assetId": 0
        },
        {
          "tileType": 1,
          "value": 0,
          "assetId": 0
        },
        {
          "tileType": 1,
          "value": 0,
          "assetId": 0
        },
        {
          "tileType": 1,
          "value": 0,
          "assetId": 0
        },
        {
          "tileType": 1,
          "value": 0,
          "assetId": 0
        },
        {
          "tileType": 1,
          "value": 0,
          "assetId": 0
        },
        {
          "tileType": 1,
          "value": 0,
          "assetId": 0
        },
        {
          "tileType": 0,
          "value": 0,
          "assetId": 29
        },
        {
          "tileType": 0,
          "value": 0,
          "assetId": 31
        },
        {
          "tileType": 0,
          "value": 0,
          "assetId": 33
        },
        {
          "tileType": 0,
          "value": 0,
          "assetId": 35
        },
        {
          "tileType": 1,
          "value": 0,
          "assetId": 0
        }
      ],
      [
        {
          "tileType": 1,
          "value": 0,
          "assetId": 0
        },
        {
          "tileType": 1,
          "value": 0,
          "assetId": 0
        },
        {
          "tileType": 1,
          "value": 0,
          "assetId": 0
        },
        {
          "tileType": 1,
          "value": 0,
          "assetId": 0
        },
        {
          "tileType": 1,
          "value": 0,
          "assetId": 0
        },
        {
          "tileType": 1,
          "value": 0,
          "assetId": 0
        },
        {
          "tileType": 1,
          "value": 0,
          "assetId": 0
        },
        {
          "tileType": 0,
          "value": 0,
          "assetId": 28
        },
        {
          "tileType": 0,
          "value": 0,
          "assetId": 30
        },
        {
          "tileType": 0,
          "value": 0,
          "assetId": 32
        },
        {
          "tileType": 0,
          "value": 0,
          "assetId": 34
        },
        {
          "tileType": 1,
          "value": 0,
          "assetId": 0
        }
      ],
      [
        {
          "tileType": 1,
          "value": 0,
          "assetId": 0
        },
        {
          "tileType": 0,
          "value": 0,
          "assetId": 291
        },
        {
          "tileType": 0,
          "value": 0,
          "assetId": 292
        },
        {
          "tileType": 0,
          "value": 0,
          "assetId": 293
        },
        {
          "tileType": 1,
          "value": 0,
          "assetId": 0
        },
        {
          "tileType": 1,
          "value": 0,
          "assetId": 0
        },
        {
          "tileType": 1,
          "value": 0,
          "assetId": 0
        },
        {
          "tileType": 1,
          "value": 0,
          "assetId": 0
        },
        {
          "tileType": 1,
          "value": 0,
          "assetId": 0
        },
        {
          "tileType": 1,
          "value": 0,
          "assetId": 0
        },
        {
          "tileType": 1,
          "value": 0,
          "assetId": 0
        },
        {
          "tileType": 1,
          "value": 0,
          "assetId": 0
        }
      ],
      [
        {
          "tileType": 1,
          "value": 0,
          "assetId": 0
        },
        {
          "tileType": 0,
          "value": 0,
          "assetId": 294
        },
        {
          "tileType": 0,
          "value": 0,
          "assetId": 295
        },
        {
          "tileType": 0,
          "value": 0,
          "assetId": 296
        },
        {
          "tileType": 1,
          "value": 0,
          "assetId": 0
        },
        {
          "tileType": 1,
          "value": 0,
          "assetId": 0
        },
        {
          "tileType": 1,
          "value": 0,
          "assetId": 0
        },
        {
          "tileType": 1,
          "value": 0,
          "assetId": 0
        },
        {
          "tileType": 1,
          "value": 0,
          "assetId": 0
        },
        {
          "tileType": 1,
          "value": 0,
          "assetId": 0
        },
        {
          "tileType": 1,
          "value": 0,
          "assetId": 0
        },
        {
          "tileType": 1,
          "value": 0,
          "assetId": 0
        }
      ],
      [
        {
          "tileType": 1,
          "value": 0,
          "assetId": 0
        },
        {
          "tileType": 1,
          "value": 0,
          "assetId": 0
        },
        {
          "tileType": 1,
          "value": 0,
          "assetId": 0
        },
        {
          "tileType": 1,
          "value": 0,
          "assetId": 0
        },
        {
          "tileType": 1,
          "value": 0,
          "assetId": 0
        },
        {
          "tileType": 1,
          "value": 0,
          "assetId": 0
        },
        {
          "tileType": 1,
          "value": 0,
          "assetId": 0
        },
        {
          "tileType": 1,
          "value": 0,
          "assetId": 0
        },
        {
          "tileType": 1,
          "value": 0,
          "assetId": 0
        },
        {
          "tileType": 1,
          "value": 0,
          "assetId": 0
        },
        {
          "tileType": 1,
          "value": 0,
          "assetId": 0
        },
        {
          "tileType": 1,
          "value": 0,
          "assetId": 0
        }
      ],
      [
        {
          "tileType": 0,
          "value": 0,
          "assetId": 286
        },
        {
          "tileType": 0,
          "value": 0,
          "assetId": 286
        },
        {
          "tileType": 0,
          "value": 0,
          "assetId": 286
        },
        {
          "tileType": 0,
          "value": 0,
          "assetId": 286
        },
        {
          "tileType": 0,
          "value": 0,
          "assetId": 286
        },
        {
          "tileType": 0,
          "value": 0,
          "assetId": 286
        },
        {
          "tileType": 0,
          "value": 0,
          "assetId": 50
        },
        {
          "tileType": 1,
          "value": 0,
          "assetId": 0
        },
        {
          "tileType": 1,
          "value": 0,
          "assetId": 0
        },
        {
          "tileType": 1,
          "value": 0,
          "assetId": 0
        },
        {
          "tileType": 1,
          "value": 0,
          "assetId": 0
        },
        {
          "tileType": 1,
          "value": 0,
          "assetId": 0
        }
      ],
      [
        {
          "tileType": 0,
          "value": 0,
          "assetId": 48
        },
        {
          "tileType": 0,
          "value": 0,
          "assetId": 48
        },
        {
          "tileType": 0,
          "value": 0,
          "assetId": 48
        },
        {
          "tileType": 0,
          "value": 0,
          "assetId": 48
        },
        {
          "tileType": 0,
          "value": 0,
          "assetId": 48
        },
        {
          "tileType": 0,
          "value": 0,
          "assetId": 48
        },
        {
          "tileType": 0,
          "value": 0,
          "assetId": 284
        },
        {
          "tileType": 1,
          "value": 0,
          "assetId": 0
        },
        {
          "tileType": 1,
          "value": 0,
          "assetId": 0
        },
        {
          "tileType": 1,
          "value": 0,
          "assetId": 0
        },
        {
          "tileType": 1,
          "value": 0,
          "assetId": 0
        },
        {
          "tileType": 1,
          "value": 0,
          "assetId": 0
        }
      ],
      [
        {
          "tileType": 0,
          "value": 0,
          "assetId": 48
        },
        {
          "tileType": 0,
          "value": 0,
          "assetId": 48
        },
        {
          "tileType": 0,
          "value": 0,
          "assetId": 48
        },
        {
          "tileType": 0,
          "value": 0,
          "assetId": 48
        },
        {
          "tileType": 0,
          "value": 0,
          "assetId": 48
        },
        {
          "tileType": 0,
          "value": 0,
          "assetId": 48
        },
        {
          "tileType": 0,
          "value": 0,
          "assetId": 284
        },
        {
          "tileType": 1,
          "value": 0,
          "assetId": 0
        },
        {
          "tileType": 1,
          "value": 0,
          "assetId": 0
        },
        {
          "tileType": 1,
          "value": 0,
          "assetId": 0
        },
        {
          "tileType": 1,
          "value": 0,
          "assetId": 0
        },
        {
          "tileType": 1,
          "value": 0,
          "assetId": 0
        }
      ]
    ],
    "encrypted_exemplar_sources": "IHoIM1Dtf74Pp3mDJ4hAGVMLmC3OAAhBlxcZSdtkFObtZGy0BGbv2q/ple9s\n+m1vsrmq2MpRGwHKTFx1XGswhNSDjg52wslPrQ/eWwZ/vM+Lof2w/jqQcePr\n7pTLnMGFLnqDufGsT/CkcmP3OmMQpzbb8QbKzGrbkRXRMbHSeQOe4vMQRn+n\nzwUtJOmCzs99UgTWXmAax06yUkd57+KuztHJ+c3yulrHb3h0nolU7WT3EjDI\nfnmbIVMeahbM826KEJPfwT4D8WoU/z6inIoYOIESuMtB16eSIppB0vCC0lgc\nT7H76FO7xVkIybKtf1PYb06KsI4q75oTgkEiwVpgND6ogZdLLfJTph7B4tO5\nWb5Fci8uLbn8RF+TddbOiF8y5ERNiGRMNRidBz7oa/rIQxPqwPsOMX6mFL04\nMe3VQCWihhHGzrRTYqYCbLRkR3OEWqgPdTKrrZASWtbigpXgQy+4i5s8PK+S\nUfCYQHigCdLK1642hQplqVGkuuvST8Almm3rlgEpbGlXxoek3WVN3RJ8Awfl\nh9UrGotktoFb5lvUI2WvM7vPOgpguvzOvyi+lNkP7qJ7ufe4uoOSPItojPeZ\nqFfeWmIHFw9ZslF55I4fsInO9TklX3+gDVDZAaenx4NLOeqqWV/UH2JsTYAU\nROmBbJOkyKNq8n9S7eygbFSHKP0V/LlRBENIMPrknkX5gVxugG+OweUSwGBS\neY/EC+xxEwDhi0gUbaqHCbNXmZycqKw+1IYBDgYwVUByYY8/gvRMS4jNRUij\nm2Ed/m6hgINYBVuGtlWWxZ14zsNjxn8VZQaD9auoY0jkaoUvY5m2UjEWdDmg\ntYwr0i8Ig8T30vQkU7dsy8S6EQ+RT2oTBR9v2OIALIrxrOodhCYtExkxs9iV\nIH57eFNdOd4Qf2pUK5AFBRoL0Xg3SBx1+PiQ/xz/X3+26b3Byn40u9daYo8W\nlpmTc2I7LLvxLFa6j2lcVx69MVEiAWj5ios//Jp7WdMt1EQCgELkHYlKLxHl\nOf/UsZAH0F/Ob5Gwf9MT5DZrAj3Yg3ICt/opVmPBz7I8k2Xxw2RDfWKvRIox\nLd9WHDmHBN6WHY8+aLYtGcplkzDgAUlPeW3fZWbjLNeDvBPaxXRnpSkoVhJw\ntuwnXHw+1XO/P8VOm1Vzwk+vSZTJDOqGhatRTHde1x1tQ2eF/cLpztHOqCnp\nUBWzuySaMQff4TzuYTLQkPOjiXpjXF3DXw5rjceKyWJvgY8K6vBpK7dgs8VX\nSDnYn3WEeF39uyTrthH/6++sVfhhsxpfZLsDXHOXOrJlQQeTGXSwFhAE2PU4\nazqGzlXggil8wDHKx1N7tZU4Fj701BdNeC078Yup+y9zKjseUG8R6VJ7yY1W\nwU6mfjEww0UgU35EphLiYYlvqUaYMvoME2mIrotx+r0qVs2PoWnbQGp54YVA\nSE7s9w9zoW0rdB8JYCxdCB4lhvEG2f16r4H6SJ/BSpAjnlG1w6xmHWQu3dFe\nestDU3htKix4iKqHrfF52/cUZ4WL7+JM523Ra+F+zbUbu6FEuQIvLzFEZzU/\nAglaMkqYEWTKVRoBdOI1EPbj3hvTj5K8ypF6gVpyq4r3yATV4WmX6yF5jBhL\nA9B7U22FAcIEXfpuvIF+By+0zj2UTgS/cXyuh21AfDFWeXEbln3YGSxLYHNp\nY4k9ypnzfvTF91h72WBavLEgnvUqP/o3bCNT2c6WLebISXPTCYCnRu7vOt6t\n7J84rgq1MNg2BNftumzmk/FXv++hq8sRao5Hlr4ZtDZuni6G2Vc99OBK9Isl\nOn4o9wCqDuqqg9Tx0Rz0Xa2FYHaIt5z1iZ3xmsUJb2jrqFMOltarpIJDpLgF\nZgptGskVH9w6dr5+6QGAaX0QGBx9Ow6y7NYnd5ZfhBlM8GM00MGD0Q67CWrH\nBxqzmLjMvwilbo0q87V6b9BVrMJI1xcWO4w38we3zzN8heDkLoSS1Hr5zUTB\ne228LdtZFm+qWAxpjPQogIFEjyrbpAgSgbcUrqPJlzEBC2jrNcopATWMPG/H\ni0uTSSFRVNshLfJ6lN4dbY3bi9sEzd665XLAXqpMSAw2TmwW7yx+dPnAPoiI\nfqOtl3eGB8fg3rBOu+e2Ac5q4GErnitUn5oSFVYARsNP7q6Tq7Mczzc6GZGg\nWQMrR6tbAzj4pImhDgLo/fLlb3aPo7onsWR3dHP6SOkMuu0uu7Uu89p8xVHJ\nChOWvfMaxSBzZ6pDuQAu0SR/lQGq6uhlvrYrkAFO55tJD7h318Jx5CjowwUY\nlSqCSKD+zL6XvF/VV2CTaAl0Gjw/NYV+vNlq2xrGTAAq5PzCyW8oV8EoXJvc\nqaQ50xhWN+RKIINUem+8g1o/woFZa1hpnA0M5WFuU1OIxB71ubb2KE1rXv7M\nIg0xBWAw0HXITjoYXtAv/lLq958yLXYif5nDU5nir65RNGFlM1X4R1YMsYCu\nBMV7znxwofbozLvvhAhLJukGGtae1fMuqjjEiynLVzC2ZHipdbNVUV+ifpBR\nbxKVY+mAvgF1BDDT1V3kTZkEME6zn4izEbs9jgQncJWTuRh6URUXS4lYYAey\nKLhswMabvO3VJCUlZAzW5FhVa5GYGRrOiLeVS54HAb8+/pCJNxarKe9UpaBF\n0OuM4kb17Zf5Ro16P/orDlm5Wc2WURCQ6GH3fGeTI64sCnXZEIVXCVA9XW4L\nqf3qnIaTHSfq9Ati9i+JOo2KgqYrFhHGSH9tlFeHcJ3Rl+brNhu5fFIIqUSX\nZbzUUjvzYyB0CztgDP66aopfWSKXo/BgH3w=\n",
    "encrypted_validation": "P+fEJkEQW9FcZIoo/ak1FxE4B2sRnoI2gdxCZ3uRBZLN3HBiouEzJpdMo9v3\nrngeM8VrM+Yn6cHNjrSimoqnTde9PoEahqYpuyKxADNy2yHOI6It9u7xqtCh\nAbURiDK6ux6OmNQkDH3s/mANtvMExvwvX8nGjm5Vxb9o/1AXcQCzF51MZ74v\npI6SXfxFTSaGn67vImDn/6STkj5ufxUl97vIzt8DaAg1tHETWmPFf+2LNFM5\nbh/lyK3Kf8cUTFEm+2PceCQYDXoo1Q/crnIufB80pg8OwvJ2kXwZr70vVpAZ\nPILaDg2fsvLX/NhO2mq7byS7lBrLzirrC6zptrP24RGiuJvVg3VIZQ7aF1U8\n3SSoy2iY6MNfjwkrIKhHQUf/B+pB0GMMNs4xiQNkn4Db0BNnldSWZlEx0JHE\n8JFG7Q+a9Io2XPG1xsg0zT+NK0HV8UfSmTjrjMruKP7LWi6z0aqDfgrsUtVx\nhaJi+EFEANNZKQoiFgCYTuhaouFrZtK+UQWRmonfF7mzhWq3b5Lvm2Ui6Obc\nh7LVciQ1lDw78+5GV5e5QYFuB/hJAShyX+j7DIHFQ/q+hKSaD5AcRYZHqOby\nJuvBNydVFUZ6YDWRtB7UpW4LcwLrG2M+y024DJFNIYA8pMhMil+2zm7lKyLN\nNxOx4FI6RWamPUcTsqBGuhH1MUXu55BZll4u0dyn//uzZZl/sQ+JMpW8adYQ\nX8jzym/s+PwtleKgzOTee7gs4o1piskCFMQT2mo283s5OOjXRgnwoLDJ1DOh\nkdc6gI9gtsvDJs4S6tzAEkIDdApz6JDUo0WpVgrBh2LCN2Y1MeqwdgReTelc\nl/7wdHIWNhkAqzMR6bbS6wR9pAkpwUOuFAPHWXhK8PFNXRsNb4pA3WzqnyOm\n+cZojD0Vs6auCjoDeEGHmyWk6/w69TVa/cgbHPTnM6x9p7rUZQUq/xa4iT1s\nwkyfIE7IqEpyi/AhV3ARsqmuD787NIrC0UL7Gp3yGPS9fdct3voJkf8SfQ3N\nQNxSBvTVvAma+ffStLm9tPAAWGsgr3j4PqjJr0ViIQeAVvn3BfHtkySCbtYh\nnWuUJiDRDdiRf59g461biPGrjOYKwfKJgXIzxkx4338jnZUoid+/G6PtI0G0\nNEqIvquGXaNm3Y7XgkR5nTT8GnIhXpiZH1qadZ3a6GZP2SCg5lKiDbO/bq08\nhVVLQqLTTUYNBs6mKtuiniS83A8IiMUZHhL3cxj4IwL3AOk2t9fqB2MRVQYD\nTbjh+CGW+V1bgCO08wwfNiinSTVS8qtoFE66b2W23EZN44pVDB/bjUZ+QdXc\nN19DiSYpm7sWjrwzWoZe1zaFka9uvS49AgaumI41fW01Rn2nO98/h38pWSeT\nsb0jzmhdPrlhJWiaT1o7qFG6LbB9T1Svr1kHBaSnNPW9PWLkWa8mq5mJomoi\nBZHsSpAtbZg/LnOeYA8S82uMhdGL1/LEhWQo4WUvWGAluyxH282aQhp2Edty\n7RU2aLDMYZo4d7VEoce/2NdoausmX8QwSVjifjc85oVM1CBJnYoAmjJIB2m+\nmzyNiW14LhpbqsX3oVGG2XH69jgIyWZQa834uq7WaY5ehLaokuCm4vKslBGj\n3L1b0x3/7dSEs0V79TQEhCWay6HRll+dZ+82av20mEydX2S7xh7lyUkdXPa6\nCwwFdBQ2svfvCj0dZZByV/e8FvZFK3lHpwTQk564Do5RY39prVxWLmMc6JLa\nmS1gsWQM94dsrtsgBsnNsgGVyhKq9RbB7WgY+7iRvdIeoRW0BK72s/NPjK/F\nWef7w1BgQ2KSd17Q0K6GLYnRrybcIuMF02Td7uJz9QhOgwy1LsV6zYiV99zc\nPkjLqhJB1L5WJe12EbV7KplMlu9/POBZTtgZIBT4Xj9KQLBu6XbH/ecuvZ0B\ntPInUBAH+7e1yZmK/eVIePNlChZ7o/c+UEdEj5nJNhqNOuHaJ2s9bbYohDyP\nNA2FtMRKalDlUF/aCKfAnCWivE5mggeJPsNX7sPTyI7mp4lPcBZ4xXcodFtZ\nWH3i3lAV3sttUJ5bDXFk1h7Esc6OGjVzYABUPvNAm/C14ZPmWWG9xDJFcvgG\nJ4nJswpKjrdV+PmQPcHdDIiLpFspScDmmvJXSkDRtLh8kX5E+EhJbOmhBubz\nJ/d6PuFPNMk116nhYMmoGV+cJjU5fa//jZXIt5SUCxHNxXRgcjYRVh6yDsz4\nAmv9IIeXzvG3yTUgUG2h4Y5F1akVv0lkRdUQlr/a7+s1VGP/oWwbxXeqsTQg\n1xBLR01WaZGdaXBe968rFxnM75m+hBxdgUqIwS9UwifT/s1+9YC1ZEELgm2w\nwwlNnmTZ1fmn1cxZslh3vi69Q574vlvAovXHxZSPET6FC91La8kfEnlqLkGw\nvptCXM/FjJ0zOLyxgxOBG/xGmWMIR6gk4rK69fe9BAyp2bFbb94KaZf/gvHf\nW5XB/83x+DOZCxtsyRJpWK8CPlFO2xxKjPVKJnXMcbf5K1tF4+HvSe3ofY5B\nfn3L3eIn77lk314dSyqRpWgWakJkTe9Iwl3JCs78xLSURCkMc0fXJJZ49k1C\n0gFnrundyyVPvO8lN0nHithLBpEQiSPK73wvsxNvWl4ZSWYL25j+SFLyAyJk\nI26WHTOGjII9pnvwAjyPIOlWzjEvC2r+2CgjrGqdsrp+jLBWuXmfvZBF7Zzg\nGDwLqDa669/ziJaRMTInT7OrUgtsxVmOhcDB3Aw3GyTJrnuFNDbNXXhnNwrw\n3ar1x8hNc5Xnhcpmd21mglIDAMAUYo6jOdQmUCkSbj6aZRDcpci1tBy3AHw4\nHebUzctpvQX1TsWPZj08LaEfAwu2Aj0ufJFul0XQXWiPt1kA87ne/QVLOglh\n0Rg6i2T5q6+R5DMic58XbN0jqxx1gssyCC1/Zgbj7eJjgB6Y0PRjFjg1aYaR\nD15kt0jWQAZjy32ltQsj2YsiCSGNK63Oiis1XiIXHaZiIdxXv10+fWIf5rYz\ncUyfbxAiwJ8mMSKQtd6F6+JOBMwvv7N3YrvavUbAOil8E2CpN4iDVMRaRoZs\nmHcyeJz0yjPdEkPUipsqDqq7O1Sw2Q4SCRpC931oi1UqPFEZEx/zslA6d1Ge\nw38N2l7YKelFnpga21N8W0+kEXsVB0VoeVNCi5zE0lcEJrdw9QjLPpqoBjPU\nZj3MY+pb1/kx86eJnDOng83lt8Cf28ONPHxg+amBLye1xBO3f5+qLUoKp+ie\nuOmAiUc0lH33Tpxcd5e17tDzfSIUTT6JG5xHYjH3M+uoq1V2hgU8rYJ3qGFF\nBYXKWwicIuZaLWSpJKXve7QWkoIZd6VAvqkHXw+F8WNyKCMWnCK0LBSiI6QX\nHJkiM6mnLZI0XCTIRMtQGNj4cskpV59uMGNlCGyViKuYCnlWE9UXgr8N1kdG\ni14PsOD1Y9KfW32w+FPhEjteEVjK06uvk9V7s/WR0jSZr+848WWEnY0ajqfb\nX+JxsMGN0nPz9B4I7Ec5P5SAnpLJNji9r1AJOP8sg17JGiG7nBAbmcBucPMm\nIBcdUBqhW6vD4MEVvF8WVaikRM+pSc8ipIiPo5+2h8HWqwggvAqF8ZU7lbhU\nb2N435Cln3vQU8ZKEw8e9m6urnc/vVLYZjKJjHowk+6uIxKjYDOY6i3bSz55\nBiGHPPXhRgkNh4xtoYssfVUWXdKdbVxrJx2O6MSvRg+fkQ4vqVL7ONBV/A58\nzOS/K4GRsmAozyvtTzeCeot/069hfeVCJxDrKgaLPU9p31PevB75NWmXw67k\nyCE5ggva1UFgnKX+VZmSwC7TzQGMGLUsIA1sP5WuFWOXzZvpfocmYBTT9v09\nZnWtqzwK4icVM9F0cwqwg8Ua1h6XqL+zDx6iBrU+3fwgCHCeLRPK16bI0T4n\nA0p2StE5KuxgP2JJ2sltyjsz0Chq9h6vck75N63gR8rg05hzJrEjD8eXsk6j\nJCNeXsY4En55+BUdhrF1TmAWsONGlomX9wwDNHnSR+diBw900j3AzMh/bqnL\n9Q1Uq1DHqoI59UX+5bcRYJICmotLcBGh7ZNsrb/JX6RC1P1b5EnKdt86zHAr\nRZbk+Ev7FeWIu4EvPYpxcjKk4jiUDgMLN8mGArFCdMMgA0eguje/UNoYqctr\nuMmewN9JD5zjhK16+OIxEQsVihVIJy5NQSZo76zWBhtV+O1LZfO4hToUPaCY\nDeEKoeDsnHHYxc+Bvrq49MMZEEsAGHRK4li9nIF+NBoumC418CwUmeF1YZJh\nDv+S/VprPj2CCeD7Q/yQsFXgl/wSeXzK+//4vdzNdavUA0BzIEUjS5F1NO50\neWa0F9/KJl9HOf6gdiGdhaYlysFLJpy6vGjHV1wQ6OLFLnVg7I5qBnJlihwb\n9++itcxdcMS2CjutRhyTjC2zAM9SOEDczLBSvcrJtGYZ2J6IKeIv7yn0E6k5\nKxUXVu4dQ1TaUqfkNtYuPVgqE4WQd2R0ZxXr5aU9XcKH0EkeyDTbFmQJkiwz\njU1QgP6APO2+PzdfF1Lt9oswGyFUCFYTk6PoK06xtNhZhB9qUAyQx+LLbOx6\nrYrbRNc1rBEpCGr2fVd+mvWVaIAKhtWul7fUYCD3uyelViDymKetZMnoxFbt\nYyHcqebWr93lzIxpMITAaposYLJKVFFVRmsYFUHhEBkJcjBTt8cCC8XitOgz\nBTaqtG+jORq7D5Lrq0STLOQeOvu0Q2YnfWg4uqpnbXQgDXQJUtEYuwBqiY6Q\n3QkTDhapLByRcsjqmQQ1QnLYlGm5lLWrgKXsELYFFuPWwIGQPCT589ih6yIy\nGsvXfTqQIip4c/wMWdn+tTb7Bs5ddrwcgygFP7/gp+1KkG6vtVfxLVFgUZwX\n1iVKHchDa5K9es06D9AMPktdfR47ZIMyByZc7+rR+DZDO6CRBpPWDx2miCKI\nscNTy4xeH2/p2Wa7C0hnSNw16b+qAaVuN/WCtruJtMMKs2P6ElRnhkTpjgRJ\nr9rc9Q2kSWvAi3AsU/+Z/kiR9bxLQBC+b2HfFfOTwrSJ+68ne1X8c5qYqUVP\nIOhCQL+bTViyIqKL\n",
    "start_sources": {
      "NeighborhoodRunner.java": {
        "text": "import org.code.neighborhood.*;\n\npublic class NeighborhoodRunner {\n  public static void main(String[] args) {\n\n    /* ----------------------------------- TO DO -----------------------------------\n     * ✅ Write the MuralPainter class and the method paintDiagonal().\n     * Then, instantiate a MuralPainter object and use the paintDiagonal() method.\n     * -----------------------------------------------------------------------------\n     */\n\n    \n    \n\n\n\n\n\n    \n  }\n}",
        "isVisible": true,
        "tabOrder": 0
      }
    },
    "thumbnail_url": "https://images.code.org/480d31b17e402802f4d015ec4d69170c-u1l9-l4c.gif",
    "reference_links": [
      "/courses/csa-2023/guides/one-way-selection",
      "/courses/csa-2023/guides/writing-a-class",
      "/courses/csa-2023/guides/inheritance"
    ],
    "video_key": "csa_conditional_statements",
    "name_suffix": "_2025"
  },
  "published": true,
  "audit_log": "[{\"changed_at\":\"2024-01-16T23:01:14.762+00:00\",\"changed\":[\"cloned from \\\"CSA U1L9-L4c_2023\\\"\"],\"cloned_from\":\"CSA U1L9-L4c_2023\"}]"
}]]></config>
</Javalab>
