<Javalab>
  <config><![CDATA[{
  "game_id": 68,
  "created_at": "2022-08-23T20:55:39.000Z",
  "level_num": "custom",
  "user_id": 16889,
  "properties": {
    "encrypted": "false",
    "long_instructions": "The `SocialMedia`(#e7e8ea) represents a social media platform. It has instance variables for the list of users on the social media platform, the list of public posts made by users whose profiles are set to public, and the list of private posts made by users whose profiles are set to private.\r\n\r\nThe `User`(#e7e8ea) class represents a user on a social media platform. It has instance variables for the user's username and the privacy status of their profile. For example, if `isPrivate`(#e7e8ea) is `true`(#e7e8ea), their profile is private.\r\n\r\n##In SocialMedia.java:\r\n\r\n1. Write the `private`(#e7e8ea) method `markPost`(#e7e8ea) to return a `String`(#e7e8ea) with the post marked with the user's username and `\"[PRIVATE]\"`(#e7e8ea) if their profile is private.\r\n\r\n   * The method takes parameters for the `User`(#e7e8ea) object that is adding the post and the message being posted.\r\n\r\n2. Write the `public`(#e7e8ea) method `createPost`(#e7e8ea) to add the marked post to `publicPosts`(#e7e8ea) if the user's profile is public or `hiddenPosts`(#e7e8ea) if the user's profile is private.\r\n\r\n   * THe method takes parameters for the `User`(#e7e8ea) object that is adding the post and the message being posted.\r\n   \r\n##In MyConsole.java:\r\n\r\n3. Call the `createPost()`(#e7e8ea) method to create posts for several of the `User`(#e7e8ea)s.",
    "mini_rubric": "false",
    "submittable": "false",
    "hide_share_and_remix": "false",
    "csa_view_mode": "console",
    "start_sources": {
      "MyConsole.java": {
        "text": "public class MyConsole {\n  public static void main(String[] args) {\n\n    User reparo = new User(\"scholarlyreparo\", true);\n    User protego = new User(\"inventiveprotego\", false);\n    User portus = new User(\"stylishportus\", false);\n    User lumos = new User(\"uniquelumos\", true);\n\n    User[] myUsers = {reparo, protego, portus, lumos};\n\n    SocialMedia mySocialMedia = new SocialMedia(myUsers);\n\n    // TO DO #3: Call the createPost() method to create some posts.\n\n    \n\n    mySocialMedia.printPublicPosts();\n    mySocialMedia.printHiddenPosts();\n    \n  }\n}",
        "isVisible": true
      },
      "SocialMedia.java": {
        "text": "import java.util.ArrayList;\n\n/*\n * Represents a social media platform\n */\npublic class SocialMedia {\n\n  private User[] profiles;   // The list of users on the social media service\n  private ArrayList<String> publicPosts;   // The list of public posts\n  private ArrayList<String> hiddenPosts;   // The list of hidden posts\n\n  /*\n   * Constructor to create a SocialMedia object\n   * with the specified array of user profiles\n   */\n  public SocialMedia(User[] profiles) {\n    this.profiles = profiles;\n\n    publicPosts = new ArrayList<String>();\n    hiddenPosts = new ArrayList<String>();\n  }\n\n  /*\n   * Prints the public posts\n   */\n  public void printPublicPosts() {\n    System.out.println(\"\\n----------PUBLIC POSTS----------\");\n    \n    for (String post : publicPosts) {\n      System.out.println(post);\n    }\n  }\n\n  /*\n   * Prints the hidden posts\n   */\n  public void printHiddenPosts() {\n    System.out.println(\"\\n----------PRIVATE POSTS----------\");\n\n    for (String post : hiddenPosts) {\n      System.out.println(post);\n    }\n  }\n\n  // TO DO #1: Write the private method markPost() to mark the post\n  // with the username and [PRIVATE] if the user's profile is private.\n\n\n  \n\n  // TO DO #2: Write the public method createPost() to add the user's\n  // post to either the publicPosts or hiddenPosts list.\n\n\n  \n  \n}",
        "isVisible": true
      },
      "User.java": {
        "text": "/*\n * Represents a user on a social media platform\n */\npublic class User {\n\n  private String username;    // The user's username\n  private boolean isPrivate;  // Whether or not the user's profile is private\n\n  /*\n   * Constructor to create a User with the\n   * specified username and privacy status\n   */\n  public User(String username, boolean isPrivate) {\n    this.username = username;\n    this.isPrivate = isPrivate;\n  }\n\n  /*\n   * Returns the user's username\n   */\n  public String getUsername() {\n    return username;\n  }\n\n  /*\n   * Returns the privacy status\n   */\n  public boolean getIsPrivate() {\n    return isPrivate;\n  }\n  \n}",
        "isVisible": true
      }
    },
    "serialized_maze": [
      [
        {
          "tileType": 1,
          "value": 0,
          "assetId": 0
        },
        {
          "tileType": 0,
          "value": 0,
          "assetId": 285
        },
        {
          "tileType": 0,
          "value": 0,
          "assetId": 48
        },
        {
          "tileType": 0,
          "value": 0,
          "assetId": 48
        },
        {
          "tileType": 0,
          "value": 0,
          "assetId": 48
        },
        {
          "tileType": 0,
          "value": 0,
          "assetId": 198
        },
        {
          "tileType": 0,
          "value": 0,
          "assetId": 199
        },
        {
          "tileType": 0,
          "value": 0,
          "assetId": 200
        },
        {
          "tileType": 0,
          "value": 0,
          "assetId": 201
        },
        {
          "tileType": 0,
          "value": 0,
          "assetId": 202
        },
        {
          "tileType": 0,
          "value": 0,
          "assetId": 48
        },
        {
          "tileType": 0,
          "value": 0,
          "assetId": 48
        },
        {
          "tileType": 0,
          "value": 0,
          "assetId": 48
        },
        {
          "tileType": 0,
          "value": 0,
          "assetId": 284
        },
        {
          "tileType": 1,
          "value": 0,
          "assetId": 0
        }
      ],
      [
        {
          "tileType": 1,
          "value": 0,
          "assetId": 0
        },
        {
          "tileType": 0,
          "value": 0,
          "assetId": 285
        },
        {
          "tileType": 0,
          "value": 0,
          "assetId": 48
        },
        {
          "tileType": 0,
          "value": 0,
          "assetId": 48
        },
        {
          "tileType": 0,
          "value": 0,
          "assetId": 48
        },
        {
          "tileType": 0,
          "value": 0,
          "assetId": 206
        },
        {
          "tileType": 0,
          "value": 0,
          "assetId": 207
        },
        {
          "tileType": 0,
          "value": 0,
          "assetId": 208
        },
        {
          "tileType": 0,
          "value": 0,
          "assetId": 209
        },
        {
          "tileType": 0,
          "value": 0,
          "assetId": 210
        },
        {
          "tileType": 0,
          "value": 0,
          "assetId": 48
        },
        {
          "tileType": 0,
          "value": 0,
          "assetId": 48
        },
        {
          "tileType": 0,
          "value": 0,
          "assetId": 48
        },
        {
          "tileType": 0,
          "value": 0,
          "assetId": 284
        },
        {
          "tileType": 1,
          "value": 0,
          "assetId": 0
        }
      ],
      [
        {
          "tileType": 1,
          "value": 0,
          "assetId": 0
        },
        {
          "tileType": 0,
          "value": 0,
          "assetId": 285
        },
        {
          "tileType": 0,
          "value": 0,
          "assetId": 48
        },
        {
          "tileType": 0,
          "value": 0,
          "assetId": 48
        },
        {
          "tileType": 0,
          "value": 0,
          "assetId": 48
        },
        {
          "tileType": 0,
          "value": 0,
          "assetId": 214
        },
        {
          "tileType": 0,
          "value": 0,
          "assetId": 215
        },
        {
          "tileType": 0,
          "value": 0,
          "assetId": 216
        },
        {
          "tileType": 0,
          "value": 0,
          "assetId": 217
        },
        {
          "tileType": 0,
          "value": 0,
          "assetId": 218
        },
        {
          "tileType": 0,
          "value": 0,
          "assetId": 48
        },
        {
          "tileType": 0,
          "value": 0,
          "assetId": 48
        },
        {
          "tileType": 0,
          "value": 0,
          "assetId": 48
        },
        {
          "tileType": 0,
          "value": 0,
          "assetId": 284
        },
        {
          "tileType": 1,
          "value": 0,
          "assetId": 0
        }
      ],
      [
        {
          "tileType": 1,
          "value": 0,
          "assetId": 0
        },
        {
          "tileType": 0,
          "value": 0,
          "assetId": 285
        },
        {
          "tileType": 0,
          "value": 0,
          "assetId": 48
        },
        {
          "tileType": 0,
          "value": 0,
          "assetId": 48
        },
        {
          "tileType": 0,
          "value": 0,
          "assetId": 48
        },
        {
          "tileType": 0,
          "value": 0,
          "assetId": 48
        },
        {
          "tileType": 0,
          "value": 0,
          "assetId": 48
        },
        {
          "tileType": 0,
          "value": 0,
          "assetId": 48
        },
        {
          "tileType": 0,
          "value": 0,
          "assetId": 48
        },
        {
          "tileType": 0,
          "value": 0,
          "assetId": 48
        },
        {
          "tileType": 0,
          "value": 0,
          "assetId": 48
        },
        {
          "tileType": 0,
          "value": 0,
          "assetId": 48
        },
        {
          "tileType": 0,
          "value": 0,
          "assetId": 48
        },
        {
          "tileType": 0,
          "value": 0,
          "assetId": 284
        },
        {
          "tileType": 1,
          "value": 0,
          "assetId": 0
        }
      ],
      [
        {
          "tileType": 1,
          "value": 0,
          "assetId": 0
        },
        {
          "tileType": 0,
          "value": 0,
          "assetId": 285
        },
        {
          "tileType": 0,
          "value": 0,
          "assetId": 48
        },
        {
          "tileType": 0,
          "value": 0,
          "assetId": 48
        },
        {
          "tileType": 0,
          "value": 0,
          "assetId": 48
        },
        {
          "tileType": 0,
          "value": 0,
          "assetId": 48
        },
        {
          "tileType": 0,
          "value": 0,
          "assetId": 48
        },
        {
          "tileType": 0,
          "value": 0,
          "assetId": 48
        },
        {
          "tileType": 0,
          "value": 0,
          "assetId": 48
        },
        {
          "tileType": 0,
          "value": 0,
          "assetId": 48
        },
        {
          "tileType": 0,
          "value": 0,
          "assetId": 48
        },
        {
          "tileType": 0,
          "value": 0,
          "assetId": 48
        },
        {
          "tileType": 0,
          "value": 0,
          "assetId": 48
        },
        {
          "tileType": 0,
          "value": 0,
          "assetId": 284
        },
        {
          "tileType": 1,
          "value": 0,
          "assetId": 0
        }
      ],
      [
        {
          "tileType": 1,
          "value": 0,
          "assetId": 0
        },
        {
          "tileType": 0,
          "value": 0,
          "assetId": 285
        },
        {
          "tileType": 0,
          "value": 0,
          "assetId": 48
        },
        {
          "tileType": 0,
          "value": 0,
          "assetId": 48
        },
        {
          "tileType": 0,
          "value": 0,
          "assetId": 48
        },
        {
          "tileType": 0,
          "value": 0,
          "assetId": 48
        },
        {
          "tileType": 0,
          "value": 0,
          "assetId": 48
        },
        {
          "tileType": 0,
          "value": 0,
          "assetId": 48
        },
        {
          "tileType": 0,
          "value": 0,
          "assetId": 48
        },
        {
          "tileType": 0,
          "value": 0,
          "assetId": 48
        },
        {
          "tileType": 0,
          "value": 0,
          "assetId": 48
        },
        {
          "tileType": 0,
          "value": 0,
          "assetId": 48
        },
        {
          "tileType": 0,
          "value": 0,
          "assetId": 48
        },
        {
          "tileType": 0,
          "value": 0,
          "assetId": 284
        },
        {
          "tileType": 1,
          "value": 0,
          "assetId": 0
        }
      ],
      [
        {
          "tileType": 1,
          "value": 0,
          "assetId": 0
        },
        {
          "tileType": 0,
          "value": 0,
          "assetId": 52
        },
        {
          "tileType": 0,
          "value": 0,
          "assetId": 283
        },
        {
          "tileType": 0,
          "value": 0,
          "assetId": 283
        },
        {
          "tileType": 0,
          "value": 0,
          "assetId": 283
        },
        {
          "tileType": 0,
          "value": 0,
          "assetId": 283
        },
        {
          "tileType": 0,
          "value": 0,
          "assetId": 283
        },
        {
          "tileType": 0,
          "value": 0,
          "assetId": 283
        },
        {
          "tileType": 0,
          "value": 0,
          "assetId": 283
        },
        {
          "tileType": 0,
          "value": 0,
          "assetId": 283
        },
        {
          "tileType": 0,
          "value": 0,
          "assetId": 283
        },
        {
          "tileType": 0,
          "value": 0,
          "assetId": 283
        },
        {
          "tileType": 0,
          "value": 0,
          "assetId": 283
        },
        {
          "tileType": 0,
          "value": 0,
          "assetId": 51
        },
        {
          "tileType": 1,
          "value": 0,
          "assetId": 0
        }
      ],
      [
        {
          "tileType": 1,
          "value": 0,
          "assetId": 0
        },
        {
          "tileType": 1,
          "value": 0,
          "assetId": 0
        },
        {
          "tileType": 1,
          "value": 0,
          "assetId": 0
        },
        {
          "tileType": 1,
          "value": 0,
          "assetId": 0
        },
        {
          "tileType": 1,
          "value": 0,
          "assetId": 0
        },
        {
          "tileType": 1,
          "value": 0,
          "assetId": 0
        },
        {
          "tileType": 1,
          "value": 0,
          "assetId": 0
        },
        {
          "tileType": 1,
          "value": 0,
          "assetId": 0
        },
        {
          "tileType": 1,
          "value": 0,
          "assetId": 0
        },
        {
          "tileType": 1,
          "value": 0,
          "assetId": 0
        },
        {
          "tileType": 1,
          "value": 0,
          "assetId": 0
        },
        {
          "tileType": 1,
          "value": 0,
          "assetId": 0
        },
        {
          "tileType": 1,
          "value": 0,
          "assetId": 0
        },
        {
          "tileType": 1,
          "value": 0,
          "assetId": 0
        },
        {
          "tileType": 1,
          "value": 0,
          "assetId": 0
        }
      ],
      [
        {
          "tileType": 0,
          "value": 0,
          "assetId": 49
        },
        {
          "tileType": 0,
          "value": 0,
          "assetId": 286
        },
        {
          "tileType": 0,
          "value": 0,
          "assetId": 286
        },
        {
          "tileType": 0,
          "value": 0,
          "assetId": 286
        },
        {
          "tileType": 0,
          "value": 0,
          "assetId": 286
        },
        {
          "tileType": 0,
          "value": 0,
          "assetId": 286
        },
        {
          "tileType": 0,
          "value": 0,
          "assetId": 286
        },
        {
          "tileType": 0,
          "value": 0,
          "assetId": 286
        },
        {
          "tileType": 0,
          "value": 0,
          "assetId": 286
        },
        {
          "tileType": 0,
          "value": 0,
          "assetId": 286
        },
        {
          "tileType": 0,
          "value": 0,
          "assetId": 286
        },
        {
          "tileType": 0,
          "value": 0,
          "assetId": 286
        },
        {
          "tileType": 0,
          "value": 0,
          "assetId": 286
        },
        {
          "tileType": 0,
          "value": 0,
          "assetId": 286
        },
        {
          "tileType": 0,
          "value": 0,
          "assetId": 50
        }
      ],
      [
        {
          "tileType": 0,
          "value": 0,
          "assetId": 285
        },
        {
          "tileType": 0,
          "value": 0,
          "assetId": 48
        },
        {
          "tileType": 0,
          "value": 0,
          "assetId": 48
        },
        {
          "tileType": 0,
          "value": 0,
          "assetId": 48
        },
        {
          "tileType": 0,
          "value": 0,
          "assetId": 48
        },
        {
          "tileType": 0,
          "value": 0,
          "assetId": 48
        },
        {
          "tileType": 0,
          "value": 0,
          "assetId": 48
        },
        {
          "tileType": 0,
          "value": 0,
          "assetId": 48
        },
        {
          "tileType": 0,
          "value": 0,
          "assetId": 48
        },
        {
          "tileType": 0,
          "value": 0,
          "assetId": 48
        },
        {
          "tileType": 0,
          "value": 0,
          "assetId": 48
        },
        {
          "tileType": 0,
          "value": 0,
          "assetId": 48
        },
        {
          "tileType": 0,
          "value": 0,
          "assetId": 48
        },
        {
          "tileType": 0,
          "value": 0,
          "assetId": 48
        },
        {
          "tileType": 0,
          "value": 0,
          "assetId": 284
        }
      ],
      [
        {
          "tileType": 0,
          "value": 0,
          "assetId": 285
        },
        {
          "tileType": 0,
          "value": 0,
          "assetId": 48
        },
        {
          "tileType": 0,
          "value": 0,
          "assetId": 48
        },
        {
          "tileType": 0,
          "value": 0,
          "assetId": 48
        },
        {
          "tileType": 0,
          "value": 0,
          "assetId": 48
        },
        {
          "tileType": 0,
          "value": 0,
          "assetId": 48
        },
        {
          "tileType": 0,
          "value": 0,
          "assetId": 48
        },
        {
          "tileType": 0,
          "value": 0,
          "assetId": 48
        },
        {
          "tileType": 0,
          "value": 0,
          "assetId": 48
        },
        {
          "tileType": 0,
          "value": 0,
          "assetId": 48
        },
        {
          "tileType": 0,
          "value": 0,
          "assetId": 48
        },
        {
          "tileType": 0,
          "value": 0,
          "assetId": 48
        },
        {
          "tileType": 0,
          "value": 0,
          "assetId": 48
        },
        {
          "tileType": 0,
          "value": 0,
          "assetId": 48
        },
        {
          "tileType": 0,
          "value": 0,
          "assetId": 284
        }
      ],
      [
        {
          "tileType": 0,
          "value": 0,
          "assetId": 285
        },
        {
          "tileType": 0,
          "value": 0,
          "assetId": 48
        },
        {
          "tileType": 0,
          "value": 0,
          "assetId": 48
        },
        {
          "tileType": 0,
          "value": 0,
          "assetId": 48
        },
        {
          "tileType": 0,
          "value": 0,
          "assetId": 48
        },
        {
          "tileType": 0,
          "value": 0,
          "assetId": 48
        },
        {
          "tileType": 0,
          "value": 0,
          "assetId": 48
        },
        {
          "tileType": 0,
          "value": 0,
          "assetId": 48
        },
        {
          "tileType": 0,
          "value": 0,
          "assetId": 48
        },
        {
          "tileType": 0,
          "value": 0,
          "assetId": 48
        },
        {
          "tileType": 0,
          "value": 0,
          "assetId": 48
        },
        {
          "tileType": 0,
          "value": 0,
          "assetId": 48
        },
        {
          "tileType": 0,
          "value": 0,
          "assetId": 48
        },
        {
          "tileType": 0,
          "value": 0,
          "assetId": 48
        },
        {
          "tileType": 0,
          "value": 0,
          "assetId": 284
        }
      ],
      [
        {
          "tileType": 0,
          "value": 0,
          "assetId": 285
        },
        {
          "tileType": 0,
          "value": 0,
          "assetId": 48
        },
        {
          "tileType": 0,
          "value": 0,
          "assetId": 48
        },
        {
          "tileType": 0,
          "value": 0,
          "assetId": 255
        },
        {
          "tileType": 0,
          "value": 0,
          "assetId": 256
        },
        {
          "tileType": 0,
          "value": 0,
          "assetId": 257
        },
        {
          "tileType": 0,
          "value": 0,
          "assetId": 258
        },
        {
          "tileType": 0,
          "value": 0,
          "assetId": 259
        },
        {
          "tileType": 0,
          "value": 0,
          "assetId": 48
        },
        {
          "tileType": 0,
          "value": 0,
          "assetId": 48
        },
        {
          "tileType": 0,
          "value": 0,
          "assetId": 48
        },
        {
          "tileType": 0,
          "value": 0,
          "assetId": 48
        },
        {
          "tileType": 0,
          "value": 0,
          "assetId": 48
        },
        {
          "tileType": 0,
          "value": 0,
          "assetId": 48
        },
        {
          "tileType": 0,
          "value": 0,
          "assetId": 284
        }
      ],
      [
        {
          "tileType": 0,
          "value": 0,
          "assetId": 285
        },
        {
          "tileType": 0,
          "value": 0,
          "assetId": 48
        },
        {
          "tileType": 0,
          "value": 0,
          "assetId": 48
        },
        {
          "tileType": 0,
          "value": 0,
          "assetId": 263
        },
        {
          "tileType": 0,
          "value": 0,
          "assetId": 264
        },
        {
          "tileType": 0,
          "value": 0,
          "assetId": 265
        },
        {
          "tileType": 0,
          "value": 0,
          "assetId": 266
        },
        {
          "tileType": 0,
          "value": 0,
          "assetId": 267
        },
        {
          "tileType": 0,
          "value": 0,
          "assetId": 48
        },
        {
          "tileType": 0,
          "value": 0,
          "assetId": 48
        },
        {
          "tileType": 0,
          "value": 0,
          "assetId": 48
        },
        {
          "tileType": 0,
          "value": 0,
          "assetId": 48
        },
        {
          "tileType": 0,
          "value": 0,
          "assetId": 48
        },
        {
          "tileType": 0,
          "value": 0,
          "assetId": 48
        },
        {
          "tileType": 0,
          "value": 0,
          "assetId": 284
        }
      ],
      [
        {
          "tileType": 0,
          "value": 0,
          "assetId": 285
        },
        {
          "tileType": 0,
          "value": 0,
          "assetId": 48
        },
        {
          "tileType": 0,
          "value": 0,
          "assetId": 48
        },
        {
          "tileType": 0,
          "value": 0,
          "assetId": 271
        },
        {
          "tileType": 0,
          "value": 0,
          "assetId": 272
        },
        {
          "tileType": 0,
          "value": 0,
          "assetId": 273
        },
        {
          "tileType": 0,
          "value": 0,
          "assetId": 274
        },
        {
          "tileType": 0,
          "value": 0,
          "assetId": 275
        },
        {
          "tileType": 0,
          "value": 0,
          "assetId": 48
        },
        {
          "tileType": 0,
          "value": 0,
          "assetId": 48
        },
        {
          "tileType": 0,
          "value": 0,
          "assetId": 48
        },
        {
          "tileType": 0,
          "value": 0,
          "assetId": 48
        },
        {
          "tileType": 0,
          "value": 0,
          "assetId": 48
        },
        {
          "tileType": 0,
          "value": 0,
          "assetId": 48
        },
        {
          "tileType": 0,
          "value": 0,
          "assetId": 284
        }
      ]
    ],
    "encrypted_examples": "Y5oxU2saAYVgPIsEA2UtbgpirxPfyQgbuyBX978jkHb8P3/b6ls7VSz8nxyw\nx3Dws6/iRepS75TDpamYUQgXJrs0/c3mcg3pa2DnhXFVvobzK3uQhPL4jmsP\nIx1kGlFS\n",
    "name_suffix": "_pilot-2022",
    "encrypted_exemplar_sources": "YiWpVH58QKlsuRPvlCe1bX2RHdDvRRVwdEbxsJZgVFTMDr0LQfCEWggcdfkU\npo97jeTWvakeT2NJ+dUKC1l26YynOB3VrImSMW5bDXdbxIv/JTw2LodU8CD6\nROxcHxAn/wqR1bvmTd9Xo9/oUvUKbUJ/hb0bw52Qk9MgdYxNZaUoujg+UUIM\nRbaerMoVDqWrQpA1hLzH5X3zKZERcgmX9GEDlzC/UUPpu2aagqnBqIYXaf+e\nlJFPZerxmIjN2eshHquXAo5bVqfHb3+rGn1QrpAwRSte+hFk6icDY5IVB1UW\negUDA14EuBo0OFnZiJ2Yxst0AqwQUfDdxp34WiPOJIj4S80nSfkIYAvjt8PO\noOquQCgaCh5d/tSFHVG8dV/r3UqM70m3b7HlY4lFV4CIOQH6N4SrezO1/0UK\nLeILmKkP3ndOQtqYDV+ZO+/A3uUsH8pPiYUsi79SEEfHq5h38sG/PexagiQN\nNE3nxCJG267im+xZjDltsvCwLlNQnOMCdVJiDF7M1yXmOU1mY7iQdMUTb3C4\nRGWHUOL2wY/4Tdy6sv3CmsO5bFms4Ddlfqw1LAljrLnhpTO/P/yu3jZmQEED\ndQW2m83I7etESr22f54QICOt2R8u279JNoEPqT4RI9LT+/u3p8TKFG+jZSAu\nFeczemTmxU9JrdOlkBCThkVCWWpsxlhel25UT4mnzXSoCM1gVZDz4m7GoySn\njefqIq7R4BaPSwyMXzkVGjFLbfPYv6/GKaxURY2l/90tb5i64Mi0qP0L3qYo\nHDYu16qlLlUxbSX/iCg5DwfIfkPJXFWKGNNjSx+jyacWt9MPmRJ6jhY0r5Vr\nTMCIMGWHIH+/+0S2bZ9g+moNg5F2UrfJxGv0UuKnEfnZMpg/NGrg2mRl1HYO\n7vFRPiqRT4Rx20kNUMVUvX8g0IgcV2xPms+Z7ozs0zd5NATPy1C4IE98zqte\n65CC2OkXzAeoiEiWxiymRyP2Jv8QJQGB+A/ur15q+TepiSEpjhpROyq6RdHV\nCPtTHlHyRRE+f0MIHAD88ewc6vcDshoqzIN/6+LvJuB+6GYL52FrIyR6EA+n\nVzptK9bJ9M2zqn+Z6Vdloy2KZxtlUJFKDkBUiiQmFvzFon/7XsS8hBLDxvTk\nxLDBIXtD5fvtw/+5JzMtXzx4MLdtANenMliDRDDxZ/yMklDuhIrftavEmLU2\nQsynrUhOVSvTdg6ymX90CgFV0Eof8CN7wwlPuTCAbOy5RPStzJ07PqLo8Ep5\niRs0dyYonJsC4g0iacAWoWnJia5sDBGKtiOfOwPJFLh2MYnKGpVpKPApfW6U\ni6/19Ch/zDn1dCtQgy+zc6p4miuaMuUt6E1Ni8ti/+kKP8lJw7wteY0uEJIV\nqXi4pnmzMeOHCP0XC8wEAa9JVi01mRfrewyWSlFz6SahIBmo4g4O9Xna0fYW\nyWBgICc+88+gLQOVBHNWCNox6qk0aeINNbCLSau+fE1FdmwGom9DimUzloHc\nruS+1XeseV4JWxzT0FfwyUka1LwCMcJPc0P7938r1Exog2LnDmCBfsrfa1DD\nknbK/Vpss7cplstGGE6UTCXWAQcHG7nJX7LVp3Ho14UGzYaNjqNnJoaV/XQG\ntqNu5UnqpU2tEinCHGtIrYQS96DjsZ5zavzvFDebfHIiXyM/5QvIB+HnfJxn\nWyCs9N8sRRtlL39Tk2KKbouxHqi9v40jo+xPhvY4pA1pg2iRDvBW6XBrTSzP\nBQ+/qwauQiN6n7q3aazeAvGB9gg2GxDj3dEXD9xtD/HwH8v0R1Vi8doAv4Dh\nK8tLTAfNNZWyxIAIOq+0W/hxF0uA+yaCmEdVehRCLwyuDMdidillAfu4r2Im\noK8hkHu2hXD26iryO7LK6LBb7hKfIa2Za2aOSd9lGez97dOn7BAZYWpFyOka\nhCZOFC+J3b2fbcEIbDahotsZpkwwVs0bUHEqjQthpJEHb2ghYRdKXGhfHI1K\nP9zVKhkgKhnO/7x0gfwKekAkb4G4dU6CGN8OvJ9oY6wjoYan1WcWYsT85rS3\nJ8bM9AqlfdBK1hUcP65xgpTFUPdHFgm0EOaZMU8Vud7N9oVdMTkmqv88oG/3\nlAH8wdIMK8nJcuUl9QetEY+NTL0M6d+I4IhxtA63+v/1KT67KJTsyDgzoVdT\nbMGndC1PKkyfTtlc1c4xjWFMr10oYkflyuHSduuPIkW8TJA7zR3rkArtyaU0\nLyLBFlbkyR4cls0/StlTi3h3HDcbe6VL01QkpYyVyIiYG/Q3Q8gWE2EPGJAk\nttnEFvZXg8z88q3kxYxjpsyXyEK/WVf2+Q3o8lecoycJfMWk29ol8v1yEsV1\n7jjz+c72gqFxENZteq6qwvLekBfaWi4hDPXfpY65pOicZ+sKc/n+fD7HyiqJ\nOXNKPEGPALh8ejS3NVGqCtF24FEaZ+AGHQF6GFO2Pz1ow2o1/wxRU+ERiGQz\nLicJL/WN7Allr9ZOeJ2kRPy4gUQj8tMqivb+Nlc3gcmmyTp4G968C3QitLvo\nGiV6rnQ/LR08MiEyaH7RyhJGYyArMRCxmxxAkrcvGsAbq2GbndeMe7r/1Iyg\nQOF59B5yr+J/I7ONCiKb4jkZI1LJ1nTQ6bsjPFkPQP4TpZwQxsQtrs8t0DBg\nyWfC8SjuVZRzkvxrGcuEOV9UrPcpigGJlW6Ir1GWJ+ZnhZuffCfNn29wWf30\nFHlFHcrTExZoxqsXWBd25XOJJO8pK9TF964dk+/cFU7S9zsPsdgQPwFoQQNU\nBKYvzk+ICTdsBIxamJZM69sG/+sBQlZS6Ydn1L/g5QKILlVGa5SpjsJtJfid\nBUVMBXLjyJINNXf5LKe6S7bximuCejHHCkzibS6W7iYWQlS4WFutDm9sSyaO\n6VIKpVRAFSUXXMcnIk15dISRnbuFPz88fvEu5MIr1CCxN7EL+X9pj20eBBEI\nFUiMNuUpQWgqz/8JQlhKfzFFxuELEKr/4fL3seeR85+4b55O2H9h8Q9kNw0p\nhZkWBdCLfRzUlwZWHZXVh+j/dDVSc4ep7k+5OIdT5hXPU+qRXyeAnApqrg42\ncL07MwOrWkpufDV+7uBCwSYBlDwA/Xx6qSj/mCVU4YEP9wvy43C9TjAsSMPY\nIAngIjJy2Qweyr90A44OjuA7KNUzuOuxZnbiu3vXo5l48HbE5tWVsyb75oPe\nfL5j+Ku7isB2BjjJ9CZjNAW7p3/mEZHt1zbYCrcB85V3BsMCLBTr/6jpm4dN\npeMTOw0jp8PXg6PdiPdgleuw5n6ZHKa48KqNBydTzre3aA5H3PjaL4EhEXUF\nxLjYiAh+K9c9y5ryXxJJr5dYBWgVCpYdJt4GwWFEkZJNa64hmmEeg5f+rx7I\ns3O5rkzk28/LAjMPizQsvXmNYEAQ+Wdxxqxlrb4iwylBaxnTYDLGFFfyjKzz\nr3h29E6Sn9EnDNaQg9M7YUqmIWC+6PYmVH19HovCLyEPatR6nFmkLg5b4W7w\np17QTAPdLRIo3b00Vm1X9aRAyg6baKbNGlCseOjKsRCbtfQ0iBKvShu6Um2V\npq2L/Hd/nQHR9jwjHgvWSffj9vCes3QvDeJWBZ1fCx9G2/UdQaU0LrJHARs4\nvySPHcA85cjWrBX3vj9aVEhBVEzTdC8YSCxEIQYIvAQWoUFxIZ+LYZ5eogJJ\ncya6ma4/QOBi9aDQsQb5MZsh7esY3BYdJbzBQmLK5DyskIeeLa2wljnAhMEn\nymeaZEmZk8wXRdSiXRpwmmE7CvbxCv2D0bLhBWAUHu9A9oimTbcy9hHW4YeY\nCPUyN0R3rBrmqxmKj8ZRkUARxxO+XOwHrA8wZTYSTryQiSZ9Ba/8gp3Gg1nA\nUYGzh0UyzB3nBnPLwUsqnRpNacwPoF4cGc9S+jjoJKdNDoxrz5kZgk/i8PJP\nxhcI1bvWxuU6HIYOCD9jEMrLWMIdaK5IhxS9UsatrCiAtP3rWp68ZH/ZxOu0\n6GI+NUkjpWa+RvbiGt4tj1E3haT7NmZWnicUWMMqWXoy1J2Z0+MsAq3h3htO\nrKc7C5tU9WNjb4FIvpgInJlUPWOvf5wWSR5N/LYkJKClcpdlu+Rmnn0AdTmT\nCMyU3Uyn/5DlrRQHPVqbsvL7W5MDnjhn44yMqV6KCsMGAdk7YdYKKQ3pLKP0\n6wI3q7gwYd7x0m86sDupCDNnz+Dfo4jWecMQiAOQrWdaJdlbdmxFPp5Ws2XC\nsK7tWSZV01HntDZx2rmbcMeudM/TBf7NMjB9ELGkWQEnar+0U97Wc/HVg8lV\n8aTFYIwG4kzv67B1NFQCo/Ohh7DqgtzyKoUvZalLEYfJ9s9HwF5m10yKgpV8\npMDxP2VIRFaZH5Ub2Eoca6APBwXmn2nilNRXS0afR4+SPruoXzFPtstz2QfW\ns9iVEC4xYRCJAto=\n",
    "display_name": "Social Media Posts",
    "bubble_choice_description": "Use private and public methods to mark posts on a social media platform based on the privacy of a user's profile.",
    "thumbnail_url": "https://images.code.org/f175cf80ab7deb53ef3aa3f3c7671778-social-media.png"
  },
  "published": true,
  "audit_log": "[{\"changed_at\":\"2022-08-23T20:55:39.300+00:00\",\"changed\":[\"cloned from \\\"CSA U7L4-L2b_2022\\\"\"],\"cloned_from\":\"CSA U7L4-L2b_2022\"}]"
}]]></config>
</Javalab>
