<Javalab>
  <config><![CDATA[{
  "published": true,
  "game_id": 68,
  "created_at": "2022-10-14T21:44:13.000Z",
  "level_num": "custom",
  "user_id": 16889,
  "properties": {
    "encrypted": "false",
    "mini_rubric": "false",
    "submittable": "false",
    "hide_share_and_remix": "true",
    "csa_view_mode": "neighborhood",
    "display_name": "Paint Until Empty",
    "project_template_level_name": "CSA U1L6-PainterPlus PBT_2023",
    "long_instructions": "Paint the space a <code style=\"background-color: #ececec; color: black; font-weight: bold;\">Painter</code> object is currently standing on and move forward one space until the <code style=\"background-color: #ececec; color: black; font-weight: bold;\">Painter</code> object runs out of paint.\r\n\r\n✅ **TO DO:** Write the method <code style=\"background-color: #ececec; color: black; font-weight: bold;\">paintToEmpty()</code> and use it in The Neighborhood.\r\n\r\n1. In <code style=\"background-color: #ececec; color: black; font-weight: bold;\">PainterPlus.java</code>, write the method <code style=\"background-color: #ececec; color: black; font-weight: bold;\">paintToEmpty()</code> with the parameter <code style=\"background-color: #ececec; color: black; font-weight: bold;\">String color</code> to have a <code style=\"background-color: #ececec; color: black; font-weight: bold;\">Painter</code> object paint the space it is currently standing on and move forward one space until the <code style=\"background-color: #ececec; color: black; font-weight: bold;\">Painter</code> object runs out of paint.\r\n\r\n2. In <code style=\"background-color: #ececec; color: black; font-weight: bold;\">NeighborhoodRunner.java</code>, use your <code style=\"background-color: #ececec; color: black; font-weight: bold;\">paintToEmpty()</code> method to navigate in The Neighborhood.\r\n\r\n<div style=\"background-color: #E0D1EC; border: 1px solid #9660bf; border-radius: 5px; font-size: 1.1em; padding: 15px; margin-bottom: 10px;\">\r\n💡 <strong>TIP:</strong> Check out the <strong>Help & Tips</strong> tab ⬆️ for help with writing a method or a <code style=\"background-color: #ececec; color: black; font-weight: bold;\">while</code> loop.\r\n</div>\r\n\r\n📝 **COMMENT:** Be sure to add comments to note what your code does.\r\n\r\n🖥️ **TEST:** Test your program to check if your code achieves the expected result.\r\n\r\n🎉 **RUN:** Run your program to see the result of your code!\r\n\r\n**Note**: Code that you have written previously for the <code style=\"background-color: #ececec; color: black; font-weight: bold;\">PainterPlus</code> class will be seen here.\r\n\r\n## 🎯 Goal\r\n\r\n![](https://images.code.org/7cbd14f2f9bb0fa92b7a61655081ad1c-image-1666027799811.gif)",
    "bubble_choice_description": "Write the method `paintToEmpty()` to paint the space a `Painter` object is standing on and move forward one space until the `Painter` object runs out of paint.",
    "serialized_maze": [
      [
        {
          "tileType": 1,
          "value": 0,
          "assetId": 0
        },
        {
          "tileType": 1,
          "value": 4,
          "assetId": 303
        },
        {
          "tileType": 0,
          "value": 0,
          "assetId": 12
        },
        {
          "tileType": 0,
          "value": 0,
          "assetId": 13
        },
        {
          "tileType": 1,
          "value": 0,
          "assetId": 0
        },
        {
          "tileType": 0,
          "value": 0,
          "assetId": 285
        },
        {
          "tileType": 0,
          "value": 0,
          "assetId": 48
        },
        {
          "tileType": 0,
          "value": 0,
          "assetId": 48
        }
      ],
      [
        {
          "tileType": 1,
          "value": 0,
          "assetId": 0
        },
        {
          "tileType": 1,
          "value": 0,
          "assetId": 0
        },
        {
          "tileType": 0,
          "value": 0,
          "assetId": 14
        },
        {
          "tileType": 0,
          "value": 0,
          "assetId": 15
        },
        {
          "tileType": 1,
          "value": 0,
          "assetId": 0
        },
        {
          "tileType": 0,
          "value": 0,
          "assetId": 285
        },
        {
          "tileType": 0,
          "value": 0,
          "assetId": 48
        },
        {
          "tileType": 0,
          "value": 0,
          "assetId": 48
        }
      ],
      [
        {
          "tileType": 1,
          "value": 0,
          "assetId": 0
        },
        {
          "tileType": 1,
          "value": 0,
          "assetId": 0
        },
        {
          "tileType": 0,
          "value": 0,
          "assetId": 16
        },
        {
          "tileType": 0,
          "value": 0,
          "assetId": 17
        },
        {
          "tileType": 1,
          "value": 0,
          "assetId": 0
        },
        {
          "tileType": 0,
          "value": 0,
          "assetId": 285
        },
        {
          "tileType": 0,
          "value": 0,
          "assetId": 48
        },
        {
          "tileType": 0,
          "value": 0,
          "assetId": 48
        }
      ],
      [
        {
          "tileType": 1,
          "value": 0,
          "assetId": 0
        },
        {
          "tileType": 1,
          "value": 0,
          "assetId": 0
        },
        {
          "tileType": 0,
          "value": 0,
          "assetId": 18
        },
        {
          "tileType": 0,
          "value": 0,
          "assetId": 19
        },
        {
          "tileType": 1,
          "value": 0,
          "assetId": 0
        },
        {
          "tileType": 0,
          "value": 0,
          "assetId": 285
        },
        {
          "tileType": 0,
          "value": 0,
          "assetId": 48
        },
        {
          "tileType": 0,
          "value": 0,
          "assetId": 48
        }
      ],
      [
        {
          "tileType": 1,
          "value": 0,
          "assetId": 0
        },
        {
          "tileType": 1,
          "value": 0,
          "assetId": 0
        },
        {
          "tileType": 1,
          "value": 0,
          "assetId": 0
        },
        {
          "tileType": 1,
          "value": 0,
          "assetId": 0
        },
        {
          "tileType": 1,
          "value": 0,
          "assetId": 0
        },
        {
          "tileType": 0,
          "value": 0,
          "assetId": 285
        },
        {
          "tileType": 0,
          "value": 0,
          "assetId": 48
        },
        {
          "tileType": 0,
          "value": 0,
          "assetId": 48
        }
      ],
      [
        {
          "tileType": 0,
          "value": 0,
          "assetId": 286
        },
        {
          "tileType": 0,
          "value": 0,
          "assetId": 286
        },
        {
          "tileType": 0,
          "value": 0,
          "assetId": 286
        },
        {
          "tileType": 0,
          "value": 0,
          "assetId": 286
        },
        {
          "tileType": 0,
          "value": 0,
          "assetId": 286
        },
        {
          "tileType": 0,
          "value": 0,
          "assetId": 280
        },
        {
          "tileType": 0,
          "value": 0,
          "assetId": 48
        },
        {
          "tileType": 0,
          "value": 0,
          "assetId": 48
        }
      ],
      [
        {
          "tileType": 0,
          "value": 0,
          "assetId": 48
        },
        {
          "tileType": 0,
          "value": 0,
          "assetId": 48
        },
        {
          "tileType": 0,
          "value": 0,
          "assetId": 48
        },
        {
          "tileType": 0,
          "value": 0,
          "assetId": 48
        },
        {
          "tileType": 0,
          "value": 0,
          "assetId": 48
        },
        {
          "tileType": 0,
          "value": 0,
          "assetId": 48
        },
        {
          "tileType": 0,
          "value": 0,
          "assetId": 48
        },
        {
          "tileType": 0,
          "value": 0,
          "assetId": 48
        }
      ],
      [
        {
          "tileType": 0,
          "value": 0,
          "assetId": 48
        },
        {
          "tileType": 0,
          "value": 0,
          "assetId": 48
        },
        {
          "tileType": 0,
          "value": 0,
          "assetId": 48
        },
        {
          "tileType": 0,
          "value": 0,
          "assetId": 48
        },
        {
          "tileType": 0,
          "value": 0,
          "assetId": 48
        },
        {
          "tileType": 0,
          "value": 0,
          "assetId": 48
        },
        {
          "tileType": 0,
          "value": 0,
          "assetId": 48
        },
        {
          "tileType": 0,
          "value": 0,
          "assetId": 48
        }
      ]
    ],
    "encrypted_exemplar_sources": "TFI5x/qrTvxmY5LlF2G9AbTyYs9BXqTjMJzhHtMrLQA95KIRYXiBsJxp2JJW\nB9QY7ZeOu1GsnAzJ36DWGSaIEQarGO578s59+ksSNJCyrhB902JzfvPCy7f2\n7Oqc+2z+lWKR0DvqdDaDZVjo+atkXUw2MDq6d2Z1PYSjn09wE6z+KTXTbAsD\nQovxjUf4cIUoG0eHHE2jAqkr3QOPMCnu0IYlGSAkl14A2Gd42l8KgEKXV2mV\n6u0zgFjnNxTCVxgsA7RG0suJwEaTMXQTa91Wjz+uuDDchf0zEw6VZmAunDaY\niDNF84Atmhccajr88ytVqPoWAFRW5p9zOEJLew2++7QQXiF9yDkr5oghxDkN\nzfc5VKXLXINXaUjyRcQKr9RPu9+TLitjj7Sj0liF64j5W11S5kKQu95R+a0U\nfVeA0b/nWI6pqk3JJBjUmvHjKkK8W2/K+0d67DnbUFhY1xS0WbQrXYkm02si\nS1XLQWIOBUUDtMUYGAchddNgwbjm9/X94OZvy9hBTG+35d2YCGhoHL/ejH3d\nTAU9Y4mZqgIashd283KICDwSUAcy94Z3LzxP/bDD56J4yydQqS9BQvFfX+lF\n6VV4NKddTGMGPH3uS0Y4U/g3KHIPcWv8QB2c6X92C6g9bT0JXbhFnROBMobU\nVaU2g354020Ln8Ui4sXNmI6+zRQXuW/zIbJJFgPtT9amLhrMRnP1usJGq1Nw\nCwmdirO8uLa5xG6oEpAs04yXHqECf92B9olP4L1TdFUGw819jiIaK1C2ctci\nF31EX5YY21qxo1jNBoJ2cNkqy3JRXm6upWSHJOYeN6eDAkPlePYfultggY8p\n+ZpxFIVj5EtWNxXUVVQlME3RAXG6rvvRSP8+RzBEJlRNyvCMAyHFqhWE8/J3\nUt0ob95aqeL4V+ALczm3H+9cFq2qv1Tt4VADrjM+/AvfNBs43A7/7z8KiOo6\nNGlXXV/290tx69SjtECeKq1x280Vp7Pzms0GAc4s7l8YyoEE1BbicZpp4g6d\n6PU9+0wbFfgcEx+RNaYc+Mr7ELwxpEm1PcRj6mSkx1aAd4vJTA0qm2AoIcYk\nH493UVjs5X2fm8tZkZW55w8aGbShoYVXUVwU9Acl7/0RF/lcj4ZZ7yAe//+4\njLc63sHcefjnCykRE84kDF6iXK+Y/2zp9MqFDZImhr3N47o6HSOCYMNuxSTR\nJF7erXVP5OVOLpTULtZIk5bph/yTHG5CuskFIu+TR4ddOPF/1wJLDFOVoGC+\nP54I5dZvXHo5ioyY/STzb0eTDzAGNmgF5MBXcNz75I8uocxae4G51Je4+DMi\n7k440EEi7d72cD5reVWSEEzztqXimLbACTuof4/RVkUDabsrsrJ4H5pA+Wl3\naD4IdwiVFCwYTNgSMpJHYywiX2eI83IkepMTQw81U/w64v3PAkUfxrxrM5vN\nMO5NeUpkGvGeJL3B9AxzXGcm1b5H9QCVL1Wm8judpatZdaATT3qQOKepPffj\nKbfu3Y5fEOygkmaQWigjSR46iLCzzS+5C7c7iR6wqFx/ElN0UIHAw7oh4RxO\n8LmMy8RPpk2/5ZYBAlDseoekRVc2IAqf1naoCwvQCFG5SsImGCnpcqhX9RFe\nvJTnYRUhpWKR7EZFkwSmpU0WcCIyK8vbJ6Qi+7zyIanjLI9Eb39iU47bymNm\n/zzIPHi9tjiefWQaOE0fzgmbt4qr22SJhwXD9J2k7nd4Pq/hxmJtbNI6ogkT\n63gyuWO4WA==\n",
    "thumbnail_url": "https://images.code.org/54f08882b26bffc003ea70590709c03e-u1l7-l5c.gif",
    "encrypted_validation": "PMXSW4h6NKQADj3HVNe/yK+I8i22EOSlisZVWrp38b041P2IZJbd21zdUdyr\nSuU4faZQUPv6WCRkxb1goSuxDzYN8zzUPGTLsalk7wwFbVBPX/hjjAb4nChG\nvKl7D2ZJbgzQjxOxsveKXfN3UngvMc9Ou2czJefB/A8dyn9tmssapV64PL4l\nny450irzqX1vBW+cVGoc5YkZtTYfeGnzJwT87bJ5hmpKf0F2EXesopsnYaj0\nIlqFDwtNTMke0csLP4cqWDFHNE19GNVUCCWAfMEHVKwLeAIuLV2ohppd3zNL\ngSlqmaPSEh4vcu337iDRE1Rd1Oakw0sROPd4MSzdEr7bbdxNrYanmlCqbr7j\nQ4zAy6cC+XXZlY19SUCaoXJCZGpHzbl5sOAFVmvcAfUlAj+Aorea0NQcNdZF\n6L9KY1XXMsArGO34QqwB5scG9ZsFU0amYLNIDt5F1GUIkKyUciKmgxmpqyO0\nAbVghfKRLDF86ia5puQZx1nOSLkbpWdq9So5M0UwnB18lCuQvMZavnMiD1/J\nVvTxc5KVcBjql7RNJLvOB+0QnhiFtgZDaG2R+0c2MhTb2dPYQnzyyvFCmi5F\nRgcvSTiNMXFqP0vgTBuG4FBd25lA5Dvk+7a6ku9PvlJ9UaqS45ThaSsZ9NLq\ncj4bF3czWb/BEK5Tv6B7aBfQzjm/OuRB6ItFswOyHx1cpwUSRouE8bhSKjOw\nBTiEMXfOK30ZOWm3bxaIkm/roVWO0vafmAybQH4fCMP509Kv0wyiyIi1dCa2\nN1/97gX/405Wr5wp+IehdVrF1hIPPcJijOyRH2ffE86wF4cqPYW9q8rIMxXK\nnCCS5Er5mGKlpYhQ0Ri/y710P4tJmMr+ly/acIIN9mP3QjFdHSI/mlUR1vPY\nTKzLjm/KUVt4+m1mu+EexAF+d8Q5AH8dYf10fLrY04c+r40ZheP/aTiLdN8I\nn/VkdB4f4ZYbJULykNd/ai7oo20SQBdsLzKBiLcsoEadqoEwbKTJj1OEW4cc\nnB+j7nHDI+1ruHgqMzFI8SFdfngeMrPj1vv8aPRt6ACF8000gVNNkhw2B/wu\n8udPKT/2MNieIcbeuY027KOwr7G3ZaeKEAxnBZ/LsNt2PJud5W13sCZlV/yI\nnfzsL6uRWpRE1ET4qql9+4EzQc3lwqkjibJ7nry7P+gBWuavNdp1HuIRYQao\npL/I2FQj4AKbiCivl02nYfRKwrhV5S3AY4GDr4KeV0YL0tkPo/Ome8fyayw2\nM6ARXEd6OczeyXxhzSTQKEVWvXMTVZpgwq3WcGlHY9qNwX+0WfpXkIdFt/lw\nJ5TNufLy5v+sGYjTpuRIKauixQT9htQj3ZpFy6fWC2l6A/2qQ94Hsy4eR4FX\nAoXJKcShPATjFm4F9vbFWueRFIKQTVjjeM+5d2a4ZipyVI5rFXGxeQNQxsCr\nljlkJtTGEJQqc4IDy/iw5GsLbagaymu9HrLEYlhebmgOHrxS3V4BuOkTrfY4\nVM+GHhBMKNK2TlqSuhhAohrRN4wGqGr2RlTrRE9pLKx+PexEcKPP0YcdTHUg\neAAEO6HTfIKsxCTSjSBnM6W+GW+V0HfMRAP2M31Gk6fmrE8jYG2xhsIts2XR\nlh6xN9aBjXPxHw8TFoQa7OiUPYALPB6pTpwnzuVZDhoCsY3vopavhUZYZkr7\nxWqa6MnTXf94FejD3KkPXiY4VELgIJe/TR8Qt5cVk+x8+QMFTjhzTaLrZII6\nFzlHA7FRYRoeaPPUdGBH9EQj7zc13iHwdgdrIgXodA+doDqCUu9XVskA1tN5\nZbH5NmmnkJgGyviTN22akuwz8sFnByK4/KEvjz0tAgl3Q9skg8gdbF0kphzD\nl3I6DDTlzGrxmfL9kp5dNFVQMHmWKFu5b6qcz5Oj6rOFlS/8OBP+jCQOuOzA\nQfkWS1oEacQbbYECz7fV47VUZgCfLjLg5qPg+EjUKgicYufeLWMIRmMNO4ag\nWHKuXB6/PxiiElfGE0wevpAjgzizlE+YW+7zYNaVbguv1W25k2+iESvjnM3t\nhoG/eKxPKnXrSESHhdUz7M1/GRCBQodurRC4Q8azdXN5fosASJkVRPZZroFF\n8bM7+WOTj+0JD67IS9zYCLv/liBWIrmWJGQ7fgwHZCitNCG3VTIHth09Sizo\nuxybTkssi+vFmdQ7DWDiq5y2+63WFZjhHMYkGCOwumEgzc1G6cIv4Tv7T2cd\n7tNwo4LMhiLFyeLLdLWqx9wHRCEZTDWCqPAGKlhjdtYnJDcGom4ctI3DldVn\n60K9aurKMJ6KI/lY/GEOYOhnCo19ij7go3zRjEW0iKFASIbHrwzWBIjb6ep0\n3771L6v6eqsBHcCJhi7IBfWRpgSTLDN7ebF0wgDJklPtYaulC7idYrVHj7tx\ndmzfphWhSFM8bpU4KfOChwUAO6KydPQSpCUzTRNBbFLwnQwbvrUDYk6zS5RI\nSabohTc0LXp8W3DP8ARhVg9y7NDNjUccQX28jrei4vMLaW4shbk0UdkQMnWO\nWGGzNAWekjsQEzDL+AwNelrKzmwXf8o687QNEjvVn6EVzdInOmwe0I1dOD5a\n3PWv/v392C5kbJOmDpBBhi2C7TkoxOWckocJDu8BLMNKHJnphjMgtuum9dJY\nAVywqCaEKy6xTQLqMuNjXqydrKneDZHYItkQLhl56Y1BI1ai36EaD45/WhvD\nvfMrUPrBDqdvhdxgyUmONv0mwZjl5XQhvT+hEuTVXkhViSZzdxJf97DEjkpu\n7MY4MMr2+FIlPkimPk3ZXchE724t3cNXScrZRp9EdmqfzX9jM+9LzRlPki/m\nrdHeKPq4tDu6E3Pdqza309eqM3M+zhcKUbNVt4SfdsNt2uC+oLGHjD+FiVtT\n2I9ECdYqRljpvM/N9FjO4tZtyGGXVLzIh5cK8ZbcbiYTqyF2NYhqGIekMVVc\nfLez1ApH/71l/6PABkwkzSq7geJMlsjKTGdzDxILUXilmgGKjaT/misyY1T5\nY04mMbEmmZWRldqUZttFDOIMqwepu5ixgC0U3R5VBfrHbDXZN6m8GF8Qfn8t\nZvhyJrndH4PWC3UBoqlQG/ubZl2y/xpw6HcLHfhLoHabgC4jKFTWpVY6PlPE\nEWdzE+EFL/VITiQ1ONeTD6TezQ8jLIaV/9skjg0NqtuQiHbDKWBkoGoKYI2b\n+QWHcrJN2xsNotkQ+8vX4sOSYYef0Y433Px7yxjxuwurQPUR5h9yvTyZX9XE\n19HwXAzlilhzZ+r3BqnLxZ9e4iUTKzncQfGwjAoMOSpdU3FffgJz6wkfvwYS\nQrcwCHF4335a6aY9Eaq8Lb+/1mbmWgFukyfL0LqbRa7E1TAT/dWUoKB9Ro7f\nv/VErYiJ3BcuvWZ8nf9MMBXPJiTg85NdAM2b81ERhljAQdvHlOWHDlkIwA1/\n1wCHbiO3+indTn3fa6l5aXiKewA676/m2Dq/X/b+Z+FWagluWM4OLxbVs507\n9gnfEVrgqzxg7S1kR5oIcpNnjbyDZsFqf3qm9R1M5OJeSGStMxTYnNneW5De\n4N0BG6cC3T5uDU5WU8CarL4/mOu9G7/o7bcX74bMWwf/hYKQZ9bePL9MRGvs\n9syOIH+GHa5p+Uri7nXgBmyA445elfW09SD6CSkkkSWkei18MoGyAsyI75Vx\nRP16FnRt0+8yGF58J3vTswGWUjmvgoDOi/kNZSw5ASiveKJH9vMVjnjYH1bV\nyjsIXKUQ9ikDtahrl2ie8w88isjqJ497fuDYpQLYNkJ3HcZz2Gg4rvJcYCmI\ngFsax72W3Sp5oGU/zYTQ5gT+N03Rdge3U8EFavzZtxKsp542piJxWDaIDTkZ\nUkormScEdZVFQGDDGPWRuOAoyBY+F5wwO8fQF0WqOCG8gevVr05KGLSsaVtk\neFE19d/Z1oc6CX2uabEjRJUKUQ==\n",
    "start_sources": {
      "NeighborhoodRunner.java": {
        "text": "import org.code.neighborhood.*;\n\npublic class NeighborhoodRunner {\n  public static void main(String[] args) {\n\n\n\n    \n  }\n}",
        "isVisible": true,
        "tabOrder": 0
      }
    },
    "reference_links": [
      "/courses/csa-2023/guides/writing-a-method",
      "/courses/csa-2023/guides/while-loops"
    ],
    "video_key": "csa_writing_a_method",
    "encrypted_examples": [

    ]
  },
  "audit_log": "[{\"changed_at\":\"2022-10-14T21:44:13.353+00:00\",\"changed\":[\"cloned from \\\"CSA U1L7-L5b_2023\\\"\"],\"cloned_from\":\"CSA U1L7-L5b_2023\"},{\"changed_at\":\"2022-10-14 21:44:16 +0000\",\"changed\":[],\"changed_by_id\":16889,\"changed_by_email\":\"jamila+lb@code.org\"},{\"changed_at\":\"2022-10-17 16:08:28 +0000\",\"changed\":[\"csa_view_mode\",\"contained_level_names\"],\"changed_by_id\":16889,\"changed_by_email\":\"jamila+lb@code.org\"},{\"changed_at\":\"2022-10-17 17:26:44 +0000\",\"changed\":[],\"changed_by_id\":16889,\"changed_by_email\":\"jamila+lb@code.org\"},{\"changed_at\":\"2022-10-17 17:27:24 +0000\",\"changed\":[\"long_instructions\",\"serialized_maze\"],\"changed_by_id\":16889,\"changed_by_email\":\"jamila+lb@code.org\"},{\"changed_at\":\"2022-10-17 17:29:06 +0000\",\"changed\":[\"encrypted_exemplar_sources\"],\"changed_by_id\":16889,\"changed_by_email\":\"jamila+lb@code.org\"},{\"changed_at\":\"2022-10-17 17:30:09 +0000\",\"changed\":[\"long_instructions\",\"serialized_maze\"],\"changed_by_id\":16889,\"changed_by_email\":\"jamila+lb@code.org\"},{\"changed_at\":\"2022-10-17 18:17:36 +0000\",\"changed\":[],\"changed_by_id\":16889,\"changed_by_email\":\"jamila+lb@code.org\"},{\"changed_at\":\"2022-10-17 18:19:45 +0000\",\"changed\":[],\"changed_by_id\":16889,\"changed_by_email\":\"jamila+lb@code.org\"},{\"changed_at\":\"2022-10-17 18:20:06 +0000\",\"changed\":[],\"changed_by_id\":16889,\"changed_by_email\":\"jamila+lb@code.org\"},{\"changed_at\":\"2022-10-17 18:21:14 +0000\",\"changed\":[],\"changed_by_id\":16889,\"changed_by_email\":\"jamila+lb@code.org\"},{\"changed_at\":\"2022-10-17 18:22:32 +0000\",\"changed\":[],\"changed_by_id\":16889,\"changed_by_email\":\"jamila+lb@code.org\"},{\"changed_at\":\"2022-10-17 18:25:36 +0000\",\"changed\":[],\"changed_by_id\":16889,\"changed_by_email\":\"jamila+lb@code.org\"},{\"changed_at\":\"2022-10-17 18:25:46 +0000\",\"changed\":[\"start_sources\"],\"changed_by_id\":16889,\"changed_by_email\":\"jamila+lb@code.org\"},{\"changed_at\":\"2022-10-17 23:39:14 +0000\",\"changed\":[\"encrypted_validation\",\"start_sources\"],\"changed_by_id\":16889,\"changed_by_email\":\"jamila+lb@code.org\"},{\"changed_at\":\"2022-10-20 19:44:05 +0000\",\"changed\":[\"long_instructions\",\"serialized_maze\",\"contained_level_names\"],\"changed_by_id\":16889,\"changed_by_email\":\"jamila+lb@code.org\"},{\"changed_at\":\"2022-10-25 15:51:45 +0000\",\"changed\":[\"bubble_choice_description\",\"serialized_maze\",\"contained_level_names\"],\"changed_by_id\":16889,\"changed_by_email\":\"jamila+lb@code.org\"},{\"changed_at\":\"2022-10-26 15:01:34 +0000\",\"changed\":[\"hide_share_and_remix\",\"serialized_maze\",\"contained_level_names\"],\"changed_by_id\":16889,\"changed_by_email\":\"jamila+lb@code.org\"},{\"changed_at\":\"2022-11-02 15:31:57 +0000\",\"changed\":[\"encrypted_exemplar_sources\"],\"changed_by_id\":16889,\"changed_by_email\":\"jamila+lb@code.org\"},{\"changed_at\":\"2022-11-04 13:25:08 +0000\",\"changed\":[\"encrypted_exemplar_sources\"],\"changed_by_id\":16889,\"changed_by_email\":\"jamila+lb@code.org\"},{\"changed_at\":\"2023-01-18 18:40:31 +0000\",\"changed\":[\"serialized_maze\",\"contained_level_names\"],\"changed_by_id\":16889,\"changed_by_email\":\"jamila+lb@code.org\"},{\"changed_at\":\"2023-03-08 20:43:34 +0000\",\"changed\":[\"long_instructions\",\"serialized_maze\",\"contained_level_names\"],\"changed_by_id\":16889,\"changed_by_email\":\"jamila+lb@code.org\"},{\"changed_at\":\"2023-03-09 21:17:03 +0000\",\"changed\":[\"long_instructions\",\"serialized_maze\",\"contained_level_names\"],\"changed_by_id\":16889,\"changed_by_email\":\"jamila+lb@code.org\"},{\"changed_at\":\"2023-09-29 19:46:10 +0000\",\"changed\":[\"long_instructions\",\"serialized_maze\",\"contained_level_names\"],\"changed_by_id\":18603,\"changed_by_email\":\"erik+levelbuilder@code.org\"}]"
}]]></config>
</Javalab>
