<Javalab>
  <config><![CDATA[{
  "game_id": 68,
  "created_at": "2024-01-12T20:43:25.000Z",
  "level_num": "custom",
  "user_id": 16889,
  "properties": {
    "encrypted": "false",
    "mini_rubric": "false",
    "submittable": "false",
    "hide_share_and_remix": "true",
    "csa_view_mode": "neighborhood",
    "display_name": "Several Syntax Errors",
    "bubble_choice_description": "This program has three syntax errors that are preventing it from running. Can you find and fix the errors?",
    "serialized_maze": [
      [
        {
          "tileType": 1,
          "value": 0,
          "assetId": 0
        },
        {
          "tileType": 1,
          "value": 0,
          "assetId": 0
        },
        {
          "tileType": 1,
          "value": 0,
          "assetId": 0
        },
        {
          "tileType": 1,
          "value": 0,
          "assetId": 0
        },
        {
          "tileType": 1,
          "value": 0,
          "assetId": 0
        },
        {
          "tileType": 1,
          "value": 0,
          "assetId": 0
        },
        {
          "tileType": 1,
          "value": 0,
          "assetId": 0
        },
        {
          "tileType": 1,
          "value": 0,
          "assetId": 0
        },
        {
          "tileType": 1,
          "value": 0,
          "assetId": 0
        },
        {
          "tileType": 1,
          "value": 0,
          "assetId": 0
        }
      ],
      [
        {
          "tileType": 0,
          "value": 0,
          "assetId": 286
        },
        {
          "tileType": 0,
          "value": 0,
          "assetId": 286
        },
        {
          "tileType": 0,
          "value": 0,
          "assetId": 50
        },
        {
          "tileType": 1,
          "value": 0,
          "assetId": 0
        },
        {
          "tileType": 1,
          "value": 4,
          "assetId": 303
        },
        {
          "tileType": 1,
          "value": 0,
          "assetId": 0
        },
        {
          "tileType": 1,
          "value": 0,
          "assetId": 0
        },
        {
          "tileType": 1,
          "value": 0,
          "assetId": 0
        },
        {
          "tileType": 1,
          "value": 0,
          "assetId": 0
        },
        {
          "tileType": 1,
          "value": 0,
          "assetId": 0
        }
      ],
      [
        {
          "tileType": 0,
          "value": 0,
          "assetId": 48
        },
        {
          "tileType": 0,
          "value": 0,
          "assetId": 48
        },
        {
          "tileType": 0,
          "value": 0,
          "assetId": 284
        },
        {
          "tileType": 1,
          "value": 0,
          "assetId": 0
        },
        {
          "tileType": 1,
          "value": 0,
          "assetId": 0
        },
        {
          "tileType": 1,
          "value": 0,
          "assetId": 0
        },
        {
          "tileType": 1,
          "value": 0,
          "assetId": 0
        },
        {
          "tileType": 1,
          "value": 0,
          "assetId": 0
        },
        {
          "tileType": 1,
          "value": 0,
          "assetId": 0
        },
        {
          "tileType": 1,
          "value": 0,
          "assetId": 0
        }
      ],
      [
        {
          "tileType": 0,
          "value": 0,
          "assetId": 123
        },
        {
          "tileType": 0,
          "value": 0,
          "assetId": 124
        },
        {
          "tileType": 0,
          "value": 0,
          "assetId": 125
        },
        {
          "tileType": 1,
          "value": 0,
          "assetId": 0
        },
        {
          "tileType": 1,
          "value": 0,
          "assetId": 0
        },
        {
          "tileType": 1,
          "value": 0,
          "assetId": 0
        },
        {
          "tileType": 1,
          "value": 0,
          "assetId": 0
        },
        {
          "tileType": 1,
          "value": 0,
          "assetId": 0
        },
        {
          "tileType": 1,
          "value": 0,
          "assetId": 0
        },
        {
          "tileType": 1,
          "value": 0,
          "assetId": 0
        }
      ],
      [
        {
          "tileType": 0,
          "value": 0,
          "assetId": 129
        },
        {
          "tileType": 0,
          "value": 0,
          "assetId": 130
        },
        {
          "tileType": 0,
          "value": 0,
          "assetId": 131
        },
        {
          "tileType": 1,
          "value": 0,
          "assetId": 0
        },
        {
          "tileType": 1,
          "value": 0,
          "assetId": 0
        },
        {
          "tileType": 1,
          "value": 0,
          "assetId": 0
        },
        {
          "tileType": 1,
          "value": 0,
          "assetId": 0
        },
        {
          "tileType": 1,
          "value": 0,
          "assetId": 0
        },
        {
          "tileType": 1,
          "value": 0,
          "assetId": 0
        },
        {
          "tileType": 1,
          "value": 0,
          "assetId": 0
        }
      ],
      [
        {
          "tileType": 0,
          "value": 0,
          "assetId": 135
        },
        {
          "tileType": 0,
          "value": 0,
          "assetId": 136
        },
        {
          "tileType": 0,
          "value": 0,
          "assetId": 137
        },
        {
          "tileType": 1,
          "value": 0,
          "assetId": 0
        },
        {
          "tileType": 1,
          "value": 0,
          "assetId": 0
        },
        {
          "tileType": 1,
          "value": 0,
          "assetId": 0
        },
        {
          "tileType": 1,
          "value": 0,
          "assetId": 0
        },
        {
          "tileType": 1,
          "value": 0,
          "assetId": 0
        },
        {
          "tileType": 1,
          "value": 0,
          "assetId": 0
        },
        {
          "tileType": 1,
          "value": 0,
          "assetId": 0
        }
      ],
      [
        {
          "tileType": 0,
          "value": 0,
          "assetId": 143
        },
        {
          "tileType": 0,
          "value": 0,
          "assetId": 144
        },
        {
          "tileType": 0,
          "value": 0,
          "assetId": 145
        },
        {
          "tileType": 1,
          "value": 0,
          "assetId": 0
        },
        {
          "tileType": 1,
          "value": 0,
          "assetId": 0
        },
        {
          "tileType": 1,
          "value": 0,
          "assetId": 0
        },
        {
          "tileType": 1,
          "value": 0,
          "assetId": 0
        },
        {
          "tileType": 1,
          "value": 0,
          "assetId": 0
        },
        {
          "tileType": 1,
          "value": 0,
          "assetId": 0
        },
        {
          "tileType": 1,
          "value": 0,
          "assetId": 0
        }
      ],
      [
        {
          "tileType": 0,
          "value": 0,
          "assetId": 151
        },
        {
          "tileType": 0,
          "value": 0,
          "assetId": 152
        },
        {
          "tileType": 0,
          "value": 0,
          "assetId": 153
        },
        {
          "tileType": 1,
          "value": 0,
          "assetId": 0
        },
        {
          "tileType": 1,
          "value": 0,
          "assetId": 0
        },
        {
          "tileType": 1,
          "value": 0,
          "assetId": 0
        },
        {
          "tileType": 1,
          "value": 0,
          "assetId": 0
        },
        {
          "tileType": 1,
          "value": 0,
          "assetId": 0
        },
        {
          "tileType": 1,
          "value": 0,
          "assetId": 0
        },
        {
          "tileType": 1,
          "value": 0,
          "assetId": 0
        }
      ],
      [
        {
          "tileType": 0,
          "value": 0,
          "assetId": 48
        },
        {
          "tileType": 0,
          "value": 0,
          "assetId": 48
        },
        {
          "tileType": 0,
          "value": 0,
          "assetId": 284
        },
        {
          "tileType": 1,
          "value": 0,
          "assetId": 0
        },
        {
          "tileType": 1,
          "value": 0,
          "assetId": 0
        },
        {
          "tileType": 1,
          "value": 0,
          "assetId": 0
        },
        {
          "tileType": 1,
          "value": 0,
          "assetId": 0
        },
        {
          "tileType": 1,
          "value": 0,
          "assetId": 0
        },
        {
          "tileType": 1,
          "value": 0,
          "assetId": 0
        },
        {
          "tileType": 1,
          "value": 0,
          "assetId": 0
        }
      ],
      [
        {
          "tileType": 0,
          "value": 0,
          "assetId": 48
        },
        {
          "tileType": 0,
          "value": 0,
          "assetId": 48
        },
        {
          "tileType": 0,
          "value": 0,
          "assetId": 284
        },
        {
          "tileType": 1,
          "value": 0,
          "assetId": 0
        },
        {
          "tileType": 1,
          "value": 0,
          "assetId": 0
        },
        {
          "tileType": 1,
          "value": 0,
          "assetId": 0
        },
        {
          "tileType": 1,
          "value": 0,
          "assetId": 0
        },
        {
          "tileType": 1,
          "value": 0,
          "assetId": 0
        },
        {
          "tileType": 1,
          "value": 0,
          "assetId": 0
        },
        {
          "tileType": 1,
          "value": 0,
          "assetId": 0
        }
      ]
    ],
    "long_instructions": "##Fix the Error\r\n\r\nRun the program to see the error displayed in the console.\r\n\r\n✅ **TO DO:** This program has **three** syntax errors to fix! Find and fix the syntax errors in the program.\r\n\r\n<div style=\"background-color: #E0D1EC; border: 1px solid #9660bf; border-radius: 5px; font-size: 1.1em; padding: 15px; margin-bottom: 10px;\">\r\n💡 <strong>TIP:</strong> Check out the <strong>Help & Tips</strong> tab ⬆️ for tips for finding and fixing syntax errors!\r\n</div>\r\n\r\n🖥️ **TEST:** Test your program to check if your code achieves the expected result.\r\n\r\n🎉 **RUN:** Run your program to see the result of your code!",
    "start_sources": {
      "NeighborhoodRunner.java": {
        "text": "import org.code.neighborhood.*;\n\npublic class NeighborhoodRunner {\n  public static void main(String[] args) {\n\n    // Creates a Painter called aria\n    Painter aria = new Painter();\n\n    // Moves forward four spaces\n    aria.move();\n    aria.move();\n    aria.move();\n    aria.move();\n\n    // Turns right by turning left three times\n    aria.turnLeft();\n    aria.turnLeft()\n    aria.turnLeft();\n\n    // Moves forward one space\n    aria.move();\n\n    // Takes paint four times to get all the paint from the bucket\n    aria.takePaint();\n    aRia.takePaint();\n    aria.takePaint();\n    aria.takePaint();\n\n    // Moves and paints four times\n    aria.move();\n    aria.paint(\"plum\");\n    aria.move();\n    aria.paint(\"plum\");\n    aria.move;\n    aria.paint(\"plum\");\n    aria.move();\n    aria.paint(\"plum\");\n\n    // Moves forward one space to get off the paint\n    aria.move();\n    \n  }\n}",
        "isVisible": true,
        "tabOrder": 0
      }
    },
    "encrypted_exemplar_sources": "kq0Pf5c4aweori7RVLPa2YdCHg6i+267r90rZwE5q3QjjBR/PpJw16UPErsZ\nOeh4qfLblV2+VqgN8BPD2q7DnCxGP5o5gO7ZWKksNeXKjWUP/WXQjTz1ViqD\ns4wjKtwZG69gOBENSMfA68S4np7rRqBLm+mvf344gfEeBs5ZmBG4Jn6tNFp2\nkg702gBdkwXV+U5sRLpD8wMTihWVsyPpNW27d9bjnP48papu8BOxoVWgVU3L\nbTPA1jmizEWiz/QPrBpGd1q9NqxEXHgkA3QXV9unJArf2e21ClvHjpl7fUqQ\nLIfXnt8W1sSbBuqez89GQ9n17JQhHo7Sx0DNzTcX9p+tt80XGmnoM9ua4OvB\nTGOt7Oa6R0fsHy/F7t+zH4XIGMObafMMZOtFUXGCSx1zYSsnQ0EYC2kJRJGp\nmiIweVFVKjtmlCnsy4XD1amYBXgwnQEEpiMQ38G4SiXegsNndSU3unaLzIPw\nKO1Vewb7sfL0ZTZoib3a1V9ckzkuT7g6MADMJ0qvrxXlOy9cwSty9JCIjbVe\nT06HeyO8a0J49CCx8oGmKgy/sJISY7Sz2bYtzkxM/0QrmNUoC96hHFtaAc/6\ni8XXju24zAI3d1uKD30D0E0ifLG6UZzLTMy/0Y17WRe6zWLPI/XHSQDgpcOf\nHzsZ7JRFUZRUtwL/iNalnEK19MlknSLGmXt+9dpUD3FnGdcJeR2osK2bjtcM\nX5bZr/+gqk9UwPvMSi3rYjo4shgT3qLCpeC1PR6/svIa9jvpjJWX9zfDOrAn\nYpde3e0dOkpENDF+ZTM328qL+CANX6dOGecYXMqQSLaGTHdYh5sW2gllEP39\nEe1DIpXpeBl8c2zBpJgk4KLuHQRzI9I2CcnOuco+MCW7hS1MaZLYMkEX4MwP\nq79snHqgOQr8TqhspKveY6zKBnU4NIW2BeSS8RbbRuTleNC28I13f+v70tNi\nWyMysl9EHuxHmI9oPqYy6l9C16Ly0usfmowez7hBsJPVBrC9iNU1QWPZV1Rj\nNmpMVRepyvfYvY5Kyl7G3vhMmJKUmB6KOsKFJuFrWdmYaniUNzVpzhDDnbRq\nt2E9M18LUUZ6oXQeN72lVYueHS5bUUM2MT2aQoi5Rx0/UVku6uoo6Ptn/6TU\nojvCzZTK9rUp7zx6TEFzFwQA4ZsTRXuvye8xcwA4LAyxWtSr1VohjyfXI2Kf\nNRcmh26fTQ40uVF2Lp4wQBasgHaU70vurmNk5+r0TmpfKYV78url2y8IAaSO\nSSsz45uk0JkHko+SChoWFjH2oX7j7b2aqNZ+jUIRyQ==\n",
    "teacher_markdown": "The first error occurs on **Line 34**. The line\r\n\r\n```\r\naria.move;\r\n```\r\n\r\nis missing the parenthesis.\r\n\r\nThe second error occurs on **Line 17**. The line\r\n\r\n```\r\naria.turnLeft()\r\n```\r\n\r\nis missing the semicolon at the end of the statement.\r\n\r\nThe third error occurs on **Line 25**. The line\r\n\r\n```\r\naRia.takePaint();\r\n```\r\n\r\nhas a capital `R` in `aria` and should be all lowercase.",
    "thumbnail_url": "https://images.code.org/82a67e23b152a3d907b8769e631e4aab-U1L2-L4c.png",
    "encrypted_validation": "P+fEJkEQW9FcZIoo/ak1FxE4B2sRnoI2gdxCZ3uRBZJ6igpwYM8ybA2Gmi2w\n2xWC5E4ZjJW2Z6fpXFV2Pa1EOoT7nig/I7yuYtgZgTCesCesrbjnbqclPlgh\niPFUHe1VJbXDgN62rVx0pje3izSpTZ5gtzPXJXRv6G9yrJ3FjRiGU5BZIfA7\nyMhyTX0pnx7CFf1057995Tb9VtmyO1R0llYn7PmC+CLK04as5R30KH0isIeM\nDFmU2EMB3CXvPvzq2L1fu4lMC/vgmyNJuDeez85T2Ltr+ZHe6XbZnMAdu9Vl\nQrLTNP5LHj5YffXJL47uZo7jc1Vrs6UvbLWPeiIJmIhPR+00r8Ps+AVh5bT6\ngHm80AU3NElHSXE6n+RTMafHVD/cRfzXUuVmhWZKftMekI/qfpmdUNMEhy80\nzYpX71KOub4pPriGOxyjL9mjWoOgmpPJTBnzlB50SKl5xOvn/Tx5KT3ich4A\nLA9lvkgTWvl2TmqkYGuAk2J+plst0uItv/Bp7z2DPQcj6cPIByFDkAbEb840\nocidTYVJw7cfXv2HZacNzoD/+GbZO+UhpO3utS+bNo7SCC/TSv3rcL8rsmSC\nDqDCGJNJM6vpdhwJgP3MxfajhqNn5/cGoNRTg4PgGIQz9Ji13F+buo897xbL\nHDkjfQ0xn857lz9rGZXH7QcbyW5NR9HmM3MYzINMj/YGvoGgvvmU7qm5hPxE\nzJpxZLyvtXdHkxbBkrNtfqllzJ9uYOiYH0xX+Vf4tNVXkWf4tZz0Hthfm0ag\nqmQrsgoyT95enqTNKNS+WdNP3EyLpK5uv34IhxEwX43mNecV2Z3Wy2kfTGxo\n6xtSwqRNRr8zldfV7rC0OY1nXGRFx92HGIrk5EexQJyflfMtezBFrvmNJkff\nVYM6CvpoWMMIs+6YBDGbggWGJmGjsrmeLAA52tm6swqyZ2GSlolRb9A/oOSX\nDqj7+oxS6zPaYIPkfZr4aiYqOXZzrU/tOG3WY6Xd4xMnOPzKzZs+Bb+X3BEJ\nEo+m4Y+OlCix4eTXNtNvQfduuQwuqQYh4Bx2ke/R/vrKlcJeXQwc9CfbEjwV\nPrpn55jbYTM9IzsnGBdXVD2zQyarRA6tw0GiLaMTq8CXC8NiIDPfYfxZsm9a\nkDFXoc2zqNL/81D2w0n0hyeY6fL1L7eGxrbaSs9hmab41Kfn6r3eq16f4DL7\neL0rLsOOhPWavdlxxvyWGA4t6WwwoQcBrdO4gBNLBjtovA5bwnVPv5zqkH9I\nlrtSGw8Flq0SwODywcqQPZPG7BTvYG60YvTu0QwqXla7uWtuTo+5rkXcwKGT\nFFD+iG/DioRwoJMQoEzn4GuCV+wOzgzJE3UeSci4tBYyqXk9ApCV8ZyLzYka\nxxPHAXKL/V7oaDR+SX6rL+yrU5yUGas+5iLce43KgZocfScahvGyW/ryUfYO\n1nTMTHsAYEEBPP2YzAAbQ94G57SeNVZi3cYnRaIgT5VdTMypQPstEdhmmBXh\nCTUnIk3PObcuAWhe16Pw7S2wDKHgUHm96WQLxpetUz55/nfrD8geFn3ZdVLX\n8OMfvTFP3Dt3jZsXcw27AZbP/V1U2mAqhkb+e93mahI3jYi/R1HejE7tsJIv\n2oPCpVty1pvGoA18YAQKPXvcGZNLGi3wz1Lun06fz3O+aWU8M5JC3tE5gJFC\n5pqvAgGTISVmCM16U/bXI590BL+8OjNFM69eRrFMmNOndg7g8txTWAhHkESl\np7IO1XgWuThn+aVaaaiElmUVYjqTwcdOrqp9JxFi6IzMQ0nZshxXelqapTyd\nwz2ZJ+vc40cR6oUcT/ZndXpvKMxfiCEhwAxhPDcheulUDueWm86ocow+FcjR\nNFncD/VCJA2FvnHtLX6kIE5TrfGZ1M/xVn5fwDK2WkhYm9xm3pdr/4wv16O7\n4Ik4wevRifTcOfpXNeA3Ha8bvGAHa6NTc63J8JWAtPc/UypU8jaooFc0IYer\nnBNLh0KibbzwAisSs0a1dap5jGuHPM5v1MomYzEdEZsbW5dYe3mrtmkdjrn5\nNgHUGlDlatyWdQP0W+LqZdOZpzHe0GLowMdyKAD38wGi0eRrtMpmHbW5INUV\nsbTozwFUJyh2MtfmkVs6ED0BMbTJcVUGOwTbQKruMYxOxZTjiu+AqJiLAw3f\nA48+nQ3u1D7SbSpUC8v06GGsDRAt/J5oGbO86gIJaNJQfEUmuZKINAYqLg2x\ne+FgXSXR3iHeKl+55k5iVzeTp54RXh9XKqpUQqacpfOM17x2lMCfoyHn/yFt\naMVqRQVYp+iupnJnJlYgfCR6uxHxTU2RhZcj5n3QyITuruh40SVr3bGqdA+Y\nRbSg1qbFjXCJZJ+yXlDPAMJerSYOQUZXTctlwYYMPGnies1ijU69bUCGspG9\nQfyNXBsgRjtrr8g6HGm8d1PoS26kyEvaVfWZnc5bzfEpfgDOxK+ResOGFcV6\nf7371aBZku/E+l+xwl/yf0j4oepehWLKONrGeq281MvQYvS728Js+Mz3uZYm\n52Cp2qBK1ei3ATXEr5cVWJ3A0b4TfBAQCrjg72jNeq0uC4PTbHvMGJWiEMag\nBkW+ViYklv485qmwSjIrZ53cbZ89QERRObzmHcy1AKqmuFBhaHviWnnwsjbl\nJw/c3wqxMOVvd0X8iozQzvQXpEsWpGIlFYLkR1Em0xiuAX4r47XObaIJu5r+\n/YtZYLc1x/KNtgEvjmBuvthw9cioq0zdQ+YW8Ul2lR5t/y0RfgggeFYANzD+\nB9CHpgmPHBfgcxtycLb14cCyk+2CJ6ATDd4swCmfIVJ8VOMm3MfDU/YZ\n",
    "reference_links": [
      "/courses/csa-2023/guides/reading-error-messages"
    ],
    "name_suffix": "_2024"
  },
  "published": true,
  "audit_log": "[{\"changed_at\":\"2024-01-12T20:43:25.637+00:00\",\"changed\":[\"cloned from \\\"CSA U1L2-L4c_2023\\\"\"],\"cloned_from\":\"CSA U1L2-L4c_2023\"}]"
}]]></config>
</Javalab>
