<Javalab>
  <config><![CDATA[{
  "game_id": 68,
  "created_at": "2024-01-12T20:43:38.000Z",
  "level_num": "custom",
  "user_id": 16889,
  "properties": {
    "encrypted": "false",
    "mini_rubric": "false",
    "submittable": "false",
    "hide_share_and_remix": "false",
    "csa_view_mode": "neighborhood",
    "start_sources": {
      "NeighborhoodRunner.java": {
        "text": "import org.code.neighborhood.*;\n\npublic class NeighborhoodRunner {\n  public static void main(String[] args) {\n\n    // Creates a Painter object\n    Painter ella = new Painter();\n\n    // Moves forward one space\n    ella.move();\n\n    // Takes paint three times to get all the paint from the bucket\n    ella.takePaint();\n    ella.takePaint();\n    ella.takePaint();\n\n    // Moves and paints three times\n    ella.paint(\"white\");\n    ella.move();\n    ella.paint(\"white\");\n    ella.move();\n    ella.paint(\"white\");\n\n    // Turns right by turning left three times\n    ella.turnLeft();\n    ella.turnLeft();\n    ella.turnLeft();\n\n    // Moves forward one space\n    ella.move();\n\n    // Takes paint three times to get all the paint from the bucket\n    ella.takePaint();\n    ella.takePaint();\n    ella.takePaint();\n\n    // Moves and paints three times\n    ella.paint(\"white\");\n    ella.move();\n    ella.paint(\"white\");\n    ella.move();\n    ella.paint(\"white\");\n\n    // Moves forward one space then takes paint three times to get all the paint from the bucket\n    ella.move();\n\n    /* ---- 🔎 ADD YOUR CODE HERE TO TAKE PAINT FROM THE PAINT BUCKET ---- */\n\n    \n\n    /* ---- 🔎 ADD YOUR CODE BELOW THIS LINE ---- */\n\n\n\n    \n    \n  }\n}",
        "isVisible": true,
        "tabOrder": 0
      }
    },
    "serialized_maze": [
      [
        {
          "tileType": 1,
          "value": 0,
          "assetId": 0
        },
        {
          "tileType": 1,
          "value": 3,
          "assetId": 303
        },
        {
          "tileType": 1,
          "value": 0,
          "assetId": 0
        },
        {
          "tileType": 1,
          "value": 0,
          "assetId": 0
        },
        {
          "tileType": 0,
          "value": 0,
          "assetId": 82
        },
        {
          "tileType": 0,
          "value": 0,
          "assetId": 61
        },
        {
          "tileType": 0,
          "value": 0,
          "assetId": 61
        },
        {
          "tileType": 0,
          "value": 0,
          "assetId": 61
        }
      ],
      [
        {
          "tileType": 0,
          "value": 0,
          "assetId": 88
        },
        {
          "tileType": 0,
          "value": 0,
          "assetId": 89
        },
        {
          "tileType": 0,
          "value": 0,
          "assetId": 78
        },
        {
          "tileType": 1,
          "value": 3,
          "assetId": 303
        },
        {
          "tileType": 0,
          "value": 0,
          "assetId": 72
        },
        {
          "tileType": 0,
          "value": 0,
          "assetId": 76
        },
        {
          "tileType": 0,
          "value": 0,
          "assetId": 77
        },
        {
          "tileType": 0,
          "value": 0,
          "assetId": 78
        }
      ],
      [
        {
          "tileType": 0,
          "value": 0,
          "assetId": 48
        },
        {
          "tileType": 0,
          "value": 0,
          "assetId": 48
        },
        {
          "tileType": 0,
          "value": 0,
          "assetId": 80
        },
        {
          "tileType": 1,
          "value": 0,
          "assetId": 0
        },
        {
          "tileType": 0,
          "value": 0,
          "assetId": 83
        },
        {
          "tileType": 0,
          "value": 0,
          "assetId": 80
        },
        {
          "tileType": 1,
          "value": 3,
          "assetId": 303
        },
        {
          "tileType": 0,
          "value": 0,
          "assetId": 83
        }
      ],
      [
        {
          "tileType": 0,
          "value": 0,
          "assetId": 48
        },
        {
          "tileType": 0,
          "value": 0,
          "assetId": 48
        },
        {
          "tileType": 0,
          "value": 0,
          "assetId": 81
        },
        {
          "tileType": 1,
          "value": 0,
          "assetId": 0
        },
        {
          "tileType": 0,
          "value": 0,
          "assetId": 85
        },
        {
          "tileType": 0,
          "value": 0,
          "assetId": 87
        },
        {
          "tileType": 1,
          "value": 0,
          "assetId": 0
        },
        {
          "tileType": 0,
          "value": 0,
          "assetId": 81
        }
      ],
      [
        {
          "tileType": 0,
          "value": 0,
          "assetId": 48
        },
        {
          "tileType": 0,
          "value": 0,
          "assetId": 48
        },
        {
          "tileType": 0,
          "value": 0,
          "assetId": 83
        },
        {
          "tileType": 1,
          "value": 3,
          "assetId": 303
        },
        {
          "tileType": 1,
          "value": 0,
          "assetId": 0
        },
        {
          "tileType": 1,
          "value": 0,
          "assetId": 0
        },
        {
          "tileType": 1,
          "value": 0,
          "assetId": 0
        },
        {
          "tileType": 0,
          "value": 0,
          "assetId": 80
        }
      ],
      [
        {
          "tileType": 0,
          "value": 0,
          "assetId": 48
        },
        {
          "tileType": 0,
          "value": 0,
          "assetId": 48
        },
        {
          "tileType": 0,
          "value": 0,
          "assetId": 85
        },
        {
          "tileType": 0,
          "value": 0,
          "assetId": 77
        },
        {
          "tileType": 0,
          "value": 0,
          "assetId": 86
        },
        {
          "tileType": 0,
          "value": 0,
          "assetId": 77
        },
        {
          "tileType": 0,
          "value": 0,
          "assetId": 86
        },
        {
          "tileType": 0,
          "value": 0,
          "assetId": 87
        }
      ],
      [
        {
          "tileType": 0,
          "value": 0,
          "assetId": 48
        },
        {
          "tileType": 0,
          "value": 0,
          "assetId": 48
        },
        {
          "tileType": 0,
          "value": 0,
          "assetId": 48
        },
        {
          "tileType": 0,
          "value": 0,
          "assetId": 48
        },
        {
          "tileType": 0,
          "value": 0,
          "assetId": 48
        },
        {
          "tileType": 0,
          "value": 0,
          "assetId": 48
        },
        {
          "tileType": 0,
          "value": 0,
          "assetId": 48
        },
        {
          "tileType": 0,
          "value": 0,
          "assetId": 48
        }
      ],
      [
        {
          "tileType": 0,
          "value": 0,
          "assetId": 48
        },
        {
          "tileType": 0,
          "value": 0,
          "assetId": 48
        },
        {
          "tileType": 0,
          "value": 0,
          "assetId": 48
        },
        {
          "tileType": 0,
          "value": 0,
          "assetId": 48
        },
        {
          "tileType": 0,
          "value": 0,
          "assetId": 48
        },
        {
          "tileType": 0,
          "value": 0,
          "assetId": 48
        },
        {
          "tileType": 0,
          "value": 0,
          "assetId": 48
        },
        {
          "tileType": 0,
          "value": 0,
          "assetId": 48
        }
      ]
    ],
    "name_suffix": "_2024"
  },
  "published": true,
  "audit_log": "[{\"changed_at\":\"2024-01-12T20:43:38.634+00:00\",\"changed\":[\"cloned from \\\"CSA U1L5 Painting PBT_2023\\\"\"],\"cloned_from\":\"CSA U1L5 Painting PBT_2023\"}]"
}]]></config>
</Javalab>
