<Javalab>
  <config><![CDATA[{
  "game_id": 68,
  "created_at": "2024-01-16T23:00:34.000Z",
  "level_num": "custom",
  "user_id": 16889,
  "properties": {
    "encrypted": "false",
    "mini_rubric": "false",
    "submittable": "false",
    "hide_share_and_remix": "true",
    "csa_view_mode": "neighborhood",
    "display_name": "A Couple Syntax Errors",
    "bubble_choice_description": "This program has two syntax errors that are preventing it from running. Can you find and fix the errors?",
    "serialized_maze": [
      [
        {
          "tileType": 1,
          "value": 0,
          "assetId": 0
        },
        {
          "tileType": 1,
          "value": 0,
          "assetId": 0
        },
        {
          "tileType": 1,
          "value": 0,
          "assetId": 0
        },
        {
          "tileType": 1,
          "value": 0,
          "assetId": 0
        },
        {
          "tileType": 1,
          "value": 0,
          "assetId": 0
        },
        {
          "tileType": 1,
          "value": 0,
          "assetId": 0
        },
        {
          "tileType": 1,
          "value": 0,
          "assetId": 0
        },
        {
          "tileType": 1,
          "value": 0,
          "assetId": 0
        }
      ],
      [
        {
          "tileType": 1,
          "value": 0,
          "assetId": 0
        },
        {
          "tileType": 1,
          "value": 3,
          "assetId": 303
        },
        {
          "tileType": 0,
          "value": 0,
          "assetId": 76
        },
        {
          "tileType": 0,
          "value": 0,
          "assetId": 77
        },
        {
          "tileType": 0,
          "value": 0,
          "assetId": 77
        },
        {
          "tileType": 0,
          "value": 0,
          "assetId": 77
        },
        {
          "tileType": 0,
          "value": 0,
          "assetId": 78
        },
        {
          "tileType": 1,
          "value": 0,
          "assetId": 0
        }
      ],
      [
        {
          "tileType": 1,
          "value": 0,
          "assetId": 0
        },
        {
          "tileType": 1,
          "value": 0,
          "assetId": 0
        },
        {
          "tileType": 0,
          "value": 0,
          "assetId": 80
        },
        {
          "tileType": 0,
          "value": 0,
          "assetId": 48
        },
        {
          "tileType": 0,
          "value": 0,
          "assetId": 48
        },
        {
          "tileType": 0,
          "value": 0,
          "assetId": 48
        },
        {
          "tileType": 0,
          "value": 0,
          "assetId": 81
        },
        {
          "tileType": 1,
          "value": 0,
          "assetId": 0
        }
      ],
      [
        {
          "tileType": 1,
          "value": 0,
          "assetId": 0
        },
        {
          "tileType": 1,
          "value": 0,
          "assetId": 0
        },
        {
          "tileType": 0,
          "value": 0,
          "assetId": 80
        },
        {
          "tileType": 0,
          "value": 0,
          "assetId": 48
        },
        {
          "tileType": 0,
          "value": 0,
          "assetId": 48
        },
        {
          "tileType": 0,
          "value": 0,
          "assetId": 48
        },
        {
          "tileType": 0,
          "value": 0,
          "assetId": 81
        },
        {
          "tileType": 1,
          "value": 0,
          "assetId": 0
        }
      ],
      [
        {
          "tileType": 1,
          "value": 0,
          "assetId": 0
        },
        {
          "tileType": 1,
          "value": 0,
          "assetId": 0
        },
        {
          "tileType": 0,
          "value": 0,
          "assetId": 80
        },
        {
          "tileType": 0,
          "value": 0,
          "assetId": 48
        },
        {
          "tileType": 0,
          "value": 0,
          "assetId": 48
        },
        {
          "tileType": 0,
          "value": 0,
          "assetId": 48
        },
        {
          "tileType": 0,
          "value": 0,
          "assetId": 81
        },
        {
          "tileType": 1,
          "value": 0,
          "assetId": 0
        }
      ],
      [
        {
          "tileType": 1,
          "value": 0,
          "assetId": 0
        },
        {
          "tileType": 1,
          "value": 0,
          "assetId": 0
        },
        {
          "tileType": 0,
          "value": 0,
          "assetId": 85
        },
        {
          "tileType": 0,
          "value": 0,
          "assetId": 86
        },
        {
          "tileType": 0,
          "value": 0,
          "assetId": 86
        },
        {
          "tileType": 0,
          "value": 0,
          "assetId": 77
        },
        {
          "tileType": 0,
          "value": 0,
          "assetId": 87
        },
        {
          "tileType": 1,
          "value": 0,
          "assetId": 0
        }
      ],
      [
        {
          "tileType": 1,
          "value": 0,
          "assetId": 0
        },
        {
          "tileType": 1,
          "value": 0,
          "assetId": 0
        },
        {
          "tileType": 1,
          "value": 0,
          "assetId": 0
        },
        {
          "tileType": 1,
          "value": 0,
          "assetId": 0
        },
        {
          "tileType": 1,
          "value": 0,
          "assetId": 0
        },
        {
          "tileType": 1,
          "value": 0,
          "assetId": 0
        },
        {
          "tileType": 1,
          "value": 0,
          "assetId": 0
        },
        {
          "tileType": 1,
          "value": 0,
          "assetId": 0
        }
      ],
      [
        {
          "tileType": 1,
          "value": 0,
          "assetId": 0
        },
        {
          "tileType": 1,
          "value": 0,
          "assetId": 0
        },
        {
          "tileType": 1,
          "value": 0,
          "assetId": 0
        },
        {
          "tileType": 1,
          "value": 0,
          "assetId": 0
        },
        {
          "tileType": 1,
          "value": 0,
          "assetId": 0
        },
        {
          "tileType": 1,
          "value": 0,
          "assetId": 0
        },
        {
          "tileType": 1,
          "value": 0,
          "assetId": 0
        },
        {
          "tileType": 1,
          "value": 0,
          "assetId": 0
        }
      ]
    ],
    "long_instructions": "##Fix the Error\r\n\r\nRun the program to see the error displayed in the console.\r\n\r\n✅ **TO DO:** This program has **two** syntax errors to fix! Find and fix the syntax errors in the program.\r\n\r\n<div style=\"background-color: #E0D1EC; border: 1px solid #9660bf; border-radius: 5px; font-size: 1.1em; padding: 15px; margin-bottom: 10px;\">\r\n💡 <strong>TIP:</strong> Check out the <strong>Help & Tips</strong> tab ⬆️ for tips for finding and fixing syntax errors!\r\n</div>\r\n\r\n🖥️ **TEST:** Test your program to check if your code achieves the expected result.\r\n\r\n🎉 **RUN:** Run your program to see the result of your code!",
    "start_sources": {
      "NeighborhoodRunner.java": {
        "text": "import org.code.neighborhood.*;\n\npublic class NeighborhoodRunner {\n  public static void main(String[] args) {\n\n    // Creates a Painter called mason\n    Painter mason = new Painter();\n\n    // Moves forward one space\n    mason.move();\n\n    // Turns right by turning left three times\n    mason.turnLeft();\n    mason.turnLeft();\n    mason.turnLeft();\n\n    // Moves forward one space\n    mason.move();\n\n    // Takes paint three times to get all the paint from the bucket\n    mason.takePaint();\n    mason.takePaint();\n    mason.takepaint();\n\n    // Moves and paints three times\n    mason.move();\n    mason.paint(\"SkyBlue\");\n    mason.move();\n    mason.paint(\"SkyBlue\");\n    mason.move()\n    mason.paint(\"SkyBlue\");\n\n    // Moves forward one space to get off the paint\n    mason.move();\n    \n  }\n}",
        "isVisible": true,
        "tabOrder": 0
      }
    },
    "encrypted_exemplar_sources": "kq0Pf5c4aweori7RVLPa2YdCHg6i+267r90rZwE5q3QjjBR/PpJw16UPErsZ\nOeh4N4ZLzhu86CEsR/GKVCiA1jm0z6Nng/h7K8Oe8mzRCGcIlUL/t3paVNMU\nAfdey1g+3a/Vcz9v2XIcpMCQHfmeGR5EvyW3Dv+CCAr9ic6TNDukbOY0hWqI\nlBSz4X8JjcU7TQsR727/CFTuKUx7y0N1D+x/fgNe9FhQ8CgkAJyl4ktwGIrD\nLYfaCLbGcD3qpbLXeOxsBSbdjObKZGDGJAruQEKY4RKZdoF0O4qxarKgiIm2\nIQGwGHKYhcp8SmmaFijr9pCevwmTnftDYuMp4cBRdzjF/hRvRx8guu/9lJHx\nldq1b6MMvr/vDdQsQqdL51QErL+6otWKlpB0vRaWVyu4TeVS9iPiXTCcy8Ux\n/MazboLK0xZaYbhLXX80wDdMxdgRXUF5Pra7hZgqdt7ZTVCoSMDABJv6lPGM\ncU+z0hcYb7rhJhsAcKzEC7cRgHVLo3uJh0ujhgF66COwfRwPpxuPzPtYl1ry\nVErCrvlYOr6joeZvY1iyZZrR+UQgBhOQy4fzWgwVpMEcv1HQSvePFgcMuNb9\nbmYFRsNzkncDTqid339M6g5Nj2PiMHDnfVPrFxItJG1V/UezZY4+zsuxH4J6\nHOozOLcDQMBsoq/D7qrHZGN4V3pr+7zDm775MuEWV+uQmbm8XRSkFUq81vTd\nwbRZ2TIDscmQv7twtD0OUcFd6oyclhdbsGSUmK5fFdCMb5Z7/kM55ZHiclTu\n6uuPGWUbzt1BpdxN6lssNHimnirzwNffgrdpjz3oPQROehbWSKmxVHAZV1Uk\n4Hgn932Jaz3wD5TbX6Mw4G43LuRH1WNdalhGj1aeyGa7B/OAZrLk7f83ig/i\nwHl4G8qHJAbIOGCtFxIrZ+p6NljEnMKl9F6gwsQCvH1KE/OFFal5v+mwine8\nXuUQf7hWPOJJMdQ9VIxDbK5aEBHAxQzapGx36pxnjQhFI7D9qX0S+FwSoyhi\nMzZgPsjpLGL04c+69F4rz/Ef3bLN8XyAz5D5Op5NgzznUTH+VYEm2bSvpuXd\n/SEAINPlVO6Uihcvo7uORo9cdLt6eExyYsZjNcP/ridx3s/k6q0GGwEEc6fx\nan6CERfwx+19Fpwh3keYM/RwQ8N8IVqM0xomnhqs1S+Yzav+HZ/Ej+c=\n",
    "teacher_markdown": "The first error is on **Line 30**. The line\r\n\r\n```\r\nmason.move()\r\n```\r\n\r\nis missing the semicolon at the end of the statement.\r\n\r\nThe second error is on **Line 23**. The line\r\n\r\n```\r\nmason.takepaint();\r\n```\r\n\r\nshould have a capital `P` in `takePaint()`.",
    "thumbnail_url": "https://images.code.org/b68e321184dc9ffd3ea6f045e1cdaff7-U1L2-L4b.png",
    "encrypted_validation": "P+fEJkEQW9FcZIoo/ak1FxE4B2sRnoI2gdxCZ3uRBZL3IOedFkdlk8gkYOZe\ngqqycYSs+HSlZfzaqPVxpvJKjA6X0WNNtz8XW+urU5o5LkWKDGDEn+y47ZR8\n+uNV5UQmADBHTeRcRAZfFAFwhsBTiDEQVeRNpk4aUzPoSGLX0ozdyMxuz/nF\neBhZKh84vrUnfqWkrP1gS62lnCB1pRI8lZW4w+/AVDXopSUOI80yh7YkzbA9\n5LvwjZAjV/qqXiQpOC3ku7P8RzSZUZ5PxxRm5ncmr4UsoPnALzI5XYnrjvFM\n97OhebfBm0tCRTvE0+Of29zh2AwttpYDlXVCFTxY5+Ebhep3gdMxiDO9un3A\n46iH0fVaJ+U+wmZy6lMWfBqOQaNfoA1/27e1lwjiZ4OBWyANVBu7VXBWRqOQ\nQe9AaaFB8FIan0UOi31c5y/fDU4/hBZEI69nmHNE8vr4YaQKvHBwQgsLwqOo\nzECx2KAWLLtssrBsoNdqWY67m/n3ktJo+AiwXTOf77imvRGViAuIiiHtnChf\nfBl+fwbbITfBYYdneii0J0JrTv3dtBPYXbCUBXCJaiGfrn/zeuyF1fvDQxPn\n3wAjJVR43np2S9zBqD/9sGe9+KnRnCuw22pNJDN3Vx4s+8gC599S2RNj7EvI\nUNVgZBghX697qyXSlRbO30/d1OAzV205IfiMSJr+65tHavD1UDziaXha83aG\neCXqO0pwf7mpYmDaI3N07cmqot6ypnZtrNC1QHe8/sY2OKgjzM+z1sBboYBC\nk3XSb9okiouwz0chOS5atNnuAig6adc8qb33UkBgM9dgY30qcOooR5OckcIe\nSF3PKrc4+PS3fTi1D44XLmfJ5765qK7g5d0kvmArXgt06vBTE7C/krW1QegI\nAAiP3tpRRppjEXWivnKyszB6rG1fnOzsy+2zqoLGwcbhxth6O2OsQtR/X2qE\n3pccXuRwp5OGDpkz1BtjrGeygIBcGz3Tqma2L6SB2et4D/XbLAL6thMc7iEg\nos8kI61oFC6oj404CBG/QMxdEVdxk01U8wT9q3niitqkvyyKUHFe7qAyAyWT\nqXo96SqTlXOjAhMTegjS8q0bmxSVdGkli9PJQ3UFPzg9xmFlYFSZdXL70lJh\n0vx27rSyJZlN2aD+SKNb8y9NoPLilQdV3IMFBGNzRR4VPZ+xeZk1MmPN1ttO\nt0S12yRcfsSkEsRqiZIsWyTEubCjHjEhgOqqX+UFGFWg+EEgmEPPVV3bX6hz\nWfpGy8o2pSpxxbudD6YxCft3KuIVFsORzs5/DB8J8A46kfQ/4XgwbeHhltKo\nBFPfS/mHrTxYy1C2DOUAOyHJLm2rPGjKAvC3kI+ohAbFj70E30JiaMWyODt0\n2+wUPklGkRFtUfWip6puZpi5sg0pn7I0OshafjZD5HO0lb4PnS/mGI+m/Om4\niMmOVNg3483/UgxPSaOO/L44gtTFTh6JNkTljnv3ec7DqRa5tPoATYBD1VdK\nRBe+0gWtendiXfmx1RH0Xla1wmAGNFDbLRDeOk+3JvaAtwyZJE6H9+MshSf+\neBgLegOE9NQlc4sZxmvRY5yFYvhcGkt0U0LZmJZyIVHr7NJwbjWTaQJFhL8E\nXonLtFOSBVZiraaq3hxJ4kUVPaEhud1lIKSofJ9AIh0/P4FcBJLMN+VSPE97\n8qlAl0P3TVNU3PrKCKgZj4iiwY2ZUNbLC3cS0nndMY2EJaquB5ssyHpWP57b\nx2/lSUzaOHTxV0B1GLQbvzPbigboAK8zIRlxNSGCUHUhaP5kwZYpz3xgpxMN\n8wrhS8zfBsphjypx+gtfDzpEVmUI+nT65YnphjqyGQq8CiAzyUm5ljftN42H\nWyzG8lCc2I5/B1uHRJanwTdQJtk92AfD6DQ2SY3dpQBJUn0DBF84+2eTw3sO\nm/LThqscYGTfQu4zLIkFXP0L6IKHHwqA56N+yPNWJaHFuRJC6G166FlNuTGV\nE5TVeJcvL7IWF5hOw382s062XnPhytKmsh9X4AhtLsOlsoy7wlz4KGG//XtB\nwHQo4gXYTUrHJlIA8eTIgE9B9rseMyaw+5/k8BzVZwNcgfBhEVuK1hxzhk7n\nAyR/EY1qteCHfuQtOxRLAt78YWkiH5xbbD9lmnz2zVInjNGUgh+fsnJ4cXOH\n6rdMAK4h+oS1VI7hZlkMNO0JvjPNvok8ZCXQIR+eww/evHwLtQTutU6FtYFX\n33zK1SHJEmsRFvVRHCB/FDQvXBPAFgp7ELv+EKMrYJQdN7EEuAhcdZkhELWe\nKwgkS++oTlrkhrQtM2siXhgPCROTs/udXB/CuKQTGf34G3LJQD1ujrYxdNDO\nCG/nEFG6zBNK5AzE4P71c9LKqiBQsyJ5hRuSgNisjJzgTVEIRRpaHOAc0Fyo\nfMgBgFXFlE5YZuxaKYZOCOrijEq5D29BRYzjB1QmuLtVA+V4BPoFV9tpLjxi\nU4qDDtgGhdQ6oCh102vnKwQD/GvfCoqOgcHx0Nu4IVlJpwxW7WpMHRl0+VX+\nZ0Gp/L2Ij41Uen9wyd9CtC/7PI6yZgITomphJxr8MSJDQngTjirkN2305HHz\nMFN1mkpL0UJ7+fv48eoI4v0=\n",
    "reference_links": [
      "/courses/csa-2023/guides/reading-error-messages"
    ],
    "name_suffix": "_2025"
  },
  "published": true,
  "audit_log": "[{\"changed_at\":\"2024-01-16T23:00:34.047+00:00\",\"changed\":[\"cloned from \\\"CSA U1L2-L4b_2023\\\"\"],\"cloned_from\":\"CSA U1L2-L4b_2023\"}]"
}]]></config>
</Javalab>
