<Javalab>
  <config><![CDATA[{
  "properties": {
    "encrypted": "false",
    "mini_rubric": "false",
    "submittable": "false",
    "hide_share_and_remix": "false",
    "csa_view_mode": "neighborhood",
    "start_sources": {
      "MyNeighborhood.java": {
        "text": "import org.code.neighborhood.Painter;\n\npublic class MyNeighborhood {\n  public static void main(String[] args) {\n\n    P\n    \n  }\n}",
        "isVisible": true
      },
      "PainterPlus.java": {
        "text": "import org.code.neighborhood.Painter;\n\n/*\n * Creates a PainterPlus\n * PainterPlus is a subclass of Painter.\n */\npublic class PainterPlus extends Painter {\n\n  /*\n   * Constructor to create a PainterPlus object\n   */\n  public PainterPlus() {\n    super();  // Calls the Painter constructor\n  }\n\n  /*\n   * Turns a PainterPlus object to the right\n   * by turning left three times\n   */\n  public void turnRight() {\n    turnLeft();\n    turnLeft();\n    turnLeft();\n  }\n\n  /*\n   * Unit 1 Lesson 9 - Choice A\n   */\n  public void takeAllPaint() {\n    while (isOnBucket()) {\n      takePaint();\n    }\n  }\n\n  /*\n   * Unit 1 Lesson 9 - Choice B\n   */\n  public void paintLine(String color) {\n    while (canMove()) {\n      paint(color);\n      move();\n    }\n  }\n\n  /*\n   * Unit 1 Lesson 9 - Choice C\n   */\n  public void paintBorder(String color) {\n    while (canMove()) {\n      paint(color);\n      move();\n    }\n\n    turnRight();\n\n    while (canMove()) {\n      paint(color);\n      move();\n    }\n\n    turnRight();\n\n    while (canMove()) {\n      paint(color);\n      move();\n    }\n\n    turnRight();\n\n    while (canMove()) {\n      paint(color);\n      move();\n    }\n  }\n\n  /*\n   * Unit 1 Lesson 9 - Choice D\n   */\n  public void paintDiagonal(String color) {\n    while (canMove()) {\n      paint(color);\n      move();\n      turnLeft();\n      move();\n      turnRight();\n    }\n  }\n\n  /*\n   * Unit 1 Lesson 10 - Choice A\n   */\n  public void paintOrTake(String color) {\n    while (canMove()) {\n      if (!isOnBucket()) {\n        move();\n      }\n      else {\n        takeAllPaint();\n      }\n\n      if (hasPaint()) {\n        paint(color);\n      }\n    }\n  }\n\n  /*\n   * Unit 1 Lesson 10 - Choice B\n   */\n  public void navigate(String color) {\n    while (canMove()) {\n      move();\n\n      if (!canMove()) {\n        turnRight();\n      }\n      else {\n        paint(color);\n      }\n    }\n  }\n\n  /*\n   * Unit 1 Lesson 10 - Choice C\n   */\n  public void moveAndPaintSouth(String color) {\n    while (canMove(\"south\")) {\n      if (!facingSouth()) {\n        turnRight();\n      }\n      else {\n        move();\n\n        if (hasPaint()) {\n          paint(color);\n        }\n      }\n    }\n  }\n  \n}",
        "isVisible": true
      }
    },
    "serialized_maze": [
      [
        {
          "tileType": 1,
          "value": 0,
          "assetId": 0
        },
        {
          "tileType": 1,
          "value": 0,
          "assetId": 0
        },
        {
          "tileType": 1,
          "value": 0,
          "assetId": 0
        },
        {
          "tileType": 1,
          "value": 0,
          "assetId": 0
        },
        {
          "tileType": 1,
          "value": 0,
          "assetId": 0
        },
        {
          "tileType": 1,
          "value": 0,
          "assetId": 0
        },
        {
          "tileType": 1,
          "value": 8,
          "assetId": 303
        },
        {
          "tileType": 1,
          "value": 0,
          "assetId": 0
        },
        {
          "tileType": 0,
          "value": 0,
          "assetId": 47
        },
        {
          "tileType": 0,
          "value": 0,
          "assetId": 1
        },
        {
          "tileType": 1,
          "value": 0,
          "assetId": 0
        },
        {
          "tileType": 1,
          "value": 0,
          "assetId": 0
        }
      ],
      [
        {
          "tileType": 0,
          "value": 0,
          "assetId": 286
        },
        {
          "tileType": 0,
          "value": 0,
          "assetId": 286
        },
        {
          "tileType": 0,
          "value": 0,
          "assetId": 50
        },
        {
          "tileType": 1,
          "value": 0,
          "assetId": 0
        },
        {
          "tileType": 1,
          "value": 0,
          "assetId": 0
        },
        {
          "tileType": 0,
          "value": 0,
          "assetId": 302
        },
        {
          "tileType": 0,
          "value": 0,
          "assetId": 301
        },
        {
          "tileType": 1,
          "value": 0,
          "assetId": 0
        },
        {
          "tileType": 0,
          "value": 0,
          "assetId": 2
        },
        {
          "tileType": 0,
          "value": 0,
          "assetId": 3
        },
        {
          "tileType": 0,
          "value": 0,
          "assetId": 47
        },
        {
          "tileType": 0,
          "value": 0,
          "assetId": 1
        }
      ],
      [
        {
          "tileType": 0,
          "value": 0,
          "assetId": 48
        },
        {
          "tileType": 0,
          "value": 0,
          "assetId": 48
        },
        {
          "tileType": 0,
          "value": 0,
          "assetId": 284
        },
        {
          "tileType": 0,
          "value": 0,
          "assetId": 302
        },
        {
          "tileType": 0,
          "value": 0,
          "assetId": 301
        },
        {
          "tileType": 0,
          "value": 0,
          "assetId": 300
        },
        {
          "tileType": 0,
          "value": 0,
          "assetId": 299
        },
        {
          "tileType": 1,
          "value": 0,
          "assetId": 0
        },
        {
          "tileType": 0,
          "value": 0,
          "assetId": 4
        },
        {
          "tileType": 0,
          "value": 0,
          "assetId": 5
        },
        {
          "tileType": 0,
          "value": 0,
          "assetId": 2
        },
        {
          "tileType": 0,
          "value": 0,
          "assetId": 3
        }
      ],
      [
        {
          "tileType": 0,
          "value": 0,
          "assetId": 48
        },
        {
          "tileType": 0,
          "value": 0,
          "assetId": 48
        },
        {
          "tileType": 0,
          "value": 0,
          "assetId": 284
        },
        {
          "tileType": 0,
          "value": 0,
          "assetId": 300
        },
        {
          "tileType": 0,
          "value": 0,
          "assetId": 299
        },
        {
          "tileType": 0,
          "value": 0,
          "assetId": 298
        },
        {
          "tileType": 0,
          "value": 0,
          "assetId": 297
        },
        {
          "tileType": 1,
          "value": 0,
          "assetId": 0
        },
        {
          "tileType": 1,
          "value": 0,
          "assetId": 0
        },
        {
          "tileType": 1,
          "value": 0,
          "assetId": 0
        },
        {
          "tileType": 0,
          "value": 0,
          "assetId": 4
        },
        {
          "tileType": 0,
          "value": 0,
          "assetId": 5
        }
      ],
      [
        {
          "tileType": 0,
          "value": 0,
          "assetId": 48
        },
        {
          "tileType": 0,
          "value": 0,
          "assetId": 48
        },
        {
          "tileType": 0,
          "value": 0,
          "assetId": 284
        },
        {
          "tileType": 0,
          "value": 0,
          "assetId": 298
        },
        {
          "tileType": 0,
          "value": 0,
          "assetId": 297
        },
        {
          "tileType": 1,
          "value": 0,
          "assetId": 0
        },
        {
          "tileType": 1,
          "value": 0,
          "assetId": 0
        },
        {
          "tileType": 1,
          "value": 0,
          "assetId": 0
        },
        {
          "tileType": 0,
          "value": 0,
          "assetId": 47
        },
        {
          "tileType": 0,
          "value": 0,
          "assetId": 1
        },
        {
          "tileType": 1,
          "value": 0,
          "assetId": 0
        },
        {
          "tileType": 1,
          "value": 0,
          "assetId": 0
        }
      ],
      [
        {
          "tileType": 0,
          "value": 0,
          "assetId": 48
        },
        {
          "tileType": 0,
          "value": 0,
          "assetId": 48
        },
        {
          "tileType": 0,
          "value": 0,
          "assetId": 284
        },
        {
          "tileType": 1,
          "value": 0,
          "assetId": 0
        },
        {
          "tileType": 1,
          "value": 0,
          "assetId": 0
        },
        {
          "tileType": 0,
          "value": 0,
          "assetId": 302
        },
        {
          "tileType": 0,
          "value": 0,
          "assetId": 301
        },
        {
          "tileType": 1,
          "value": 0,
          "assetId": 0
        },
        {
          "tileType": 0,
          "value": 0,
          "assetId": 2
        },
        {
          "tileType": 0,
          "value": 0,
          "assetId": 3
        },
        {
          "tileType": 0,
          "value": 0,
          "assetId": 47
        },
        {
          "tileType": 0,
          "value": 0,
          "assetId": 1
        }
      ],
      [
        {
          "tileType": 0,
          "value": 0,
          "assetId": 48
        },
        {
          "tileType": 0,
          "value": 0,
          "assetId": 48
        },
        {
          "tileType": 0,
          "value": 0,
          "assetId": 284
        },
        {
          "tileType": 0,
          "value": 0,
          "assetId": 302
        },
        {
          "tileType": 0,
          "value": 0,
          "assetId": 301
        },
        {
          "tileType": 0,
          "value": 0,
          "assetId": 300
        },
        {
          "tileType": 0,
          "value": 0,
          "assetId": 299
        },
        {
          "tileType": 1,
          "value": 0,
          "assetId": 0
        },
        {
          "tileType": 0,
          "value": 0,
          "assetId": 4
        },
        {
          "tileType": 0,
          "value": 0,
          "assetId": 5
        },
        {
          "tileType": 0,
          "value": 0,
          "assetId": 2
        },
        {
          "tileType": 0,
          "value": 0,
          "assetId": 3
        }
      ],
      [
        {
          "tileType": 0,
          "value": 0,
          "assetId": 48
        },
        {
          "tileType": 0,
          "value": 0,
          "assetId": 48
        },
        {
          "tileType": 0,
          "value": 0,
          "assetId": 284
        },
        {
          "tileType": 0,
          "value": 0,
          "assetId": 300
        },
        {
          "tileType": 0,
          "value": 0,
          "assetId": 299
        },
        {
          "tileType": 0,
          "value": 0,
          "assetId": 298
        },
        {
          "tileType": 0,
          "value": 0,
          "assetId": 297
        },
        {
          "tileType": 1,
          "value": 0,
          "assetId": 0
        },
        {
          "tileType": 1,
          "value": 0,
          "assetId": 0
        },
        {
          "tileType": 1,
          "value": 0,
          "assetId": 0
        },
        {
          "tileType": 0,
          "value": 0,
          "assetId": 4
        },
        {
          "tileType": 0,
          "value": 0,
          "assetId": 5
        }
      ],
      [
        {
          "tileType": 0,
          "value": 0,
          "assetId": 48
        },
        {
          "tileType": 0,
          "value": 0,
          "assetId": 48
        },
        {
          "tileType": 0,
          "value": 0,
          "assetId": 284
        },
        {
          "tileType": 0,
          "value": 0,
          "assetId": 298
        },
        {
          "tileType": 0,
          "value": 0,
          "assetId": 297
        },
        {
          "tileType": 1,
          "value": 0,
          "assetId": 0
        },
        {
          "tileType": 1,
          "value": 0,
          "assetId": 0
        },
        {
          "tileType": 1,
          "value": 0,
          "assetId": 0
        },
        {
          "tileType": 0,
          "value": 0,
          "assetId": 47
        },
        {
          "tileType": 0,
          "value": 0,
          "assetId": 1
        },
        {
          "tileType": 1,
          "value": 0,
          "assetId": 0
        },
        {
          "tileType": 1,
          "value": 0,
          "assetId": 0
        }
      ],
      [
        {
          "tileType": 0,
          "value": 0,
          "assetId": 48
        },
        {
          "tileType": 0,
          "value": 0,
          "assetId": 48
        },
        {
          "tileType": 0,
          "value": 0,
          "assetId": 284
        },
        {
          "tileType": 1,
          "value": 0,
          "assetId": 0
        },
        {
          "tileType": 1,
          "value": 0,
          "assetId": 0
        },
        {
          "tileType": 0,
          "value": 0,
          "assetId": 302
        },
        {
          "tileType": 0,
          "value": 0,
          "assetId": 301
        },
        {
          "tileType": 1,
          "value": 0,
          "assetId": 0
        },
        {
          "tileType": 0,
          "value": 0,
          "assetId": 2
        },
        {
          "tileType": 0,
          "value": 0,
          "assetId": 3
        },
        {
          "tileType": 0,
          "value": 0,
          "assetId": 47
        },
        {
          "tileType": 0,
          "value": 0,
          "assetId": 1
        }
      ],
      [
        {
          "tileType": 0,
          "value": 0,
          "assetId": 48
        },
        {
          "tileType": 0,
          "value": 0,
          "assetId": 48
        },
        {
          "tileType": 0,
          "value": 0,
          "assetId": 284
        },
        {
          "tileType": 0,
          "value": 0,
          "assetId": 302
        },
        {
          "tileType": 0,
          "value": 0,
          "assetId": 301
        },
        {
          "tileType": 0,
          "value": 0,
          "assetId": 300
        },
        {
          "tileType": 0,
          "value": 0,
          "assetId": 299
        },
        {
          "tileType": 1,
          "value": 0,
          "assetId": 0
        },
        {
          "tileType": 0,
          "value": 0,
          "assetId": 4
        },
        {
          "tileType": 0,
          "value": 0,
          "assetId": 5
        },
        {
          "tileType": 0,
          "value": 0,
          "assetId": 2
        },
        {
          "tileType": 0,
          "value": 0,
          "assetId": 3
        }
      ],
      [
        {
          "tileType": 0,
          "value": 0,
          "assetId": 48
        },
        {
          "tileType": 0,
          "value": 0,
          "assetId": 48
        },
        {
          "tileType": 0,
          "value": 0,
          "assetId": 284
        },
        {
          "tileType": 0,
          "value": 0,
          "assetId": 300
        },
        {
          "tileType": 0,
          "value": 0,
          "assetId": 299
        },
        {
          "tileType": 0,
          "value": 0,
          "assetId": 298
        },
        {
          "tileType": 0,
          "value": 0,
          "assetId": 297
        },
        {
          "tileType": 1,
          "value": 0,
          "assetId": 0
        },
        {
          "tileType": 1,
          "value": 0,
          "assetId": 0
        },
        {
          "tileType": 1,
          "value": 0,
          "assetId": 0
        },
        {
          "tileType": 0,
          "value": 0,
          "assetId": 4
        },
        {
          "tileType": 0,
          "value": 0,
          "assetId": 5
        }
      ]
    ],
    "display_name": "Paint Dashed Lines",
    "project_template_level_name": "CSA U1L12-L3b PBT_2022",
    "long_instructions": "Request a code review to get feedback from your peers on your `moveFast()`(#e7e8ea) and `paintDashes()`(#e7e8ea) methods.\r\n\r\nWhen you are finished receiving feedback, return to your project and click the **Close review** button.\r\n\r\n##Requesting Feedback\r\n\r\n**Commit your code** and add a comment that includes:\r\n\r\n* a description of the goals and intended outcome of the program\r\n\r\n* any additional relevant information\r\n\r\n* specific tasks or questions you want your reviewer to perform or answer\r\n\r\n##TAG to Give Feedback\r\n*Remember to keep feedback kind, specific, and helpful. Refer to the Unit 1 Guide for sentence starters to structure your feedback.*\r\n\r\n1. Tell them something you like about their code.\r\n\r\n2. Ask them something about the code.\r\n\r\n3. Give a suggestion for improvement.",
    "bubble_choice_description": "Paint dashed lines between the lanes of traffic.",
    "thumbnail_url": "https://images.code.org/0dea0fc4a774b3884e7ed5808b834046-image-1646323157893.gif",
    "encrypted_examples": [

    ]
  },
  "game_id": 68,
  "published": true,
  "created_at": "2022-02-17T19:13:54.000Z",
  "level_num": "custom",
  "user_id": 16889,
  "audit_log": "[{\"changed_at\":\"2022-02-17T19:13:54.736+00:00\",\"changed\":[\"cloned from \\\"CSA U1L12-L3b_2022\\\"\"],\"cloned_from\":\"CSA U1L12-L3b_2022\"},{\"changed_at\":\"2022-02-17 19:14:34 +0000\",\"changed\":[\"serialized_maze\"],\"changed_by_id\":16889,\"changed_by_email\":\"jamila+lb@code.org\"},{\"changed_at\":\"2022-02-18 13:29:16 +0000\",\"changed\":[\"serialized_maze\",\"contained_level_names\"],\"changed_by_id\":16889,\"changed_by_email\":\"jamila+lb@code.org\"},{\"changed_at\":\"2022-05-27 19:04:36 +0000\",\"changed\":[\"serialized_maze\",\"display_name\",\"contained_level_names\"],\"changed_by_id\":16889,\"changed_by_email\":\"jamila+lb@code.org\"},{\"changed_at\":\"2022-06-21 18:17:20 +0000\",\"changed\":[\"serialized_maze\",\"long_instructions\",\"contained_level_names\"],\"changed_by_id\":16889,\"changed_by_email\":\"jamila+lb@code.org\"},{\"changed_at\":\"2022-06-24 14:45:16 +0000\",\"changed\":[\"serialized_maze\",\"map_reference\",\"contained_level_names\"],\"changed_by_id\":16889,\"changed_by_email\":\"jamila+lb@code.org\"}]"
}]]></config>
</Javalab>
