<Javalab>
  <config><![CDATA[{
  "properties": {
    "encrypted": "false",
    "mini_rubric": "false",
    "submittable": "false",
    "hide_share_and_remix": "true",
    "csa_view_mode": "neighborhood",
    "long_instructions": "The <code style=\"background-color: #ececec; color: black; font-weight: bold;\">Painter</code> is volunteering at an upcoming marathon, and they need help painting a mural of a trophy to mark the finish line.\r\n\r\n🎒 **IMPORT:** Import your <code style=\"background-color: #ececec; color: black; font-weight: bold;\">PainterPlus</code> class from your **Backpack**.\r\n\r\n*Don't have it, or it doesn't work? That's ok! Copy the code from* <a href=\"https://studio.code.org/projects/javalab/MrU6HbfE2LHNSyZIuepuzTDnvKIBCQdg7qcW5PNtDJ4\" target=\"_blank\">***here***</a> *and paste it into a new file in your project.*\r\n\r\n✅ **TO DO:** Implement the solution you planned on the <a href=\"https://docs.google.com/document/d/19ANtAu7p4M4gifIAYntFMehTp4DzLklIIKMKOXLwHJk/edit?usp=sharing\" target=\"_blank\">**Decomposition**</a> activity guide to paint the mural of a trophy.\r\n\r\n<div style=\"background-color: #E0D1EC; border: 1px solid #9660bf; border-radius: 5px; font-size: 1.1em; padding: 15px; margin-bottom: 10px;\">\r\n💡 <strong>TIP:</strong> Use the methods in the <code style=\"background-color: #ececec; color: black; font-weight: bold;\">MuralPainter</code> class to help create the mural.\r\n</div>\r\n\r\n📝 **COMMENT:** Be sure to add comments to note what your code does.\r\n\r\n🖥️ **TEST:** Test your program to check if your code achieves the expected result.\r\n\r\n🎉 **RUN:** Run your program to see the result of your code!\r\n\r\n## 🎯 Goal\r\n\r\n![](https://images.code.org/7eef6b57b22ebab9f5e19c0aa8177fa2-image-1667132992055.png)",
    "serialized_maze": [
      [
        {
          "tileType": 1,
          "value": 0,
          "assetId": 0
        },
        {
          "tileType": 1,
          "value": 0,
          "assetId": 0
        },
        {
          "tileType": 1,
          "value": 0,
          "assetId": 0
        },
        {
          "tileType": 1,
          "value": 0,
          "assetId": 0
        },
        {
          "tileType": 1,
          "value": 0,
          "assetId": 0
        },
        {
          "tileType": 1,
          "value": 0,
          "assetId": 0
        },
        {
          "tileType": 1,
          "value": 0,
          "assetId": 0
        },
        {
          "tileType": 1,
          "value": 0,
          "assetId": 0
        },
        {
          "tileType": 1,
          "value": 0,
          "assetId": 0
        },
        {
          "tileType": 1,
          "value": 0,
          "assetId": 0
        },
        {
          "tileType": 1,
          "value": 0,
          "assetId": 0
        },
        {
          "tileType": 1,
          "value": 0,
          "assetId": 0
        }
      ],
      [
        {
          "tileType": 1,
          "value": 0,
          "assetId": 0
        },
        {
          "tileType": 1,
          "value": 0,
          "assetId": 0
        },
        {
          "tileType": 1,
          "value": 0,
          "assetId": 0
        },
        {
          "tileType": 1,
          "value": 0,
          "assetId": 0
        },
        {
          "tileType": 1,
          "value": 0,
          "assetId": 0
        },
        {
          "tileType": 1,
          "value": 0,
          "assetId": 0
        },
        {
          "tileType": 1,
          "value": 0,
          "assetId": 0
        },
        {
          "tileType": 1,
          "value": 0,
          "assetId": 0
        },
        {
          "tileType": 1,
          "value": 0,
          "assetId": 0
        },
        {
          "tileType": 1,
          "value": 0,
          "assetId": 0
        },
        {
          "tileType": 1,
          "value": 0,
          "assetId": 0
        },
        {
          "tileType": 1,
          "value": 0,
          "assetId": 0
        }
      ],
      [
        {
          "tileType": 1,
          "value": 0,
          "assetId": 0
        },
        {
          "tileType": 1,
          "value": 0,
          "assetId": 0
        },
        {
          "tileType": 1,
          "value": 0,
          "assetId": 0
        },
        {
          "tileType": 1,
          "value": 0,
          "assetId": 0
        },
        {
          "tileType": 1,
          "value": 0,
          "assetId": 0
        },
        {
          "tileType": 1,
          "value": 0,
          "assetId": 0
        },
        {
          "tileType": 1,
          "value": 0,
          "assetId": 0
        },
        {
          "tileType": 1,
          "value": 0,
          "assetId": 0
        },
        {
          "tileType": 1,
          "value": 0,
          "assetId": 0
        },
        {
          "tileType": 1,
          "value": 0,
          "assetId": 0
        },
        {
          "tileType": 1,
          "value": 0,
          "assetId": 0
        },
        {
          "tileType": 1,
          "value": 0,
          "assetId": 0
        }
      ],
      [
        {
          "tileType": 1,
          "value": 0,
          "assetId": 0
        },
        {
          "tileType": 1,
          "value": 0,
          "assetId": 0
        },
        {
          "tileType": 1,
          "value": 0,
          "assetId": 0
        },
        {
          "tileType": 1,
          "value": 0,
          "assetId": 0
        },
        {
          "tileType": 1,
          "value": 0,
          "assetId": 0
        },
        {
          "tileType": 1,
          "value": 0,
          "assetId": 0
        },
        {
          "tileType": 1,
          "value": 0,
          "assetId": 0
        },
        {
          "tileType": 1,
          "value": 0,
          "assetId": 0
        },
        {
          "tileType": 1,
          "value": 0,
          "assetId": 0
        },
        {
          "tileType": 1,
          "value": 0,
          "assetId": 0
        },
        {
          "tileType": 1,
          "value": 0,
          "assetId": 0
        },
        {
          "tileType": 1,
          "value": 0,
          "assetId": 0
        }
      ],
      [
        {
          "tileType": 1,
          "value": 0,
          "assetId": 0
        },
        {
          "tileType": 1,
          "value": 0,
          "assetId": 0
        },
        {
          "tileType": 1,
          "value": 0,
          "assetId": 0
        },
        {
          "tileType": 1,
          "value": 0,
          "assetId": 0
        },
        {
          "tileType": 1,
          "value": 0,
          "assetId": 0
        },
        {
          "tileType": 1,
          "value": 0,
          "assetId": 0
        },
        {
          "tileType": 1,
          "value": 0,
          "assetId": 0
        },
        {
          "tileType": 1,
          "value": 0,
          "assetId": 0
        },
        {
          "tileType": 1,
          "value": 0,
          "assetId": 0
        },
        {
          "tileType": 1,
          "value": 0,
          "assetId": 0
        },
        {
          "tileType": 1,
          "value": 0,
          "assetId": 0
        },
        {
          "tileType": 1,
          "value": 0,
          "assetId": 0
        }
      ],
      [
        {
          "tileType": 1,
          "value": 0,
          "assetId": 0
        },
        {
          "tileType": 1,
          "value": 0,
          "assetId": 0
        },
        {
          "tileType": 1,
          "value": 0,
          "assetId": 0
        },
        {
          "tileType": 1,
          "value": 0,
          "assetId": 0
        },
        {
          "tileType": 1,
          "value": 0,
          "assetId": 0
        },
        {
          "tileType": 1,
          "value": 0,
          "assetId": 0
        },
        {
          "tileType": 1,
          "value": 0,
          "assetId": 0
        },
        {
          "tileType": 1,
          "value": 0,
          "assetId": 0
        },
        {
          "tileType": 1,
          "value": 0,
          "assetId": 0
        },
        {
          "tileType": 1,
          "value": 0,
          "assetId": 0
        },
        {
          "tileType": 1,
          "value": 0,
          "assetId": 0
        },
        {
          "tileType": 1,
          "value": 0,
          "assetId": 0
        }
      ],
      [
        {
          "tileType": 1,
          "value": 0,
          "assetId": 0
        },
        {
          "tileType": 1,
          "value": 0,
          "assetId": 0
        },
        {
          "tileType": 1,
          "value": 0,
          "assetId": 0
        },
        {
          "tileType": 1,
          "value": 0,
          "assetId": 0
        },
        {
          "tileType": 1,
          "value": 0,
          "assetId": 0
        },
        {
          "tileType": 1,
          "value": 0,
          "assetId": 0
        },
        {
          "tileType": 1,
          "value": 0,
          "assetId": 0
        },
        {
          "tileType": 1,
          "value": 0,
          "assetId": 0
        },
        {
          "tileType": 1,
          "value": 0,
          "assetId": 0
        },
        {
          "tileType": 1,
          "value": 0,
          "assetId": 0
        },
        {
          "tileType": 1,
          "value": 0,
          "assetId": 0
        },
        {
          "tileType": 1,
          "value": 0,
          "assetId": 0
        }
      ],
      [
        {
          "tileType": 1,
          "value": 0,
          "assetId": 0
        },
        {
          "tileType": 1,
          "value": 0,
          "assetId": 0
        },
        {
          "tileType": 1,
          "value": 0,
          "assetId": 0
        },
        {
          "tileType": 1,
          "value": 0,
          "assetId": 0
        },
        {
          "tileType": 1,
          "value": 0,
          "assetId": 0
        },
        {
          "tileType": 1,
          "value": 0,
          "assetId": 0
        },
        {
          "tileType": 1,
          "value": 0,
          "assetId": 0
        },
        {
          "tileType": 1,
          "value": 0,
          "assetId": 0
        },
        {
          "tileType": 1,
          "value": 0,
          "assetId": 0
        },
        {
          "tileType": 1,
          "value": 0,
          "assetId": 0
        },
        {
          "tileType": 1,
          "value": 0,
          "assetId": 0
        },
        {
          "tileType": 1,
          "value": 0,
          "assetId": 0
        }
      ],
      [
        {
          "tileType": 1,
          "value": 0,
          "assetId": 0
        },
        {
          "tileType": 1,
          "value": 0,
          "assetId": 0
        },
        {
          "tileType": 1,
          "value": 0,
          "assetId": 0
        },
        {
          "tileType": 1,
          "value": 0,
          "assetId": 0
        },
        {
          "tileType": 1,
          "value": 0,
          "assetId": 0
        },
        {
          "tileType": 1,
          "value": 0,
          "assetId": 0
        },
        {
          "tileType": 1,
          "value": 0,
          "assetId": 0
        },
        {
          "tileType": 1,
          "value": 0,
          "assetId": 0
        },
        {
          "tileType": 1,
          "value": 0,
          "assetId": 0
        },
        {
          "tileType": 1,
          "value": 0,
          "assetId": 0
        },
        {
          "tileType": 1,
          "value": 0,
          "assetId": 0
        },
        {
          "tileType": 1,
          "value": 0,
          "assetId": 0
        }
      ],
      [
        {
          "tileType": 1,
          "value": 0,
          "assetId": 0
        },
        {
          "tileType": 1,
          "value": 0,
          "assetId": 0
        },
        {
          "tileType": 1,
          "value": 0,
          "assetId": 0
        },
        {
          "tileType": 1,
          "value": 0,
          "assetId": 0
        },
        {
          "tileType": 1,
          "value": 0,
          "assetId": 0
        },
        {
          "tileType": 1,
          "value": 0,
          "assetId": 0
        },
        {
          "tileType": 1,
          "value": 0,
          "assetId": 0
        },
        {
          "tileType": 1,
          "value": 0,
          "assetId": 0
        },
        {
          "tileType": 1,
          "value": 0,
          "assetId": 0
        },
        {
          "tileType": 1,
          "value": 0,
          "assetId": 0
        },
        {
          "tileType": 1,
          "value": 0,
          "assetId": 0
        },
        {
          "tileType": 1,
          "value": 0,
          "assetId": 0
        }
      ],
      [
        {
          "tileType": 1,
          "value": 0,
          "assetId": 0
        },
        {
          "tileType": 1,
          "value": 0,
          "assetId": 0
        },
        {
          "tileType": 1,
          "value": 0,
          "assetId": 0
        },
        {
          "tileType": 1,
          "value": 0,
          "assetId": 0
        },
        {
          "tileType": 1,
          "value": 0,
          "assetId": 0
        },
        {
          "tileType": 1,
          "value": 0,
          "assetId": 0
        },
        {
          "tileType": 1,
          "value": 0,
          "assetId": 0
        },
        {
          "tileType": 1,
          "value": 0,
          "assetId": 0
        },
        {
          "tileType": 1,
          "value": 0,
          "assetId": 0
        },
        {
          "tileType": 1,
          "value": 0,
          "assetId": 0
        },
        {
          "tileType": 1,
          "value": 0,
          "assetId": 0
        },
        {
          "tileType": 1,
          "value": 0,
          "assetId": 0
        }
      ],
      [
        {
          "tileType": 1,
          "value": 0,
          "assetId": 0
        },
        {
          "tileType": 1,
          "value": 0,
          "assetId": 0
        },
        {
          "tileType": 1,
          "value": 0,
          "assetId": 0
        },
        {
          "tileType": 1,
          "value": 0,
          "assetId": 0
        },
        {
          "tileType": 1,
          "value": 0,
          "assetId": 0
        },
        {
          "tileType": 1,
          "value": 0,
          "assetId": 0
        },
        {
          "tileType": 1,
          "value": 0,
          "assetId": 0
        },
        {
          "tileType": 1,
          "value": 0,
          "assetId": 0
        },
        {
          "tileType": 1,
          "value": 0,
          "assetId": 0
        },
        {
          "tileType": 1,
          "value": 0,
          "assetId": 0
        },
        {
          "tileType": 1,
          "value": 0,
          "assetId": 0
        },
        {
          "tileType": 1,
          "value": 0,
          "assetId": 0
        }
      ]
    ],
    "encrypted_exemplar_sources": "5iJ2wfLxrs6cZZ5JfroUKQ5Qiv3yAOUMV5DKsJ5wOcKfFkltyouyRWF6VLdn\ntHTvdPXKx5RoiECKUzYqsvITtgMuTNoUr0wf0On0zoLcIXaWOGcb+EdoGyou\nVMwgw7yyDanj0nHKehPsBVRYiDNFKyvuSGkQNyJtu9S1HSNiWGhmu7GgBXOK\nGFinCSdjb2VRjwI/Wou3ECu1dls4ljd7KaHg6lpd5S+TzOTekoP8r+F30aAf\n8GVSmECOhhfidFC8q6hxL/7N46X0XLU6QQZLlVCfRCfYRqmyeMM9EYK5LoF7\nVkYnVSOY3J5BiugS6U59a6j2+M0c7Cww1op+9UOzYAEQ1XtZtbfwEx8+9c5W\nSnhpOT4/xLs4b/uOE+t7+hR2fN12EoV6aPwnXwGrQyXk5zGsHHJWk5AgliGc\nEJlkX/Q34Ngq3NviHxwr+o2rMJdVlebLkpEZ6IVvU8j8ocnu8oxTwYl9ArNq\nXpsV5WtTSiEdnr8ar2XeIsxkAx6q4OPlONMRuxJr/GiZTzNnV+/ynmWbZSyY\nnfHLkaorjU63mg+rTkxzY9GdiFVfiCvOXd0qPP6AhVvW9kJm+vSfAsaPU3W8\ndr5ggbv1JJVaXhCkfesEwrIVMkZt3SpmrcTjpqXbnvdWlvq4Yq4znJQt7FEc\nI4Bm+FmWoFj1ajDXA7NkULTLKnxflVxvaBQ+wy4qfe6OIOGSl/loebEP/QIE\n6b04WTAYKXyUIfyCxSZabZWjxY0o999VKUjnaeDvb4M7t0yrHrzr00fmwGbn\naOfrOdXbIU2K5CBnrhxjK1wnmzYv5c8+h/Fkidfyjrqih17LAcfItztMvsyl\nxxMQYlz2h8BX7OE9PwAXj+iYIdDtVu2rU0TKcc5i8QnjaIzJbbxd6sAWonBM\nYyk8vbozj+sAaEPfgGt2IMo94owzKr2aOxcBNgONiE9Ce0Dv3ZxbBLUvE1if\n+y10dqJ//JrmNu+pi2EjjrxK6CAbLpxrRMoLFVXncLvhUajj/HXpi3MfxVbR\nwYZMaq6GHFoGNW0/Fyf19geOD1nmQ6lHl5BHB8B2xTqG146+xCQc/0C7CgID\n3682c9DvKXbP4Omb1n3R3TUa0hVRVY2sn6xn0tuLdU0zlVPm9BtJ+1IZKwMv\nnd1k0TtGkznoXjhpdvevNNNoG/IFJ40D3IEc1KhmZBPQjUkmtv6gKKgtu/Zk\n4fBenYqMrGlhTwZoGWE1+ppRr7YGHs5dHQJwHmbaGrP01cckUUq4ZUmW4zse\n8ZdtCMSNl0mWYQkx9ZSvbBkcyL9GwE3s3C7VASBUFHwzvZRnces6wc72q+3N\ncJ4IErRZQoR+ojE0YBse9pakGj/zZU2rvqoeOGp0g9pUkEVhHxM/oEKSqt17\nCDrsg1n/dhxfXWxw4JJCFznfI16G2BB52JD9YuUEv/cfGtOeTxHwjqMcxnZz\n25Qs9gQykHVjHz2ZbVdxtpRRrcMj2nfYmd114ylRIWZMIdlybMPcSxFGMe9L\nlyDmsYOQZ93jYJieU0TfBwJGQTwsVa7ML7ehblkbs4jsgxS3Pqh6AKicDLlS\nkaU8qz+uqwJU6hDBkeyi1lP1vgQbP0mx6w6Xye5OSU/9JuWPNmOavxpi2YMy\nfu8pkOAVJJyg9U+jpmarAQnJvmDvqGfHUabYlopqSrujo8t8BOVNL91KfT/a\nMp80LEWEof4qXH6CMQxPCUApflrhY/NnQCtYqetQwly281ABoFxFx12XveNn\npEtLldgp+bpm+huegsv/dSKaM6NRZA+NA/D9bwUtJ3mXtkhVkuInvGqqjAu1\n5hctjYoGYGruL3zkPBKQXx/SO4/VEewbE8/7rRkJjS6gi5PtBdxV8FWG8XEJ\nB3s1VmQmR1GQY2sW235AOZdG6UsbNZ7aRIeZ9LwHRBEEH3qUAF47SxfnQxa9\nkF+Bhtt1ldQgf8EQ8figq66OqPFphkiSFataK3JMaAVhbIt3/2a/iy+mHcOU\nE5ftkB3WOQr/otEhMGww8VG4QSD8ew4HxOpaAZwZZq9Zi6MWzAEEtOidzPJQ\nafACcyPcWEE4p/4miDFgpGW1nlnTHVii0TPjSFgIxRIezMXTRJBOYwvEtquD\nf3OBuKrAQ3akNr2rUnitA0vGckAggr9mbddfjx1ie1HYiWHb0WVSWlLWSm9f\n6KFxqpVmqyhzHZqs+SYwFoWDxdEkVBhIKRETq9l9rxzmJ3065wF/cnUB8oKU\nC9L8biw4Ulr2Ke7pN7Rq19gdUJTFMnBUa17fc0VEeuNdHjT8mxx7hWofi+hP\nUo5O6awhWzKvmtM3z4kPpZmZXZ00DN8zo55oyiAY16bhaRUy2Ojn838rW/mB\ntvOQUm+I69c+0FxxZlEOpoktu+rclCiOWMkWJhoQG+Sf6VW8ooGi6CDY0rLr\nixYQ7D1uwP9Bh7yWbZwkSC+oSq2luJCDZ+QLBA4SiwZ5wssoFlPjHbM324DS\n2E+I6XRH0sYzO+ZrInigkR3/zfVhE3I7rP2aSonZv+GDnaGX6jduWrhbpLOv\nfQeGbVuqPE06JfWsideF0plkGIi3YjE+4oObK6qyAm27HsRIC63pyYMr9jlZ\ns7hDps5szFhXFUkdUYGL5SCAHuVDGQ/+Ri+QeykpuCe8XwGQ65jMi6W07ced\nwVNhDWQSdfGLryu8+t/zXhyeSz210O8s9OQ/zXDqfLsGSVTTbM/z8BNKwCS5\nFGvRDDQupAQFodR5gvaB/PG866Pit8LLLuosEp1qfAVJVz6fHWixKp9fEEVM\nxOM0Zj7VavJjAW6mhr9/zX+qS74TFZHKEDbq0Za5UFYBljXH+8A73oiyXvMb\n1DNLdOSR32qf82y/d2rmDDUSaRnwU9UXJ11JzMe6H0//RFZuZVf69N3vkPiW\nQA9COh0hKtA4OADrLae0M5s3LSp7ZE5Jj3u1JlWx1CHT959dxjDisnrzWK1T\nBtAS6uLzKLJ9xnl+Cua5EBeX45i+0YuW94GG/FZBZH6JflArGLaBx7GQ1fV/\nktIFEb2Q+HTR6OCGFmhRAde1Z0myGlgm8eA1km0hCffUYhIO7qAZtZaeSgNy\nym9m8krwyc0YKjpNmDTwryIKYX8D7EMjqMNnyzxKjrsdhgVBFQb3WWcON8RE\nstZrqh2/0CgqL4+OIdHQYJ/AwcrdWsZbjz7u7O0iGSjUg8Y0vtj02vQoJP/0\nPvLHlaxOXWJctm+/zH8v8ekk1jP9W1gt4ii6kUBNUd1cmMQM9Q2zDuoAqcQ+\nDxl0PITL7tZcQpRNGsgFWgUjrQN+6OoJjRPDY8nqopfPOLpEn0DUFMEqy3ZW\nUGmmiPT31wy82IIQx2NNeZ6v3EPFZhlfq2GlhsSSXk8xCP+G/ku+e/ksRhTE\nrWnZm7x2tq7tQ0TWO5F0iJi62l+Dc0NuEjSKJxHdStUYm49awC6zIA8QY8Xx\nR5nGlwplxxyI96WxT4RF2fIwpDaSDIAzCXsc5tFZ/lvw/BTA8eR862yiOt9+\nptHxiooHeE6tOMHLEC8e6kovN6LnlbGJBYJJs2jdQkdvEAv8qgGfL4LAleQf\n+oNWZDTs2O9LxmaAllVmwGpWX4OJEtCEpsv6qa/4PUe6lw/JVyiCXk1saae/\nrwuhnufKq4rZjYEUlD6VEiR2QUnU94mcCVzBjj6I5LKGBYKg8kh4wO/dwizC\nEdlH+Rsxrat8dV/uOO6hTBxgfg5pP96/qTHkFyXd3ySfVOfMK/UEDpqegaEy\nU8pR+/ujgrRsPjUP+ha+JfT7QhvweMlBv9IJVmJE5zXOiiPfCwTfJSNfXnxa\nLHajGn3W3erwHcDU+F1NKLmYy0GVmvla5uapPvcFB/yFRA2+ZDXsEwly/hys\njYnNbYqHE7M2HPAIkMLs5Twstm+aLUIl3DxA3nNRW0oBr/pTeX79pXoX78WN\nPXtO0jy/oT+4b29sBX2Rap70GqTbYgufTVa2mkoTKwERN7H4e6QCCpzQ04B0\npg8Q5nbNJG8amkN0tsHrD7SEC9WMKPTM3R1XryENrUzP6KlGEpNIu81nKVA6\nm/j2jEOKCHzCZUUu6uRdLwTfCjNuLHejmhfKUwAZPIBEV3xO6Xls63E77uDm\nNJg+UBKROF4SknhC8dFf4H34pVTycqr+1ow5H8tN9hnftsMpv/Qz4PUZfZrc\nNJsDszT5Lj/kxSQAwN5eqkPafa3A0xVA8d+YcmBzcMYdAitjNsPLF6PBQDYZ\nUya+Z6mKvqWO1CrL46A74aDkxJ6gKHC4xSHdf8G9C1DWbO7m5NkHEcuta95M\nfpyP6To7BT0ew5QmAKoXekRgqZibtjzlsmYbN5xl/WMyE0V4i1YLXJ5e/iV1\nzsKAk6QfsBuI2Cw5C6t2mdFOWJLrCU0cKG7qM11TJe/99t0bcwG3YtEUM5t8\nXR6YkZUTzxsymcVIKgvbZ/dbqTbtcxsYKBq++4oXr2dARD3cw1fekYOffp5D\nLgvwF0qxPGe/D4MUgvnuMZjsesjAAtKjGZnnguICCDAgU5ENwaBtyTYGf548\niKlgXI+zpq0LrW5lbgIfvE+x09wujm8EYuYzrdwlsB3e80crMb7ifWSmQbrV\nOhWDmHEqw1/f1V+wxW47YZEY56+aBw87JzVSyo4JFOT9I4m81atlUaXGjZV7\n7QahajBfyx+v/tWtH3a8LuRYnYN40UzU/fLL6VTSv7rL+P2ABo8SfdO0F7CK\nSapUPYJXWim5SNuwHUEfbnohC8VFeT6XyErFDfRPOKH2gNsqvroo+6oAvyW2\nyZqLuVYWv2FVjkdbyYwMtTYki2uYhClfbu3w3EbfGWnUNLsymXcgw6Jwfrfh\n2gvVEljD0dpwXQFLTkSo0j5NDBksOsca/ZKUZjD6IBtiAJ6tgImirfSQJ299\nLfW21kBEWEasZqW5yy1g/tXArIfOwlYej5RDuZmkSa/gTJg5YSnX4/WjyJSG\n9lKLTFujOmqEP02hVnOAbThC21vrVl/+7gc6v+dWugFCzf8cyNhTtUTNP0k9\nX53/V4NP4GC/rQXK3kyuGY3PdDxfxnAWFjqLylnTV1SdAHNvdtXieXMDtlkC\nkrFNjBuxL40lhff0HkTQlaXjZ2jQx5nrQE3HdmVUbsqCHbzdhHk8qkPjfTVS\nYx20odQJm/3LsG0dZQWKlnE4vliz5TuDsrJUDN6UCF5mF8vUyUxXmynHCSaX\nePCyrotNdUj8hdHu1i/+TK8Gkw6GZ6gXB6MtS8QENlrJlJJesrCoAu+QJ7TR\nzkOoCxLygnwjE9idk6MSZXlxEXbQdo6MTwGUIiKvFIGwRgjdqKEq9eZ1z0jO\n5vxf0NQpNc8X3+UYpZBGaoH+5zOXPMG9VM/ZPx7Qh9cy4Kmrfn79AaqGs3Zl\nGyMyqC8+dFXF9if7AHYfDlbvyUz8sCIQ4/rNmRwWFdIjW/FdmTOQvU1wl153\nQzNHmROYAxSdof8RSBxbICPio3l+2BLjgz3cdI+T+dNES6pcEFIfYJpFgiNh\nqDdj2Qs56UClVi6G+ah+uhTflc5CSraPtxdP2XWwBgCyADW+qhj7F6jeoD8V\nDgLtl1dpEIQeAmE1Edba/hsPjKpS1DTrl7S+j9kaWOq2KyzkMZY+lFjDbuXd\n9Co4zSQIoMkesZhmXcCrP5m5rX95AeNBM1142Kh8j1LS/QRSst+PhWvqTWbd\n2Be8BUUl7sgakZ9xzsIr8tqna1UiLinX3MzlH4yadvdcKgWCe5zhwUanSikA\nucoBwWRsTmvmx2U8aRBSEpFjzSJNzpAdzR4NDwHxnGsYV7VbU7ot9ZY0lATh\nmlSQmEL5zRP25Bg3zErae4dAE2Kk+at3zFuzEZc58/5XX4Hynb9QXt5nKJNi\nEkqJg+310076LEQjIyZKn1gdvnBgy/+ZF3jxpzt++/4YtTinypNMtDmyIhzC\nZsJ+lQCJsA9btBUmkTFYRWpZa5PrnVeXlku9azorzePIl89wb/ElMtHc11Ku\nSVt8NrY8QFsTiuKazz+5wpgwj+0k0J2n/5Xzxq2paIc0I8gx44k531VsfbuW\nIoGEJJA6P6ILPzVTHFDsBaqOiAzdKT4j2eh4TEduh2tEjPZgcCAorVG5zcTV\nhVVi6LqCnBtpOCLPAsdcVdmsTFL6rXPyn+1DgfSv82eBvSnriS+BozqMJ82R\nzjRGLZv4Xt91OM9AvXNSwJgj+vTYPQrmBIlu8dn6IkRegWFpWRUt4RZ17UoT\nTES8XD6T3JWaTEu7DyfnyZPC7wsfpu6Bvvlc9V6VBgbCiwzFglNfRjkSzBcx\ny5PA5WSfxuxGmCjjjvO1dh8dmNFew75935eAus1bur1kIYANwaUY0OLewtTV\nASn8wJ3NHtmTukz9NtykzAIQ4vijiAW2xtQDOLKyp9i+Dh3xvinQjnnJxRtv\n8+/PX0I0/JSEJqmmeR1IYK8YdxTCIkvnHafrdVkHMTz/0HTaif0BzH8KivP1\nn0WkTbNnd0fWpjkJ/v0gRN8oaIPry2hAu0W2H8ppaYJPt3akCQyt6vBM2E5C\nwD3uq3hdkAWk7WUDuM5mu/8f4t2lGmFnZwtA7lc4OpE/XS3KmylW3W08RlJW\nvz2uGXjaw6AYgOidCeea2vzz8xbSdUDxEeOfC2DHL2gQv45O7e1p1hnyhBOi\n7twyTRq37DxyaImTplvqkiIVtW/OaAcIvN3GWHhkVvdpzdmYgclwx2jF6ZN/\n4jI+RUKdms+iMJHIRGaAARb+RCiDn+DgTzQkr264pDyrBw2sQ/Iu9v3YwBff\nKlx5v+H0ksjUvmeHm9dckclrK1Owte28kG3Q/5AGXGL+6/hEUHIQ5bf2ON21\nbOz3CbEdzF4v0MuzjVyrf/AB6VNH1zznxwegfbseta8gwHVODImbhY9KlplX\noBm/SJm0/mPzRHqW/fBOD5rLA6+eUdjLjxYxIB29es4OeEiNJiZjE46uO0DG\nz6+1AzMg/LDA0GVCbyiRKMy/sHl8esr7hBe/VbTxeCvcwAt/O82IsLRdZ70F\nc9txjz161g0TYiDp2qHAo4cwjgWurf8Mk0Igv2Zf/ZLZN7FqTkEKB/+WU5Bv\nZrSPU3u/GNaCJnNmw2yQ1hSZcKQ0b9/iSUh3S9xXuEkjE/EWUMC2lCXMJc/N\nhYFWStbHuspH77KZfHXHO/0gDTG0hVLhFGorLGHkT0zDECXCTmzBMdtGA9Zn\nwNE0gBalUsN9KCOV/JsbANloKw4d1J6cgAcVobvmTJkR0YuPwi2DAadj+PL6\naCef/gTizRayPFcaNMuGP5rEbxgEWcxIWGzoH7LTJeBfmFgwQjerNZq34dSP\nFwdx/TaD5s0NoFVn0LvYw2GG47qnUshf5Q90X9Bv/0ojqnkTyocmmuwpjup5\n/RKBqs7XYQhWfgQTbllUBUv2pRhaoCWVwbaw08NEbrTgGNoEV2BLL0UIvpnB\nZNtEuKVC44diQuhaWg50nRfnCPvS0TKzHPo9Q48lkQ6VtHZwDtrPUm65OJ/r\nR3igPddfdiz3vN6E89VIbYj+kwgLOoidXzi5ab4vwOnBY/lfSu7H8KAtkni0\nDOOC6c9AJhoB1OKK63GdbZgu1Cv0m4DRAb7TvDIUmjAgjYx0F4WSWt3HfPuZ\n47jbSvVRwa7nqqNp5vQlBSq1hq2DdD9fA5+yUuSXxbMqnOiMB691IG1rescR\ny+lRB66d42g5046xDCVMhUznCWworecfk/qmf0AHDyYw/QgQS654LEOKaKfb\nV2pgUtjKE/FjDdco95B6VVbjTANFcffGMPUPGmGH8Ug5iCuSHKH8QwTEtnNA\nIWquSbiuzQEgLu6wVwvMnypaES9Q/gJOttdSij3v9b6f2XXkTU1uOUSQIHuI\n3Gd6Sm+SIJ3QW6RQhzV26boAn3evdnAY4pLesxjHaI2i+5JOh2QMTtWI/XKh\nE8s6slxW2igRjtqKhWRl1kusDkfbmeXf8FKhTjTpRliaBXY3qG5iSvrFeeiU\nPPLqaX2MnVzIU91s0vkHCORwVg8CBGyRRruJls6JnklpetL7yUBOyYYCj1fX\ntlrLBHM9hsdnWvzXA07pfFAWJOf4Z3lig4vc6YOCVJeRQpPMtvVtM4JB1vKf\nRnT8mO7YtJffOLLoRfa4fnEoyTOjYrfuEFN+HICoPbEwrA==\n",
    "start_sources": {
      "NeighborhoodRunner.java": {
        "text": "import org.code.neighborhood.*;\n\npublic class NeighborhoodRunner {\n  public static void main(String[] args) {\n\n    /* ----------------------------------- TO DO -----------------------------------\n     * ✅ Write the TrophyPainter class to create a mural of a trophy.\n     * Then, instantiate a TropyPainter object and paint the mural.\n     * -----------------------------------------------------------------------------\n     */\n\n    \n\n\n\n\n\n    \n    \n  }\n}",
        "isVisible": true,
        "tabOrder": 0
      },
      "MuralPainter.java": {
        "text": "import org.code.neighborhood.*;\n\n/*\n * MuralPainter is a PainterPlus that paints\n * murals in The Neighborhood\n */\npublic class MuralPainter extends PainterPlus {\n\n  /*\n   * Paints each row of The Neighborhood with the color\n   * where size is the size of the grid\n   */\n  public void paintBackground(String color, int size) {\n    while (canMove(\"south\")) {\n      paintLine(color, size);\n      turnToWest();\n\n      if (canMove(\"south\")) {\n        paintLine(color, size);\n        turnToEast();\n      }\n    }\n\n    paintLine(color, size);\n    turnAround();\n    moveToCorner();\n  }\n\n  /*\n   * Paints a line with the color where the length\n   * of the line is specified by spaces\n   */\n  public void paintLine(String color, int spaces) {\n    setPaint(spaces);\n\n    while (hasPaint()) {\n      paint(color);\n\n      if (canMove()) {\n        move();\n      }\n    }\n  }\n\n  /*\n   * Turns the MuralPainter to the next row to\n   * face west if it is currently facing east\n   */\n  public void turnToWest() {\n    if (isFacingEast()) {\n      turnRight();\n      move();\n      turnRight();\n    }\n  }\n\n  /*\n   * Turns the MuralPainter to the next row to\n   * face east if it is currently facing west\n   */\n  public void turnToEast() {\n    if (isFacingWest()) {\n      turnLeft();\n      move();\n      turnLeft();\n    }\n  }\n\n  /*\n   * Turns the MuralPainter around to face the opposite direction\n   */\n  public void turnAround() {\n    turnLeft();\n    turnLeft();\n  }\n\n  /*\n   * Resets the MuralPainter object to the starting location\n   */\n  public void resetPosition() {\n    if (isFacingEast()) {\n      turnLeft();\n\n      while (canMove()) {\n        move();\n      }\n\n      turnLeft();\n\n      while (canMove()) {\n        move();\n      }\n\n      turnAround();\n    }\n  }\n\n  /*\n   * Moves the MuralPainter to the bottom right corner\n   */\n  public void moveToCorner() {\n    while (canMove()) {\n      move();\n    }\n    \n    turnRight();\n\n    while (canMove()) {\n      move();\n    }\n  }\n  \n}",
        "isVisible": true,
        "tabOrder": 1
      },
      "TrophyPainter.java": {
        "text": "import org.code.neighborhood.*;\n\npublic class TrophyPainter {\n\n\n\n\n\n  \n}",
        "isVisible": true,
        "tabOrder": 2
      }
    },
    "display_name": "The TrophyPainter",
    "bubble_choice_description": "The `Painter` is volunteering at an upcoming marathon, and they need help painting a mural of a trophy to mark the finish line.",
    "thumbnail_url": "https://images.code.org/a169122701494bfbfcf0a1de055f43d3-U1L11-L3d.png",
    "encrypted_examples": [

    ]
  },
  "game_id": 68,
  "published": true,
  "created_at": "2022-10-21T19:18:31.000Z",
  "level_num": "custom",
  "user_id": 16889,
  "audit_log": "[{\"changed_at\":\"2022-10-21T19:18:31.064+00:00\",\"changed\":[\"cloned from \\\"CSA U1L11-L3c_2023\\\"\"],\"cloned_from\":\"CSA U1L11-L3c_2023\"},{\"changed_at\":\"2022-10-21 19:18:32 +0000\",\"changed\":[],\"changed_by_id\":16889,\"changed_by_email\":\"jamila+lb@code.org\"},{\"changed_at\":\"2022-10-22 15:27:38 +0000\",\"changed\":[\"csa_view_mode\",\"encrypted_examples\"],\"changed_by_id\":16889,\"changed_by_email\":\"jamila+lb@code.org\"},{\"changed_at\":\"2022-10-22 18:47:20 +0000\",\"changed\":[\"encrypted_examples\",\"long_instructions\",\"serialized_maze\"],\"changed_by_id\":16889,\"changed_by_email\":\"jamila+lb@code.org\"},{\"changed_at\":\"2022-10-23 13:10:30 +0000\",\"changed\":[],\"changed_by_id\":16889,\"changed_by_email\":\"jamila+lb@code.org\"},{\"changed_at\":\"2022-10-23 13:13:23 +0000\",\"changed\":[\"start_sources\"],\"changed_by_id\":16889,\"changed_by_email\":\"jamila+lb@code.org\"},{\"changed_at\":\"2022-10-23 13:13:57 +0000\",\"changed\":[],\"changed_by_id\":16889,\"changed_by_email\":\"jamila+lb@code.org\"},{\"changed_at\":\"2022-10-23 13:23:10 +0000\",\"changed\":[\"start_sources\"],\"changed_by_id\":16889,\"changed_by_email\":\"jamila+lb@code.org\"},{\"changed_at\":\"2022-10-23 13:23:11 +0000\",\"changed\":[],\"changed_by_id\":16889,\"changed_by_email\":\"jamila+lb@code.org\"},{\"changed_at\":\"2022-10-23 13:23:23 +0000\",\"changed\":[\"encrypted_validation\",\"start_sources\"],\"changed_by_id\":16889,\"changed_by_email\":\"jamila+lb@code.org\"},{\"changed_at\":\"2022-10-25 15:56:34 +0000\",\"changed\":[\"bubble_choice_description\",\"serialized_maze\",\"contained_level_names\"],\"changed_by_id\":16889,\"changed_by_email\":\"jamila+lb@code.org\"},{\"changed_at\":\"2022-10-26 15:05:26 +0000\",\"changed\":[\"hide_share_and_remix\",\"serialized_maze\",\"contained_level_names\"],\"changed_by_id\":16889,\"changed_by_email\":\"jamila+lb@code.org\"},{\"changed_at\":\"2022-10-28 16:23:49 +0000\",\"changed\":[\"display_name\",\"long_instructions\",\"bubble_choice_description\",\"thumbnail_url\",\"serialized_maze\",\"contained_level_names\"],\"changed_by_id\":16889,\"changed_by_email\":\"jamila+lb@code.org\"},{\"changed_at\":\"2022-10-28 16:38:00 +0000\",\"changed\":[\"long_instructions\",\"serialized_maze\",\"encrypted_examples\"],\"changed_by_id\":16889,\"changed_by_email\":\"jamila+lb@code.org\"},{\"changed_at\":\"2022-10-28 17:55:04 +0000\",\"changed\":[\"long_instructions\",\"serialized_maze\",\"encrypted_examples\"],\"changed_by_id\":16889,\"changed_by_email\":\"jamila+lb@code.org\"},{\"changed_at\":\"2022-10-30 01:10:48 +0000\",\"changed\":[\"encrypted_validation\",\"start_sources\"],\"changed_by_id\":16889,\"changed_by_email\":\"jamila+lb@code.org\"},{\"changed_at\":\"2022-10-30 12:27:19 +0000\",\"changed\":[\"start_sources\"],\"changed_by_id\":16889,\"changed_by_email\":\"jamila+lb@code.org\"},{\"changed_at\":\"2022-10-30 12:28:10 +0000\",\"changed\":[\"start_sources\"],\"changed_by_id\":16889,\"changed_by_email\":\"jamila+lb@code.org\"},{\"changed_at\":\"2022-10-30 12:29:36 +0000\",\"changed\":[],\"changed_by_id\":16889,\"changed_by_email\":\"jamila+lb@code.org\"},{\"changed_at\":\"2022-10-30 12:30:00 +0000\",\"changed\":[\"long_instructions\",\"serialized_maze\"],\"changed_by_id\":16889,\"changed_by_email\":\"jamila+lb@code.org\"},{\"changed_at\":\"2022-10-30 14:25:28 +0000\",\"changed\":[\"long_instructions\",\"serialized_maze\",\"encrypted_examples\"],\"changed_by_id\":16889,\"changed_by_email\":\"jamila+lb@code.org\"},{\"changed_at\":\"2022-10-30 14:33:46 +0000\",\"changed\":[\"encrypted_exemplar_sources\"],\"changed_by_id\":16889,\"changed_by_email\":\"jamila+lb@code.org\"},{\"changed_at\":\"2022-10-30 14:34:06 +0000\",\"changed\":[\"start_sources\"],\"changed_by_id\":16889,\"changed_by_email\":\"jamila+lb@code.org\"},{\"changed_at\":\"2022-10-30 14:46:41 +0000\",\"changed\":[\"start_sources\"],\"changed_by_id\":16889,\"changed_by_email\":\"jamila+lb@code.org\"},{\"changed_at\":\"2022-10-30 18:30:29 +0000\",\"changed\":[\"encrypted_exemplar_sources\"],\"changed_by_id\":16889,\"changed_by_email\":\"jamila+lb@code.org\"},{\"changed_at\":\"2022-10-30 18:32:09 +0000\",\"changed\":[\"start_sources\"],\"changed_by_id\":16889,\"changed_by_email\":\"jamila+lb@code.org\"},{\"changed_at\":\"2022-11-02 15:38:41 +0000\",\"changed\":[\"start_sources\"],\"changed_by_id\":16889,\"changed_by_email\":\"jamila+lb@code.org\"},{\"changed_at\":\"2022-11-02 15:38:47 +0000\",\"changed\":[\"encrypted_exemplar_sources\"],\"changed_by_id\":16889,\"changed_by_email\":\"jamila+lb@code.org\"},{\"changed_at\":\"2022-11-04 13:50:58 +0000\",\"changed\":[\"start_sources\"],\"changed_by_id\":16889,\"changed_by_email\":\"jamila+lb@code.org\"},{\"changed_at\":\"2022-11-04 13:51:03 +0000\",\"changed\":[\"encrypted_exemplar_sources\"],\"changed_by_id\":16889,\"changed_by_email\":\"jamila+lb@code.org\"},{\"changed_at\":\"2022-11-22 16:49:23 +0000\",\"changed\":[\"long_instructions\",\"serialized_maze\",\"contained_level_names\"],\"changed_by_id\":16889,\"changed_by_email\":\"jamila+lb@code.org\"},{\"changed_at\":\"2022-11-22 16:54:35 +0000\",\"changed\":[\"long_instructions\",\"serialized_maze\",\"encrypted_examples\"],\"changed_by_id\":16889,\"changed_by_email\":\"jamila+lb@code.org\"},{\"changed_at\":\"2023-03-08 20:59:17 +0000\",\"changed\":[\"long_instructions\",\"serialized_maze\",\"contained_level_names\"],\"changed_by_id\":16889,\"changed_by_email\":\"jamila+lb@code.org\"},{\"changed_at\":\"2023-03-09 21:21:04 +0000\",\"changed\":[\"long_instructions\",\"serialized_maze\",\"contained_level_names\"],\"changed_by_id\":16889,\"changed_by_email\":\"jamila+lb@code.org\"}]"
}]]></config>
</Javalab>
